%!PS-Adobe-3.0
%%Title: MATLAB
%%Creator: PScript5.dll Version 5.2.2
%%CreationDate: 10/21/2011 13:31:44
%%For: MrOrz
%%BoundingBox: (atend)
%%Pages: (atend)
%%Orientation: Portrait
%%PageOrder: Special
%%DocumentNeededResources: (atend)
%%DocumentSuppliedResources: (atend)
%%DocumentData: Clean7Bit
%%TargetDevice: () (52.3) 320
%%LanguageLevel: 1
%%EndComments

%%BeginDefaults
%%PageBoundingBox: 0 0 595 842
%%ViewingOrientation: 1 0 0 1
%%EndDefaults


%%BeginProlog
%%BeginResource: file Pscript_WinNT_ErrorHandler 5.0 0
/currentpacking where{pop/oldpack currentpacking def/setpacking where{pop false
setpacking}if}if/$brkpage 64 dict def $brkpage begin/prnt{dup type/stringtype
ne{=string cvs}if dup length 6 mul/tx exch def/ty 10 def currentpoint/toy exch
def/tox exch def 1 setgray newpath tox toy 2 sub moveto 0 ty rlineto tx 0
rlineto 0 ty neg rlineto closepath fill tox toy moveto 0 setgray show}bind def
/nl{currentpoint exch pop lmargin exch moveto 0 -10 rmoveto}def/=={/cp 0 def
typeprint nl}def/typeprint{dup type exec}readonly def/lmargin 72 def/rmargin 72
def/tprint{dup length cp add rmargin gt{nl/cp 0 def}if dup length cp add/cp
exch def prnt}readonly def/cvsprint{=string cvs tprint( )tprint}readonly def
/integertype{cvsprint}readonly def/realtype{cvsprint}readonly def/booleantype
{cvsprint}readonly def/operatortype{(--)tprint =string cvs tprint(-- )tprint}
readonly def/marktype{pop(-mark- )tprint}readonly def/dicttype{pop
(-dictionary- )tprint}readonly def/nulltype{pop(-null- )tprint}readonly def
/filetype{pop(-filestream- )tprint}readonly def/savetype{pop(-savelevel- )
tprint}readonly def/fonttype{pop(-fontid- )tprint}readonly def/nametype{dup
xcheck not{(/)tprint}if cvsprint}readonly def/stringtype{dup rcheck{(\()tprint
tprint(\))tprint}{pop(-string- )tprint}ifelse}readonly def/arraytype{dup rcheck
{dup xcheck{({)tprint{typeprint}forall(})tprint}{([)tprint{typeprint}forall(])
tprint}ifelse}{pop(-array- )tprint}ifelse}readonly def/packedarraytype{dup
rcheck{dup xcheck{({)tprint{typeprint}forall(})tprint}{([)tprint{typeprint}
forall(])tprint}ifelse}{pop(-packedarray- )tprint}ifelse}readonly def/courier
/Courier findfont 10 scalefont def end errordict/handleerror{systemdict begin
$error begin $brkpage begin newerror{/newerror false store vmstatus pop pop 0
ne{grestoreall}if errorname(VMerror)ne{showpage}if initgraphics courier setfont
lmargin 720 moveto errorname(VMerror)eq{userdict/ehsave known{clear userdict
/ehsave get restore 2 vmreclaim}if vmstatus exch pop exch pop PrtVMMsg}{
(ERROR: )prnt errorname prnt nl(OFFENDING COMMAND: )prnt/command load prnt
$error/ostack known{nl nl(STACK:)prnt nl nl $error/ostack get aload length{==}
repeat}if}ifelse systemdict/showpage get exec(%%[ Error: )print errorname
=print(; OffendingCommand: )print/command load =print( ]%%)= flush}if end end
end}dup 0 systemdict put dup 4 $brkpage put bind readonly put/currentpacking
where{pop/setpacking where{pop oldpack setpacking}if}if
%%EndResource
%%BeginProcSet: Pscript_Res_Emul 5.0 0
/defineresource where{pop}{userdict begin/defineresource{userdict/Resources 2
copy known{get begin}{15 dict dup begin put}ifelse exch readonly exch
currentdict 1 index known not{dup 30 dict def}if load 3 -1 roll 2 index put
end}bind readonly def/findresource{userdict/Resources get exch get exch get}
bind readonly def/resourceforall{pop pop pop pop}bind readonly def
/resourcestatus{userdict/Resources 2 copy known{get exch 2 copy known{get exch
known{0 -1 true}{false}ifelse}{pop pop pop false}ifelse}{pop pop pop pop false}
ifelse}bind readonly def end}ifelse
%%EndProcSet
userdict /Pscript_WinNT_Incr 230 dict dup begin put
%%BeginResource: file Pscript_FatalError 5.0 0
userdict begin/FatalErrorIf{{initgraphics findfont 1 index 0 eq{exch pop}{dup
length dict begin{1 index/FID ne{def}{pop pop}ifelse}forall/Encoding
{ISOLatin1Encoding}stopped{StandardEncoding}if def currentdict end
/ErrFont-Latin1 exch definefont}ifelse exch scalefont setfont counttomark 3 div
cvi{moveto show}repeat showpage quit}{cleartomark}ifelse}bind def end
%%EndResource
userdict begin/PrtVMMsg{vmstatus exch sub exch pop gt{[
(This job requires more memory than is available in this printer.)100 500
(Try one or more of the following, and then print again:)100 485
(For the output format, choose Optimize For Portability.)115 470
(In the Device Settings page, make sure the Available PostScript Memory is accurate.)
115 455(Reduce the number of fonts in the document.)115 440
(Print the document in parts.)115 425 12/Times-Roman[/MSung-Light--ETen-B5-H
dup{findfont}stopped{cleartomark}{/FontName get eq{pop cleartomark[
<b8d3a4e5a5f3bbddad6ea5ceaabaa4baa673a4d3a6682e20b17aa569a548b8d5a5cea670a455aa
baa4e8aa6ba641a5b4a64ca147>100 500<a66222506f737453637269707422b9efb8dcaed82c
20bfefbedc22506f737453637269707428a569c4e2a9cab3cca8cea4c6202d2041445343292e>
115 485<a66222b35db3c6bfefb6b522b9efb8dcaed82c2022a569a5ceaabaa64caaedbef7b04f
bed0c5e9284b422922aabaadc8ac4fbaebbd54aaba2e>115 470<a662a4e5a5f3a4a4a4d6a5ce
a44cbad8a672c5e92e>115 455<b3e6bf57a5b4a64cb8d3a4e5a5f3aabaa4a3a650b3a1a4c0a9
ceadb62e>115 440 10 0/MSung-Light--ETen-B5-H}{cleartomark}ifelse}ifelse
showpage(%%[ PrinterError: Low Printer VM ]%%)= true FatalErrorIf}if}bind def
end version cvi 2016 ge{/VM?{pop}bind def}{/VM? userdict/PrtVMMsg get def}
ifelse
105000 VM?
%%BeginResource: file Pscript_Win_Basic 5.0 0
/d/def load def/,/load load d/~/exch , d/?/ifelse , d/!/pop , d/`/begin , d/^
/index , d/@/dup , d/+/translate , d/$/roll , d/U/userdict , d/M/moveto , d/-
/rlineto , d/&/currentdict , d/:/gsave , d/;/grestore , d/F/false , d/T/true ,
d/N/newpath , d/E/end , d/Ac/arc , d/An/arcn , d/A/ashow , d/D/awidthshow , d/C
/closepath , d/V/div , d/O/eofill , d/L/fill , d/I/lineto , d/-c/curveto , d/-M
/rmoveto , d/+S/scale , d/Ji/setfont , d/Lc/setlinecap , d/Lj/setlinejoin , d
/Lw/setlinewidth , d/Lm/setmiterlimit , d/sd/setdash , d/S/show , d/LH/showpage
, d/K/stroke , d/W/widthshow , d/R/rotate , d/L2? false/languagelevel where{pop
languagelevel 2 ge{pop true}if}if d L2?{/xS/xshow , d/yS/yshow , d/zS/xyshow ,
d}if/b{bind d}bind d/bd{bind d}bind d/xd{~ d}bd/ld{, d}bd/bn/bind ld/lw/Lw ld
/lc/Lc ld/lj/Lj ld/sg/setgray ld/ADO_mxRot null d/self & d/OrgMx matrix
currentmatrix d/reinitialize{: OrgMx setmatrix[/TextInit/GraphInit/UtilsInit
counttomark{@ where{self eq}{F}?{cvx exec}{!}?}repeat cleartomark ;}b
/initialize{`{/Pscript_Win_Data where{!}{U/Pscript_Win_Data & put}?/ADO_mxRot ~
d/TextInitialised? F d reinitialize E}{U/Pscript_Win_Data 230 dict @ ` put
/ADO_mxRot ~ d/TextInitialised? F d reinitialize}?}b/terminate{!{& self eq
{exit}{E}?}loop E}b/suspend/terminate , d/resume{` Pscript_Win_Data `}b U `
/lucas 21690 d/featurebegin{countdictstack lucas[}b/featurecleanup{stopped
{cleartomark @ lucas eq{! exit}if}loop countdictstack ~ sub @ 0 gt{{E}repeat}
{!}?}b E/snap{transform 0.25 sub round 0.25 add ~ 0.25 sub round 0.25 add ~
itransform}b/dsnap{dtransform round ~ round ~ idtransform}b/nonzero_round{@ 0.5
ge{round}{@ -0.5 lt{round}{0 ge{1}{-1}?}?}?}b/nonzero_dsnap{dtransform
nonzero_round ~ nonzero_round ~ idtransform}b U<04>cvn{}put/rr{1 ^ 0 - 0 ~ -
neg 0 - C}b/irp{4 -2 $ + +S fx 4 2 $ M 1 ^ 0 - 0 ~ - neg 0 -}b/rp{4 2 $ M 1 ^ 0
- 0 ~ - neg 0 -}b/solid{[]0 sd}b/g{@ not{U/DefIf_save save put}if U/DefIf_bool
2 ^ put}b/DefIf_El{if U/DefIf_bool get not @{U/DefIf_save get restore}if}b/e
{DefIf_El !}b/UDF{L2?{undefinefont}{!}?}b/UDR{L2?{undefineresource}{! !}?}b
/freeVM{/Courier findfont[40 0 0 -40 0 0]makefont Ji 2 vmreclaim}b/hfRedefFont
{findfont @ length dict `{1 ^/FID ne{d}{! !}?}forall & E @ ` ~{/CharStrings 1
dict `/.notdef 0 d & E d}if/Encoding 256 array 0 1 255{1 ^ ~/.notdef put}for d
E definefont !}bind d/hfMkCIDFont{/CIDFont findresource @ length 2 add dict `{1
^ @/FID eq ~ @/XUID eq ~/UIDBase eq or or{! !}{d}?}forall/CDevProc ~ d/Metrics2
16 dict d/CIDFontName 1 ^ d & E 1 ^ ~/CIDFont defineresource ![~]composefont !}
bind d
%%EndResource
%%BeginResource: file Pscript_Win_Utils_L1 5.0 0
/rf{N rp L}b/fx{1 1 dtransform @ 0 ge{1 sub 1}{1 add -0.25}? 3 -1 $ @ 0 ge{1
sub 1}{1 add -0.25}? 3 1 $ 4 1 $ idtransform 4 -2 $ idtransform}b/BZ{4 -2 $
snap + +S fx rf}b/rs{N rp C K}b/rc{N rp clip N}b/UtilsInit{}b/setcolorspace{!}b
/scol{[/setgray/setrgbcolor/setcolor/setcmykcolor/setcolor/setgray]~ get cvx
exec}b/colspRefresh{}b/AddFontInfoBegin{/FontInfo 8 dict @ `}bind d/AddFontInfo
{/GlyphNames2Unicode 16 dict d/GlyphNames2HostCode 16 dict d}bind d
/AddFontInfoEnd{E d}bind d
%%EndResource
end
%%EndProlog

%%BeginSetup
statusdict begin (%%[ ProductName: ) print product print ( ]%%)= flush end
[ 1 0 0 1 0 0 ] false Pscript_WinNT_Incr dup /initialize get exec
featurebegin{
%%BeginNonPPDFeature: JobTimeout 0
0 /languagelevel where{pop languagelevel}{1}ifelse 2 ge{1 dict dup/JobTimeout  4 -1 roll put setuserparams}{statusdict/setjobtimeout get exec}ifelse
%%EndNonPPDFeature
}featurecleanup

featurebegin{
%%BeginNonPPDFeature: WaitTimeout 300
300 /languagelevel where{pop languagelevel}{1}ifelse 2 ge{1 dict dup/WaitTimeout 4 -1 roll put setuserparams}{statusdict/waittimeout 3 -1 roll put}ifelse
%%EndNonPPDFeature
}featurecleanup

featurebegin{
%%BeginFeature: *Resolution 600dpi

%%EndFeature
}featurecleanup
featurebegin{
%%BeginFeature: *PageSize A4
a4
%%EndFeature
}featurecleanup
1 setlinecap 1 setlinejoin
/mysetup [ 72 600 V 0 0 -72 600 V 0 842.0003 ] def 
%%EndSetup

userdict begin /VMsave save def end
%%Page: 1 1
%%PageBoundingBox: 0 0 595 842
%%EndPageComments
%%BeginPageSetup
/DeviceRGB dup setcolorspace /colspABC exch def
mysetup concat colspRefresh
%%EndPageSetup

Pscript_WinNT_Incr begin
%%BeginResource: file Pscript_Win_GdiObject 5.0 0
/SavedCTM null d/CTMsave{/SavedCTM SavedCTM currentmatrix d}b/CTMrestore
{SavedCTM setmatrix}b/mp null d/ADO_mxRot null d/GDIHMatrix null d
/GDIHPatternDict 22 dict d GDIHPatternDict `/PatternType 1 d/PaintType 2 d/Reps
L2?{1}{5}? d/XStep 8 Reps mul d/YStep XStep d/BBox[0 0 XStep YStep]d/TilingType
1 d/PaintProc{` 1 Lw[]0 sd PaintData , exec E}b/FGnd null d/BGnd null d
/HS_Horizontal{horiz}b/HS_Vertical{vert}b/HS_FDiagonal{fdiag}b/HS_BDiagonal
{biag}b/HS_Cross{horiz vert}b/HS_DiagCross{fdiag biag}b/MaxXYStep XStep YStep
gt{XStep}{YStep}? d/horiz{Reps{0 4 M XStep 0 - 0 8 +}repeat 0 -8 Reps mul + K}b
/vert{Reps{4 0 M 0 YStep - 8 0 +}repeat 0 -8 Reps mul + K}b/biag{Reps{0 0 M
MaxXYStep @ - 0 YStep neg M MaxXYStep @ - 0 8 +}repeat 0 -8 Reps mul + 0 YStep
M 8 8 - K}b/fdiag{Reps{0 0 M MaxXYStep @ neg - 0 YStep M MaxXYStep @ neg - 0 8
+}repeat 0 -8 Reps mul + MaxXYStep @ M 8 -8 - K}b E/makehatch{4 -2 $/yOrg ~ d
/xOrg ~ d GDIHPatternDict/PaintData 3 -1 $ put CTMsave GDIHMatrix setmatrix
GDIHPatternDict matrix xOrg yOrg + mp CTMrestore ~ U ~ 2 ^ put}b/h0{/h0
/HS_Horizontal makehatch}b/h1{/h1/HS_Vertical makehatch}b/h2{/h2/HS_FDiagonal
makehatch}b/h3{/h3/HS_BDiagonal makehatch}b/h4{/h4/HS_Cross makehatch}b/h5{/h5
/HS_DiagCross makehatch}b/GDIBWPatternMx null d/pfprep{save 8 1 $
/PatternOfTheDay 8 1 $ GDIBWPatternDict `/yOrg ~ d/xOrg ~ d/PaintData ~ d/yExt
~ d/Width ~ d/BGnd ~ d/FGnd ~ d/Height yExt RepsV mul d/mx[Width 0 0 Height 0
0]d E build_pattern ~ !}b/pfbf{/fEOFill ~ d pfprep hbf fEOFill{O}{L}? restore}b
/GraphInit{GDIHMatrix null eq{/SavedCTM matrix d : ADO_mxRot concat 0 0 snap +
: 0.48 @ GDIHPatternDict ` YStep mul ~ XStep mul ~ nonzero_dsnap YStep V ~
XStep V ~ E +S/GDIHMatrix matrix currentmatrix readonly d ; : 0.24 -0.24 +S
GDIBWPatternDict ` Width Height E nonzero_dsnap +S/GDIBWPatternMx matrix
currentmatrix readonly d ; ;}if}b
%%EndResource
%%BeginResource: file Pscript_Win_GdiObject_L1 5.0 0
/GDIBWPatternDict 25 dict @ `/PatternType 1 d/PaintType 2 d/RepsV 6 d/RepsH 5 d
/BBox[0 0 RepsH 1]d/TilingType 1 d/XStep 1 d/YStep 1 d/Height 8 RepsV mul d
/Width 8 d/mx[Width 0 0 Height neg 0 Height]d/FGnd null d/BGnd null d
/SetBGndFGnd{}b/PaintProc{` SetBGndFGnd RepsH{Width Height F mx PaintData
imagemask Width 0 +}repeat E}b E d/GDIpattfill{@ ` BGnd null ne PaintType 2 eq
and{: BGnd aload ! scol fEOFill{O}{L}? ; FGnd aload ! U/iCol 2 ^ put @ 0 eq{!
2}{@ 1 eq ~ 2 eq or{4}{5}?}? -1 $}if E @ patterncalc : 4 ^/PaintType get 2 eq
{iCol 0 eq{6 -1 $}if iCol 1 eq iCol 2 eq or{8 -3 $}if iCol 3 eq iCol 4 eq or{9
-4 $}if iCol scol}if fEOFill{eoclip}{clip}? N patternfill ; N}b/hbf
{GDIpattfill}b/hfMain{/fEOFill ~ d ~/iCol ~ d GDIpattfill}b/hf{: hfMain ;}b
/mpstr 1 string d/mp{~ @ length 12 add dict copy `/PatternCTM matrix
currentmatrix d/PatternMatrix ~ d/PatWidth XStep mpstr length mul d/PatHeight
YStep d/FontType 3 d/Encoding 256 array d 3 string 0 1 255{Encoding ~ @ 3 ^ cvs
cvn put}for !/FontMatrix matrix d/FontBBox BBox d/BuildChar{! @ ` XStep 0
FontBBox aload ! setcachedevice/PaintProc , E : exec ;}b & E ~ @ 3 -1 $
definefont}b/build_pattern{: GDIBWPatternDict ` Width Height E dsnap +S
/GDIBWPatternMx matrix currentmatrix d ; CTMsave GDIBWPatternMx setmatrix
GDIBWPatternDict @ ` xOrg yOrg E matrix + mp CTMrestore}b/patterncalc{` :
PatternCTM setmatrix PatternMatrix concat BBox aload ! ! ! + pathbbox ;
PatHeight V ceiling 4 1 $ PatWidth V ceiling 4 1 $ PatHeight V floor 4 1 $
PatWidth V floor 4 1 $ 2 ^ sub cvi abs ~ 3 ^ sub cvi abs ~ 4 2 $ PatHeight mul
~ PatWidth mul ~ E}b/patternfill{5 -1 $ @ ` Ji PatternCTM setmatrix
PatternMatrix concat 0 2 ^ 2 ^ M 0 1 mpstr length 1 sub{1 ^ mpstr 3 1 $ put}for
! 2 ^{currentpoint 5 ^{mpstr S}repeat YStep add M}repeat ! ! ! ! E}b/pbf{: 14
dict `/fGray ~ d/fEOFill ~ d/yOrg ~ d/xOrg ~ d/PaintData ~ d/OutputBPP ~ d
/Height ~ d/Width ~ d/mx xOrg yOrg matrix + d fGray{/PaintProc{` Width Height
OutputBPP mx PaintData image E}b}{/PaintProc{` Width Height 8 mx PaintData F
OutputBPP 8 idiv colorimage E}b}? pathbbox fEOFill{eoclip}{clip}?/Top ~ d/Right
~ d/Bottom ~ d/Left ~ d Top Height neg Bottom 1 sub{Left Width Right 1 sub{1 ^
2 copy + & PaintProc neg ~ neg ~ +}bind for !}bind for E ;}b
%%EndResource
end reinitialize
: 150 150 4660 6715 rc : N 150 150 4661 6716 rp C 
1 1 1 1 scol  L ; ; N 429 5787 M 429 814 I 4620 814 I 4620 5787 I C 
1 1 1 1 scol  O 1 Lj 0 Lc 4 Lw solid N 429 5787 M 429 814 I 4620 814 I 4620 5787 I 429 5787 I : [ 1 0 0 1 150 150 ] concat K 
; 0 0 0 1 scol 2 Lw [ 4 33 ] 0 sd N 429 5787 M 429 814 I : [ 1 0 0 1 150 150 ] concat K 
; : N 429 814 1 1 rp C 
 L ; N 429 814 M 429 814 I : [ 1 0 0 1 150 150 ] concat K 
; : N 429 814 1 1 rp C 
 L ; N 1127 5787 M 1127 814 I : [ 1 0 0 1 150 150 ] concat K 
; : N 1127 814 1 1 rp C 
 L ; N 1127 814 M 1127 814 I : [ 1 0 0 1 150 150 ] concat K 
; : N 1127 814 1 1 rp C 
 L ; N 1826 5787 M 1826 814 I : [ 1 0 0 1 150 150 ] concat K 
; : N 1826 814 1 1 rp C 
 L ; N 1826 814 M 1826 814 I : [ 1 0 0 1 150 150 ] concat K 
; : N 1826 814 1 1 rp C 
 L ; N 2524 5787 M 2524 814 I : [ 1 0 0 1 150 150 ] concat K 
; : N 2524 814 1 1 rp C 
 L ; N 2524 814 M 2524 814 I : [ 1 0 0 1 150 150 ] concat K 
; : N 2524 814 1 1 rp C 
 L ; N 3223 5787 M 3223 814 I : [ 1 0 0 1 150 150 ] concat K 
; : N 3223 814 1 1 rp C 
 L ; N 3223 814 M 3223 814 I : [ 1 0 0 1 150 150 ] concat K 
; : N 3223 814 1 1 rp C 
 L ; N 3921 5787 M 3921 814 I : [ 1 0 0 1 150 150 ] concat K 
; : N 3921 814 1 1 rp C 
 L ; N 3921 814 M 3921 814 I : [ 1 0 0 1 150 150 ] concat K 
; : N 3921 814 1 1 rp C 
 L ; N 4620 5787 M 4620 814 I : [ 1 0 0 1 150 150 ] concat K 
; : N 4620 814 1 1 rp C 
 L ; N 4620 814 M 4620 814 I : [ 1 0 0 1 150 150 ] concat K 
; : N 4620 814 1 1 rp C 
 L ; N 429 5787 M 4620 5787 I : [ 1 0 0 1 150 150 ] concat K 
; : N 4620 5787 1 1 rp C 
 L ; N 4620 5787 M 4620 5787 I : [ 1 0 0 1 150 150 ] concat K 
; : N 4620 5787 1 1 rp C 
 L ; N 429 5289 M 4620 5289 I : [ 1 0 0 1 150 150 ] concat K 
; : N 4620 5289 1 1 rp C 
 L ; N 4620 5289 M 4620 5289 I : [ 1 0 0 1 150 150 ] concat K 
; : N 4620 5289 1 1 rp C 
 L ; N 429 4792 M 4620 4792 I : [ 1 0 0 1 150 150 ] concat K 
; : N 4620 4792 1 1 rp C 
 L ; N 4620 4792 M 4620 4792 I : [ 1 0 0 1 150 150 ] concat K 
; : N 4620 4792 1 1 rp C 
 L ; N 429 4295 M 4620 4295 I : [ 1 0 0 1 150 150 ] concat K 
; : N 4620 4295 1 1 rp C 
 L ; N 4620 4295 M 4620 4295 I : [ 1 0 0 1 150 150 ] concat K 
; : N 4620 4295 1 1 rp C 
 L ; N 429 3797 M 4620 3797 I : [ 1 0 0 1 150 150 ] concat K 
; : N 4620 3797 1 1 rp C 
 L ; N 4620 3797 M 4620 3797 I : [ 1 0 0 1 150 150 ] concat K 
; : N 4620 3797 1 1 rp C 
 L ; N 429 3300 M 4620 3300 I : [ 1 0 0 1 150 150 ] concat K 
; : N 4620 3300 1 1 rp C 
 L ; N 4620 3300 M 4620 3300 I : [ 1 0 0 1 150 150 ] concat K 
; : N 4620 3300 1 1 rp C 
 L ; N 429 2803 M 4620 2803 I : [ 1 0 0 1 150 150 ] concat K 
; : N 4620 2803 1 1 rp C 
 L ; N 4620 2803 M 4620 2803 I : [ 1 0 0 1 150 150 ] concat K 
; : N 4620 2803 1 1 rp C 
 L ; N 429 2305 M 4620 2305 I : [ 1 0 0 1 150 150 ] concat K 
; : N 4620 2305 1 1 rp C 
 L ; N 4620 2305 M 4620 2305 I : [ 1 0 0 1 150 150 ] concat K 
; : N 4620 2305 1 1 rp C 
 L ; N 429 1808 M 4620 1808 I : [ 1 0 0 1 150 150 ] concat K 
; : N 4620 1808 1 1 rp C 
 L ; N 4620 1808 M 4620 1808 I : [ 1 0 0 1 150 150 ] concat K 
; : N 4620 1808 1 1 rp C 
 L ; N 429 1311 M 4620 1311 I : [ 1 0 0 1 150 150 ] concat K 
; : N 4620 1311 1 1 rp C 
 L ; N 4620 1311 M 4620 1311 I : [ 1 0 0 1 150 150 ] concat K 
; : N 4620 1311 1 1 rp C 
 L ; N 429 814 M 4620 814 I : [ 1 0 0 1 150 150 ] concat K 
; : N 4620 814 1 1 rp C 
 L ; N 4620 814 M 4620 814 I : [ 1 0 0 1 150 150 ] concat K 
; : N 4620 814 1 1 rp C 
 L ; 4 Lw solid N 429 814 M 4620 814 I : [ 1 0 0 1 150 150 ] concat K 
; : N 4620 814 1 1 rp C 
 L ; N 429 5787 M 4620 5787 I : [ 1 0 0 1 150 150 ] concat K 
; : N 4620 5787 1 1 rp C 
 L ; N 4620 5787 M 4620 814 I : [ 1 0 0 1 150 150 ] concat K 
; : N 4620 814 1 1 rp C 
 L ; N 429 5787 M 429 814 I : [ 1 0 0 1 150 150 ] concat K 
; : N 429 814 1 1 rp C 
 L ; N 429 5787 M 4620 5787 I : [ 1 0 0 1 150 150 ] concat K 
; : N 4620 5787 1 1 rp C 
 L ; N 429 5787 M 429 814 I : [ 1 0 0 1 150 150 ] concat K 
; : N 429 814 1 1 rp C 
 L ; N 429 5787 M 429 5737 I : [ 1 0 0 1 150 150 ] concat K 
; : N 429 5737 1 1 rp C 
 L ; N 429 814 M 429 863 I : [ 1 0 0 1 150 150 ] concat K 
; : N 429 863 1 1 rp C 
 L ; 27734 VM?
Pscript_WinNT_Incr begin
%%BeginResource: file Pscript_T3Hdr 5.0 0
{version cvi 2016 ge{32/FontType resourcestatus{pop pop true}{false}ifelse}
{false}ifelse}exec/Is2016andT32? exch def/T32DefSBCMap{/CIDInit/ProcSet
findresource begin 10 dict begin begincmap/CIDSystemInfo 3 dict dup begin
/Registry(Adobe)def/Ordering(Identity1)def/Supplement 0 def end def/CMapType 0
def/WMode 0 def 1 begincodespacerange<00><ff>endcodespacerange 1 begincidrange
<00><ff>0 endcidrange endcmap/DrvSBCMap currentdict/CMap defineresource pop end
end}bind def Is2016andT32?{T32DefSBCMap}def/T32RsrcBegin{Is2016andT32?{
/BitmapFontInit/ProcSet findresource begin}if}bind def/T32RsrcEnd{Is2016andT32?
{end}if}bind def/AddT32Char{6 1 roll 0 get 7 1 roll pop pop 5 1 roll pop
findfont/TT32R get addglyph}bind def/AddT3Char{findfont dup 5 2 roll 1 index
length 0 gt{cvx 1 index exch 4 exch put dup(imagemask)cvx cvn 5 exch put cvx}
{pop cvx}ifelse 3 -1 roll/CharProcs get 3 1 roll put dup/Encoding get 5 -1 roll
4 index put/Metrics get 3 1 roll put}bind def/AddT3T32Char Is2016andT32?{
/AddT32Char}{/AddT3Char}ifelse load def/GreNewFontT32{5 dict begin exch
/FontMatrix exch def exch/FontBBox exch def exch pop exch pop/CIDFontType 4 def
dup currentdict end/CIDFont defineresource 3 -1 roll dup/DrvSBCMap dup/CMap
resourcestatus{pop pop}{T32DefSBCMap}ifelse 5 -1 roll[exch]composefont dup
length dict copy dup/FID undef begin exch/TT32R exch def currentdict end
definefont/BitmapFontInit/ProcSet findresource begin/TT32R get[14 0 0 0 0 0]<>0
4 -1 roll addglyph end}bind def/GreNewFontT3{11 dict begin pop/FontType 3 def
/FontMatrix exch def/FontBBox exch def/Encoding exch def/CharProcs 257 dict def
CharProcs/.notdef{}put/Metrics 257 dict def Metrics/.notdef 3 -1 roll put
AddFontInfoBegin AddFontInfo AddFontInfoEnd/BuildChar{userdict begin/char exch
def dup/charname exch/Encoding get char get def dup/Metrics get charname 2 copy
known{get aload pop}{pop/.notdef get aload pop}ifelse setcachedevice begin
Encoding char get CharProcs exch 2 copy known{get}{pop/.notdef get}ifelse end
exec end}def currentdict end definefont pop}bind def/GreNewFont{Is2016andT32?
{GreNewFontT32}{GreNewFontT3}ifelse}bind def/UDF3{Is2016andT32?{/BitmapFontInit
/ProcSet findresource begin dup/CIDFont findresource removeall/CIDFont
undefineresource undefinefont end}{pop UDF}ifelse}bind def
%%EndResource
end reinitialize
/TT1Db00
[66 0 0 0 0 0 ] 
 256 array 0 1 255 {1 index exch /.notdef put} for 
[0 0 0 0 ] 
[1 66 div 0 0 -1 66 div 0 0 ]
/__TT1Db00
GreNewFont
T32RsrcBegin

1
/g305 [31 0 1 -45 29 5 ] 
/g305 [28 50 true [1 0 0 1 -1 45 ]  0 0]
[<00070000
003fe000
00f07800
01e03c00
03c01e00
07800f00
07000f00
0f000780
0e000780
1e0003c0
1e0003c0
3c0003c0
3c0001e0
3c0001e0
3c0001e0
7c0001e0
780001f0
780000f0
780000f0
780000f0
780000f0
780000f0
f80000f0
f80000f0
f80000f0
f80000f0
f80000f0
f80000f0
780000f0
780000f0
780000f0
780000f0
780000f0
780001f0
780001f0
7c0001e0
3c0001e0
3c0001e0
3c0003e0
1e0003c0
1e0003c0
1e000780
0f000780
0f000700
07800f00
03801e00
01c03c00
00f07800
007ff000
000f8000
>
 ]
/TT1Db00 AddT3T32Char
T32RsrcEnd
Pscript_WinNT_Incr begin
%%BeginResource: file Pscript_Text 5.0 0
/TextInit{TextInitialised? not{/Pscript_Windows_Font & d/TextInitialised? T d
/fM[1 0 0 1 0 0]d/mFM matrix d/iMat[1 0 0.212557 1 0 0]d}if}b/copyfont{1 ^
length add dict `{1 ^/FID ne{d}{! !}?}forall & E}b/EncodeDict 11 dict d/bullets
{{/bullet}repeat}b/rF{3 copyfont @ ` ~ EncodeDict ~ get/Encoding ~ 3 ^/0 eq{&
/CharStrings known{CharStrings/Eth known not{! EncodeDict/ANSIEncodingOld get}
if}if}if d E}b/mF{@ 7 1 $ findfont ~{@/Encoding get @ StandardEncoding eq{! T}{
{ISOLatin1Encoding}stopped{! F}{eq}?{T}{@ ` T 32 1 127{Encoding 1 ^ get
StandardEncoding 3 -1 $ get eq and}for E}?}?}{F}?{1 ^ ~ rF}{0 copyfont}? 6 -2 $
! ! ~ !/pd_charset @ where{~ get 128 eq{@ FDV 2 copy get @ length array copy
put pd_CoverFCRange}if}{!}? 2 ^ ~ definefont fM 5 4 -1 $ put fM 4 0 put fM
makefont Pscript_Windows_Font 3 1 $ put}b/sLT{: Lw -M currentpoint snap M 0 - 0
Lc K ;}b/xUP null d/yUP null d/uW null d/xSP null d/ySP null d/sW null d/sSU{N
/uW ~ d/yUP ~ d/xUP ~ d}b/sU{xUP yUP uW sLT}b/sST{N/sW ~ d/ySP ~ d/xSP ~ d}b/sT
{xSP ySP sW sLT}b/sR{: + R 0 0 M}b/sRxy{: matrix astore concat 0 0 M}b/eR/; , d
/AddOrigFP{{&/FontInfo known{&/FontInfo get length 6 add}{6}? dict `
/WinPitchAndFamily ~ d/WinCharSet ~ d/OrigFontType ~ d/OrigFontStyle ~ d
/OrigFontName ~ d & E/FontInfo ~ d}{! ! ! ! !}?}b/mFS{makefont
Pscript_Windows_Font 3 1 $ put}b/mF42D{0 copyfont `/FontName ~ d 2 copy ~ sub 1
add dict `/.notdef 0 d 2 copy 1 ~{@ 3 ^ sub Encoding ~ get ~ d}for & E
/CharStrings ~ d ! ! & @ E/FontName get ~ definefont}b/mF42{15 dict ` @ 4 1 $
FontName ~ d/FontType 0 d/FMapType 2 d/FontMatrix[1 0 0 1 0 0]d 1 ^ 254 add 255
idiv @ array/Encoding ~ d 0 1 3 -1 $ 1 sub{@ Encoding 3 1 $ put}for/FDepVector
Encoding length array d/CharStrings 2 dict `/.notdef 0 d & E d 0 1 Encoding
length 1 sub{@ @ 10 lt{! FontName length 1 add string}{100 lt{FontName length 2
add string}{FontName length 3 add string}?}? @ 0 FontName @ length string cvs
putinterval @ 3 -1 $ @ 4 1 $ 3 string cvs FontName length ~ putinterval cvn 1 ^
256 mul @ 255 add 3 -1 $ 4 ^ findfont mF42D FDepVector 3 1 $ put}for & @ E
/FontName get ~ definefont ! ! ! mF}b/mF_OTF_V{~ ! ~ ! 4 -1 $ ! findfont 2 ^ ~
definefont fM @ @ 4 6 -1 $ neg put 5 0 put 90 matrix R matrix concatmatrix
makefont Pscript_Windows_Font 3 1 $ put}b/mF_TTF_V{3{~ !}repeat 3 -1 $ !
findfont 1 ^ ~ definefont Pscript_Windows_Font 3 1 $ put}b/UmF{L2?
{Pscript_Windows_Font ~ undef}{!}?}b/UmF42{@ findfont/FDepVector get{/FontName
get undefinefont}forall undefinefont}b
%%EndResource
end reinitialize
F /F0 0 /0 F /TT1Db00 mF 
/F0S42 F0 [66.145 0 0 -66.145 0 0 ] mFS
F0S42 Ji 
414 5864 M <01>S 
N 1127 5787 M 1127 5737 I : [ 1 0 0 1 150 150 ] concat K 
; : N 1127 5737 1 1 rp C 
 L ; N 1127 814 M 1127 863 I : [ 1 0 0 1 150 150 ] concat K 
; : N 1127 863 1 1 rp C 
 L ; 734 VM?
T32RsrcBegin

2
/g310 [31 0 2 -45 27 5 ] 
/g310 [25 50 true [1 0 0 1 -2 45 ]  0 0]
[<00000180
007fff00
00ffff00
00fffe00
00fffe00
01c00000
01c00000
03800000
03800000
03000000
07000000
07000000
0e000000
0e000000
0fe00000
1ff80000
1ffe0000
3fff8000
3fffc000
00ffe000
001ff000
0007f800
0001f800
0000fc00
00007e00
00003e00
00001e00
00000f00
00000f00
00000f00
00000700
00000700
00000700
00000700
00000700
00000700
00000700
00000600
00000600
00000e00
00000c00
00000c00
00001800
00003800
60007000
fc00e000
ff83c000
7fff0000
3ffc0000
0fe00000
>
 ]
/TT1Db00 AddT3T32Char
T32RsrcEnd
1112 5864 M <02>S 
N 1826 5787 M 1826 5737 I : [ 1 0 0 1 150 150 ] concat K 
; : N 1826 5737 1 1 rp C 
 L ; N 1826 814 M 1826 863 I : [ 1 0 0 1 150 150 ] concat K 
; : N 1826 863 1 1 rp C 
 L ; 734 VM?
T32RsrcBegin

3
/g306 [31 0 7 -44 24 4 ] 
/g306 [17 48 true [1 0 0 1 -7 44 ]  0 0]
[<006000
01e000
07e000
1fe000
7fe000
83e000
01e000
01e000
01e000
01e000
01e000
01e000
01e000
01e000
01e000
01e000
01e000
01e000
01e000
01e000
01e000
01e000
01e000
01e000
01e000
01e000
01e000
01e000
01e000
01e000
01e000
01e000
01e000
01e000
01e000
01e000
01e000
01e000
01e000
01e000
01e000
01e000
01e000
01e000
03e000
07f000
3ffe00
ffff80
>
 ]
/TT1Db00 AddT3T32Char
T32RsrcEnd
1795 5864 M <0301>S 
N 2524 5787 M 2524 5737 I : [ 1 0 0 1 150 150 ] concat K 
; : N 2524 5737 1 1 rp C 
 L ; N 2524 814 M 2524 863 I : [ 1 0 0 1 150 150 ] concat K 
; : N 2524 863 1 1 rp C 
 L ; 2493 5864 M <0302>S 
N 3223 5787 M 3223 5737 I : [ 1 0 0 1 150 150 ] concat K 
; : N 3223 5737 1 1 rp C 
 L ; N 3223 814 M 3223 863 I : [ 1 0 0 1 150 150 ] concat K 
; : N 3223 863 1 1 rp C 
 L ; 734 VM?
T32RsrcBegin

4
/g307 [31 0 2 -44 29 4 ] 
/g307 [27 48 true [1 0 0 1 -2 44 ]  0 0]
[<00ff8000
03ffe000
07fff000
0f03f800
1c00fc00
18007e00
30003e00
30003e00
60001f00
60000f00
40000f00
c0000f00
c0000f00
00000f00
00000f00
00000f00
00000f00
00000f00
00000e00
00000e00
00001e00
00001c00
00003c00
00003c00
00007800
00007000
0000f000
0000e000
0001c000
0003c000
00038000
00070000
000e0000
001c0000
001c0000
00380000
00700000
00e00000
01c00000
03800020
03800060
070000c0
0e0000c0
1c0001c0
3fffff80
3fffff80
7fffff80
ffffff00
>
 ]
/TT1Db00 AddT3T32Char
T32RsrcEnd
3192 5864 M <0401>S 
N 3921 5787 M 3921 5737 I : [ 1 0 0 1 150 150 ] concat K 
; : N 3921 5737 1 1 rp C 
 L ; N 3921 814 M 3921 863 I : [ 1 0 0 1 150 150 ] concat K 
; : N 3921 863 1 1 rp C 
 L ; 3890 5864 M <0402>S 
N 4620 5787 M 4620 5737 I : [ 1 0 0 1 150 150 ] concat K 
; : N 4620 5737 1 1 rp C 
 L ; N 4620 814 M 4620 863 I : [ 1 0 0 1 150 150 ] concat K 
; : N 4620 863 1 1 rp C 
 L ; 734 VM?
T32RsrcBegin

5
/g308 [31 0 3 -45 27 5 ] 
/g308 [24 50 true [1 0 0 1 -3 45 ]  0 0]
[<003c00
01ff80
07ffc0
0e07e0
1c01f0
3800f8
3000f8
700078
600038
400038
c00038
800038
000038
000038
000030
000070
000060
0000e0
0001c0
000380
000700
001fc0
007fe0
01fff0
000ff8
0001fc
0000fc
00003e
00003e
00001e
00000f
00000f
00000f
00000f
000007
000007
000007
000006
00000e
00000e
00000c
00001c
000018
000030
400070
f001e0
fe0780
ffff00
7ffc00
0fc000
>
 ]
/TT1Db00 AddT3T32Char
T32RsrcEnd
4589 5864 M <0501>S 
N 429 5787 M 478 5787 I : [ 1 0 0 1 150 150 ] concat K 
; : N 478 5787 1 1 rp C 
 L ; N 4620 5787 M 4570 5787 I : [ 1 0 0 1 150 150 ] concat K 
; : N 4570 5787 1 1 rp C 
 L ; 1469 VM?
T32RsrcBegin

6
/g302 [21 0 2 -15 18 -10 ] 
/g302 [16 5 true [1 0 0 1 -2 15 ]  0 0]
[<ffff
ffff
ffff
ffff
ffff
>
 ]
/TT1Db00 AddT3T32Char

7
/g303 [16 0 4 -3 11 5 ] 
/g303 [7 8 true [1 0 0 1 -4 3 ]  0 0]
[<7c
7e
fe
fe
fe
7e
7c
10
>
 ]
/TT1Db00 AddT3T32Char
T32RsrcEnd
306 5808 M <06010703>S 
N 429 5289 M 478 5289 I : [ 1 0 0 1 150 150 ] concat K 
; : N 478 5289 1 1 rp C 
 L ; N 4620 5289 M 4570 5289 I : [ 1 0 0 1 150 150 ] concat K 
; : N 4570 5289 1 1 rp C 
 L ; 275 5310 M <0601070102>S 
N 429 4792 M 478 4792 I : [ 1 0 0 1 150 150 ] concat K 
; : N 478 4792 1 1 rp C 
 L ; N 4620 4792 M 4570 4792 I : [ 1 0 0 1 150 150 ] concat K 
; : N 4570 4792 1 1 rp C 
 L ; 374 4813 M <01>S 
N 429 4295 M 478 4295 I : [ 1 0 0 1 150 150 ] concat K 
; : N 478 4295 1 1 rp C 
 L ; N 4620 4295 M 4570 4295 I : [ 1 0 0 1 150 150 ] concat K 
; : N 4570 4295 1 1 rp C 
 L ; 296 4316 M <01070102>S 
N 429 3797 M 478 3797 I : [ 1 0 0 1 150 150 ] concat K 
; : N 478 3797 1 1 rp C 
 L ; N 4620 3797 M 4570 3797 I : [ 1 0 0 1 150 150 ] concat K 
; : N 4570 3797 1 1 rp C 
 L ; 327 3818 M <010703>S 
N 429 3300 M 478 3300 I : [ 1 0 0 1 150 150 ] concat K 
; : N 478 3300 1 1 rp C 
 L ; N 4620 3300 M 4570 3300 I : [ 1 0 0 1 150 150 ] concat K 
; : N 4570 3300 1 1 rp C 
 L ; 296 3321 M <01070302>S 
N 429 2803 M 478 2803 I : [ 1 0 0 1 150 150 ] concat K 
; : N 478 2803 1 1 rp C 
 L ; N 4620 2803 M 4570 2803 I : [ 1 0 0 1 150 150 ] concat K 
; : N 4570 2803 1 1 rp C 
 L ; 327 2824 M <010704>S 
N 429 2305 M 478 2305 I : [ 1 0 0 1 150 150 ] concat K 
; : N 478 2305 1 1 rp C 
 L ; N 4620 2305 M 4570 2305 I : [ 1 0 0 1 150 150 ] concat K 
; : N 4570 2305 1 1 rp C 
 L ; 296 2326 M <01070402>S 
N 429 1808 M 478 1808 I : [ 1 0 0 1 150 150 ] concat K 
; : N 478 1808 1 1 rp C 
 L ; N 4620 1808 M 4570 1808 I : [ 1 0 0 1 150 150 ] concat K 
; : N 4570 1808 1 1 rp C 
 L ; 327 1829 M <010705>S 
N 429 1311 M 478 1311 I : [ 1 0 0 1 150 150 ] concat K 
; : N 478 1311 1 1 rp C 
 L ; N 4620 1311 M 4570 1311 I : [ 1 0 0 1 150 150 ] concat K 
; : N 4570 1311 1 1 rp C 
 L ; 296 1332 M <01070502>S 
N 429 814 M 478 814 I : [ 1 0 0 1 150 150 ] concat K 
; : N 478 814 1 1 rp C 
 L ; N 4620 814 M 4570 814 I : [ 1 0 0 1 150 150 ] concat K 
; : N 4570 814 1 1 rp C 
 L ; 734 VM?
T32RsrcBegin

8
/g309 [31 0 1 -44 29 4 ] 
/g309 [28 48 true [1 0 0 1 -1 44 ]  0 0]
[<00001800
00001800
00003800
00003800
00007800
0000f800
0000f800
0001f800
0003b800
00033800
00073800
00063800
000e3800
001c3800
00183800
00383800
00703800
00703800
00e03800
00c03800
01c03800
03803800
03003800
07003800
0e003800
0e003800
1c003800
18003800
38003800
70003800
70003800
e0003800
c0003800
fffffff0
fffffff0
00003800
00003800
00003800
00003800
00003800
00003800
00003800
00003800
00003800
00003800
00003800
00003800
00003800
>
 ]
/TT1Db00 AddT3T32Char
T32RsrcEnd
327 835 M <010708>S 
N 429 814 M 4620 814 I : [ 1 0 0 1 150 150 ] concat K 
; : N 4620 814 1 1 rp C 
 L ; N 429 5787 M 4620 5787 I : [ 1 0 0 1 150 150 ] concat K 
; : N 4620 5787 1 1 rp C 
 L ; N 4620 5787 M 4620 814 I : [ 1 0 0 1 150 150 ] concat K 
; : N 4620 814 1 1 rp C 
 L ; N 429 5787 M 429 814 I : [ 1 0 0 1 150 150 ] concat K 
; : N 429 814 1 1 rp C 
 L ; 1 1 0 1 scol : 429 1160 4192 4601 rc N 429 4792 M 431 4315 I 438 3164 I 445 2340 I 452 1760 I 460 1390 I 468 1201 I 476 1163 I 485 1251 I 494 1441 I 504 1713 I 514 2047 I 525 2428 I 537 2842 I 550 3278 I 565 3731 I 583 4214 I 601 4603 I 619 4919 I 635 5162 I 652 5350 I 669 5494 I 686 5601 I 703 5676 I 720 5725 I 738 5751 I 756 5757 I 774 5748 I 793 5726 I 812 5694 I 832 5653 I 852 5606 I 873 5554 I 895 5500 I 917 5444 I 940 5387 I 963 5331 I 988 5277 I 1013 5224 I 1039 5175 I 1066 5128 I 1093 5084 I 1122 5044 I 1152 5007 I 1183 4974 I 1215 4945 I 1249 4919 I 1285 4896 I 1321 4876 I 1360 4859 I 1401 4845 I 1443 4833 I 1489 4823 I 1536 4816 I 1587 4809 I 1641 4804 I 1698 4801 I 1760 4798 I 1826 4796 I 1897 4794 I 1975 4793 I 2058 4793 I 2142 4792 I 2226 4792 I 2310 4792 I 2394 4792 I 2477 4792 I 2561 4792 I 2645 4792 I 2729 4792 I 2813 4792 I 2897 4792 I 2980 4792 I 3064 4792 I 3148 4792 I 3232 4792 I 3316 4792 I 3399 4792 I 3483 4792 I 3567 4792 I 3651 4792 I 3735 4792 I 3819 4792 I 3902 4792 I 3986 4792 I 4070 4792 I 4154 4792 I 4238 4792 I 4322 4792 I 4405 4792 I 4489 4792 I 4573 4792 I 4620 4792 I : [ 1 0 0 1 150 150 ] concat K 
; ; 1 0 1 1 scol : 429 2154 4192 2642 rc N 429 4792 M 431 4788 I 438 4734 I 445 4631 I 452 4487 I 460 4311 I 468 4111 I 476 3896 I 485 3671 I 494 3444 I 504 3219 I 514 3003 I 525 2800 I 537 2614 I 550 2451 I 565 2313 I 583 2207 I 601 2160 I 619 2157 I 635 2187 I 652 2243 I 669 2319 I 686 2410 I 703 2513 I 720 2626 I 738 2746 I 756 2870 I 774 2997 I 793 3125 I 812 3252 I 832 3378 I 852 3500 I 873 3618 I 895 3731 I 917 3839 I 940 3941 I 963 4036 I 988 4125 I 1013 4208 I 1039 4283 I 1066 4352 I 1093 4414 I 1122 4470 I 1152 4520 I 1183 4565 I 1215 4603 I 1249 4637 I 1285 4666 I 1321 4691 I 1360 4712 I 1401 4729 I 1443 4744 I 1489 4755 I 1536 4765 I 1587 4772 I 1641 4778 I 1698 4782 I 1760 4785 I 1826 4788 I 1897 4789 I 1975 4790 I 2058 4791 I 2142 4791 I 2226 4792 I 2310 4792 I 2394 4792 I 2477 4792 I 2561 4792 I 2645 4792 I 2729 4792 I 2813 4792 I 2897 4792 I 2980 4792 I 3064 4792 I 3148 4792 I 3232 4792 I 3316 4792 I 3399 4792 I 3483 4792 I 3567 4792 I 3651 4792 I 3735 4792 I 3819 4792 I 3902 4792 I 3986 4792 I 4070 4792 I 4154 4792 I 4238 4792 I 4322 4792 I 4405 4792 I 4489 4792 I 4573 4792 I 4620 4792 I : [ 1 0 0 1 150 150 ] concat K 
; ; 0 0 0 1 scol 7344 VM?
T32RsrcBegin

9
/g341 [38 0 1 -44 37 4 ] 
/g341 [36 48 true [1 0 0 1 -1 44 ]  0 0]
[<ffffffffe0
ffffffffe0
ffffffffe0
fc00f003e0
f000f001e0
f000f000e0
e000f00060
e000f00060
c000f00060
c000f00030
c000f00030
8000f00030
0000f00000
0000f00000
0000f00000
0000f00000
0000f00000
0000f00000
0000f00000
0000f00000
0000f00000
0000f00000
0000f00000
0000f00000
0000f00000
0000f00000
0000f00000
0000f00000
0000f00000
0000f00000
0000f00000
0000f00000
0000f00000
0000f00000
0000f00000
0000f00000
0000f00000
0000f00000
0000f00000
0000f00000
0000f00000
0000f00000
0001f00000
0001f00000
0001f80000
0007fc0000
003fff8000
007fffe000
>
 ]
/TT1Db00 AddT3T32Char

10
/g362 [17 0 1 -45 16 4 ] 
/g362 [15 49 true [1 0 0 1 -1 45 ]  0 0]
[<0300
0780
0f80
0f80
0780
0780
0000
0000
0000
0000
0000
0000
0000
0000
0000
0000
0000
0180
0f80
3f80
ff80
0f80
0780
0780
0380
0380
0380
0380
0380
0380
0380
0380
0380
0380
0380
0380
0380
0380
0380
0380
0380
0380
0380
0780
07c0
07c0
0fe0
3ff8
fffe
>
 ]
/TT1Db00 AddT3T32Char

11
/g366 [48 0 1 -29 48 4 ] 
/g366 [47 33 true [1 0 0 1 -1 29 ]  0 0]
[<0100f8007c00
0703fc03fe00
3f07fe07ff00
ff1fff0fff80
1f3c1f1c1f80
0f700f300780
0fc007e007c0
078007c003c0
0700078003c0
0700038003c0
0700038003c0
0700038001c0
0700038001c0
0700038001c0
0700038001c0
0700038001c0
0700038001c0
0700038001c0
0700038001c0
0700038001c0
0700038001c0
0700038001c0
0700038001c0
0700038001c0
0700038001c0
0700038001c0
0700038001c0
0700038003c0
0700038003c0
0f8007c003e0
0f8007c007e0
3fe01ff00ff8
fff87ffc3ffe
>
 ]
/TT1Db00 AddT3T32Char

12
/g358 [28 0 1 -29 26 4 ] 
/g358 [25 33 true [1 0 0 1 -1 29 ]  0 0]
[<003f8000
00ffe000
0381f000
0700f800
0c007c00
0c003c00
18001e00
38001e00
30001e00
30001f00
7fffff00
7fffff00
60000000
60000000
60000000
f0000000
f0000000
f0000000
f0000000
f0000000
70000000
78000000
78000080
78000180
7c000100
3c000300
3e000600
1f000c00
1f801c00
0fe0f800
07fff000
03ffe000
00ff8000
>
 ]
/TT1Db00 AddT3T32Char

13
/g289 [17 0 0 0 1 1 ] 
/g289 [1 1 true [1 0 0 1 0 0 ]  0 0]
[<00
>
 ]
/TT1Db00 AddT3T32Char

14
/g368 [31 0 2 -29 29 4 ] 
/g368 [27 33 true [1 0 0 1 -2 29 ]  0 0]
[<007f8000
01fff000
0780f800
0f007c00
0c001e00
1c001f00
38000f80
38000780
700007c0
700003c0
f00003c0
f00003e0
f00001e0
f00001e0
f00001e0
f00001e0
f00001e0
f00001e0
f00001e0
f00001e0
f00001e0
f80001c0
f80001c0
780001c0
7c000380
3c000380
3e000300
1e000700
1f000e00
0f801c00
07e03800
01fff000
00ffc000
>
 ]
/TT1Db00 AddT3T32Char

15
/g359 [21 0 1 -45 24 4 ] 
/g359 [23 49 true [1 0 0 1 -1 45 ]  0 0]
[<0007f0
001ff8
0030fc
00607e
00c03e
01c01c
01c000
01c000
01c000
03c000
03c000
03c000
03c000
03c000
03c000
03c000
03c000
ffffc0
ffffc0
03c000
03c000
03c000
03c000
03c000
03c000
03c000
03c000
03c000
03c000
03c000
03c000
03c000
03c000
03c000
03c000
03c000
03c000
03c000
03c000
03c000
03c000
03c000
03c000
03c000
03c000
07c000
07e000
1ff800
ffff00
>
 ]
/TT1Db00 AddT3T32Char

16
/g372 [24 0 3 -29 21 4 ] 
/g372 [18 33 true [1 0 0 1 -3 29 ]  0 0]
[<07f100
1e1f00
380700
700700
600300
600300
e00100
e00100
e00100
f00100
f00000
780000
7e0000
3f0000
1fc000
0fe000
03f800
01fc00
00ff00
003f80
001f80
0007c0
8003c0
8003c0
c001c0
c001c0
c001c0
c001c0
e001c0
f00380
f80300
fe0e00
87fc00
>
 ]
/TT1Db00 AddT3T32Char

17
/g373 [17 0 1 -38 17 4 ] 
/g373 [16 42 true [1 0 0 1 -1 38 ]  0 0]
[<0100
0300
0300
0300
0700
0700
0f00
1f00
3f00
7f00
fffe
0f00
0f00
0f00
0f00
0f00
0f00
0f00
0f00
0f00
0f00
0f00
0f00
0f00
0f00
0f00
0f00
0f00
0f00
0f00
0f00
0f00
0f00
0f00
0f00
0f00
0f00
0f01
0783
07fe
07fc
03f0
>
 ]
/TT1Db00 AddT3T32Char

18
/g315 [17 0 5 -29 12 5 ] 
/g315 [7 34 true [1 0 0 1 -5 29 ]  0 0]
[<38
7c
fe
fe
fe
fc
78
00
00
00
00
00
00
00
00
00
00
00
00
00
00
00
00
00
00
00
38
7c
fe
fe
fe
fe
7c
10
>
 ]
/TT1Db00 AddT3T32Char
T32RsrcEnd
144 6852 M <090A0B0C0D0E0F0F100C11120D010D0D0D0D0D0D0D0D0D0D0D0D0D0D0D>S 
LH
(%%[Page: 1]%%) = 
%%PageTrailer

%%Trailer
%%BoundingBox: 0 0 595 842
%%DocumentNeededResources: 
%%DocumentSuppliedResources: 
%%+ procset Pscript_WinNT_ErrorHandler 5.0 0
%%+ procset Pscript_FatalError 5.0 0
%%+ procset Pscript_Win_Basic 5.0 0
%%+ procset Pscript_Win_Utils_L1 5.0 0
%%+ procset Pscript_Win_GdiObject 5.0 0
%%+ procset Pscript_Win_GdiObject_L1 5.0 0
%%+ procset Pscript_T3Hdr 5.0 0
%%+ procset Pscript_Text 5.0 0
Pscript_WinNT_Incr dup /terminate get exec
VMsave restore
%%Pages: 1
(%%[LastPage]%%) = 
%%EOF
