%!PS-Adobe-3.0 EPSF-3.0
%%Creator: MATLAB, The Mathworks, Inc. Version 7.10.0.499 (R2010a). Operating System: Microsoft Windows 7.
%%Title: D:\workspace\homework\control\hw1\report\ODE.eps
%%CreationDate: 10/21/2011  02:11:48
%%DocumentNeededFonts: Helvetica
%%DocumentProcessColors: Cyan Magenta Yellow Black
%%LanguageLevel: 2
%%Pages: 1
%%BoundingBox:    87   262   507   578
%%EndComments

%%BeginProlog
% MathWorks dictionary
/MathWorks 160 dict begin
% definition operators
/bdef {bind def} bind def
/ldef {load def} bind def
/xdef {exch def} bdef
/xstore {exch store} bdef
% operator abbreviations
/c  /clip ldef
/cc /concat ldef
/cp /closepath ldef
/gr /grestore ldef
/gs /gsave ldef
/mt /moveto ldef
/np /newpath ldef
/cm /currentmatrix ldef
/sm /setmatrix ldef
/rm /rmoveto ldef
/rl /rlineto ldef
/s {show newpath} bdef
/sc {setcmykcolor} bdef
/sr /setrgbcolor ldef
/sg /setgray ldef
/w /setlinewidth ldef
/j /setlinejoin ldef
/cap /setlinecap ldef
/rc {rectclip} bdef
/rf {rectfill} bdef
% page state control
/pgsv () def
/bpage {/pgsv save def} bdef
/epage {pgsv restore} bdef
/bplot /gsave ldef
/eplot {stroke grestore} bdef
% orientation switch
/portraitMode 0 def /landscapeMode 1 def /rotateMode 2 def
% coordinate system mappings
/dpi2point 0 def
% font control
/FontSize 0 def
/FMS {/FontSize xstore findfont [FontSize 0 0 FontSize neg 0 0]
  makefont setfont} bdef
/ISOLatin1Encoding where {pop /WindowsLatin1Encoding 256 array bdef
ISOLatin1Encoding WindowsLatin1Encoding copy pop
/.notdef/.notdef/quotesinglbase/florin/quotedblbase/ellipsis/dagger
/daggerdbl/circumflex/perthousand/Scaron/guilsinglleft/OE/.notdef/.notdef
/.notdef/.notdef/quoteleft/quoteright/quotedblleft/quotedblright/bullet
/endash/emdash/tilde/trademark/scaron/guilsinglright/oe/.notdef/.notdef
/Ydieresis WindowsLatin1Encoding 128 32 getinterval astore pop}
{/WindowsLatin1Encoding StandardEncoding bdef} ifelse
/reencode {exch dup where {pop load} {pop StandardEncoding} ifelse
  exch dup 3 1 roll findfont dup length dict begin
  { 1 index /FID ne {def}{pop pop} ifelse } forall
  /Encoding exch def currentdict end definefont pop} bdef
/isroman {findfont /CharStrings get /Agrave known} bdef
/FMSR {3 1 roll 1 index dup isroman {reencode} {pop pop} ifelse
  exch FMS} bdef
/csm {1 dpi2point div -1 dpi2point div scale neg translate
 dup landscapeMode eq {pop -90 rotate}
  {rotateMode eq {90 rotate} if} ifelse} bdef
% line types: solid, dotted, dashed, dotdash
/SO { [] 0 setdash } bdef
/DO { [.5 dpi2point mul 4 dpi2point mul] 0 setdash } bdef
/DA { [6 dpi2point mul] 0 setdash } bdef
/DD { [.5 dpi2point mul 4 dpi2point mul 6 dpi2point mul 4
  dpi2point mul] 0 setdash } bdef
% macros for lines and objects
/L {lineto stroke} bdef
/MP {3 1 roll moveto 1 sub {rlineto} repeat} bdef
/AP {{rlineto} repeat} bdef
/PDlw -1 def
/W {/PDlw currentlinewidth def setlinewidth} def
/PP {closepath eofill} bdef
/DP {closepath stroke} bdef
/MR {4 -2 roll moveto dup  0 exch rlineto exch 0 rlineto
  neg 0 exch rlineto closepath} bdef
/FR {MR stroke} bdef
/PR {MR fill} bdef
/L1i {{currentfile picstr readhexstring pop} image} bdef
/tMatrix matrix def
/MakeOval {newpath tMatrix currentmatrix pop translate scale
0 0 1 0 360 arc tMatrix setmatrix} bdef
/FO {MakeOval stroke} bdef
/PO {MakeOval fill} bdef
/PD {currentlinewidth 2 div 0 360 arc fill
   PDlw -1 eq not {PDlw w /PDlw -1 def} if} def
/FA {newpath tMatrix currentmatrix pop translate scale
  0 0 1 5 -2 roll arc tMatrix setmatrix stroke} bdef
/PA {newpath tMatrix currentmatrix pop	translate 0 0 moveto scale
  0 0 1 5 -2 roll arc closepath tMatrix setmatrix fill} bdef
/FAn {newpath tMatrix currentmatrix pop translate scale
  0 0 1 5 -2 roll arcn tMatrix setmatrix stroke} bdef
/PAn {newpath tMatrix currentmatrix pop translate 0 0 moveto scale
  0 0 1 5 -2 roll arcn closepath tMatrix setmatrix fill} bdef
/vradius 0 def /hradius 0 def /lry 0 def
/lrx 0 def /uly 0 def /ulx 0 def /rad 0 def
/MRR {/vradius xdef /hradius xdef /lry xdef /lrx xdef /uly xdef
  /ulx xdef newpath tMatrix currentmatrix pop ulx hradius add uly
  vradius add translate hradius vradius scale 0 0 1 180 270 arc 
  tMatrix setmatrix lrx hradius sub uly vradius add translate
  hradius vradius scale 0 0 1 270 360 arc tMatrix setmatrix
  lrx hradius sub lry vradius sub translate hradius vradius scale
  0 0 1 0 90 arc tMatrix setmatrix ulx hradius add lry vradius sub
  translate hradius vradius scale 0 0 1 90 180 arc tMatrix setmatrix
  closepath} bdef
/FRR {MRR stroke } bdef
/PRR {MRR fill } bdef
/MlrRR {/lry xdef /lrx xdef /uly xdef /ulx xdef /rad lry uly sub 2 div def
  newpath tMatrix currentmatrix pop ulx rad add uly rad add translate
  rad rad scale 0 0 1 90 270 arc tMatrix setmatrix lrx rad sub lry rad
  sub translate rad rad scale 0 0 1 270 90 arc tMatrix setmatrix
  closepath} bdef
/FlrRR {MlrRR stroke } bdef
/PlrRR {MlrRR fill } bdef
/MtbRR {/lry xdef /lrx xdef /uly xdef /ulx xdef /rad lrx ulx sub 2 div def
  newpath tMatrix currentmatrix pop ulx rad add uly rad add translate
  rad rad scale 0 0 1 180 360 arc tMatrix setmatrix lrx rad sub lry rad
  sub translate rad rad scale 0 0 1 0 180 arc tMatrix setmatrix
  closepath} bdef
/FtbRR {MtbRR stroke } bdef
/PtbRR {MtbRR fill } bdef
/stri 6 array def /dtri 6 array def
/smat 6 array def /dmat 6 array def
/tmat1 6 array def /tmat2 6 array def /dif 3 array def
/asub {/ind2 exch def /ind1 exch def dup dup
  ind1 get exch ind2 get sub exch } bdef
/tri_to_matrix {
  2 0 asub 3 1 asub 4 0 asub 5 1 asub
  dup 0 get exch 1 get 7 -1 roll astore } bdef
/compute_transform {
  dmat dtri tri_to_matrix tmat1 invertmatrix 
  smat stri tri_to_matrix tmat2 concatmatrix } bdef
/ds {stri astore pop} bdef
/dt {dtri astore pop} bdef
/db {2 copy /cols xdef /rows xdef mul dup 3 mul string
  currentfile 
  3 index 0 eq {/ASCIIHexDecode filter}
  {/ASCII85Decode filter 3 index 2 eq {/RunLengthDecode filter} if }
  ifelse exch readstring pop
  dup 0 3 index getinterval /rbmap xdef
  dup 2 index dup getinterval /gbmap xdef
  1 index dup 2 mul exch getinterval /bbmap xdef pop pop}bdef
/it {gs np dtri aload pop moveto lineto lineto cp c
  cols rows 8 compute_transform 
  rbmap gbmap bbmap true 3 colorimage gr}bdef
/il {newpath moveto lineto stroke}bdef
currentdict end def
%%EndProlog

%%BeginSetup
MathWorks begin

0 cap

end
%%EndSetup

%%Page: 1 1
%%BeginPageSetup
%%PageBoundingBox:    87   262   507   578
MathWorks begin
bpage
%%EndPageSetup

%%BeginObject: obj1
bplot

/dpi2point 12 def
portraitMode 1044 6936 csm

    0     0  5045  3782 rc
86 dict begin %Colortable dictionary
/c0 { 0.000000 0.000000 0.000000 sr} bdef
/c1 { 1.000000 1.000000 1.000000 sr} bdef
/c2 { 0.900000 0.000000 0.000000 sr} bdef
/c3 { 0.000000 0.820000 0.000000 sr} bdef
/c4 { 0.000000 0.000000 0.800000 sr} bdef
/c5 { 0.910000 0.820000 0.320000 sr} bdef
/c6 { 1.000000 0.260000 0.820000 sr} bdef
/c7 { 0.000000 0.820000 0.820000 sr} bdef
c0
1 j
1 sg
   0    0 5046 3783 rf
6 w
0 1246 3910 0 0 -1246 656 1574 4 MP
PP
-3910 0 0 1246 3910 0 0 -1246 656 1574 5 MP stroke
4 w
DO
SO
6 w
0 sg
 656  328 mt 4566  328 L
 656 1574 mt 4566 1574 L
4566 1574 mt 4566  328 L
 656 1574 mt  656  328 L
 656 1574 mt 4566 1574 L
 656 1574 mt  656  328 L
 656 1574 mt  656 1534 L
 656  328 mt  656  367 L
%%IncludeResource: font Helvetica
/Helvetica /WindowsLatin1Encoding 120 FMSR

 623 1719 mt 
(0) s
1307 1574 mt 1307 1534 L
1307  328 mt 1307  367 L
1274 1719 mt 
(5) s
1959 1574 mt 1959 1534 L
1959  328 mt 1959  367 L
1893 1719 mt 
(10) s
2611 1574 mt 2611 1534 L
2611  328 mt 2611  367 L
2545 1719 mt 
(15) s
3262 1574 mt 3262 1534 L
3262  328 mt 3262  367 L
3196 1719 mt 
(20) s
3914 1574 mt 3914 1534 L
3914  328 mt 3914  367 L
3848 1719 mt 
(25) s
4566 1574 mt 4566 1534 L
4566  328 mt 4566  367 L
4500 1719 mt 
(30) s
 656 1574 mt  695 1574 L
4566 1574 mt 4526 1574 L
 385 1618 mt 
(-0.2) s
 656 1262 mt  695 1262 L
4566 1262 mt 4526 1262 L
 555 1306 mt 
(0) s
 656  951 mt  695  951 L
4566  951 mt 4526  951 L
 455  995 mt 
(0.2) s
 656  639 mt  695  639 L
4566  639 mt 4526  639 L
 455  683 mt 
(0.4) s
 656  328 mt  695  328 L
4566  328 mt 4526  328 L
 455  372 mt 
(0.6) s
 656  328 mt 4566  328 L
 656 1574 mt 4566 1574 L
4566 1574 mt 4566  328 L
 656 1574 mt  656  328 L
gs 656 328 3911 1247 rc
/c8 { 0.000000 0.000000 1.000000 sr} bdef
c8
29 0 29 0 29 0 29 0 28 0 27 0 28 0 27 0 
28 0 27 0 27 0 28 0 26 0 27 0 27 0 26 0 
27 0 26 0 26 0 27 0 26 0 27 0 27 0 27 0 
27 0 27 0 28 0 27 0 27 0 28 0 27 0 28 0 
27 0 27 0 27 0 27 0 26 0 27 0 26 0 26 0 
27 0 27 0 26 0 27 0 27 0 27 0 27 0 27 0 
27 0 28 0 27 0 28 0 27 0 27 0 27 0 27 0 
27 0 27 0 26 0 27 0 26 0 27 0 26 0 27 0 
26 0 27 0 27 0 27 0 27 0 27 0 27 0 27 0 
27 0 27 0 27 0 27 0 25 0 26 0 26 0 26 0 
24 0 24 0 24 0 25 0 22 0 22 0 22 0 23 0 
20 0 21 0 20 0 21 0 19 0 19 0 18 0 19 0 
18 0 17 0 17 0 18 1 16 0 16 0 16 0 16 0 
15 0 15 0 14 0 15 0 15 0 15 1 14 0 15 0 
14 0 15 0 14 0 15 1 14 0 15 0 14 1 14 0 
14 0 15 1 14 0 14 1 14 0 14 1 14 1 14 1 
14 0 13 1 14 1 14 1 13 1 14 2 14 1 13 1 
14 2 13 1 13 2 14 2 13 2 13 3 13 2 13 3 
13 2 13 3 13 4 12 3 13 4 13 4 12 4 13 4 
12 5 12 5 13 5 12 6 12 6 12 6 12 7 12 7 
11 7 12 7 12 8 11 9 12 8 11 9 11 10 11 9 
11 10 11 10 11 11 11 11 10 11 10 11 10 11 11 11 
10 11 9 12 10 11 10 11 9 11 10 11 9 11 9 10 
9 9 9 9 9 9 8 8 9 7 8 6 8 5 8 4 
8 3 8 3 8 0 9 -1 9 -3 9 -5 9 -8 9 -11 
8 -11 8 -14 7 -17 8 -19 7 -19 7 -21 6 -22 7 -25 
6 -23 6 -25 6 -25 6 -26 4 -20 5 -20 5 -20 4 -19 
4 -12 3 -12 4 -11 3 -9 2 -5 2 -4 2 -3 3 -2 
1 -1 1 0 656 1262 227 MP stroke
/c9 { 0.000000 1.000000 0.000000 sr} bdef
c9
29 0 29 0 29 0 29 0 28 0 27 0 28 0 27 0 
28 0 27 0 27 0 28 0 26 0 27 0 27 0 26 0 
27 0 26 0 26 0 27 0 26 0 27 0 27 0 27 0 
27 0 27 0 28 0 27 0 27 0 28 0 27 0 28 0 
27 0 27 0 27 0 27 0 26 0 27 0 26 0 26 0 
27 0 27 0 26 0 27 0 27 0 27 0 27 0 27 0 
27 0 28 0 27 0 28 0 27 0 27 0 27 0 27 0 
27 0 27 0 26 0 27 0 26 0 27 0 26 0 27 0 
26 0 27 0 27 0 27 0 27 0 27 0 27 0 27 0 
27 0 27 0 27 0 27 0 25 0 26 0 26 0 26 0 
24 0 24 0 24 0 25 0 22 0 22 0 22 0 23 0 
20 0 21 0 20 0 21 0 19 0 19 0 18 0 19 0 
18 0 17 0 17 0 18 0 16 -1 16 0 16 0 16 0 
15 0 15 0 14 0 15 0 15 0 15 0 14 0 15 -1 
14 0 15 0 14 0 15 0 14 -1 15 0 14 0 14 -1 
14 0 15 0 14 -1 14 0 14 -1 14 0 14 -1 14 0 
14 -1 13 -1 14 0 14 -1 13 -1 14 -1 14 -1 13 -1 
14 -2 13 -1 13 -1 14 -2 13 -1 13 -2 13 -2 13 -2 
13 -2 13 -2 13 -3 12 -2 13 -3 13 -3 12 -3 13 -3 
12 -3 12 -4 13 -3 12 -4 12 -4 12 -4 12 -4 12 -4 
11 -5 12 -4 12 -5 11 -5 12 -5 11 -4 11 -5 11 -5 
11 -4 11 -5 11 -4 11 -4 10 -4 10 -4 10 -3 11 -3 
10 -2 9 -1 10 -1 10 0 9 1 10 1 9 3 9 4 
9 5 9 6 9 8 8 9 9 11 8 12 8 14 8 16 
8 18 8 21 8 23 9 25 9 32 9 36 9 39 9 43 
8 40 8 41 7 43 8 45 7 39 7 39 6 37 7 35 
6 27 6 23 6 16 6 7 4 -1 5 -10 5 -21 4 -32 
4 -32 3 -42 4 -51 3 -63 2 -46 2 -51 2 -58 3 -64 
0 -18 1 -19 0 -19 1 -20 0 -21 656 1262 230 MP stroke
gr

c9
0 sg
%%IncludeResource: font Symbol
/Symbol /WindowsLatin1Encoding 120 FMSR

2476  225 mt 
(b) s
%%IncludeResource: font Helvetica
/Helvetica /WindowsLatin1Encoding 120 FMSR

2541  225 mt 
( = 1) s
 639 1617 mt 
( ) s
4550  370 mt 
( ) s
1 sg
0 334 592 0 0 -334 3914 722 4 MP
PP
-592 0 0 334 592 0 0 -334 3914 722 5 MP stroke
4 w
DO
SO
6 w
0 sg
3914  388 mt 4506  388 L
3914  722 mt 4506  722 L
4506  722 mt 4506  388 L
3914  722 mt 3914  388 L
3914  722 mt 4506  722 L
3914  722 mt 3914  388 L
3914  388 mt 4506  388 L
3914  722 mt 4506  722 L
4506  722 mt 4506  388 L
3914  722 mt 3914  388 L
4374  523 mt 
(y) s
gs 3914 388 593 335 rc
c8
354 0 3984 480 2 MP stroke
gr

c8
0 sg
4374  672 mt 
(y') s
gs 3914 388 593 335 rc
c9
354 0 3984 629 2 MP stroke
gr

c9
1 sg
0 1246 3910 0 0 -1246 656 3366 4 MP
PP
-3910 0 0 1246 3910 0 0 -1246 656 3366 5 MP stroke
4 w
DO
SO
6 w
0 sg
 656 2120 mt 4566 2120 L
 656 3366 mt 4566 3366 L
4566 3366 mt 4566 2120 L
 656 3366 mt  656 2120 L
 656 3366 mt 4566 3366 L
 656 3366 mt  656 2120 L
 656 3366 mt  656 3326 L
 656 2120 mt  656 2159 L
 623 3511 mt 
(0) s
1307 3366 mt 1307 3326 L
1307 2120 mt 1307 2159 L
1274 3511 mt 
(5) s
1959 3366 mt 1959 3326 L
1959 2120 mt 1959 2159 L
1893 3511 mt 
(10) s
2611 3366 mt 2611 3326 L
2611 2120 mt 2611 2159 L
2545 3511 mt 
(15) s
3262 3366 mt 3262 3326 L
3262 2120 mt 3262 2159 L
3196 3511 mt 
(20) s
3914 3366 mt 3914 3326 L
3914 2120 mt 3914 2159 L
3848 3511 mt 
(25) s
4566 3366 mt 4566 3326 L
4566 2120 mt 4566 2159 L
4500 3511 mt 
(30) s
 656 3366 mt  695 3366 L
4566 3366 mt 4526 3366 L
 385 3410 mt 
(-0.5) s
 656 2950 mt  695 2950 L
4566 2950 mt 4526 2950 L
 555 2994 mt 
(0) s
 656 2535 mt  695 2535 L
4566 2535 mt 4526 2535 L
 455 2579 mt 
(0.5) s
 656 2120 mt  695 2120 L
4566 2120 mt 4526 2120 L
 555 2164 mt 
(1) s
 656 2120 mt 4566 2120 L
 656 3366 mt 4566 3366 L
4566 3366 mt 4566 2120 L
 656 3366 mt  656 2120 L
gs 656 2120 3911 1247 rc
c8
14 0 13 0 13 0 14 0 25 0 26 0 25 0 26 0 
31 0 31 0 32 0 31 0 32 0 31 0 32 0 32 0 
27 0 26 0 27 0 26 0 23 0 22 0 22 0 23 0 
23 0 23 0 24 0 23 0 29 0 28 0 29 0 28 0 
33 0 32 0 32 0 33 0 29 0 29 0 30 0 29 0 
24 0 24 0 24 0 24 0 22 0 23 0 22 0 22 0 
26 0 26 0 26 0 26 0 31 0 31 0 31 0 31 0 
31 0 31 0 32 0 31 0 26 0 27 0 26 0 27 0 
22 0 23 0 23 0 22 0 24 0 24 0 24 0 23 0 
29 0 29 0 28 0 29 0 32 0 32 0 31 0 32 0 
29 0 29 0 29 0 29 0 24 0 24 0 24 0 24 0 
23 0 23 0 23 0 23 0 26 0 26 0 26 0 26 0 
31 0 30 0 30 0 31 0 29 0 29 0 28 0 29 0 
25 0 25 0 24 0 25 0 24 -1 25 0 25 0 24 0 
28 0 28 0 28 0 27 -1 20 0 19 0 19 0 20 -1 
16 0 16 -1 16 0 17 -1 10 0 11 0 10 -1 11 0 
11 -1 10 0 11 -1 11 0 42 -4 42 -4 42 -6 42 -8 
22 -6 22 -6 23 -8 22 -10 17 -8 17 -9 16 -11 17 -12 
14 -11 14 -12 14 -14 13 -15 12 -14 11 -16 12 -16 12 -18 
9 -17 10 -18 10 -19 10 -21 8 -18 9 -20 8 -21 9 -22 
7 -20 8 -20 7 -21 7 -22 7 -19 6 -19 7 -20 6 -19 
5 -15 5 -14 5 -13 5 -12 4 -8 3 -8 4 -7 4 -5 
2 -3 2 -3 2 -1 3 -2 1 0 1 0 656 2950 183 MP stroke
c9
14 0 13 0 13 0 14 0 25 0 26 0 25 0 26 0 
31 0 31 0 32 0 31 0 32 0 31 0 32 0 32 0 
27 0 26 0 27 0 26 0 23 0 22 0 22 0 23 0 
23 0 23 0 24 0 23 0 29 0 28 0 29 0 28 0 
33 0 32 0 32 0 33 0 29 0 29 0 30 0 29 0 
24 0 24 0 24 0 24 0 22 0 23 0 22 0 22 0 
26 0 26 0 26 0 26 0 31 0 31 0 31 0 31 0 
31 0 31 0 32 0 31 0 26 0 27 0 26 0 27 0 
22 0 23 0 23 0 22 0 24 0 24 0 24 0 23 0 
29 0 29 0 28 0 29 0 32 0 32 0 31 0 32 0 
29 0 29 0 29 0 29 0 24 0 24 0 24 0 24 0 
23 0 23 0 23 0 23 0 26 0 26 0 26 0 26 0 
31 0 30 0 30 0 31 0 29 0 29 0 28 0 29 0 
25 0 25 0 24 0 25 0 24 0 25 0 25 0 24 0 
28 1 28 0 28 0 27 0 20 1 19 0 19 0 20 0 
16 1 16 0 16 1 17 0 10 1 11 0 10 0 11 1 
11 0 10 1 11 0 11 1 42 3 42 5 42 6 42 8 
22 6 22 6 23 8 22 9 17 8 17 10 16 10 17 12 
14 12 14 12 14 13 13 15 12 14 11 15 12 16 12 17 
9 16 10 16 10 18 10 17 8 16 9 17 8 16 9 15 
7 13 8 12 7 10 7 7 7 5 6 1 7 -2 6 -8 
5 -11 5 -15 5 -20 5 -28 4 -24 3 -29 4 -34 4 -39 
2 -29 2 -30 2 -34 3 -37 0 -10 1 -10 0 -10 1 -11 
0 -11 656 2950 186 MP stroke
gr

c9
0 sg
%%IncludeResource: font Symbol
/Symbol /WindowsLatin1Encoding 120 FMSR

2476 2017 mt 
(b) s
%%IncludeResource: font Helvetica
/Helvetica /WindowsLatin1Encoding 120 FMSR

2541 2017 mt 
( = 0) s
 639 3409 mt 
( ) s
4550 2162 mt 
( ) s
1 sg
0 334 592 0 0 -334 3914 2514 4 MP
PP
-592 0 0 334 592 0 0 -334 3914 2514 5 MP stroke
4 w
DO
SO
6 w
0 sg
3914 2180 mt 4506 2180 L
3914 2514 mt 4506 2514 L
4506 2514 mt 4506 2180 L
3914 2514 mt 3914 2180 L
3914 2514 mt 4506 2514 L
3914 2514 mt 3914 2180 L
3914 2180 mt 4506 2180 L
3914 2514 mt 4506 2514 L
4506 2514 mt 4506 2180 L
3914 2514 mt 3914 2180 L
4374 2315 mt 
(y) s
gs 3914 2180 593 335 rc
c8
354 0 3984 2272 2 MP stroke
gr

c8
0 sg
4374 2464 mt 
(y') s
gs 3914 2180 593 335 rc
c9
354 0 3984 2421 2 MP stroke
gr

c9

end %%Color Dict

eplot
%%EndObject

epage
end

showpage

%%Trailer
%%EOF
