%!PS-Adobe-3.0 EPSF-3.0
%%Title: MATLAB
%%Creator: PScript5.dll Version 5.2.2
%%CreationDate: 10/24/2011 11:44:0
%%For: XDrz
%%BoundingBox: 0 0 595 842
%%Pages: 1
%%Orientation: Portrait
%%PageOrder: Ascend
%%DocumentNeededResources: (atend)
%%DocumentSuppliedResources: (atend)
%%DocumentData: Clean7Bit
%%TargetDevice: () (52.3) 320
%%LanguageLevel: 1
%%EndComments

%%BeginDefaults
%%PageBoundingBox: 0 0 595 842
%%ViewingOrientation: 1 0 0 1
%%EndDefaults

%%BeginProlog
%%BeginResource: file Pscript_WinNT_VMErrorHandler 5.0 0
/currentpacking where{pop/oldpack currentpacking def/setpacking where{pop false
setpacking}if}if/$brkpage 64 dict def $brkpage begin/prnt{dup type/stringtype
ne{=string cvs}if dup length 6 mul/tx exch def/ty 10 def currentpoint/toy exch
def/tox exch def 1 setgray newpath tox toy 2 sub moveto 0 ty rlineto tx 0
rlineto 0 ty neg rlineto closepath fill tox toy moveto 0 setgray show}bind def
/nl{currentpoint exch pop lmargin exch moveto 0 -10 rmoveto}def/=={/cp 0 def
typeprint nl}def/typeprint{dup type exec}readonly def/lmargin 72 def/rmargin 72
def/tprint{dup length cp add rmargin gt{nl/cp 0 def}if dup length cp add/cp
exch def prnt}readonly def/cvsprint{=string cvs tprint( )tprint}readonly def
/integertype{cvsprint}readonly def/realtype{cvsprint}readonly def/booleantype
{cvsprint}readonly def/operatortype{(--)tprint =string cvs tprint(-- )tprint}
readonly def/marktype{pop(-mark- )tprint}readonly def/dicttype{pop
(-dictionary- )tprint}readonly def/nulltype{pop(-null- )tprint}readonly def
/filetype{pop(-filestream- )tprint}readonly def/savetype{pop(-savelevel- )
tprint}readonly def/fonttype{pop(-fontid- )tprint}readonly def/nametype{dup
xcheck not{(/)tprint}if cvsprint}readonly def/stringtype{dup rcheck{(\()tprint
tprint(\))tprint}{pop(-string- )tprint}ifelse}readonly def/arraytype{dup rcheck
{dup xcheck{({)tprint{typeprint}forall(})tprint}{([)tprint{typeprint}forall(])
tprint}ifelse}{pop(-array- )tprint}ifelse}readonly def/packedarraytype{dup
rcheck{dup xcheck{({)tprint{typeprint}forall(})tprint}{([)tprint{typeprint}
forall(])tprint}ifelse}{pop(-packedarray- )tprint}ifelse}readonly def/courier
/Courier findfont 10 scalefont def end errordict/handleerror{systemdict begin
$error begin $brkpage begin newerror{/newerror false store vmstatus pop pop 0
ne{grestoreall}if initgraphics courier setfont lmargin 720 moveto errorname
(VMerror)eq{version cvi 2016 ge{userdict/ehsave known{clear userdict/ehsave get
restore 2 vmreclaim}if vmstatus exch pop exch pop PrtVMMsg}if}if systemdict
/showpage get exec(%%[ Error: )print errorname =print(; OffendingCommand: )
print/command load =print( ]%%)= flush}if end end end}dup 0 systemdict put dup
4 $brkpage put bind readonly put/currentpacking where{pop/setpacking where{pop
oldpack setpacking}if}if
%%EndResource
%%BeginProcSet: Pscript_Res_Emul 5.0 0
/defineresource where{pop}{userdict begin/defineresource{userdict/Resources 2
copy known{get begin}{15 dict dup begin put}ifelse exch readonly exch
currentdict 1 index known not{dup 30 dict def}if load 3 -1 roll 2 index put
end}bind readonly def/findresource{userdict/Resources get exch get exch get}
bind readonly def/resourceforall{pop pop pop pop}bind readonly def
/resourcestatus{userdict/Resources 2 copy known{get exch 2 copy known{get exch
known{0 -1 true}{false}ifelse}{pop pop pop false}ifelse}{pop pop pop pop false}
ifelse}bind readonly def end}ifelse
%%EndProcSet
userdict /Pscript_WinNT_Incr 230 dict dup begin put
%%BeginResource: file Pscript_FatalError 5.0 0
userdict begin/FatalErrorIf{{initgraphics findfont 1 index 0 eq{exch pop}{dup
length dict begin{1 index/FID ne{def}{pop pop}ifelse}forall/Encoding
{ISOLatin1Encoding}stopped{StandardEncoding}if def currentdict end
/ErrFont-Latin1 exch definefont}ifelse exch scalefont setfont counttomark 3 div
cvi{moveto show}repeat showpage quit}{cleartomark}ifelse}bind def end
%%EndResource
userdict begin/PrtVMMsg{vmstatus exch sub exch pop gt{[
(This job requires more memory than is available in this printer.)100 500
(Try one or more of the following, and then print again:)100 485
(For the output format, choose Optimize For Portability.)115 470
(In the Device Settings page, make sure the Available PostScript Memory is accurate.)
115 455(Reduce the number of fonts in the document.)115 440
(Print the document in parts.)115 425 12/Times-Roman[/MSung-Light--ETen-B5-H
dup{findfont}stopped{cleartomark}{/FontName get eq{pop cleartomark[
<b8d3a4e5a5f3bbddad6ea5ceaabaa4baa673a4d3a6682e20b17aa569a548b8d5a5cea670a455aa
baa4e8aa6ba641a5b4a64ca147>100 500<a66222506f737453637269707422b9efb8dcaed82c
20bfefbedc22506f737453637269707428a569c4e2a9cab3cca8cea4c6202d2041445343292e>
115 485<a66222b35db3c6bfefb6b522b9efb8dcaed82c2022a569a5ceaabaa64caaedbef7b04f
bed0c5e9284b422922aabaadc8ac4fbaebbd54aaba2e>115 470<a662a4e5a5f3a4a4a4d6a5ce
a44cbad8a672c5e92e>115 455<b3e6bf57a5b4a64cb8d3a4e5a5f3aabaa4a3a650b3a1a4c0a9
ceadb62e>115 440 10 0/MSung-Light--ETen-B5-H}{cleartomark}ifelse}ifelse
showpage(%%[ PrinterError: Low Printer VM ]%%)= true FatalErrorIf}if}bind def
end version cvi 2016 ge{/VM?{pop}bind def}{/VM? userdict/PrtVMMsg get def}
ifelse
%%BeginResource: file Pscript_Win_Basic 5.0 0
/d/def load def/,/load load d/~/exch , d/?/ifelse , d/!/pop , d/`/begin , d/^
/index , d/@/dup , d/+/translate , d/$/roll , d/U/userdict , d/M/moveto , d/-
/rlineto , d/&/currentdict , d/:/gsave , d/;/grestore , d/F/false , d/T/true ,
d/N/newpath , d/E/end , d/Ac/arc , d/An/arcn , d/A/ashow , d/D/awidthshow , d/C
/closepath , d/V/div , d/O/eofill , d/L/fill , d/I/lineto , d/-c/curveto , d/-M
/rmoveto , d/+S/scale , d/Ji/setfont , d/Lc/setlinecap , d/Lj/setlinejoin , d
/Lw/setlinewidth , d/Lm/setmiterlimit , d/sd/setdash , d/S/show , d/LH/showpage
, d/K/stroke , d/W/widthshow , d/R/rotate , d/L2? false/languagelevel where{pop
languagelevel 2 ge{pop true}if}if d L2?{/xS/xshow , d/yS/yshow , d/zS/xyshow ,
d}if/b{bind d}bind d/bd{bind d}bind d/xd{~ d}bd/ld{, d}bd/bn/bind ld/lw/Lw ld
/lc/Lc ld/lj/Lj ld/sg/setgray ld/ADO_mxRot null d/self & d/OrgMx matrix
currentmatrix d/reinitialize{: OrgMx setmatrix[/TextInit/GraphInit/UtilsInit
counttomark{@ where{self eq}{F}?{cvx exec}{!}?}repeat cleartomark ;}b
/initialize{`{/Pscript_Win_Data where{!}{U/Pscript_Win_Data & put}?/ADO_mxRot ~
d/TextInitialised? F d reinitialize E}{U/Pscript_Win_Data 230 dict @ ` put
/ADO_mxRot ~ d/TextInitialised? F d reinitialize}?}b/terminate{!{& self eq
{exit}{E}?}loop E}b/suspend/terminate , d/resume{` Pscript_Win_Data `}b U `
/lucas 21690 d/featurebegin{countdictstack lucas[}b/featurecleanup{stopped
{cleartomark @ lucas eq{! exit}if}loop countdictstack ~ sub @ 0 gt{{E}repeat}
{!}?}b E/snap{transform 0.25 sub round 0.25 add ~ 0.25 sub round 0.25 add ~
itransform}b/dsnap{dtransform round ~ round ~ idtransform}b/nonzero_round{@ 0.5
ge{round}{@ -0.5 lt{round}{0 ge{1}{-1}?}?}?}b/nonzero_dsnap{dtransform
nonzero_round ~ nonzero_round ~ idtransform}b U<04>cvn{}put/rr{1 ^ 0 - 0 ~ -
neg 0 - C}b/irp{4 -2 $ + +S fx 4 2 $ M 1 ^ 0 - 0 ~ - neg 0 -}b/rp{4 2 $ M 1 ^ 0
- 0 ~ - neg 0 -}b/solid{[]0 sd}b/g{@ not{U/DefIf_save save put}if U/DefIf_bool
2 ^ put}b/DefIf_El{if U/DefIf_bool get not @{U/DefIf_save get restore}if}b/e
{DefIf_El !}b/UDF{L2?{undefinefont}{!}?}b/UDR{L2?{undefineresource}{! !}?}b
/freeVM{/Courier findfont[40 0 0 -40 0 0]makefont Ji 2 vmreclaim}b/hfRedefFont
{findfont @ length dict `{1 ^/FID ne{d}{! !}?}forall & E @ ` ~{/CharStrings 1
dict `/.notdef 0 d & E d}if/Encoding 256 array 0 1 255{1 ^ ~/.notdef put}for d
E definefont !}bind d/hfMkCIDFont{/CIDFont findresource @ length 2 add dict `{1
^ @/FID eq ~ @/XUID eq ~/UIDBase eq or or{! !}{d}?}forall/CDevProc ~ d/Metrics2
16 dict d/CIDFontName 1 ^ d & E 1 ^ ~/CIDFont defineresource ![~]composefont !}
bind d
%%EndResource
%%BeginResource: file Pscript_Win_Utils_L1 5.0 0
/rf{N rp L}b/fx{1 1 dtransform @ 0 ge{1 sub 1}{1 add -0.25}? 3 -1 $ @ 0 ge{1
sub 1}{1 add -0.25}? 3 1 $ 4 1 $ idtransform 4 -2 $ idtransform}b/BZ{4 -2 $
snap + +S fx rf}b/rs{N rp C K}b/rc{N rp clip N}b/UtilsInit{}b/setcolorspace{!}b
/scol{[/setgray/setrgbcolor/setcolor/setcmykcolor/setcolor/setgray]~ get cvx
exec}b/colspRefresh{}b/AddFontInfoBegin{/FontInfo 8 dict @ `}bind d/AddFontInfo
{/GlyphNames2Unicode 16 dict d/GlyphNames2HostCode 16 dict d}bind d
/AddFontInfoEnd{E d}bind d
%%EndResource
end
%%EndProlog

%%BeginSetup
[ 1 0 0 1 0 0 ] false Pscript_WinNT_Incr dup /initialize get exec
1 setlinecap 1 setlinejoin
/mysetup [ 72 600 V 0 0 -72 600 V 0 842.0003 ] def 
%%EndSetup

%%Page: 1 1
%%PageBoundingBox: 0 0 595 842
%%EndPageComments
%%BeginPageSetup
/DeviceRGB dup setcolorspace /colspABC exch def
mysetup concat colspRefresh
%%EndPageSetup

Pscript_WinNT_Incr begin
%%BeginResource: file Pscript_Win_GdiObject 5.0 0
/SavedCTM null d/CTMsave{/SavedCTM SavedCTM currentmatrix d}b/CTMrestore
{SavedCTM setmatrix}b/mp null d/ADO_mxRot null d/GDIHMatrix null d
/GDIHPatternDict 22 dict d GDIHPatternDict `/PatternType 1 d/PaintType 2 d/Reps
L2?{1}{5}? d/XStep 8 Reps mul d/YStep XStep d/BBox[0 0 XStep YStep]d/TilingType
1 d/PaintProc{` 1 Lw[]0 sd PaintData , exec E}b/FGnd null d/BGnd null d
/HS_Horizontal{horiz}b/HS_Vertical{vert}b/HS_FDiagonal{fdiag}b/HS_BDiagonal
{biag}b/HS_Cross{horiz vert}b/HS_DiagCross{fdiag biag}b/MaxXYStep XStep YStep
gt{XStep}{YStep}? d/horiz{Reps{0 4 M XStep 0 - 0 8 +}repeat 0 -8 Reps mul + K}b
/vert{Reps{4 0 M 0 YStep - 8 0 +}repeat 0 -8 Reps mul + K}b/biag{Reps{0 0 M
MaxXYStep @ - 0 YStep neg M MaxXYStep @ - 0 8 +}repeat 0 -8 Reps mul + 0 YStep
M 8 8 - K}b/fdiag{Reps{0 0 M MaxXYStep @ neg - 0 YStep M MaxXYStep @ neg - 0 8
+}repeat 0 -8 Reps mul + MaxXYStep @ M 8 -8 - K}b E/makehatch{4 -2 $/yOrg ~ d
/xOrg ~ d GDIHPatternDict/PaintData 3 -1 $ put CTMsave GDIHMatrix setmatrix
GDIHPatternDict matrix xOrg yOrg + mp CTMrestore ~ U ~ 2 ^ put}b/h0{/h0
/HS_Horizontal makehatch}b/h1{/h1/HS_Vertical makehatch}b/h2{/h2/HS_FDiagonal
makehatch}b/h3{/h3/HS_BDiagonal makehatch}b/h4{/h4/HS_Cross makehatch}b/h5{/h5
/HS_DiagCross makehatch}b/GDIBWPatternMx null d/pfprep{save 8 1 $
/PatternOfTheDay 8 1 $ GDIBWPatternDict `/yOrg ~ d/xOrg ~ d/PaintData ~ d/yExt
~ d/Width ~ d/BGnd ~ d/FGnd ~ d/Height yExt RepsV mul d/mx[Width 0 0 Height 0
0]d E build_pattern ~ !}b/pfbf{/fEOFill ~ d pfprep hbf fEOFill{O}{L}? restore}b
/GraphInit{GDIHMatrix null eq{/SavedCTM matrix d : ADO_mxRot concat 0 0 snap +
: 0.48 @ GDIHPatternDict ` YStep mul ~ XStep mul ~ nonzero_dsnap YStep V ~
XStep V ~ E +S/GDIHMatrix matrix currentmatrix readonly d ; : 0.24 -0.24 +S
GDIBWPatternDict ` Width Height E nonzero_dsnap +S/GDIBWPatternMx matrix
currentmatrix readonly d ; ;}if}b
%%EndResource
%%BeginResource: file Pscript_Win_GdiObject_L1 5.0 0
/GDIBWPatternDict 25 dict @ `/PatternType 1 d/PaintType 2 d/RepsV 6 d/RepsH 5 d
/BBox[0 0 RepsH 1]d/TilingType 1 d/XStep 1 d/YStep 1 d/Height 8 RepsV mul d
/Width 8 d/mx[Width 0 0 Height neg 0 Height]d/FGnd null d/BGnd null d
/SetBGndFGnd{}b/PaintProc{` SetBGndFGnd RepsH{Width Height F mx PaintData
imagemask Width 0 +}repeat E}b E d/GDIpattfill{@ ` BGnd null ne PaintType 2 eq
and{: BGnd aload ! scol fEOFill{O}{L}? ; FGnd aload ! U/iCol 2 ^ put @ 0 eq{!
2}{@ 1 eq ~ 2 eq or{4}{5}?}? -1 $}if E @ patterncalc : 4 ^/PaintType get 2 eq
{iCol 0 eq{6 -1 $}if iCol 1 eq iCol 2 eq or{8 -3 $}if iCol 3 eq iCol 4 eq or{9
-4 $}if iCol scol}if fEOFill{eoclip}{clip}? N patternfill ; N}b/hbf
{GDIpattfill}b/hfMain{/fEOFill ~ d ~/iCol ~ d GDIpattfill}b/hf{: hfMain ;}b
/mpstr 1 string d/mp{~ @ length 12 add dict copy `/PatternCTM matrix
currentmatrix d/PatternMatrix ~ d/PatWidth XStep mpstr length mul d/PatHeight
YStep d/FontType 3 d/Encoding 256 array d 3 string 0 1 255{Encoding ~ @ 3 ^ cvs
cvn put}for !/FontMatrix matrix d/FontBBox BBox d/BuildChar{! @ ` XStep 0
FontBBox aload ! setcachedevice/PaintProc , E : exec ;}b & E ~ @ 3 -1 $
definefont}b/build_pattern{: GDIBWPatternDict ` Width Height E dsnap +S
/GDIBWPatternMx matrix currentmatrix d ; CTMsave GDIBWPatternMx setmatrix
GDIBWPatternDict @ ` xOrg yOrg E matrix + mp CTMrestore}b/patterncalc{` :
PatternCTM setmatrix PatternMatrix concat BBox aload ! ! ! + pathbbox ;
PatHeight V ceiling 4 1 $ PatWidth V ceiling 4 1 $ PatHeight V floor 4 1 $
PatWidth V floor 4 1 $ 2 ^ sub cvi abs ~ 3 ^ sub cvi abs ~ 4 2 $ PatHeight mul
~ PatWidth mul ~ E}b/patternfill{5 -1 $ @ ` Ji PatternCTM setmatrix
PatternMatrix concat 0 2 ^ 2 ^ M 0 1 mpstr length 1 sub{1 ^ mpstr 3 1 $ put}for
! 2 ^{currentpoint 5 ^{mpstr S}repeat YStep add M}repeat ! ! ! ! E}b/pbf{: 14
dict `/fGray ~ d/fEOFill ~ d/yOrg ~ d/xOrg ~ d/PaintData ~ d/OutputBPP ~ d
/Height ~ d/Width ~ d/mx xOrg yOrg matrix + d fGray{/PaintProc{` Width Height
OutputBPP mx PaintData image E}b}{/PaintProc{` Width Height 8 mx PaintData F
OutputBPP 8 idiv colorimage E}b}? pathbbox fEOFill{eoclip}{clip}?/Top ~ d/Right
~ d/Bottom ~ d/Left ~ d Top Height neg Bottom 1 sub{Left Width Right 1 sub{1 ^
2 copy + & PaintProc neg ~ neg ~ +}bind for !}bind for E ;}b
%%EndResource
end reinitialize
: 150 150 4660 6715 rc : N 150 150 4661 6716 rp C 
1 1 1 1 scol  L ; ; N 668 5299 M 668 1114 I 4457 1114 I 4457 5299 I C 
1 1 1 1 scol  O 1 Lj 0 Lc 4 Lw solid N 668 5299 M 668 1114 I 4457 1114 I 4457 5299 I 668 5299 I : [ 1 0 0 1 150 150 ] concat K 
; 0 0 0 1 scol 2 Lw [ 4 33 ] 0 sd N 668 5299 M 668 1114 I : [ 1 0 0 1 150 150 ] concat K 
; : N 668 1114 1 1 rp C 
 L ; N 668 1114 M 668 1114 I : [ 1 0 0 1 150 150 ] concat K 
; : N 668 1114 1 1 rp C 
 L ; N 1046 5299 M 1046 1114 I : [ 1 0 0 1 150 150 ] concat K 
; : N 1046 1114 1 1 rp C 
 L ; N 1046 1114 M 1046 1114 I : [ 1 0 0 1 150 150 ] concat K 
; : N 1046 1114 1 1 rp C 
 L ; N 1425 5299 M 1425 1114 I : [ 1 0 0 1 150 150 ] concat K 
; : N 1425 1114 1 1 rp C 
 L ; N 1425 1114 M 1425 1114 I : [ 1 0 0 1 150 150 ] concat K 
; : N 1425 1114 1 1 rp C 
 L ; N 1804 5299 M 1804 1114 I : [ 1 0 0 1 150 150 ] concat K 
; : N 1804 1114 1 1 rp C 
 L ; N 1804 1114 M 1804 1114 I : [ 1 0 0 1 150 150 ] concat K 
; : N 1804 1114 1 1 rp C 
 L ; N 2183 5299 M 2183 1114 I : [ 1 0 0 1 150 150 ] concat K 
; : N 2183 1114 1 1 rp C 
 L ; N 2183 1114 M 2183 1114 I : [ 1 0 0 1 150 150 ] concat K 
; : N 2183 1114 1 1 rp C 
 L ; N 2562 5299 M 2562 1114 I : [ 1 0 0 1 150 150 ] concat K 
; : N 2562 1114 1 1 rp C 
 L ; N 2562 1114 M 2562 1114 I : [ 1 0 0 1 150 150 ] concat K 
; : N 2562 1114 1 1 rp C 
 L ; N 2941 5299 M 2941 1114 I : [ 1 0 0 1 150 150 ] concat K 
; : N 2941 1114 1 1 rp C 
 L ; N 2941 1114 M 2941 1114 I : [ 1 0 0 1 150 150 ] concat K 
; : N 2941 1114 1 1 rp C 
 L ; N 3320 5299 M 3320 1114 I : [ 1 0 0 1 150 150 ] concat K 
; : N 3320 1114 1 1 rp C 
 L ; N 3320 1114 M 3320 1114 I : [ 1 0 0 1 150 150 ] concat K 
; : N 3320 1114 1 1 rp C 
 L ; N 3699 5299 M 3699 1114 I : [ 1 0 0 1 150 150 ] concat K 
; : N 3699 1114 1 1 rp C 
 L ; N 3699 1114 M 3699 1114 I : [ 1 0 0 1 150 150 ] concat K 
; : N 3699 1114 1 1 rp C 
 L ; N 4078 5299 M 4078 1114 I : [ 1 0 0 1 150 150 ] concat K 
; : N 4078 1114 1 1 rp C 
 L ; N 4078 1114 M 4078 1114 I : [ 1 0 0 1 150 150 ] concat K 
; : N 4078 1114 1 1 rp C 
 L ; N 4457 5299 M 4457 1114 I : [ 1 0 0 1 150 150 ] concat K 
; : N 4457 1114 1 1 rp C 
 L ; N 4457 1114 M 4457 1114 I : [ 1 0 0 1 150 150 ] concat K 
; : N 4457 1114 1 1 rp C 
 L ; N 668 5299 M 4457 5299 I : [ 1 0 0 1 150 150 ] concat K 
; : N 4457 5299 1 1 rp C 
 L ; N 4457 5299 M 4457 5299 I : [ 1 0 0 1 150 150 ] concat K 
; : N 4457 5299 1 1 rp C 
 L ; N 668 4880 M 4457 4880 I : [ 1 0 0 1 150 150 ] concat K 
; : N 4457 4880 1 1 rp C 
 L ; N 4457 4880 M 4457 4880 I : [ 1 0 0 1 150 150 ] concat K 
; : N 4457 4880 1 1 rp C 
 L ; N 668 4462 M 4457 4462 I : [ 1 0 0 1 150 150 ] concat K 
; : N 4457 4462 1 1 rp C 
 L ; N 4457 4462 M 4457 4462 I : [ 1 0 0 1 150 150 ] concat K 
; : N 4457 4462 1 1 rp C 
 L ; N 668 4043 M 4457 4043 I : [ 1 0 0 1 150 150 ] concat K 
; : N 4457 4043 1 1 rp C 
 L ; N 4457 4043 M 4457 4043 I : [ 1 0 0 1 150 150 ] concat K 
; : N 4457 4043 1 1 rp C 
 L ; N 668 3625 M 4457 3625 I : [ 1 0 0 1 150 150 ] concat K 
; : N 4457 3625 1 1 rp C 
 L ; N 4457 3625 M 4457 3625 I : [ 1 0 0 1 150 150 ] concat K 
; : N 4457 3625 1 1 rp C 
 L ; N 668 3206 M 4457 3206 I : [ 1 0 0 1 150 150 ] concat K 
; : N 4457 3206 1 1 rp C 
 L ; N 4457 3206 M 4457 3206 I : [ 1 0 0 1 150 150 ] concat K 
; : N 4457 3206 1 1 rp C 
 L ; N 668 2788 M 4457 2788 I : [ 1 0 0 1 150 150 ] concat K 
; : N 4457 2788 1 1 rp C 
 L ; N 4457 2788 M 4457 2788 I : [ 1 0 0 1 150 150 ] concat K 
; : N 4457 2788 1 1 rp C 
 L ; N 668 2369 M 4457 2369 I : [ 1 0 0 1 150 150 ] concat K 
; : N 4457 2369 1 1 rp C 
 L ; N 4457 2369 M 4457 2369 I : [ 1 0 0 1 150 150 ] concat K 
; : N 4457 2369 1 1 rp C 
 L ; N 668 1951 M 4457 1951 I : [ 1 0 0 1 150 150 ] concat K 
; : N 4457 1951 1 1 rp C 
 L ; N 4457 1951 M 4457 1951 I : [ 1 0 0 1 150 150 ] concat K 
; : N 4457 1951 1 1 rp C 
 L ; N 668 1532 M 4457 1532 I : [ 1 0 0 1 150 150 ] concat K 
; : N 4457 1532 1 1 rp C 
 L ; N 4457 1532 M 4457 1532 I : [ 1 0 0 1 150 150 ] concat K 
; : N 4457 1532 1 1 rp C 
 L ; N 668 1114 M 4457 1114 I : [ 1 0 0 1 150 150 ] concat K 
; : N 4457 1114 1 1 rp C 
 L ; N 4457 1114 M 4457 1114 I : [ 1 0 0 1 150 150 ] concat K 
; : N 4457 1114 1 1 rp C 
 L ; 4 Lw solid N 668 1114 M 4457 1114 I : [ 1 0 0 1 150 150 ] concat K 
; : N 4457 1114 1 1 rp C 
 L ; N 668 5299 M 4457 5299 I : [ 1 0 0 1 150 150 ] concat K 
; : N 4457 5299 1 1 rp C 
 L ; N 4457 5299 M 4457 1114 I : [ 1 0 0 1 150 150 ] concat K 
; : N 4457 1114 1 1 rp C 
 L ; N 668 5299 M 668 1114 I : [ 1 0 0 1 150 150 ] concat K 
; : N 668 1114 1 1 rp C 
 L ; N 668 5299 M 4457 5299 I : [ 1 0 0 1 150 150 ] concat K 
; : N 4457 5299 1 1 rp C 
 L ; N 668 5299 M 668 1114 I : [ 1 0 0 1 150 150 ] concat K 
; : N 668 1114 1 1 rp C 
 L ; N 668 5299 M 668 5257 I : [ 1 0 0 1 150 150 ] concat K 
; : N 668 5257 1 1 rp C 
 L ; N 668 1114 M 668 1155 I : [ 1 0 0 1 150 150 ] concat K 
; : N 668 1155 1 1 rp C 
 L ; Pscript_WinNT_Incr begin
%%BeginResource: file Pscript_T3Hdr 5.0 0
{version cvi 2016 ge{32/FontType resourcestatus{pop pop true}{false}ifelse}
{false}ifelse}exec/Is2016andT32? exch def/T32DefSBCMap{/CIDInit/ProcSet
findresource begin 10 dict begin begincmap/CIDSystemInfo 3 dict dup begin
/Registry(Adobe)def/Ordering(Identity1)def/Supplement 0 def end def/CMapType 0
def/WMode 0 def 1 begincodespacerange<00><ff>endcodespacerange 1 begincidrange
<00><ff>0 endcidrange endcmap/DrvSBCMap currentdict/CMap defineresource pop end
end}bind def Is2016andT32?{T32DefSBCMap}def/T32RsrcBegin{Is2016andT32?{
/BitmapFontInit/ProcSet findresource begin}if}bind def/T32RsrcEnd{Is2016andT32?
{end}if}bind def/AddT32Char{6 1 roll 0 get 7 1 roll pop pop 5 1 roll pop
findfont/TT32R get addglyph}bind def/AddT3Char{findfont dup 5 2 roll 1 index
length 0 gt{cvx 1 index exch 4 exch put dup(imagemask)cvx cvn 5 exch put cvx}
{pop cvx}ifelse 3 -1 roll/CharProcs get 3 1 roll put dup/Encoding get 5 -1 roll
4 index put/Metrics get 3 1 roll put}bind def/AddT3T32Char Is2016andT32?{
/AddT32Char}{/AddT3Char}ifelse load def/GreNewFontT32{5 dict begin exch
/FontMatrix exch def exch/FontBBox exch def exch pop exch pop/CIDFontType 4 def
dup currentdict end/CIDFont defineresource 3 -1 roll dup/DrvSBCMap dup/CMap
resourcestatus{pop pop}{T32DefSBCMap}ifelse 5 -1 roll[exch]composefont dup
length dict copy dup/FID undef begin exch/TT32R exch def currentdict end
definefont/BitmapFontInit/ProcSet findresource begin/TT32R get[14 0 0 0 0 0]<>0
4 -1 roll addglyph end}bind def/GreNewFontT3{11 dict begin pop/FontType 3 def
/FontMatrix exch def/FontBBox exch def/Encoding exch def/CharProcs 257 dict def
CharProcs/.notdef{}put/Metrics 257 dict def Metrics/.notdef 3 -1 roll put
AddFontInfoBegin AddFontInfo AddFontInfoEnd/BuildChar{userdict begin/char exch
def dup/charname exch/Encoding get char get def dup/Metrics get charname 2 copy
known{get aload pop}{pop/.notdef get aload pop}ifelse setcachedevice begin
Encoding char get CharProcs exch 2 copy known{get}{pop/.notdef get}ifelse end
exec end}def currentdict end definefont pop}bind def/GreNewFont{Is2016andT32?
{GreNewFontT32}{GreNewFontT3}ifelse}bind def/UDF3{Is2016andT32?{/BitmapFontInit
/ProcSet findresource begin dup/CIDFont findresource removeall/CIDFont
undefineresource undefinefont end}{pop UDF}ifelse}bind def
%%EndResource
end reinitialize
/TT21b00
[66 0 0 0 0 0 ] 
 256 array 0 1 255 {1 index exch /.notdef put} for 
[0 0 0 0 ] 
[1 66 div 0 0 -1 66 div 0 0 ]
/__TT21b00
GreNewFont
T32RsrcBegin

1
/g305 [31 0 1 -45 29 5 ] 
/g305 [28 50 true [1 0 0 1 -1 45 ]  0 0]
[<00070000
003fe000
00f07800
01e03c00
03c01e00
07800f00
07000f00
0f000780
0e000780
1e0003c0
1e0003c0
3c0003c0
3c0001e0
3c0001e0
3c0001e0
7c0001e0
780001f0
780000f0
780000f0
780000f0
780000f0
780000f0
f80000f0
f80000f0
f80000f0
f80000f0
f80000f0
f80000f0
780000f0
780000f0
780000f0
780000f0
780000f0
780001f0
780001f0
7c0001e0
3c0001e0
3c0001e0
3c0003e0
1e0003c0
1e0003c0
1e000780
0f000780
0f000700
07800f00
03801e00
01c03c00
00f07800
007ff000
000f8000
>
 ]
/TT21b00 AddT3T32Char
T32RsrcEnd
Pscript_WinNT_Incr begin
%%BeginResource: file Pscript_Text 5.0 0
/TextInit{TextInitialised? not{/Pscript_Windows_Font & d/TextInitialised? T d
/fM[1 0 0 1 0 0]d/mFM matrix d/iMat[1 0 0.212557 1 0 0]d}if}b/copyfont{1 ^
length add dict `{1 ^/FID ne{d}{! !}?}forall & E}b/EncodeDict 11 dict d/bullets
{{/bullet}repeat}b/rF{3 copyfont @ ` ~ EncodeDict ~ get/Encoding ~ 3 ^/0 eq{&
/CharStrings known{CharStrings/Eth known not{! EncodeDict/ANSIEncodingOld get}
if}if}if d E}b/mF{@ 7 1 $ findfont ~{@/Encoding get @ StandardEncoding eq{! T}{
{ISOLatin1Encoding}stopped{! F}{eq}?{T}{@ ` T 32 1 127{Encoding 1 ^ get
StandardEncoding 3 -1 $ get eq and}for E}?}?}{F}?{1 ^ ~ rF}{0 copyfont}? 6 -2 $
! ! ~ !/pd_charset @ where{~ get 128 eq{@ FDV 2 copy get @ length array copy
put pd_CoverFCRange}if}{!}? 2 ^ ~ definefont fM 5 4 -1 $ put fM 4 0 put fM
makefont Pscript_Windows_Font 3 1 $ put}b/sLT{: Lw -M currentpoint snap M 0 - 0
Lc K ;}b/xUP null d/yUP null d/uW null d/xSP null d/ySP null d/sW null d/sSU{N
/uW ~ d/yUP ~ d/xUP ~ d}b/sU{xUP yUP uW sLT}b/sST{N/sW ~ d/ySP ~ d/xSP ~ d}b/sT
{xSP ySP sW sLT}b/sR{: + R 0 0 M}b/sRxy{: matrix astore concat 0 0 M}b/eR/; , d
/AddOrigFP{{&/FontInfo known{&/FontInfo get length 6 add}{6}? dict `
/WinPitchAndFamily ~ d/WinCharSet ~ d/OrigFontType ~ d/OrigFontStyle ~ d
/OrigFontName ~ d & E/FontInfo ~ d}{! ! ! ! !}?}b/mFS{makefont
Pscript_Windows_Font 3 1 $ put}b/mF42D{0 copyfont `/FontName ~ d 2 copy ~ sub 1
add dict `/.notdef 0 d 2 copy 1 ~{@ 3 ^ sub Encoding ~ get ~ d}for & E
/CharStrings ~ d ! ! & @ E/FontName get ~ definefont}b/mF42{15 dict ` @ 4 1 $
FontName ~ d/FontType 0 d/FMapType 2 d/FontMatrix[1 0 0 1 0 0]d 1 ^ 254 add 255
idiv @ array/Encoding ~ d 0 1 3 -1 $ 1 sub{@ Encoding 3 1 $ put}for/FDepVector
Encoding length array d/CharStrings 2 dict `/.notdef 0 d & E d 0 1 Encoding
length 1 sub{@ @ 10 lt{! FontName length 1 add string}{100 lt{FontName length 2
add string}{FontName length 3 add string}?}? @ 0 FontName @ length string cvs
putinterval @ 3 -1 $ @ 4 1 $ 3 string cvs FontName length ~ putinterval cvn 1 ^
256 mul @ 255 add 3 -1 $ 4 ^ findfont mF42D FDepVector 3 1 $ put}for & @ E
/FontName get ~ definefont ! ! ! mF}b/mF_OTF_V{~ ! ~ ! 4 -1 $ ! findfont 2 ^ ~
definefont fM @ @ 4 6 -1 $ neg put 5 0 put 90 matrix R matrix concatmatrix
makefont Pscript_Windows_Font 3 1 $ put}b/mF_TTF_V{3{~ !}repeat 3 -1 $ !
findfont 1 ^ ~ definefont Pscript_Windows_Font 3 1 $ put}b/UmF{L2?
{Pscript_Windows_Font ~ undef}{!}?}b/UmF42{@ findfont/FDepVector get{/FontName
get undefinefont}forall undefinefont}b
%%EndResource
end reinitialize
F /F0 0 /0 F /TT21b00 mF 
/F0S42 F0 [66.145 0 0 -66.145 0 0 ] mFS
F0S42 Ji 
653 5376 M <01>S 
N 1046 5299 M 1046 5257 I : [ 1 0 0 1 150 150 ] concat K 
; : N 1046 5257 1 1 rp C 
 L ; N 1046 1114 M 1046 1155 I : [ 1 0 0 1 150 150 ] concat K 
; : N 1046 1155 1 1 rp C 
 L ; T32RsrcBegin

2
/g310 [31 0 2 -45 27 5 ] 
/g310 [25 50 true [1 0 0 1 -2 45 ]  0 0]
[<00000180
007fff00
00ffff00
00fffe00
00fffe00
01c00000
01c00000
03800000
03800000
03000000
07000000
07000000
0e000000
0e000000
0fe00000
1ff80000
1ffe0000
3fff8000
3fffc000
00ffe000
001ff000
0007f800
0001f800
0000fc00
00007e00
00003e00
00001e00
00000f00
00000f00
00000f00
00000700
00000700
00000700
00000700
00000700
00000700
00000700
00000600
00000600
00000e00
00000c00
00000c00
00001800
00003800
60007000
fc00e000
ff83c000
7fff0000
3ffc0000
0fe00000
>
 ]
/TT21b00 AddT3T32Char
T32RsrcEnd
1031 5376 M <02>S 
N 1425 5299 M 1425 5257 I : [ 1 0 0 1 150 150 ] concat K 
; : N 1425 5257 1 1 rp C 
 L ; N 1425 1114 M 1425 1155 I : [ 1 0 0 1 150 150 ] concat K 
; : N 1425 1155 1 1 rp C 
 L ; T32RsrcBegin

3
/g306 [31 0 7 -44 24 4 ] 
/g306 [17 48 true [1 0 0 1 -7 44 ]  0 0]
[<006000
01e000
07e000
1fe000
7fe000
83e000
01e000
01e000
01e000
01e000
01e000
01e000
01e000
01e000
01e000
01e000
01e000
01e000
01e000
01e000
01e000
01e000
01e000
01e000
01e000
01e000
01e000
01e000
01e000
01e000
01e000
01e000
01e000
01e000
01e000
01e000
01e000
01e000
01e000
01e000
01e000
01e000
01e000
01e000
03e000
07f000
3ffe00
ffff80
>
 ]
/TT21b00 AddT3T32Char
T32RsrcEnd
1394 5376 M <0301>S 
N 1804 5299 M 1804 5257 I : [ 1 0 0 1 150 150 ] concat K 
; : N 1804 5257 1 1 rp C 
 L ; N 1804 1114 M 1804 1155 I : [ 1 0 0 1 150 150 ] concat K 
; : N 1804 1155 1 1 rp C 
 L ; 1773 5376 M <0302>S 
N 2183 5299 M 2183 5257 I : [ 1 0 0 1 150 150 ] concat K 
; : N 2183 5257 1 1 rp C 
 L ; N 2183 1114 M 2183 1155 I : [ 1 0 0 1 150 150 ] concat K 
; : N 2183 1155 1 1 rp C 
 L ; T32RsrcBegin

4
/g307 [31 0 2 -44 29 4 ] 
/g307 [27 48 true [1 0 0 1 -2 44 ]  0 0]
[<00ff8000
03ffe000
07fff000
0f03f800
1c00fc00
18007e00
30003e00
30003e00
60001f00
60000f00
40000f00
c0000f00
c0000f00
00000f00
00000f00
00000f00
00000f00
00000f00
00000e00
00000e00
00001e00
00001c00
00003c00
00003c00
00007800
00007000
0000f000
0000e000
0001c000
0003c000
00038000
00070000
000e0000
001c0000
001c0000
00380000
00700000
00e00000
01c00000
03800020
03800060
070000c0
0e0000c0
1c0001c0
3fffff80
3fffff80
7fffff80
ffffff00
>
 ]
/TT21b00 AddT3T32Char
T32RsrcEnd
2152 5376 M <0401>S 
N 2562 5299 M 2562 5257 I : [ 1 0 0 1 150 150 ] concat K 
; : N 2562 5257 1 1 rp C 
 L ; N 2562 1114 M 2562 1155 I : [ 1 0 0 1 150 150 ] concat K 
; : N 2562 1155 1 1 rp C 
 L ; 2531 5376 M <0402>S 
N 2941 5299 M 2941 5257 I : [ 1 0 0 1 150 150 ] concat K 
; : N 2941 5257 1 1 rp C 
 L ; N 2941 1114 M 2941 1155 I : [ 1 0 0 1 150 150 ] concat K 
; : N 2941 1155 1 1 rp C 
 L ; T32RsrcBegin

5
/g308 [31 0 3 -45 27 5 ] 
/g308 [24 50 true [1 0 0 1 -3 45 ]  0 0]
[<003c00
01ff80
07ffc0
0e07e0
1c01f0
3800f8
3000f8
700078
600038
400038
c00038
800038
000038
000038
000030
000070
000060
0000e0
0001c0
000380
000700
001fc0
007fe0
01fff0
000ff8
0001fc
0000fc
00003e
00003e
00001e
00000f
00000f
00000f
00000f
000007
000007
000007
000006
00000e
00000e
00000c
00001c
000018
000030
400070
f001e0
fe0780
ffff00
7ffc00
0fc000
>
 ]
/TT21b00 AddT3T32Char
T32RsrcEnd
2910 5376 M <0501>S 
N 3320 5299 M 3320 5257 I : [ 1 0 0 1 150 150 ] concat K 
; : N 3320 5257 1 1 rp C 
 L ; N 3320 1114 M 3320 1155 I : [ 1 0 0 1 150 150 ] concat K 
; : N 3320 1155 1 1 rp C 
 L ; 3289 5376 M <0502>S 
N 3699 5299 M 3699 5257 I : [ 1 0 0 1 150 150 ] concat K 
; : N 3699 5257 1 1 rp C 
 L ; N 3699 1114 M 3699 1155 I : [ 1 0 0 1 150 150 ] concat K 
; : N 3699 1155 1 1 rp C 
 L ; T32RsrcBegin

6
/g309 [31 0 1 -44 29 4 ] 
/g309 [28 48 true [1 0 0 1 -1 44 ]  0 0]
[<00001800
00001800
00003800
00003800
00007800
0000f800
0000f800
0001f800
0003b800
00033800
00073800
00063800
000e3800
001c3800
00183800
00383800
00703800
00703800
00e03800
00c03800
01c03800
03803800
03003800
07003800
0e003800
0e003800
1c003800
18003800
38003800
70003800
70003800
e0003800
c0003800
fffffff0
fffffff0
00003800
00003800
00003800
00003800
00003800
00003800
00003800
00003800
00003800
00003800
00003800
00003800
00003800
>
 ]
/TT21b00 AddT3T32Char
T32RsrcEnd
3668 5376 M <0601>S 
N 4078 5299 M 4078 5257 I : [ 1 0 0 1 150 150 ] concat K 
; : N 4078 5257 1 1 rp C 
 L ; N 4078 1114 M 4078 1155 I : [ 1 0 0 1 150 150 ] concat K 
; : N 4078 1155 1 1 rp C 
 L ; 4047 5376 M <0602>S 
N 4457 5299 M 4457 5257 I : [ 1 0 0 1 150 150 ] concat K 
; : N 4457 5257 1 1 rp C 
 L ; N 4457 1114 M 4457 1155 I : [ 1 0 0 1 150 150 ] concat K 
; : N 4457 1155 1 1 rp C 
 L ; 4426 5376 M <0201>S 
N 668 5299 M 709 5299 I : [ 1 0 0 1 150 150 ] concat K 
; : N 709 5299 1 1 rp C 
 L ; N 4457 5299 M 4415 5299 I : [ 1 0 0 1 150 150 ] concat K 
; : N 4415 5299 1 1 rp C 
 L ; 613 5320 M <01>S 
N 668 4880 M 709 4880 I : [ 1 0 0 1 150 150 ] concat K 
; : N 709 4880 1 1 rp C 
 L ; N 4457 4880 M 4415 4880 I : [ 1 0 0 1 150 150 ] concat K 
; : N 4415 4880 1 1 rp C 
 L ; T32RsrcBegin

7
/g303 [16 0 4 -3 11 5 ] 
/g303 [7 8 true [1 0 0 1 -4 3 ]  0 0]
[<7c
7e
fe
fe
fe
7e
7c
10
>
 ]
/TT21b00 AddT3T32Char
T32RsrcEnd
535 4901 M <01070103>S 
N 668 4462 M 709 4462 I : [ 1 0 0 1 150 150 ] concat K 
; : N 709 4462 1 1 rp C 
 L ; N 4457 4462 M 4415 4462 I : [ 1 0 0 1 150 150 ] concat K 
; : N 4415 4462 1 1 rp C 
 L ; 535 4483 M <01070104>S 
N 668 4043 M 709 4043 I : [ 1 0 0 1 150 150 ] concat K 
; : N 709 4043 1 1 rp C 
 L ; N 4457 4043 M 4415 4043 I : [ 1 0 0 1 150 150 ] concat K 
; : N 4415 4043 1 1 rp C 
 L ; 535 4064 M <01070105>S 
N 668 3625 M 709 3625 I : [ 1 0 0 1 150 150 ] concat K 
; : N 709 3625 1 1 rp C 
 L ; N 4457 3625 M 4415 3625 I : [ 1 0 0 1 150 150 ] concat K 
; : N 4415 3625 1 1 rp C 
 L ; 535 3646 M <01070106>S 
N 668 3206 M 709 3206 I : [ 1 0 0 1 150 150 ] concat K 
; : N 709 3206 1 1 rp C 
 L ; N 4457 3206 M 4415 3206 I : [ 1 0 0 1 150 150 ] concat K 
; : N 4415 3206 1 1 rp C 
 L ; 535 3227 M <01070102>S 
N 668 2788 M 709 2788 I : [ 1 0 0 1 150 150 ] concat K 
; : N 709 2788 1 1 rp C 
 L ; N 4457 2788 M 4415 2788 I : [ 1 0 0 1 150 150 ] concat K 
; : N 4415 2788 1 1 rp C 
 L ; T32RsrcBegin

8
/g311 [31 0 2 -45 29 5 ] 
/g311 [27 50 true [1 0 0 1 -2 45 ]  0 0]
[<000007c0
00007f00
0001f800
0007e000
000f8000
001e0000
003c0000
00f80000
00f00000
01e00000
03c00000
07800000
07800000
0f000000
1f000000
1e000000
3e000000
3e000000
3c1fe000
7c7ff800
7dfffc00
7f807e00
7e001f00
fc000f80
f8000f80
f80007c0
f00007c0
f00003c0
f00003e0
f00003e0
f00001e0
f00001e0
f00001e0
f00001e0
700001e0
700001e0
700001e0
780001e0
780001c0
380001c0
3c0001c0
3c0003c0
1e000380
1e000780
0f000700
07800e00
03c01c00
01f8f800
007ff000
001f8000
>
 ]
/TT21b00 AddT3T32Char
T32RsrcEnd
535 2809 M <01070108>S 
N 668 2369 M 709 2369 I : [ 1 0 0 1 150 150 ] concat K 
; : N 709 2369 1 1 rp C 
 L ; N 4457 2369 M 4415 2369 I : [ 1 0 0 1 150 150 ] concat K 
; : N 4415 2369 1 1 rp C 
 L ; T32RsrcBegin

9
/g312 [31 0 1 -44 28 4 ] 
/g312 [27 48 true [1 0 0 1 -1 44 ]  0 0]
[<0fffffe0
1fffffe0
1fffffc0
1fffffc0
3c0001c0
38000180
30000380
60000380
60000380
c0000700
40000700
00000700
00000600
00000e00
00000e00
00000e00
00001c00
00001c00
00001c00
00003800
00003800
00003800
00003800
00007000
00007000
00007000
0000e000
0000e000
0000e000
0001e000
0001c000
0001c000
0001c000
0003c000
00038000
00038000
00078000
00070000
00070000
000f0000
000f0000
000e0000
000e0000
001e0000
001c0000
001c0000
003c0000
003c0000
>
 ]
/TT21b00 AddT3T32Char
T32RsrcEnd
535 2390 M <01070109>S 
N 668 1951 M 709 1951 I : [ 1 0 0 1 150 150 ] concat K 
; : N 709 1951 1 1 rp C 
 L ; N 4457 1951 M 4415 1951 I : [ 1 0 0 1 150 150 ] concat K 
; : N 4415 1951 1 1 rp C 
 L ; T32RsrcBegin

10
/g313 [31 0 3 -45 28 5 ] 
/g313 [25 50 true [1 0 0 1 -3 45 ]  0 0]
[<001c0000
01ffc000
03c3e000
0e007800
1c003800
38001c00
30000e00
70000e00
70000e00
70000e00
70000e00
70000e00
70000e00
78000e00
78001e00
7c001c00
3c003c00
3e003800
1f007000
0fc0e000
0fe1c000
07ff0000
03fe0000
01ff0000
00ff8000
00ffc000
01cfe000
0387f000
0703f800
0e00fc00
1c007e00
38003e00
38001f00
70000f00
70000f00
70000700
70000780
70000780
f0000780
70000380
70000300
70000700
78000700
38000600
3c000e00
1e001c00
0f003800
07c0f000
01ffc000
007e0000
>
 ]
/TT21b00 AddT3T32Char
T32RsrcEnd
535 1972 M <0107010A>S 
N 668 1532 M 709 1532 I : [ 1 0 0 1 150 150 ] concat K 
; : N 709 1532 1 1 rp C 
 L ; N 4457 1532 M 4415 1532 I : [ 1 0 0 1 150 150 ] concat K 
; : N 4415 1532 1 1 rp C 
 L ; T32RsrcBegin

11
/g314 [31 0 2 -45 28 5 ] 
/g314 [26 50 true [1 0 0 1 -2 45 ]  0 0]
[<001c0000
00ffc000
0381e000
07007000
0e003800
1c003c00
1c001e00
38000e00
78000f00
70000f00
70000780
f0000780
f0000780
f00007c0
f00003c0
f00003c0
f00003c0
f00003c0
f00003c0
f00003c0
f00003c0
f80003c0
f80003c0
780003c0
7c0003c0
3c0003c0
3e0007c0
1f000fc0
0fc07380
07ffe780
03ff8780
00000780
00000f00
00000f00
00001e00
00001e00
00003c00
00007c00
00007800
0000f800
0001f000
0003e000
0007c000
000f8000
001f0000
003e0000
00f80000
01f00000
0f800000
7e000000
>
 ]
/TT21b00 AddT3T32Char
T32RsrcEnd
535 1553 M <0107010B>S 
N 668 1114 M 709 1114 I : [ 1 0 0 1 150 150 ] concat K 
; : N 709 1114 1 1 rp C 
 L ; N 4457 1114 M 4415 1114 I : [ 1 0 0 1 150 150 ] concat K 
; : N 4415 1114 1 1 rp C 
 L ; 566 1135 M <010703>S 
N 668 1114 M 4457 1114 I : [ 1 0 0 1 150 150 ] concat K 
; : N 4457 1114 1 1 rp C 
 L ; N 668 5299 M 4457 5299 I : [ 1 0 0 1 150 150 ] concat K 
; : N 4457 5299 1 1 rp C 
 L ; N 4457 5299 M 4457 1114 I : [ 1 0 0 1 150 150 ] concat K 
; : N 4457 1114 1 1 rp C 
 L ; N 668 5299 M 668 1114 I : [ 1 0 0 1 150 150 ] concat K 
; : N 668 1114 1 1 rp C 
 L ; 1 1 0 1 scol : 668 1263 101 3837 rc N 668 5096 M 669 4717 I 670 4374 I 671 4064 I 671 3784 I 672 3530 I 673 3301 I 674 3093 I 674 2906 I 675 2736 I 676 2584 I 677 2445 I 677 2321 I 678 2208 I 679 2106 I 680 2015 I 680 1932 I 681 1858 I 682 1791 I 683 1731 I 683 1676 I 684 1628 I 685 1584 I 686 1545 I 686 1510 I 687 1478 I 688 1450 I 689 1425 I 689 1403 I 690 1383 I 691 1365 I 692 1350 I 693 1336 I 693 1324 I 694 1314 I 695 1305 I 696 1297 I 696 1290 I 697 1285 I 698 1280 I 699 1276 I 699 1273 I 700 1270 I 701 1268 I 703 1266 I 702 1266 I 703 1266 I 704 1266 I 705 1267 I 706 1268 I 707 1270 I 708 1271 I 708 1273 I 709 1275 I 710 1278 I 711 1280 I 711 1283 I 712 1285 I 713 1288 I 714 1291 I 714 1294 I 715 1297 I 716 1301 I 717 1304 I 718 1307 I 718 1311 I 719 1314 I 720 1318 I 721 1321 I 721 1325 I 722 1328 I 723 1332 I 724 1336 I 724 1340 I 725 1343 I 726 1347 I 727 1351 I 727 1355 I 728 1358 I 729 1362 I 730 1366 I 730 1370 I 731 1374 I 732 1378 I 733 1382 I 733 1385 I 734 1389 I 735 1393 I 736 1397 I 736 1401 I 737 1405 I 738 1409 I 739 1413 I 739 1416 I 740 1420 I 741 1424 I 742 1428 I 743 1432 I 743 1436 I 744 1440 I 745 1444 I 746 1448 I 746 1451 I 747 1455 I 748 1459 I 749 1463 I 749 1467 I 750 1471 I 751 1475 I 752 1478 I 752 1482 I 753 1486 I 754 1490 I 755 1494 I 755 1498 I 756 1501 I 757 1505 I 758 1509 I 758 1513 I 759 1517 I 760 1521 I 761 1524 I 761 1528 I 762 1532 I 763 1536 I 764 1540 I 764 1543 I 765 1547 I : [ 1 0 0 1 150 150 ] concat K 
; ; N 765 1547 M 766 1551 I 767 1555 I 768 1559 I 768 1562 I 769 1566 I 770 1570 I 771 1574 I 771 1577 I 772 1581 I 773 1585 I 774 1589 I 774 1592 I 775 1596 I 776 1600 I 777 1604 I 777 1607 I 778 1611 I 779 1615 I 780 1619 I 780 1622 I 781 1626 I 782 1630 I 783 1633 I 783 1637 I 784 1641 I 785 1644 I 786 1648 I 786 1652 I 787 1655 I 788 1659 I 789 1663 I 790 1667 I 790 1670 I 791 1674 I 792 1678 I 793 1681 I 793 1685 I 794 1688 I 795 1692 I 796 1696 I 796 1699 I 797 1703 I 798 1707 I 799 1710 I 799 1714 I 800 1718 I 801 1721 I 802 1725 I 802 1728 I 803 1732 I 804 1736 I 805 1739 I 805 1743 I 806 1746 I 807 1750 I 808 1754 I 808 1757 I 809 1761 I 810 1764 I 811 1768 I 811 1771 I 812 1775 I 813 1778 I 814 1782 I 815 1786 I 815 1789 I 816 1793 I 817 1796 I 818 1800 I 818 1803 I 819 1807 I 820 1810 I 821 1814 I 821 1817 I 822 1821 I 823 1824 I 824 1828 I 824 1831 I 825 1835 I 826 1838 I 827 1842 I 827 1845 I 828 1849 I 829 1852 I 830 1856 I 830 1859 I 831 1863 I 832 1866 I 833 1870 I 833 1873 I 834 1877 I 835 1880 I 836 1884 I 836 1887 I 837 1890 I 838 1894 I 839 1897 I 840 1901 I 840 1904 I 841 1908 I 842 1911 I 843 1914 I 843 1918 I 844 1921 I 845 1925 I 846 1928 I 846 1932 I 847 1935 I 848 1938 I 849 1942 I 849 1945 I 850 1948 I 851 1952 I 852 1955 I 852 1959 I 853 1962 I 854 1965 I 855 1969 I 855 1972 I 856 1975 I 857 1979 I 858 1982 I 858 1986 I 859 1989 I 860 1992 I 861 1996 I 861 1999 I : [ 1 0 0 1 150 150 ] concat K 
; N 861 1999 M 862 2002 I 863 2006 I 864 2009 I 865 2012 I 865 2015 I 866 2019 I 867 2022 I 868 2025 I 868 2029 I 869 2032 I 870 2035 I 871 2039 I 871 2042 I 872 2045 I 873 2048 I 874 2052 I 874 2055 I 875 2058 I 876 2062 I 877 2065 I 877 2068 I 878 2071 I 879 2075 I 880 2078 I 880 2081 I 881 2084 I 882 2088 I 883 2091 I 883 2094 I 884 2097 I 885 2101 I 886 2104 I 887 2107 I 887 2110 I 888 2113 I 889 2117 I 890 2120 I 890 2123 I 891 2126 I 892 2130 I 893 2133 I 893 2136 I 894 2139 I 895 2142 I 896 2146 I 896 2149 I 897 2152 I 898 2155 I 899 2158 I 899 2161 I 900 2165 I 901 2168 I 902 2171 I 902 2174 I 903 2177 I 904 2180 I 905 2184 I 905 2187 I 906 2190 I 907 2193 I 908 2196 I 908 2199 I 909 2202 I 910 2205 I 911 2209 I 912 2212 I 912 2215 I 913 2218 I 914 2221 I 915 2224 I 915 2227 I 916 2230 I 917 2233 I 918 2237 I 918 2240 I 919 2243 I 920 2246 I 921 2249 I 921 2252 I 922 2255 I 923 2258 I 924 2261 I 924 2264 I 925 2267 I 926 2270 I 927 2273 I 927 2276 I 928 2280 I 929 2283 I 930 2286 I 930 2289 I 931 2292 I 932 2295 I 933 2298 I 933 2301 I 934 2304 I 935 2307 I 936 2310 I 937 2313 I 937 2316 I 938 2319 I 939 2322 I 940 2325 I 940 2328 I 941 2331 I 942 2334 I 943 2337 I 943 2340 I 944 2343 I 945 2346 I 946 2349 I 946 2352 I 947 2355 I 948 2358 I 949 2361 I 949 2364 I 950 2367 I 951 2370 I 952 2373 I 952 2376 I 953 2379 I 954 2381 I 955 2384 I 955 2387 I 956 2390 I 957 2393 I 958 2396 I : [ 1 0 0 1 150 150 ] concat K 
; N 958 2396 M 958 2399 I 959 2402 I 960 2405 I 961 2408 I 962 2411 I 962 2414 I 963 2417 I 964 2420 I 965 2422 I 965 2425 I 966 2428 I 967 2431 I 968 2434 I 968 2437 I 969 2440 I 970 2443 I 971 2446 I 971 2448 I 972 2451 I 973 2454 I 974 2457 I 974 2460 I 975 2463 I 976 2466 I 977 2469 I 977 2471 I 978 2474 I 979 2477 I 980 2480 I 980 2483 I 981 2486 I 982 2488 I 983 2491 I 984 2494 I 984 2497 I 985 2500 I 986 2503 I 987 2505 I 987 2508 I 988 2511 I 989 2514 I 990 2517 I 990 2520 I 991 2522 I 992 2525 I 993 2528 I 993 2531 I 994 2534 I 995 2536 I 996 2539 I 996 2542 I 997 2545 I 998 2547 I 999 2550 I 999 2553 I 1000 2556 I 1001 2559 I 1002 2561 I 1002 2564 I 1003 2567 I 1004 2570 I 1005 2572 I 1005 2575 I 1006 2578 I 1007 2581 I 1008 2583 I 1009 2586 I 1009 2589 I 1010 2592 I 1011 2594 I 1012 2597 I 1012 2600 I 1013 2602 I 1014 2605 I 1015 2608 I 1015 2611 I 1016 2613 I 1017 2616 I 1018 2619 I 1018 2621 I 1019 2624 I 1020 2627 I 1021 2630 I 1021 2632 I 1022 2635 I 1023 2638 I 1024 2640 I 1024 2643 I 1025 2646 I 1026 2648 I 1027 2651 I 1027 2654 I 1028 2656 I 1029 2659 I 1030 2662 I 1030 2664 I 1031 2667 I 1032 2670 I 1033 2672 I 1034 2675 I 1034 2678 I 1035 2680 I 1036 2683 I 1037 2686 I 1037 2688 I 1038 2691 I 1039 2694 I 1040 2696 I 1040 2699 I 1041 2701 I 1042 2704 I 1043 2707 I 1043 2709 I 1044 2712 I 1045 2714 I 1046 2717 I 1046 2720 I 1047 2722 I 1048 2725 I 1049 2728 I 1049 2730 I 1050 2733 I 1051 2735 I 1052 2738 I 1052 2740 I 1053 2743 I 1054 2746 I : [ 1 0 0 1 150 150 ] concat K 
; N 1054 2746 M 1055 2748 I 1055 2751 I 1056 2753 I 1057 2756 I 1058 2758 I 1059 2761 I 1059 2764 I 1060 2766 I 1061 2769 I 1062 2771 I 1062 2774 I 1063 2776 I 1064 2779 I 1065 2781 I 1065 2784 I 1066 2787 I 1067 2789 I 1068 2792 I 1068 2794 I 1069 2797 I 1070 2799 I 1071 2802 I 1071 2804 I 1072 2807 I 1073 2809 I 1074 2812 I 1074 2814 I 1075 2817 I 1076 2819 I 1077 2822 I 1077 2824 I 1078 2827 I 1079 2829 I 1080 2832 I 1081 2834 I 1081 2837 I 1082 2839 I 1083 2842 I 1084 2844 I 1084 2847 I 1085 2849 I 1086 2852 I 1087 2854 I 1087 2857 I 1088 2859 I 1089 2862 I 1090 2864 I 1090 2866 I 1091 2869 I 1092 2871 I 1093 2874 I 1093 2876 I 1094 2879 I 1095 2881 I 1096 2884 I 1096 2886 I 1097 2888 I 1098 2891 I 1099 2893 I 1099 2896 I 1100 2898 I 1101 2901 I 1102 2903 I 1102 2905 I 1103 2908 I 1104 2910 I 1105 2913 I 1106 2915 I 1106 2918 I 1107 2920 I 1108 2922 I 1109 2925 I 1109 2927 I 1110 2930 I 1111 2932 I 1112 2934 I 1112 2937 I 1113 2939 I 1114 2941 I 1115 2944 I 1115 2946 I 1116 2949 I 1117 2951 I 1118 2953 I 1118 2956 I 1119 2958 I 1120 2960 I 1121 2963 I 1121 2965 I 1122 2967 I 1123 2970 I 1124 2972 I 1124 2975 I 1125 2977 I 1126 2979 I 1127 2982 I 1127 2984 I 1128 2986 I 1129 2989 I 1130 2991 I 1131 2993 I 1131 2996 I 1132 2998 I 1133 3000 I 1134 3003 I 1134 3005 I 1135 3007 I 1136 3009 I 1137 3012 I 1137 3014 I 1138 3016 I 1139 3019 I 1140 3021 I 1140 3023 I 1141 3026 I 1142 3028 I 1143 3030 I 1143 3033 I 1144 3035 I 1145 3037 I 1146 3039 I 1146 3042 I 1147 3044 I 1148 3046 I 1149 3048 I 1149 3051 I 1150 3053 I : [ 1 0 0 1 150 150 ] concat K 
; N 1150 3053 M 1151 3055 I 1152 3058 I 1152 3060 I 1153 3062 I 1154 3064 I 1155 3067 I 1156 3069 I 1156 3071 I 1157 3073 I 1158 3076 I 1159 3078 I 1159 3080 I 1160 3082 I 1161 3085 I 1162 3087 I 1162 3089 I 1163 3091 I 1164 3093 I 1165 3096 I 1165 3098 I 1166 3100 I 1167 3102 I 1168 3105 I 1168 3107 I 1169 3109 I 1170 3111 I 1171 3113 I 1171 3116 I 1172 3118 I 1173 3120 I 1174 3122 I 1174 3124 I 1175 3127 I 1176 3129 I 1177 3131 I 1177 3133 I 1178 3135 I 1179 3138 I 1180 3140 I 1181 3142 I 1181 3144 I 1182 3146 I 1183 3148 I 1184 3151 I 1184 3153 I 1185 3155 I 1186 3157 I 1187 3159 I 1187 3161 I 1188 3164 I 1189 3166 I 1190 3168 I 1190 3170 I 1191 3172 I 1192 3174 I 1193 3177 I 1193 3179 I 1194 3181 I 1195 3183 I 1196 3185 I 1196 3187 I 1197 3189 I 1198 3191 I 1199 3194 I 1199 3196 I 1200 3198 I 1201 3200 I 1202 3202 I 1203 3204 I 1203 3206 I 1204 3208 I 1205 3211 I 1206 3213 I 1206 3215 I 1207 3217 I 1208 3219 I 1209 3221 I 1209 3223 I 1210 3225 I 1211 3227 I 1212 3229 I 1212 3232 I 1213 3234 I 1214 3236 I 1215 3238 I 1215 3240 I 1216 3242 I 1217 3244 I 1218 3246 I 1218 3248 I 1219 3250 I 1220 3252 I 1221 3254 I 1221 3256 I 1222 3258 I 1223 3261 I 1224 3263 I 1224 3265 I 1225 3267 I 1226 3269 I 1227 3271 I 1228 3273 I 1228 3275 I 1229 3277 I 1230 3279 I 1231 3281 I 1231 3283 I 1232 3285 I 1233 3287 I 1234 3289 I 1234 3291 I 1235 3293 I 1236 3295 I 1237 3297 I 1237 3299 I 1238 3301 I 1239 3303 I 1240 3305 I 1240 3307 I 1241 3309 I 1242 3311 I 1243 3313 I 1243 3315 I 1244 3317 I 1245 3319 I 1246 3321 I 1246 3323 I : [ 1 0 0 1 150 150 ] concat K 
; N 1246 3323 M 1247 3325 I 1248 3327 I 1249 3329 I 1249 3331 I 1250 3333 I 1251 3335 I 1252 3337 I 1253 3339 I 1253 3341 I 1254 3343 I 1255 3345 I 1256 3347 I 1256 3349 I 1257 3351 I 1258 3353 I 1259 3355 I 1259 3357 I 1260 3359 I 1261 3361 I 1262 3363 I 1262 3365 I 1263 3367 I 1264 3369 I 1265 3371 I 1265 3373 I 1266 3375 I 1267 3377 I 1268 3378 I 1268 3380 I 1269 3382 I 1270 3384 I 1271 3386 I 1271 3388 I 1272 3390 I 1273 3392 I 1274 3394 I 1274 3396 I 1275 3398 I 1276 3400 I 1277 3402 I 1278 3404 I 1278 3405 I 1279 3407 I 1280 3409 I 1281 3411 I 1281 3413 I 1282 3415 I 1283 3417 I 1284 3419 I 1284 3421 I 1285 3423 I 1286 3424 I 1287 3426 I 1287 3428 I 1288 3430 I 1289 3432 I 1290 3434 I 1290 3436 I 1291 3438 I 1292 3440 I 1293 3441 I 1293 3443 I 1294 3445 I 1295 3447 I 1296 3449 I 1296 3451 I 1297 3453 I 1298 3455 I 1299 3456 I 1300 3458 I 1300 3460 I 1301 3462 I 1302 3464 I 1303 3466 I 1303 3468 I 1304 3469 I 1305 3471 I 1306 3473 I 1306 3475 I 1307 3477 I 1308 3479 I 1309 3480 I 1309 3482 I 1310 3484 I 1311 3486 I 1312 3488 I 1312 3490 I 1313 3491 I 1314 3493 I 1315 3495 I 1315 3497 I 1316 3499 I 1317 3500 I 1318 3502 I 1318 3504 I 1319 3506 I 1320 3508 I 1321 3510 I 1321 3511 I 1322 3513 I 1323 3515 I 1324 3517 I 1325 3519 I 1325 3520 I 1326 3522 I 1327 3524 I 1328 3526 I 1328 3528 I 1329 3529 I 1330 3531 I 1331 3533 I 1331 3535 I 1332 3536 I 1333 3538 I 1334 3540 I 1334 3542 I 1335 3544 I 1336 3545 I 1337 3547 I 1337 3549 I 1338 3551 I 1339 3552 I 1340 3554 I 1340 3556 I 1341 3558 I 1342 3559 I 1343 3561 I : [ 1 0 0 1 150 150 ] concat K 
; N 1343 3561 M 1343 3563 I 1344 3565 I 1345 3566 I 1346 3568 I 1346 3570 I 1347 3572 I 1348 3573 I 1349 3575 I 1350 3577 I 1350 3579 I 1351 3580 I 1352 3582 I 1353 3584 I 1353 3586 I 1354 3587 I 1355 3589 I 1356 3591 I 1356 3593 I 1357 3594 I 1358 3596 I 1359 3598 I 1359 3599 I 1360 3601 I 1361 3603 I 1362 3605 I 1362 3606 I 1363 3608 I 1364 3610 I 1365 3611 I 1365 3613 I 1366 3615 I 1367 3616 I 1368 3618 I 1368 3620 I 1369 3622 I 1370 3623 I 1371 3625 I 1371 3627 I 1372 3628 I 1373 3630 I 1374 3632 I 1375 3633 I 1375 3635 I 1376 3637 I 1377 3638 I 1378 3640 I 1378 3642 I 1379 3643 I 1380 3645 I 1381 3647 I 1381 3648 I 1382 3650 I 1383 3652 I 1384 3653 I 1384 3655 I 1385 3657 I 1386 3658 I 1387 3660 I 1387 3662 I 1388 3663 I 1389 3665 I 1390 3667 I 1390 3668 I 1391 3670 I 1392 3672 I 1393 3673 I 1393 3675 I 1394 3677 I 1395 3678 I 1396 3680 I 1397 3681 I 1397 3683 I 1398 3685 I 1399 3686 I 1400 3688 I 1400 3690 I 1401 3691 I 1402 3693 I 1403 3694 I 1403 3696 I 1404 3698 I 1405 3699 I 1406 3701 I 1406 3703 I 1407 3704 I 1408 3706 I 1409 3707 I 1409 3709 I 1410 3711 I 1411 3712 I 1412 3714 I 1412 3715 I 1413 3717 I 1414 3719 I 1415 3720 I 1415 3722 I 1416 3723 I 1417 3725 I 1418 3727 I 1418 3728 I 1419 3730 I 1420 3731 I 1421 3733 I 1422 3734 I 1422 3736 I 1423 3738 I 1424 3739 I 1425 3741 I 1425 3742 I 1426 3744 I 1427 3745 I 1428 3747 I 1428 3749 I 1429 3750 I 1430 3752 I 1431 3753 I 1431 3755 I 1432 3756 I 1433 3758 I 1434 3760 I 1434 3761 I 1435 3763 I 1436 3764 I 1437 3766 I 1437 3767 I 1438 3769 I 1439 3770 I : [ 1 0 0 1 150 150 ] concat K 
; N 1439 3770 M 1440 3772 I 1440 3773 I 1441 3775 I 1442 3777 I 1443 3778 I 1443 3780 I 1444 3781 I 1445 3783 I 1446 3784 I 1447 3786 I 1447 3787 I 1448 3789 I 1449 3790 I 1450 3792 I 1450 3793 I 1451 3795 I 1452 3796 I 1453 3798 I 1453 3799 I 1454 3801 I 1455 3802 I 1456 3804 I 1456 3805 I 1457 3807 I 1458 3808 I 1459 3810 I 1459 3812 I 1460 3813 I 1461 3815 I 1462 3816 I 1462 3817 I 1463 3819 I 1464 3820 I 1465 3822 I 1465 3823 I 1466 3825 I 1467 3826 I 1468 3828 I 1468 3829 I 1469 3831 I 1470 3832 I 1471 3834 I 1472 3835 I 1472 3837 I 1473 3838 I 1474 3840 I 1475 3841 I 1475 3843 I 1476 3844 I 1477 3846 I 1478 3847 I 1478 3849 I 1479 3850 I 1480 3852 I 1481 3853 I 1481 3854 I 1482 3856 I 1483 3857 I 1484 3859 I 1484 3860 I 1485 3862 I 1486 3863 I 1487 3865 I 1487 3866 I 1488 3868 I 1489 3869 I 1490 3870 I 1490 3872 I 1491 3873 I 1492 3875 I 1493 3876 I 1494 3878 I 1494 3879 I 1495 3880 I 1496 3882 I 1497 3883 I 1497 3885 I 1498 3886 I 1499 3888 I 1500 3889 I 1500 3890 I 1501 3892 I 1502 3893 I 1503 3895 I 1503 3896 I 1504 3898 I 1505 3899 I 1506 3900 I 1506 3902 I 1507 3903 I 1508 3905 I 1509 3906 I 1509 3907 I 1510 3909 I 1511 3910 I 1512 3912 I 1512 3913 I 1513 3914 I 1514 3916 I 1515 3917 I 1515 3919 I 1516 3920 I 1517 3921 I 1518 3923 I 1519 3924 I 1519 3926 I 1520 3927 I 1521 3928 I 1522 3930 I 1522 3931 I 1523 3932 I 1524 3934 I 1525 3935 I 1525 3937 I 1526 3938 I 1527 3939 I 1528 3941 I 1528 3942 I 1529 3943 I 1530 3945 I 1531 3946 I 1531 3948 I 1532 3949 I 1533 3950 I 1534 3952 I 1534 3953 I 1535 3954 I : [ 1 0 0 1 150 150 ] concat K 
; N 1535 3954 M 1536 3956 I 1537 3957 I 1537 3958 I 1538 3960 I 1539 3961 I 1540 3963 I 1540 3964 I 1541 3965 I 1542 3967 I 1543 3968 I 1544 3969 I 1544 3971 I 1545 3972 I 1546 3973 I 1547 3975 I 1547 3976 I 1548 3977 I 1549 3979 I 1550 3980 I 1550 3981 I 1551 3983 I 1552 3984 I 1553 3985 I 1553 3987 I 1554 3988 I 1555 3989 I 1556 3991 I 1556 3992 I 1557 3993 I 1558 3995 I 1559 3996 I 1559 3997 I 1560 3998 I 1561 4000 I 1562 4001 I 1562 4002 I 1563 4004 I 1564 4005 I 1565 4006 I 1565 4008 I 1566 4009 I 1567 4010 I 1568 4012 I 1569 4013 I 1569 4014 I 1570 4015 I 1571 4017 I 1572 4018 I 1572 4019 I 1573 4021 I 1574 4022 I 1575 4023 I 1575 4024 I 1576 4026 I 1577 4027 I 1578 4028 I 1578 4030 I 1579 4031 I 1580 4032 I 1581 4033 I 1581 4035 I 1582 4036 I 1583 4037 I 1584 4039 I 1584 4040 I 1585 4041 I 1586 4042 I 1587 4044 I 1587 4045 I 1588 4046 I 1589 4047 I 1590 4049 I 1591 4050 I 1591 4051 I 1592 4052 I 1593 4054 I 1594 4055 I 1594 4056 I 1595 4057 I 1596 4059 I 1597 4060 I 1597 4061 I 1598 4062 I 1599 4064 I 1600 4065 I 1600 4066 I 1601 4067 I 1602 4069 I 1603 4070 I 1603 4071 I 1604 4072 I 1605 4074 I 1606 4075 I 1606 4076 I 1607 4077 I 1608 4079 I 1609 4080 I 1609 4081 I 1610 4082 I 1611 4084 I 1612 4085 I 1612 4086 I 1613 4087 I 1614 4088 I 1615 4090 I 1616 4091 I 1616 4092 I 1617 4093 I 1618 4095 I 1619 4096 I 1619 4097 I 1620 4098 I 1621 4099 I 1622 4101 I 1622 4102 I 1623 4103 I 1624 4104 I 1625 4105 I 1625 4107 I 1626 4108 I 1627 4109 I 1628 4110 I 1628 4111 I 1629 4113 I 1630 4114 I 1631 4115 I 1631 4116 I : [ 1 0 0 1 150 150 ] concat K 
; N 1631 4116 M 1632 4117 I 1633 4119 I 1634 4120 I 1634 4121 I 1635 4122 I 1636 4123 I 1637 4125 I 1637 4126 I 1638 4127 I 1639 4128 I 1640 4129 I 1641 4130 I 1641 4132 I 1642 4133 I 1643 4134 I 1644 4135 I 1644 4136 I 1645 4138 I 1646 4139 I 1647 4140 I 1647 4141 I 1648 4142 I 1649 4143 I 1650 4145 I 1650 4146 I 1651 4147 I 1652 4148 I 1653 4149 I 1653 4150 I 1654 4152 I 1655 4153 I 1656 4154 I 1656 4155 I 1657 4156 I 1658 4157 I 1659 4158 I 1659 4160 I 1660 4161 I 1661 4162 I 1662 4163 I 1662 4164 I 1663 4165 I 1664 4166 I 1665 4168 I 1666 4169 I 1666 4170 I 1667 4171 I 1668 4172 I 1669 4173 I 1669 4174 I 1670 4176 I 1671 4177 I 1672 4178 I 1672 4179 I 1673 4180 I 1674 4181 I 1675 4182 I 1675 4184 I 1676 4185 I 1677 4186 I 1678 4187 I 1678 4188 I 1679 4189 I 1680 4190 I 1681 4191 I 1681 4192 I 1682 4194 I 1683 4195 I 1684 4196 I 1684 4197 I 1685 4198 I 1686 4199 I 1687 4200 I 1687 4201 I 1688 4202 I 1689 4204 I 1690 4205 I 1691 4206 I 1691 4207 I 1692 4208 I 1693 4209 I 1694 4210 I 1694 4211 I 1695 4212 I 1696 4214 I 1697 4215 I 1697 4216 I 1698 4217 I 1699 4218 I 1700 4219 I 1700 4220 I 1701 4221 I 1702 4222 I 1703 4223 I 1703 4224 I 1704 4225 I 1705 4227 I 1706 4228 I 1706 4229 I 1707 4230 I 1708 4231 I 1709 4232 I 1709 4233 I 1710 4234 I 1711 4235 I 1712 4236 I 1713 4237 I 1713 4238 I 1714 4239 I 1715 4241 I 1716 4242 I 1716 4243 I 1717 4244 I 1718 4245 I 1719 4246 I 1719 4247 I 1720 4248 I 1721 4249 I 1722 4250 I 1722 4251 I 1723 4252 I 1724 4253 I 1725 4254 I 1725 4255 I 1726 4256 I 1727 4258 I 1728 4259 I : [ 1 0 0 1 150 150 ] concat K 
; N 1728 4259 M 1728 4260 I 1729 4261 I 1730 4262 I 1731 4263 I 1731 4264 I 1732 4265 I 1733 4266 I 1734 4267 I 1734 4268 I 1735 4269 I 1736 4270 I 1737 4271 I 1738 4272 I 1738 4273 I 1739 4274 I 1740 4275 I 1741 4276 I 1741 4277 I 1742 4278 I 1743 4279 I 1744 4280 I 1744 4281 I 1745 4282 I 1746 4283 I 1747 4285 I 1747 4286 I 1748 4287 I 1749 4288 I 1750 4289 I 1750 4290 I 1751 4291 I 1752 4292 I 1753 4293 I 1753 4294 I 1754 4295 I 1755 4296 I 1756 4297 I 1756 4298 I 1757 4299 I 1758 4300 I 1759 4301 I 1759 4302 I 1760 4303 I 1761 4304 I 1762 4305 I 1763 4306 I 1763 4307 I 1764 4308 I 1765 4309 I 1766 4310 I 1766 4311 I 1767 4312 I 1768 4313 I 1769 4314 I 1769 4315 I 1770 4316 I 1771 4317 I 1772 4318 I 1772 4319 I 1773 4320 I 1774 4321 I 1775 4322 I 1775 4323 I 1776 4324 I 1777 4325 I 1778 4326 I 1778 4327 I 1779 4328 I 1780 4329 I 1781 4330 I 1781 4331 I 1782 4332 I 1783 4333 I 1784 4334 I 1785 4335 I 1786 4336 I 1787 4337 I 1788 4338 I 1788 4339 I 1789 4340 I 1790 4341 I 1791 4342 I 1791 4343 I 1792 4344 I 1793 4345 I 1794 4346 I 1794 4347 I 1795 4348 I 1796 4349 I 1797 4350 I 1797 4351 I 1798 4352 I 1799 4353 I 1800 4354 I 1800 4355 I 1801 4356 I 1802 4357 I 1803 4358 I 1804 4359 I 1805 4360 I 1806 4361 I 1806 4362 I 1807 4363 I 1808 4364 I 1809 4365 I 1810 4366 I 1810 4367 I 1811 4368 I 1812 4369 I 1813 4370 I 1813 4371 I 1814 4372 I 1815 4373 I 1817 4375 I 1816 4375 I 1817 4375 I 1818 4376 I 1819 4377 I 1819 4378 I 1820 4379 I 1821 4380 I 1822 4381 I 1822 4382 I 1823 4383 I 1824 4384 I 1825 4385 I 1825 4386 I : [ 1 0 0 1 150 150 ] concat K 
; N 1825 4386 M 1826 4387 I 1827 4387 I 1828 4388 I 1828 4389 I 1829 4390 I 1830 4391 I 1831 4392 I 1831 4393 I 1832 4394 I 1833 4395 I 1834 4396 I 1836 4398 I 1835 4398 I 1836 4398 I 1837 4399 I 1838 4400 I 1838 4401 I 1839 4402 I 1840 4403 I 1841 4404 I 1841 4405 I 1842 4406 I 1843 4407 I 1844 4408 I 1845 4409 I 1846 4410 I 1847 4411 I 1847 4412 I 1848 4413 I 1849 4414 I 1851 4416 I 1850 4416 I 1851 4416 I 1852 4417 I 1853 4418 I 1853 4419 I 1854 4420 I 1855 4421 I 1856 4422 I 1856 4423 I 1857 4424 I 1858 4424 I 1859 4425 I 1860 4426 I 1860 4427 I 1861 4428 I 1862 4429 I 1864 4431 I 1863 4431 I 1864 4431 I 1865 4432 I 1866 4433 I 1866 4434 I 1867 4435 I 1868 4436 I 1870 4438 I 1869 4438 I 1870 4438 I 1871 4439 I 1872 4440 I 1872 4441 I 1873 4442 I 1874 4443 I 1876 4445 I 1875 4445 I 1876 4445 I 1877 4446 I 1878 4447 I 1878 4448 I 1879 4449 I 1880 4450 I 1881 4451 I 1882 4452 I 1883 4453 I 1884 4454 I 1885 4455 I 1885 4456 I 1886 4457 I 1887 4457 I 1888 4458 I 1888 4459 I 1889 4460 I 1890 4461 I 1891 4462 I 1892 4463 I 1893 4464 I 1894 4465 I 1894 4466 I 1895 4467 I 1896 4467 I 1897 4468 I 1897 4469 I 1898 4470 I 1899 4471 I 1901 4473 I 1900 4473 I 1901 4473 I 1902 4474 I 1903 4475 I 1903 4476 I 1904 4477 I 1905 4478 I 1906 4478 I 1907 4479 I 1907 4480 I 1908 4481 I 1909 4482 I 1910 4483 I 1911 4484 I 1912 4485 I 1914 4487 I 1913 4487 I 1914 4487 I 1915 4488 I 1916 4489 I 1916 4490 I 1917 4491 I 1918 4491 I 1919 4492 I 1919 4493 I 1920 4494 I 1921 4495 I 1922 4496 I 1923 4497 I 1924 4498 I 1926 4500 I 1925 4500 I : [ 1 0 0 1 150 150 ] concat K 
; N 1925 4500 M 1926 4500 I 1927 4501 I 1928 4502 I 1928 4503 I 1929 4504 I 1930 4504 I 1931 4505 I 1932 4506 I 1932 4507 I 1933 4508 I 1934 4508 I 1935 4509 I 1935 4510 I 1936 4511 I 1937 4512 I 1938 4513 I 1939 4514 I 1940 4515 I 1941 4516 I 1942 4517 I 1943 4518 I 1945 4520 I 1944 4520 I 1945 4520 I 1946 4521 I 1948 4523 I 1947 4523 I 1948 4523 I 1949 4524 I 1950 4525 I 1950 4526 I 1951 4527 I 1952 4527 I 1953 4528 I 1953 4529 I 1954 4530 I 1955 4530 I 1956 4531 I 1957 4532 I 1957 4533 I 1958 4534 I 1959 4534 I 1960 4535 I 1960 4536 I 1961 4537 I 1962 4537 I 1963 4538 I 1963 4539 I 1964 4540 I 1965 4540 I 1966 4541 I 1966 4542 I 1967 4543 I 1968 4544 I 1969 4545 I 1970 4546 I 1971 4547 I 1972 4548 I 1973 4549 I 1974 4550 I 1975 4551 I 1976 4552 I 1977 4553 I 1978 4554 I 1979 4555 I 1980 4556 I 1981 4556 I 1982 4557 I 1982 4558 I 1983 4559 I 1984 4559 I 1985 4560 I 1985 4561 I 1986 4562 I 1987 4562 I 1988 4563 I 1988 4564 I 1989 4565 I 1990 4565 I 1991 4566 I 1991 4567 I 1992 4568 I 1993 4568 I 1994 4569 I 1994 4570 I 1995 4571 I 1996 4571 I 1998 4573 I 1997 4573 I 1998 4573 I 1999 4574 I 2001 4576 I 2000 4576 I 2001 4576 I 2002 4577 I 2003 4578 I 2004 4579 I 2005 4580 I 2006 4581 I 2007 4582 I 2008 4583 I 2009 4584 I 2010 4585 I 2011 4586 I 2012 4587 I 2013 4588 I 2014 4589 I 2015 4589 I 2016 4590 I 2016 4591 I 2017 4592 I 2018 4592 I 2020 4594 I 2019 4594 I 2020 4594 I 2021 4595 I 2023 4597 I 2022 4597 I 2023 4597 I 2024 4598 I 2025 4599 I 2026 4600 I 2027 4601 I 2028 4601 I 2029 4602 I 2029 4603 I 2030 4604 I : [ 1 0 0 1 150 150 ] concat K 
; N 2030 4604 M 2031 4604 I 2033 4606 I 2032 4606 I 2033 4606 I 2034 4607 I 2035 4608 I 2036 4609 I 2037 4610 I 2038 4611 I 2039 4612 I 2040 4613 I 2041 4614 I 2042 4615 I 2043 4615 I 2045 4617 I 2044 4617 I 2045 4617 I 2046 4618 I 2048 4620 I 2047 4620 I 2048 4620 I 2049 4621 I 2050 4622 I 2051 4623 I 2052 4624 I 2053 4624 I 2055 4626 I 2054 4626 I 2055 4626 I 2056 4627 I 2057 4628 I 2058 4629 I 2059 4630 I 2060 4631 I 2061 4632 I 2062 4632 I 2064 4634 I 2063 4634 I 2064 4634 I 2065 4635 I 2066 4636 I 2067 4637 I 2068 4638 I 2069 4639 I 2070 4640 I 2071 4640 I 2073 4642 I 2072 4642 I 2073 4642 I 2074 4643 I 2075 4644 I 2076 4645 I 2077 4646 I 2078 4646 I 2080 4648 I 2079 4648 I 2080 4648 I 2081 4649 I 2082 4650 I 2083 4651 I 2084 4652 I 2085 4653 I 2086 4654 I 2087 4654 I 2089 4656 I 2088 4656 I 2089 4656 I 2090 4657 I 2091 4658 I 2092 4659 I 2093 4659 I 2095 4661 I 2094 4661 I 2095 4661 I 2096 4662 I 2097 4663 I 2098 4664 I 2099 4665 I 2100 4666 I 2101 4667 I 2102 4667 I 2103 4668 I 2104 4669 I 2105 4670 I 2106 4670 I 2108 4672 I 2107 4672 I 2108 4672 I 2109 4673 I 2110 4674 I 2111 4675 I 2112 4675 I 2114 4677 I 2113 4677 I 2114 4677 I 2115 4678 I 2116 4679 I 2117 4680 I 2118 4680 I 2120 4682 I 2119 4682 I 2120 4682 I 2121 4683 I 2122 4684 I 2123 4685 I 2124 4685 I 2125 4686 I 2126 4687 I 2127 4688 I 2128 4688 I 2130 4690 I 2129 4690 I 2130 4690 I 2131 4691 I 2132 4692 I 2133 4693 I 2134 4693 I 2136 4695 I 2135 4695 I 2136 4695 I 2137 4696 I 2138 4697 I 2139 4698 I 2140 4698 I 2141 4699 I 2142 4700 I 2143 4701 I : [ 1 0 0 1 150 150 ] concat K 
; N 2143 4701 M 2144 4702 I 2145 4702 I 2146 4703 I 2147 4704 I 2148 4705 I 2149 4705 I 2150 4706 I 2151 4707 I 2152 4708 I 2153 4708 I 2155 4710 I 2154 4710 I 2155 4710 I 2156 4711 I 2157 4712 I 2158 4713 I 2159 4713 I 2160 4714 I 2161 4715 I 2162 4716 I 2163 4717 I 2164 4717 I 2165 4718 I 2166 4719 I 2167 4720 I 2168 4720 I 2169 4721 I 2170 4722 I 2171 4723 I 2172 4724 I 2173 4724 I 2174 4725 I 2175 4726 I 2176 4727 I 2177 4727 I 2178 4728 I 2179 4729 I 2180 4730 I 2181 4730 I 2182 4731 I 2183 4732 I 2184 4732 I 2186 4734 I 2185 4734 I 2186 4734 I 2187 4735 I 2188 4736 I 2189 4736 I 2190 4737 I 2191 4738 I 2192 4739 I 2193 4739 I 2194 4740 I 2195 4741 I 2196 4741 I 2198 4743 I 2197 4743 I 2198 4743 I 2199 4744 I 2200 4744 I 2201 4745 I 2202 4746 I 2203 4747 I 2204 4748 I 2205 4748 I 2206 4749 I 2207 4750 I 2208 4750 I 2209 4751 I 2210 4752 I 2211 4753 I 2212 4753 I 2213 4754 I 2214 4755 I 2215 4755 I 2216 4756 I 2217 4757 I 2218 4758 I 2219 4759 I 2220 4759 I 2221 4760 I 2222 4760 I 2223 4761 I 2224 4762 I 2225 4762 I 2227 4764 I 2226 4764 I 2227 4764 I 2228 4765 I 2229 4766 I 2230 4766 I 2231 4767 I 2232 4768 I 2233 4768 I 2234 4769 I 2235 4770 I 2236 4771 I 2237 4771 I 2238 4772 I 2239 4773 I 2240 4773 I 2241 4774 I 2242 4775 I 2243 4775 I 2244 4776 I 2245 4777 I 2246 4777 I 2247 4778 I 2248 4779 I 2249 4780 I 2250 4780 I 2251 4781 I 2252 4782 I 2253 4782 I 2254 4783 I 2255 4784 I 2256 4784 I 2257 4785 I 2258 4786 I 2259 4786 I 2260 4787 I 2261 4788 I 2262 4788 I 2263 4789 I 2264 4790 I 2265 4790 I 2266 4791 I : [ 1 0 0 1 150 150 ] concat K 
; N 2266 4791 M 2267 4792 I 2268 4792 I 2269 4793 I 2270 4794 I 2271 4794 I 2272 4795 I 2273 4796 I 2274 4797 I 2275 4797 I 2276 4798 I 2277 4799 I 2278 4799 I 2279 4800 I 2280 4801 I 2281 4801 I 2282 4802 I 2283 4803 I 2284 4803 I 2285 4804 I 2286 4805 I 2287 4805 I 2288 4806 I 2289 4807 I 2290 4807 I 2291 4808 I 2292 4809 I 2293 4809 I 2294 4810 I 2295 4811 I 2296 4811 I 2297 4812 I 2298 4812 I 2299 4813 I 2300 4813 I 2301 4814 I 2302 4815 I 2303 4815 I 2304 4816 I 2305 4817 I 2306 4817 I 2307 4818 I 2308 4819 I 2309 4819 I 2310 4820 I 2311 4821 I 2312 4821 I 2313 4822 I 2314 4823 I 2315 4823 I 2316 4824 I 2317 4825 I 2318 4825 I 2319 4826 I 2320 4827 I 2321 4827 I 2322 4827 I 2323 4828 I 2324 4829 I 2325 4829 I 2326 4830 I 2327 4831 I 2328 4831 I 2329 4832 I 2330 4833 I 2331 4833 I 2332 4834 I 2333 4835 I 2334 4835 I 2335 4836 I 2336 4836 I 2337 4837 I 2338 4838 I 2339 4838 I 2340 4839 I 2341 4840 I 2342 4840 I 2343 4841 I 2344 4841 I 2345 4842 I 2346 4842 I 2347 4843 I 2348 4844 I 2349 4844 I 2350 4845 I 2351 4846 I 2352 4846 I 2353 4847 I 2354 4848 I 2355 4848 I 2356 4848 I 2357 4849 I 2358 4850 I 2359 4850 I 2360 4851 I 2361 4852 I 2362 4852 I 2363 4853 I 2364 4853 I 2365 4854 I 2366 4855 I 2367 4855 I 2368 4856 I 2369 4856 I 2370 4857 I 2371 4857 I 2372 4858 I 2373 4859 I 2374 4859 I 2375 4860 I 2376 4861 I 2377 4861 I 2378 4861 I 2379 4862 I 2380 4863 I 2381 4863 I 2382 4864 I 2383 4864 I 2384 4865 I 2385 4866 I 2386 4866 I 2387 4867 I 2388 4868 I 2389 4868 I 2390 4868 I 2391 4869 I 2392 4870 I 2393 4870 I : [ 1 0 0 1 150 150 ] concat K 
; N 2393 4870 M 2394 4871 I 2395 4871 I 2396 4872 I 2397 4872 I 2398 4873 I 2399 4874 I 2400 4874 I 2401 4875 I 2402 4875 I 2403 4876 I 2404 4877 I 2405 4877 I 2406 4877 I 2407 4878 I 2408 4879 I 2409 4879 I 2410 4880 I 2411 4880 I 2412 4881 I 2413 4882 I 2414 4882 I 2415 4883 I 2416 4883 I 2417 4884 I 2418 4884 I 2419 4885 I 2420 4885 I 2421 4886 I 2422 4886 I 2423 4887 I 2424 4888 I 2425 4888 I 2426 4889 I 2427 4889 I 2428 4890 I 2429 4890 I 2430 4891 I 2431 4891 I 2432 4892 I 2433 4892 I 2434 4893 I 2435 4894 I 2436 4894 I 2437 4895 I 2438 4895 I 2439 4896 I 2440 4896 I 2441 4897 I 2442 4897 I 2443 4898 I 2444 4898 I 2445 4899 I 2446 4899 I 2447 4900 I 2448 4901 I 2449 4901 I 2450 4901 I 2451 4902 I 2452 4903 I 2453 4903 I 2454 4904 I 2455 4904 I 2456 4905 I 2457 4905 I 2458 4906 I 2459 4906 I 2460 4907 I 2461 4907 I 2462 4908 I 2463 4909 I 2464 4909 I 2465 4909 I 2466 4910 I 2467 4911 I 2468 4911 I 2469 4911 I 2470 4912 I 2471 4912 I 2472 4913 I 2473 4914 I 2474 4914 I 2475 4914 I 2476 4915 I 2477 4916 I 2478 4916 I 2479 4917 I 2480 4917 I 2481 4918 I 2482 4918 I 2483 4919 I 2484 4919 I 2485 4920 I 2486 4920 I 2487 4921 I 2488 4921 I 2489 4922 I 2490 4922 I 2491 4922 I 2492 4923 I 2493 4924 I 2494 4924 I 2495 4925 I 2496 4925 I 2497 4926 I 2498 4926 I 2499 4927 I 2500 4927 I 2501 4928 I 2502 4928 I 2503 4929 I 2504 4929 I 2505 4930 I 2506 4930 I 2507 4931 I 2508 4931 I 2509 4931 I 2510 4932 I 2511 4933 I 2512 4933 I 2513 4933 I 2514 4934 I 2515 4934 I 2516 4935 I 2517 4936 I 2518 4936 I 2519 4936 I 2520 4937 I : [ 1 0 0 1 150 150 ] concat K 
; N 2520 4937 M 2521 4937 I 2522 4938 I 2523 4938 I 2524 4939 I 2525 4939 I 2526 4940 I 2527 4940 I 2528 4941 I 2529 4941 I 2530 4942 I 2531 4942 I 2532 4943 I 2533 4943 I 2534 4944 I 2535 4944 I 2536 4945 I 2537 4945 I 2538 4945 I 2539 4946 I 2540 4946 I 2541 4947 I 2542 4947 I 2543 4948 I 2544 4948 I 2545 4949 I 2546 4949 I 2547 4950 I 2548 4950 I 2549 4951 I 2550 4951 I 2551 4952 I 2552 4952 I 2553 4952 I 2554 4953 I 2555 4953 I 2556 4954 I 2557 4954 I 2558 4955 I 2559 4955 I 2560 4956 I 2561 4956 I 2562 4957 I 2563 4957 I 2564 4958 I 2565 4958 I 2566 4958 I 2567 4959 I 2568 4959 I 2569 4960 I 2570 4960 I 2571 4961 I 2572 4961 I 2573 4962 I 2574 4962 I 2575 4962 I 2576 4963 I 2577 4963 I 2578 4964 I 2579 4964 I 2580 4965 I 2581 4965 I 2582 4966 I 2583 4966 I 2584 4966 I 2585 4967 I 2586 4967 I 2587 4968 I 2588 4968 I 2589 4969 I 2590 4969 I 2591 4969 I 2592 4970 I 2593 4970 I 2594 4971 I 2595 4971 I 2596 4972 I 2597 4972 I 2598 4973 I 2599 4973 I 2600 4973 I 2601 4974 I 2602 4974 I 2603 4975 I 2604 4975 I 2605 4976 I 2606 4976 I 2607 4977 I 2608 4977 I 2609 4977 I 2610 4978 I 2611 4978 I 2612 4979 I 2613 4979 I 2614 4980 I 2615 4980 I 2616 4980 I 2617 4981 I 2618 4981 I 2619 4982 I 2620 4982 I 2621 4982 I 2622 4983 I 2623 4983 I 2624 4984 I 2625 4984 I 2626 4985 I 2627 4985 I 2628 4985 I 2629 4986 I 2630 4986 I 2631 4987 I 2632 4987 I 2633 4988 I 2634 4988 I 2635 4988 I 2636 4989 I 2637 4989 I 2638 4989 I 2639 4990 I 2640 4990 I 2641 4991 I 2642 4991 I 2643 4992 I 2644 4992 I 2645 4993 I 2646 4993 I 2647 4993 I : [ 1 0 0 1 150 150 ] concat K 
; N 2647 4993 M 2648 4994 I 2649 4994 I 2650 4994 I 2651 4995 I 2652 4995 I 2653 4996 I 2654 4996 I 2655 4997 I 2656 4997 I 2657 4997 I 2658 4998 I 2659 4998 I 2660 4998 I 2661 4999 I 2662 4999 I 2663 5000 I 2664 5000 I 2665 5000 I 2666 5001 I 2667 5001 I 2668 5002 I 2669 5002 I 2670 5003 I 2671 5003 I 2672 5003 I 2673 5004 I 2674 5004 I 2675 5004 I 2676 5005 I 2677 5005 I 2678 5006 I 2679 5006 I 2680 5006 I 2681 5007 I 2682 5007 I 2683 5008 I 2684 5008 I 2685 5008 I 2686 5009 I 2687 5009 I 2688 5009 I 2689 5010 I 2690 5010 I 2691 5011 I 2692 5011 I 2693 5011 I 2694 5012 I 2695 5012 I 2696 5013 I 2697 5013 I 2698 5013 I 2699 5014 I 2700 5014 I 2701 5015 I 2702 5015 I 2703 5015 I 2704 5016 I 2705 5016 I 2706 5016 I 2707 5017 I 2708 5017 I 2709 5017 I 2710 5018 I 2711 5018 I 2712 5019 I 2713 5019 I 2714 5019 I 2715 5020 I 2716 5020 I 2717 5021 I 2718 5021 I 2719 5021 I 2720 5022 I 2721 5022 I 2722 5022 I 2723 5023 I 2724 5023 I 2725 5023 I 2726 5024 I 2727 5024 I 2728 5024 I 2729 5025 I 2730 5025 I 2731 5026 I 2732 5026 I 2733 5026 I 2734 5027 I 2735 5027 I 2736 5027 I 2737 5028 I 2738 5028 I 2739 5029 I 2740 5029 I 2741 5029 I 2742 5030 I 2743 5030 I 2744 5030 I 2745 5031 I 2746 5031 I 2747 5031 I 2748 5032 I 2749 5032 I 2750 5032 I 2751 5033 I 2752 5033 I 2753 5033 I 2754 5034 I 2755 5034 I 2756 5034 I 2757 5035 I 2758 5035 I 2759 5036 I 2760 5036 I 2761 5036 I 2762 5037 I 2763 5037 I 2764 5037 I 2765 5038 I 2766 5038 I 2767 5038 I 2768 5039 I 2769 5039 I 2770 5039 I 2771 5040 I 2772 5040 I 2773 5041 I 2774 5041 I : [ 1 0 0 1 150 150 ] concat K 
; N 2774 5041 M 2775 5041 I 2776 5042 I 2777 5042 I 2778 5042 I 2779 5043 I 2780 5043 I 2781 5043 I 2782 5043 I 2783 5044 I 2784 5044 I 2785 5044 I 2786 5045 I 2787 5045 I 2788 5045 I 2789 5046 I 2790 5046 I 2791 5046 I 2792 5047 I 2793 5047 I 2794 5047 I 2795 5048 I 2796 5048 I 2797 5048 I 2798 5049 I 2799 5049 I 2800 5049 I 2801 5050 I 2802 5050 I 2803 5051 I 2804 5051 I 2805 5051 I 2806 5052 I 2807 5052 I 2808 5052 I 2809 5052 I 2810 5053 I 2811 5053 I 2812 5053 I 2813 5054 I 2814 5054 I 2815 5054 I 2816 5055 I 2817 5055 I 2818 5055 I 2819 5056 I 2820 5056 I 2821 5056 I 2822 5057 I 2823 5057 I 2824 5057 I 2825 5058 I 2826 5058 I 2827 5058 I 2828 5059 I 2829 5059 I 2830 5059 I 2831 5060 I 2832 5060 I 2833 5060 I 2834 5061 I 2835 5061 I 2836 5061 I 2837 5062 I 2838 5062 I 2839 5062 I 2840 5062 I 2841 5063 I 2842 5063 I 2843 5063 I 2844 5064 I 2845 5064 I 2846 5064 I 2847 5065 I 2848 5065 I 2849 5065 I 2850 5066 I 2851 5066 I 2852 5066 I 2853 5066 I 2854 5067 I 2855 5067 I 2856 5067 I 2857 5068 I 2858 5068 I 2859 5068 I 2860 5069 I 2861 5069 I 2862 5069 I 2863 5070 I 2864 5070 I 2865 5070 I 2866 5070 I 2867 5071 I 2868 5071 I 2869 5071 I 2870 5072 I 2871 5072 I 2872 5072 I 2873 5073 I 2874 5073 I 2875 5073 I 2876 5074 I 2877 5074 I 2878 5074 I 2879 5074 I 2880 5075 I 2881 5075 I 2882 5075 I 2883 5076 I 2884 5076 I 2885 5076 I 2886 5077 I 2887 5077 I 2888 5077 I 2889 5077 I 2890 5078 I 2891 5078 I 2892 5078 I 2893 5079 I 2894 5079 I 2895 5079 I 2896 5079 I 2897 5080 I 2898 5080 I 2899 5080 I 2900 5081 I 2901 5081 I : [ 1 0 0 1 150 150 ] concat K 
; N 2901 5081 M 2902 5081 I 2903 5081 I 2904 5082 I 2905 5082 I 2906 5082 I 2907 5083 I 2908 5083 I 2909 5083 I 2910 5083 I 2911 5084 I 2912 5084 I 2913 5084 I 2914 5085 I 2915 5085 I 2916 5085 I 2917 5086 I 2918 5086 I 2919 5086 I 2920 5086 I 2921 5087 I 2922 5087 I 2923 5087 I 2924 5088 I 2925 5088 I 2926 5088 I 2927 5088 I 2928 5089 I 2929 5089 I 2930 5089 I 2931 5089 I 2932 5090 I 2933 5090 I 2934 5090 I 2935 5090 I 2936 5091 I 2937 5091 I 2938 5091 I 2939 5092 I 2940 5092 I 2941 5092 I 2942 5093 I 2943 5093 I 2944 5093 I 2945 5093 I 2946 5094 I 2947 5094 I 2948 5094 I 2949 5094 I 2950 5095 I 2951 5095 I 2952 5095 I 2953 5095 I 2954 5096 I 2955 5096 I 2956 5096 I 2957 5096 I 2958 5097 I 2959 5097 I 2960 5097 I 2961 5098 I 2962 5098 I 2963 5098 I 2964 5099 I 2965 5099 I 2966 5099 I 2967 5099 I 2968 5100 I 2969 5100 I 2970 5100 I 2971 5100 I 2972 5101 I 2973 5101 I 2974 5101 I 2975 5101 I 2976 5102 I 2977 5102 I 2978 5102 I 2979 5102 I 2980 5103 I 2981 5103 I 2982 5103 I 2983 5104 I 2984 5104 I 2985 5104 I 2986 5104 I 2987 5104 I 2988 5105 I 2989 5105 I 2990 5105 I 2991 5105 I 2992 5106 I 2993 5106 I 2994 5106 I 2995 5107 I 2996 5107 I 2997 5107 I 2998 5107 I 2999 5108 I 3000 5108 I 3001 5108 I 3002 5108 I 3003 5109 I 3004 5109 I 3005 5109 I 3006 5109 I 3007 5110 I 3008 5110 I 3009 5110 I 3010 5110 I 3011 5111 I 3012 5111 I 3013 5111 I 3014 5111 I 3015 5112 I 3016 5112 I 3017 5112 I 3018 5112 I 3019 5113 I 3020 5113 I 3021 5113 I 3022 5113 I 3023 5113 I 3024 5114 I 3025 5114 I 3026 5114 I 3027 5115 I 3028 5115 I : [ 1 0 0 1 150 150 ] concat K 
; N 3028 5115 M 3029 5115 I 3030 5115 I 3031 5116 I 3032 5116 I 3033 5116 I 3034 5116 I 3035 5116 I 3036 5117 I 3037 5117 I 3038 5117 I 3039 5118 I 3040 5118 I 3041 5118 I 3042 5118 I 3043 5118 I 3044 5119 I 3045 5119 I 3046 5119 I 3047 5119 I 3048 5120 I 3049 5120 I 3050 5120 I 3051 5120 I 3052 5121 I 3053 5121 I 3054 5121 I 3055 5121 I 3056 5122 I 3057 5122 I 3058 5122 I 3059 5122 I 3060 5122 I 3061 5123 I 3062 5123 I 3063 5123 I 3064 5123 I 3065 5124 I 3066 5124 I 3067 5124 I 3068 5124 I 3069 5125 I 3070 5125 I 3071 5125 I 3072 5125 I 3073 5125 I 3074 5126 I 3075 5126 I 3076 5126 I 3077 5126 I 3078 5127 I 3079 5127 I 3080 5127 I 3081 5127 I 3082 5127 I 3083 5128 I 3084 5128 I 3085 5128 I 3086 5129 I 3087 5129 I 3088 5129 I 3089 5129 I 3090 5129 I 3091 5130 I 3092 5130 I 3093 5130 I 3094 5130 I 3095 5131 I 3096 5131 I 3097 5131 I 3098 5131 I 3099 5131 I 3100 5132 I 3101 5132 I 3102 5132 I 3103 5132 I 3104 5132 I 3105 5133 I 3106 5133 I 3107 5133 I 3108 5133 I 3109 5134 I 3110 5134 I 3111 5134 I 3112 5134 I 3113 5134 I 3114 5135 I 3115 5135 I 3116 5135 I 3117 5135 I 3118 5136 I 3119 5136 I 3120 5136 I 3121 5136 I 3122 5136 I 3123 5137 I 3124 5137 I 3125 5137 I 3126 5137 I 3127 5138 I 3128 5138 I 3129 5138 I 3130 5138 I 3131 5138 I 3132 5139 I 3133 5139 I 3134 5139 I 3135 5139 I 3136 5139 I 3137 5140 I 3138 5140 I 3139 5140 I 3140 5140 I 3141 5140 I 3142 5141 I 3143 5141 I 3144 5141 I 3145 5141 I 3146 5142 I 3147 5142 I 3148 5142 I 3149 5142 I 3150 5142 I 3151 5143 I 3152 5143 I 3153 5143 I 3154 5143 I 3155 5143 I : [ 1 0 0 1 150 150 ] concat K 
; N 3155 5143 M 3156 5144 I 3157 5144 I 3158 5144 I 3159 5144 I 3160 5144 I 3161 5145 I 3162 5145 I 3163 5145 I 3164 5145 I 3165 5145 I 3166 5146 I 3167 5146 I 3168 5146 I 3169 5146 I 3170 5146 I 3171 5147 I 3172 5147 I 3173 5147 I 3174 5147 I 3175 5147 I 3176 5148 I 3177 5148 I 3178 5148 I 3179 5148 I 3180 5149 I 3181 5149 I 3182 5149 I 3183 5149 I 3184 5149 I 3185 5149 I 3186 5150 I 3187 5150 I 3188 5150 I 3189 5150 I 3190 5151 I 3191 5151 I 3192 5151 I 3193 5151 I 3194 5151 I 3195 5151 I 3196 5152 I 3197 5152 I 3198 5152 I 3199 5152 I 3200 5152 I 3201 5153 I 3202 5153 I 3203 5153 I 3204 5153 I 3205 5153 I 3206 5154 I 3207 5154 I 3208 5154 I 3209 5154 I 3210 5154 I 3211 5155 I 3212 5155 I 3213 5155 I 3214 5155 I 3215 5155 I 3216 5155 I 3217 5156 I 3218 5156 I 3219 5156 I 3220 5156 I 3221 5157 I 3222 5157 I 3223 5157 I 3224 5157 I 3225 5157 I 3226 5157 I 3227 5158 I 3228 5158 I 3229 5158 I 3230 5158 I 3231 5158 I 3232 5158 I 3233 5159 I 3234 5159 I 3235 5159 I 3236 5159 I 3237 5159 I 3238 5160 I 3239 5160 I 3240 5160 I 3241 5160 I 3242 5160 I 3243 5161 I 3244 5161 I 3245 5161 I 3246 5161 I 3247 5161 I 3248 5161 I 3249 5162 I 3250 5162 I 3251 5162 I 3252 5162 I 3253 5162 I 3254 5163 I 3255 5163 I 3256 5163 I 3257 5163 I 3258 5163 I 3259 5163 I 3260 5164 I 3261 5164 I 3262 5164 I 3263 5164 I 3264 5164 I 3265 5165 I 3266 5165 I 3267 5165 I 3268 5165 I 3269 5165 I 3270 5165 I 3271 5166 I 3272 5166 I 3273 5166 I 3274 5166 I 3275 5166 I 3276 5166 I 3277 5167 I 3278 5167 I 3279 5167 I 3280 5167 I 3281 5167 I 3282 5168 I : [ 1 0 0 1 150 150 ] concat K 
; N 3282 5168 M 3283 5168 I 3284 5168 I 3285 5168 I 3286 5168 I 3287 5168 I 3288 5169 I 3289 5169 I 3290 5169 I 3291 5169 I 3292 5169 I 3293 5169 I 3294 5170 I 3295 5170 I 3296 5170 I 3297 5170 I 3298 5170 I 3299 5171 I 3300 5171 I 3301 5171 I 3302 5171 I 3303 5171 I 3304 5171 I 3305 5172 I 3306 5172 I 3307 5172 I 3308 5172 I 3309 5172 I 3310 5172 I 3311 5173 I 3312 5173 I 3313 5173 I 3314 5173 I 3315 5173 I 3316 5173 I 3317 5173 I 3318 5174 I 3319 5174 I 3320 5174 I 3321 5174 I 3322 5174 I 3323 5174 I 3324 5175 I 3325 5175 I 3326 5175 I 3327 5175 I 3328 5175 I 3329 5175 I 3330 5176 I 3331 5176 I 3332 5176 I 3333 5176 I 3334 5176 I 3335 5176 I 3336 5177 I 3337 5177 I 3338 5177 I 3339 5177 I 3340 5177 I 3341 5177 I 3342 5178 I 3343 5178 I 3344 5178 I 3345 5178 I 3346 5178 I 3347 5178 I 3348 5179 I 3349 5179 I 3350 5179 I 3351 5179 I 3352 5179 I 3353 5179 I 3354 5180 I 3355 5180 I 3356 5180 I 3357 5180 I 3358 5180 I 3359 5180 I 3360 5180 I 3361 5181 I 3362 5181 I 3363 5181 I 3364 5181 I 3365 5181 I 3366 5181 I 3367 5182 I 3368 5182 I 3369 5182 I 3370 5182 I 3371 5182 I 3372 5182 I 3373 5182 I 3374 5183 I 3375 5183 I 3376 5183 I 3377 5183 I 3378 5183 I 3379 5183 I 3380 5184 I 3381 5184 I 3382 5184 I 3383 5184 I 3384 5184 I 3385 5184 I 3386 5185 I 3387 5185 I 3388 5185 I 3389 5185 I 3390 5185 I 3391 5185 I 3392 5185 I 3393 5186 I 3394 5186 I 3395 5186 I 3396 5186 I 3397 5186 I 3398 5186 I 3399 5187 I 3400 5187 I 3401 5187 I 3402 5187 I 3403 5187 I 3404 5187 I 3405 5187 I 3406 5188 I 3407 5188 I 3408 5188 I 3409 5188 I : [ 1 0 0 1 150 150 ] concat K 
; N 3409 5188 M 3410 5188 I 3411 5188 I 3412 5188 I 3413 5189 I 3414 5189 I 3415 5189 I 3416 5189 I 3417 5189 I 3418 5189 I 3419 5189 I 3420 5190 I 3421 5190 I 3422 5190 I 3423 5190 I 3424 5190 I 3425 5190 I 3426 5190 I 3427 5191 I 3428 5191 I 3429 5191 I 3430 5191 I 3431 5191 I 3432 5191 I 3433 5191 I 3434 5192 I 3435 5192 I 3436 5192 I 3437 5192 I 3438 5192 I 3439 5192 I 3440 5192 I 3441 5193 I 3442 5193 I 3443 5193 I 3444 5193 I 3445 5193 I 3446 5193 I 3447 5193 I 3448 5194 I 3449 5194 I 3450 5194 I 3451 5194 I 3452 5194 I 3453 5194 I 3454 5194 I 3455 5195 I 3456 5195 I 3457 5195 I 3458 5195 I 3459 5195 I 3460 5195 I 3461 5195 I 3462 5196 I 3463 5196 I 3464 5196 I 3465 5196 I 3466 5196 I 3467 5196 I 3468 5196 I 3469 5196 I 3470 5197 I 3471 5197 I 3472 5197 I 3473 5197 I 3474 5197 I 3475 5197 I 3476 5197 I 3477 5198 I 3478 5198 I 3479 5198 I 3480 5198 I 3481 5198 I 3482 5198 I 3483 5198 I 3484 5198 I 3485 5199 I 3486 5199 I 3487 5199 I 3488 5199 I 3489 5199 I 3490 5199 I 3491 5199 I 3492 5199 I 3493 5200 I 3494 5200 I 3495 5200 I 3496 5200 I 3497 5200 I 3498 5200 I 3499 5200 I 3500 5201 I 3501 5201 I 3502 5201 I 3503 5201 I 3504 5201 I 3505 5201 I 3506 5201 I 3507 5201 I 3508 5202 I 3509 5202 I 3510 5202 I 3511 5202 I 3512 5202 I 3513 5202 I 3514 5202 I 3515 5203 I 3516 5203 I 3517 5203 I 3518 5203 I 3519 5203 I 3520 5203 I 3521 5203 I 3522 5203 I 3523 5204 I 3524 5204 I 3525 5204 I 3526 5204 I 3527 5204 I 3528 5204 I 3529 5204 I 3530 5204 I 3531 5205 I 3532 5205 I 3533 5205 I 3534 5205 I 3535 5205 I 3536 5205 I : [ 1 0 0 1 150 150 ] concat K 
; N 3536 5205 M 3537 5205 I 3538 5205 I 3539 5206 I 3540 5206 I 3541 5206 I 3542 5206 I 3543 5206 I 3544 5206 I 3545 5206 I 3546 5206 I 3547 5207 I 3548 5207 I 3549 5207 I 3550 5207 I 3551 5207 I 3552 5207 I 3553 5207 I 3554 5207 I 3555 5208 I 3556 5208 I 3557 5208 I 3558 5208 I 3559 5208 I 3560 5208 I 3561 5208 I 3562 5208 I 3563 5208 I 3564 5209 I 3565 5209 I 3566 5209 I 3567 5209 I 3568 5209 I 3569 5209 I 3570 5209 I 3571 5209 I 3572 5210 I 3573 5210 I 3574 5210 I 3575 5210 I 3576 5210 I 3577 5210 I 3578 5210 I 3579 5210 I 3580 5211 I 3581 5211 I 3582 5211 I 3583 5211 I 3584 5211 I 3585 5211 I 3586 5211 I 3587 5211 I 3588 5211 I 3589 5212 I 3590 5212 I 3591 5212 I 3592 5212 I 3593 5212 I 3594 5212 I 3595 5212 I 3596 5212 I 3597 5212 I 3598 5213 I 3599 5213 I 3600 5213 I 3601 5213 I 3602 5213 I 3603 5213 I 3604 5213 I 3605 5213 I 3606 5214 I 3607 5214 I 3608 5214 I 3609 5214 I 3610 5214 I 3611 5214 I 3612 5214 I 3613 5214 I 3614 5214 I 3615 5215 I 3616 5215 I 3617 5215 I 3618 5215 I 3619 5215 I 3620 5215 I 3621 5215 I 3622 5215 I 3623 5215 I 3624 5216 I 3625 5216 I 3626 5216 I 3627 5216 I 3628 5216 I 3629 5216 I 3630 5216 I 3631 5216 I 3632 5216 I 3633 5216 I 3634 5217 I 3635 5217 I 3636 5217 I 3637 5217 I 3638 5217 I 3639 5217 I 3640 5217 I 3641 5217 I 3642 5217 I 3643 5218 I 3644 5218 I 3645 5218 I 3646 5218 I 3647 5218 I 3648 5218 I 3649 5218 I 3650 5218 I 3651 5218 I 3652 5219 I 3653 5219 I 3654 5219 I 3655 5219 I 3656 5219 I 3657 5219 I 3658 5219 I 3659 5219 I 3660 5219 I 3661 5219 I 3662 5220 I 3663 5220 I : [ 1 0 0 1 150 150 ] concat K 
; N 3663 5220 M 3664 5220 I 3665 5220 I 3666 5220 I 3667 5220 I 3668 5220 I 3669 5220 I 3670 5220 I 3671 5221 I 3672 5221 I 3673 5221 I 3674 5221 I 3675 5221 I 3676 5221 I 3677 5221 I 3678 5221 I 3679 5221 I 3680 5221 I 3681 5222 I 3682 5222 I 3683 5222 I 3684 5222 I 3685 5222 I 3686 5222 I 3687 5222 I 3688 5222 I 3689 5222 I 3690 5223 I 3691 5223 I 3692 5223 I 3693 5223 I 3694 5223 I 3695 5223 I 3696 5223 I 3697 5223 I 3698 5223 I 3699 5223 I 3700 5224 I 3701 5224 I 3702 5224 I 3703 5224 I 3704 5224 I 3705 5224 I 3706 5224 I 3707 5224 I 3708 5224 I 3709 5224 I 3710 5224 I 3711 5225 I 3712 5225 I 3713 5225 I 3714 5225 I 3715 5225 I 3716 5225 I 3717 5225 I 3718 5225 I 3719 5225 I 3720 5225 I 3721 5226 I 3722 5226 I 3723 5226 I 3724 5226 I 3725 5226 I 3726 5226 I 3727 5226 I 3728 5226 I 3729 5226 I 3730 5226 I 3731 5227 I 3732 5227 I 3733 5227 I 3734 5227 I 3735 5227 I 3736 5227 I 3737 5227 I 3738 5227 I 3739 5227 I 3740 5227 I 3741 5227 I 3742 5228 I 3743 5228 I 3744 5228 I 3745 5228 I 3746 5228 I 3747 5228 I 3748 5228 I 3749 5228 I 3750 5228 I 3751 5228 I 3752 5228 I 3753 5229 I 3754 5229 I 3755 5229 I 3756 5229 I 3757 5229 I 3758 5229 I 3759 5229 I 3760 5229 I 3761 5229 I 3762 5229 I 3763 5230 I 3764 5230 I 3765 5230 I 3766 5230 I 3767 5230 I 3768 5230 I 3769 5230 I 3770 5230 I 3771 5230 I 3772 5230 I 3773 5230 I 3774 5231 I 3775 5231 I 3776 5231 I 3777 5231 I 3778 5231 I 3779 5231 I 3780 5231 I 3781 5231 I 3782 5231 I 3783 5231 I 3784 5231 I 3785 5232 I 3786 5232 I 3787 5232 I 3788 5232 I 3789 5232 I 3790 5232 I : [ 1 0 0 1 150 150 ] concat K 
; N 3790 5232 M 3791 5232 I 3792 5232 I 3793 5232 I 3794 5232 I 3795 5232 I 3796 5233 I 3797 5233 I 3798 5233 I 3799 5233 I 3800 5233 I 3801 5233 I 3802 5233 I 3803 5233 I 3804 5233 I 3805 5233 I 3806 5233 I 3807 5233 I 3808 5234 I 3809 5234 I 3810 5234 I 3811 5234 I 3812 5234 I 3813 5234 I 3814 5234 I 3815 5234 I 3816 5234 I 3817 5234 I 3818 5234 I 3819 5235 I 3820 5235 I 3821 5235 I 3822 5235 I 3823 5235 I 3824 5235 I 3825 5235 I 3826 5235 I 3827 5235 I 3828 5235 I 3829 5235 I 3830 5235 I 3831 5236 I 3832 5236 I 3833 5236 I 3834 5236 I 3835 5236 I 3836 5236 I 3837 5236 I 3838 5236 I 3839 5236 I 3840 5236 I 3841 5236 I 3842 5236 I 3843 5237 I 3844 5237 I 3845 5237 I 3846 5237 I 3847 5237 I 3848 5237 I 3849 5237 I 3850 5237 I 3851 5237 I 3852 5237 I 3853 5237 I 3854 5237 I 3855 5237 I 3856 5238 I 3857 5238 I 3858 5238 I 3859 5238 I 3860 5238 I 3861 5238 I 3862 5238 I 3863 5238 I 3864 5238 I 3865 5238 I 3866 5238 I 3867 5238 I 3868 5239 I 3869 5239 I 3870 5239 I 3871 5239 I 3872 5239 I 3873 5239 I 3874 5239 I 3875 5239 I 3876 5239 I 3877 5239 I 3878 5239 I 3879 5239 I 3880 5239 I 3881 5240 I 3882 5240 I 3883 5240 I 3884 5240 I 3885 5240 I 3886 5240 I 3887 5240 I 3888 5240 I 3889 5240 I 3890 5240 I 3891 5240 I 3892 5240 I 3893 5241 I 3894 5241 I 3895 5241 I 3896 5241 I 3897 5241 I 3898 5241 I 3899 5241 I 3900 5241 I 3901 5241 I 3902 5241 I 3903 5241 I 3904 5241 I 3905 5241 I 3906 5242 I 3907 5242 I 3908 5242 I 3909 5242 I 3910 5242 I 3911 5242 I 3912 5242 I 3913 5242 I 3914 5242 I 3915 5242 I 3916 5242 I 3917 5242 I : [ 1 0 0 1 150 150 ] concat K 
; N 3917 5242 M 3918 5242 I 3919 5242 I 3920 5243 I 3921 5243 I 3922 5243 I 3923 5243 I 3924 5243 I 3925 5243 I 3926 5243 I 3927 5243 I 3928 5243 I 3929 5243 I 3930 5243 I 3931 5243 I 3932 5243 I 3933 5244 I 3934 5244 I 3935 5244 I 3936 5244 I 3937 5244 I 3938 5244 I 3939 5244 I 3940 5244 I 3941 5244 I 3942 5244 I 3943 5244 I 3944 5244 I 3945 5244 I 3946 5244 I 3947 5245 I 3948 5245 I 3949 5245 I 3950 5245 I 3951 5245 I 3952 5245 I 3953 5245 I 3954 5245 I 3955 5245 I 3956 5245 I 3957 5245 I 3958 5245 I 3959 5245 I 3960 5245 I 3961 5246 I 3962 5246 I 3963 5246 I 3964 5246 I 3965 5246 I 3966 5246 I 3967 5246 I 3968 5246 I 3969 5246 I 3970 5246 I 3971 5246 I 3972 5246 I 3973 5246 I 3974 5246 I 3975 5247 I 3976 5247 I 3977 5247 I 3978 5247 I 3979 5247 I 3980 5247 I 3981 5247 I 3982 5247 I 3983 5247 I 3984 5247 I 3985 5247 I 3986 5247 I 3987 5247 I 3988 5247 I 3989 5247 I 3990 5248 I 3991 5248 I 3992 5248 I 3993 5248 I 3994 5248 I 3995 5248 I 3996 5248 I 3997 5248 I 3998 5248 I 3999 5248 I 4000 5248 I 4001 5248 I 4002 5248 I 4003 5248 I 4004 5248 I 4005 5249 I 4006 5249 I 4007 5249 I 4008 5249 I 4009 5249 I 4010 5249 I 4011 5249 I 4012 5249 I 4013 5249 I 4014 5249 I 4015 5249 I 4016 5249 I 4017 5249 I 4018 5249 I 4019 5249 I 4020 5250 I 4021 5250 I 4022 5250 I 4023 5250 I 4024 5250 I 4025 5250 I 4026 5250 I 4027 5250 I 4028 5250 I 4029 5250 I 4030 5250 I 4031 5250 I 4032 5250 I 4033 5250 I 4034 5250 I 4035 5251 I 4036 5251 I 4037 5251 I 4038 5251 I 4039 5251 I 4040 5251 I 4041 5251 I 4042 5251 I 4043 5251 I 4044 5251 I : [ 1 0 0 1 150 150 ] concat K 
; N 4044 5251 M 4045 5251 I 4046 5251 I 4047 5251 I 4048 5251 I 4049 5251 I 4050 5251 I 4051 5252 I 4052 5252 I 4053 5252 I 4054 5252 I 4055 5252 I 4056 5252 I 4057 5252 I 4058 5252 I 4059 5252 I 4060 5252 I 4061 5252 I 4062 5252 I 4063 5252 I 4064 5252 I 4065 5252 I 4066 5252 I 4067 5253 I 4068 5253 I 4069 5253 I 4070 5253 I 4071 5253 I 4072 5253 I 4073 5253 I 4074 5253 I 4075 5253 I 4076 5253 I 4077 5253 I 4078 5253 I 4079 5253 I 4080 5253 I 4081 5253 I 4082 5253 I 4083 5253 I 4084 5254 I 4085 5254 I 4086 5254 I 4087 5254 I 4088 5254 I 4089 5254 I 4090 5254 I 4091 5254 I 4092 5254 I 4093 5254 I 4094 5254 I 4095 5254 I 4096 5254 I 4097 5254 I 4098 5254 I 4099 5254 I 4100 5255 I 4101 5255 I 4102 5255 I 4103 5255 I 4104 5255 I 4105 5255 I 4106 5255 I 4107 5255 I 4108 5255 I 4109 5255 I 4110 5255 I 4111 5255 I 4112 5255 I 4113 5255 I 4114 5255 I 4115 5255 I 4116 5255 I 4117 5255 I 4118 5256 I 4119 5256 I 4120 5256 I 4121 5256 I 4122 5256 I 4123 5256 I 4124 5256 I 4125 5256 I 4126 5256 I 4127 5256 I 4128 5256 I 4129 5256 I 4130 5256 I 4131 5256 I 4132 5256 I 4133 5256 I 4134 5256 I 4135 5257 I 4136 5257 I 4137 5257 I 4138 5257 I 4139 5257 I 4140 5257 I 4141 5257 I 4142 5257 I 4143 5257 I 4144 5257 I 4145 5257 I 4146 5257 I 4147 5257 I 4148 5257 I 4149 5257 I 4150 5257 I 4151 5257 I 4152 5257 I 4153 5258 I 4154 5258 I 4155 5258 I 4156 5258 I 4157 5258 I 4158 5258 I 4159 5258 I 4160 5258 I 4161 5258 I 4162 5258 I 4163 5258 I 4164 5258 I 4165 5258 I 4166 5258 I 4167 5258 I 4168 5258 I 4169 5258 I 4170 5258 I 4171 5258 I : [ 1 0 0 1 150 150 ] concat K 
; N 4171 5258 M 4172 5259 I 4173 5259 I 4174 5259 I 4175 5259 I 4176 5259 I 4177 5259 I 4178 5259 I 4179 5259 I 4180 5259 I 4181 5259 I 4182 5259 I 4183 5259 I 4184 5259 I 4185 5259 I 4186 5259 I 4187 5259 I 4188 5259 I 4189 5259 I 4190 5259 I 4191 5260 I 4192 5260 I 4193 5260 I 4194 5260 I 4195 5260 I 4196 5260 I 4197 5260 I 4198 5260 I 4199 5260 I 4200 5260 I 4201 5260 I 4202 5260 I 4203 5260 I 4204 5260 I 4205 5260 I 4206 5260 I 4207 5260 I 4208 5260 I 4209 5260 I 4210 5261 I 4211 5261 I 4212 5261 I 4213 5261 I 4214 5261 I 4215 5261 I 4216 5261 I 4217 5261 I 4218 5261 I 4219 5261 I 4220 5261 I 4221 5261 I 4222 5261 I 4223 5261 I 4224 5261 I 4225 5261 I 4226 5261 I 4227 5261 I 4228 5261 I 4229 5261 I 4230 5261 I 4231 5262 I 4232 5262 I 4233 5262 I 4234 5262 I 4235 5262 I 4236 5262 I 4237 5262 I 4238 5262 I 4239 5262 I 4240 5262 I 4241 5262 I 4242 5262 I 4243 5262 I 4244 5262 I 4245 5262 I 4246 5262 I 4247 5262 I 4248 5262 I 4249 5262 I 4250 5262 I 4251 5263 I 4252 5263 I 4253 5263 I 4254 5263 I 4255 5263 I 4256 5263 I 4257 5263 I 4258 5263 I 4259 5263 I 4260 5263 I 4261 5263 I 4262 5263 I 4263 5263 I 4264 5263 I 4265 5263 I 4266 5263 I 4267 5263 I 4268 5263 I 4269 5263 I 4270 5263 I 4271 5263 I 4272 5264 I 4273 5264 I 4274 5264 I 4275 5264 I 4276 5264 I 4277 5264 I 4278 5264 I 4279 5264 I 4280 5264 I 4281 5264 I 4282 5264 I 4283 5264 I 4284 5264 I 4285 5264 I 4286 5264 I 4287 5264 I 4288 5264 I 4289 5264 I 4290 5264 I 4291 5264 I 4292 5264 I 4293 5264 I 4294 5265 I 4295 5265 I 4296 5265 I 4297 5265 I 4298 5265 I : [ 1 0 0 1 150 150 ] concat K 
; N 4298 5265 M 4299 5265 I 4300 5265 I 4301 5265 I 4302 5265 I 4303 5265 I 4304 5265 I 4305 5265 I 4306 5265 I 4307 5265 I 4308 5265 I 4309 5265 I 4310 5265 I 4311 5265 I 4312 5265 I 4313 5265 I 4314 5265 I 4315 5265 I 4316 5266 I 4317 5266 I 4318 5266 I 4319 5266 I 4320 5266 I 4321 5266 I 4322 5266 I 4323 5266 I 4324 5266 I 4325 5266 I 4326 5266 I 4327 5266 I 4328 5266 I 4329 5266 I 4330 5266 I 4331 5266 I 4332 5266 I 4333 5266 I 4334 5266 I 4335 5266 I 4336 5266 I 4337 5266 I 4338 5266 I 4339 5267 I 4340 5267 I 4341 5267 I 4342 5267 I 4343 5267 I 4344 5267 I 4345 5267 I 4346 5267 I 4347 5267 I 4348 5267 I 4349 5267 I 4350 5267 I 4351 5267 I 4352 5267 I 4353 5267 I 4354 5267 I 4355 5267 I 4356 5267 I 4357 5267 I 4358 5267 I 4359 5267 I 4360 5267 I 4361 5267 I 4362 5267 I 4363 5268 I 4364 5268 I 4365 5268 I 4366 5268 I 4367 5268 I 4368 5268 I 4369 5268 I 4370 5268 I 4371 5268 I 4372 5268 I 4373 5268 I 4374 5268 I 4375 5268 I 4376 5268 I 4377 5268 I 4378 5268 I 4379 5268 I 4380 5268 I 4381 5268 I 4382 5268 I 4383 5268 I 4384 5268 I 4385 5268 I 4386 5268 I 4387 5268 I 4388 5269 I 4389 5269 I 4390 5269 I 4391 5269 I 4392 5269 I 4393 5269 I 4394 5269 I 4395 5269 I 4396 5269 I 4397 5269 I 4398 5269 I 4399 5269 I 4400 5269 I 4401 5269 I 4402 5269 I 4403 5269 I 4404 5269 I 4405 5269 I 4406 5269 I 4407 5269 I 4408 5269 I 4409 5269 I 4410 5269 I 4411 5269 I 4412 5269 I 4413 5270 I 4414 5270 I 4415 5270 I 4416 5270 I 4417 5270 I 4418 5270 I 4419 5270 I 4420 5270 I 4421 5270 I 4422 5270 I 4423 5270 I 4424 5270 I 4425 5270 I : [ 1 0 0 1 150 150 ] concat K 
; : 4422 5267 36 8 rc N 4425 5270 M 4426 5270 I 4427 5270 I 4428 5270 I 4429 5270 I 4430 5270 I 4431 5270 I 4432 5270 I 4433 5270 I 4434 5270 I 4435 5270 I 4436 5270 I 4437 5270 I 4438 5270 I 4439 5270 I 4440 5271 I 4441 5271 I 4442 5271 I 4443 5271 I 4444 5271 I 4445 5271 I 4446 5271 I 4447 5271 I 4448 5271 I 4449 5271 I 4450 5271 I 4451 5271 I 4452 5271 I 4453 5271 I 4454 5271 I 4455 5271 I 4456 5271 I 4457 5271 I : [ 1 0 0 1 150 150 ] concat K 
; ; 0 0 0 1 scol T32RsrcBegin

12
/g341 [38 0 1 -44 37 4 ] 
/g341 [36 48 true [1 0 0 1 -1 44 ]  0 0]
[<ffffffffe0
ffffffffe0
ffffffffe0
fc00f003e0
f000f001e0
f000f000e0
e000f00060
e000f00060
c000f00060
c000f00030
c000f00030
8000f00030
0000f00000
0000f00000
0000f00000
0000f00000
0000f00000
0000f00000
0000f00000
0000f00000
0000f00000
0000f00000
0000f00000
0000f00000
0000f00000
0000f00000
0000f00000
0000f00000
0000f00000
0000f00000
0000f00000
0000f00000
0000f00000
0000f00000
0000f00000
0000f00000
0000f00000
0000f00000
0000f00000
0000f00000
0000f00000
0000f00000
0001f00000
0001f00000
0001f80000
0007fc0000
003fff8000
007fffe000
>
 ]
/TT21b00 AddT3T32Char

13
/g362 [17 0 1 -45 16 4 ] 
/g362 [15 49 true [1 0 0 1 -1 45 ]  0 0]
[<0300
0780
0f80
0f80
0780
0780
0000
0000
0000
0000
0000
0000
0000
0000
0000
0000
0000
0180
0f80
3f80
ff80
0f80
0780
0780
0380
0380
0380
0380
0380
0380
0380
0380
0380
0380
0380
0380
0380
0380
0380
0380
0380
0380
0380
0780
07c0
07c0
0fe0
3ff8
fffe
>
 ]
/TT21b00 AddT3T32Char

14
/g366 [48 0 1 -29 48 4 ] 
/g366 [47 33 true [1 0 0 1 -1 29 ]  0 0]
[<0100f8007c00
0703fc03fe00
3f07fe07ff00
ff1fff0fff80
1f3c1f1c1f80
0f700f300780
0fc007e007c0
078007c003c0
0700078003c0
0700038003c0
0700038003c0
0700038001c0
0700038001c0
0700038001c0
0700038001c0
0700038001c0
0700038001c0
0700038001c0
0700038001c0
0700038001c0
0700038001c0
0700038001c0
0700038001c0
0700038001c0
0700038001c0
0700038001c0
0700038001c0
0700038003c0
0700038003c0
0f8007c003e0
0f8007c007e0
3fe01ff00ff8
fff87ffc3ffe
>
 ]
/TT21b00 AddT3T32Char

15
/g358 [28 0 1 -29 26 4 ] 
/g358 [25 33 true [1 0 0 1 -1 29 ]  0 0]
[<003f8000
00ffe000
0381f000
0700f800
0c007c00
0c003c00
18001e00
38001e00
30001e00
30001f00
7fffff00
7fffff00
60000000
60000000
60000000
f0000000
f0000000
f0000000
f0000000
f0000000
70000000
78000000
78000080
78000180
7c000100
3c000300
3e000600
1f000c00
1f801c00
0fe0f800
07fff000
03ffe000
00ff8000
>
 ]
/TT21b00 AddT3T32Char

16
/g289 [17 0 0 0 1 1 ] 
/g289 [1 1 true [1 0 0 1 0 0 ]  0 0]
[<00
>
 ]
/TT21b00 AddT3T32Char

17
/g368 [31 0 2 -29 29 4 ] 
/g368 [27 33 true [1 0 0 1 -2 29 ]  0 0]
[<007f8000
01fff000
0780f800
0f007c00
0c001e00
1c001f00
38000f80
38000780
700007c0
700003c0
f00003c0
f00003e0
f00001e0
f00001e0
f00001e0
f00001e0
f00001e0
f00001e0
f00001e0
f00001e0
f00001e0
f80001c0
f80001c0
780001c0
7c000380
3c000380
3e000300
1e000700
1f000e00
0f801c00
07e03800
01fff000
00ffc000
>
 ]
/TT21b00 AddT3T32Char

18
/g359 [21 0 1 -45 24 4 ] 
/g359 [23 49 true [1 0 0 1 -1 45 ]  0 0]
[<0007f0
001ff8
0030fc
00607e
00c03e
01c01c
01c000
01c000
01c000
03c000
03c000
03c000
03c000
03c000
03c000
03c000
03c000
ffffc0
ffffc0
03c000
03c000
03c000
03c000
03c000
03c000
03c000
03c000
03c000
03c000
03c000
03c000
03c000
03c000
03c000
03c000
03c000
03c000
03c000
03c000
03c000
03c000
03c000
03c000
03c000
03c000
07c000
07e000
1ff800
ffff00
>
 ]
/TT21b00 AddT3T32Char

19
/g372 [24 0 3 -29 21 4 ] 
/g372 [18 33 true [1 0 0 1 -3 29 ]  0 0]
[<07f100
1e1f00
380700
700700
600300
600300
e00100
e00100
e00100
f00100
f00000
780000
7e0000
3f0000
1fc000
0fe000
03f800
01fc00
00ff00
003f80
001f80
0007c0
8003c0
8003c0
c001c0
c001c0
c001c0
c001c0
e001c0
f00380
f80300
fe0e00
87fc00
>
 ]
/TT21b00 AddT3T32Char

20
/g373 [17 0 1 -38 17 4 ] 
/g373 [16 42 true [1 0 0 1 -1 38 ]  0 0]
[<0100
0300
0300
0300
0700
0700
0f00
1f00
3f00
7f00
fffe
0f00
0f00
0f00
0f00
0f00
0f00
0f00
0f00
0f00
0f00
0f00
0f00
0f00
0f00
0f00
0f00
0f00
0f00
0f00
0f00
0f00
0f00
0f00
0f00
0f00
0f00
0f01
0783
07fe
07fc
03f0
>
 ]
/TT21b00 AddT3T32Char

21
/g315 [17 0 5 -29 12 5 ] 
/g315 [7 34 true [1 0 0 1 -5 29 ]  0 0]
[<38
7c
fe
fe
fe
fc
78
00
00
00
00
00
00
00
00
00
00
00
00
00
00
00
00
00
00
00
38
7c
fe
fe
fe
fe
7c
10
>
 ]
/TT21b00 AddT3T32Char
T32RsrcEnd
144 6852 M <0C0D0E0F10111212130F14151001101010101010101010101010101010>S 
LH
%%PageTrailer

%%Trailer
%%DocumentNeededResources: 
%%DocumentSuppliedResources: 
%%+ procset Pscript_WinNT_VMErrorHandler 5.0 0
%%+ procset Pscript_FatalError 5.0 0
%%+ procset Pscript_Win_Basic 5.0 0
%%+ procset Pscript_Win_Utils_L1 5.0 0
%%+ procset Pscript_Win_GdiObject 5.0 0
%%+ procset Pscript_Win_GdiObject_L1 5.0 0
%%+ procset Pscript_T3Hdr 5.0 0
%%+ procset Pscript_Text 5.0 0
Pscript_WinNT_Incr dup /terminate get exec
%%EOF
