%!PS-Adobe-3.0 EPSF-3.0
%%Title: MATLAB
%%Creator: PScript5.dll Version 5.2.2
%%CreationDate: 10/24/2011 11:43:19
%%For: XDrz
%%BoundingBox: 0 0 595 842
%%Pages: 1
%%Orientation: Portrait
%%PageOrder: Ascend
%%DocumentNeededResources: (atend)
%%DocumentSuppliedResources: (atend)
%%DocumentData: Clean7Bit
%%TargetDevice: () (52.3) 320
%%LanguageLevel: 1
%%EndComments

%%BeginDefaults
%%PageBoundingBox: 0 0 595 842
%%ViewingOrientation: 1 0 0 1
%%EndDefaults

%%BeginProlog
%%BeginResource: file Pscript_WinNT_VMErrorHandler 5.0 0
/currentpacking where{pop/oldpack currentpacking def/setpacking where{pop false
setpacking}if}if/$brkpage 64 dict def $brkpage begin/prnt{dup type/stringtype
ne{=string cvs}if dup length 6 mul/tx exch def/ty 10 def currentpoint/toy exch
def/tox exch def 1 setgray newpath tox toy 2 sub moveto 0 ty rlineto tx 0
rlineto 0 ty neg rlineto closepath fill tox toy moveto 0 setgray show}bind def
/nl{currentpoint exch pop lmargin exch moveto 0 -10 rmoveto}def/=={/cp 0 def
typeprint nl}def/typeprint{dup type exec}readonly def/lmargin 72 def/rmargin 72
def/tprint{dup length cp add rmargin gt{nl/cp 0 def}if dup length cp add/cp
exch def prnt}readonly def/cvsprint{=string cvs tprint( )tprint}readonly def
/integertype{cvsprint}readonly def/realtype{cvsprint}readonly def/booleantype
{cvsprint}readonly def/operatortype{(--)tprint =string cvs tprint(-- )tprint}
readonly def/marktype{pop(-mark- )tprint}readonly def/dicttype{pop
(-dictionary- )tprint}readonly def/nulltype{pop(-null- )tprint}readonly def
/filetype{pop(-filestream- )tprint}readonly def/savetype{pop(-savelevel- )
tprint}readonly def/fonttype{pop(-fontid- )tprint}readonly def/nametype{dup
xcheck not{(/)tprint}if cvsprint}readonly def/stringtype{dup rcheck{(\()tprint
tprint(\))tprint}{pop(-string- )tprint}ifelse}readonly def/arraytype{dup rcheck
{dup xcheck{({)tprint{typeprint}forall(})tprint}{([)tprint{typeprint}forall(])
tprint}ifelse}{pop(-array- )tprint}ifelse}readonly def/packedarraytype{dup
rcheck{dup xcheck{({)tprint{typeprint}forall(})tprint}{([)tprint{typeprint}
forall(])tprint}ifelse}{pop(-packedarray- )tprint}ifelse}readonly def/courier
/Courier findfont 10 scalefont def end errordict/handleerror{systemdict begin
$error begin $brkpage begin newerror{/newerror false store vmstatus pop pop 0
ne{grestoreall}if initgraphics courier setfont lmargin 720 moveto errorname
(VMerror)eq{version cvi 2016 ge{userdict/ehsave known{clear userdict/ehsave get
restore 2 vmreclaim}if vmstatus exch pop exch pop PrtVMMsg}if}if systemdict
/showpage get exec(%%[ Error: )print errorname =print(; OffendingCommand: )
print/command load =print( ]%%)= flush}if end end end}dup 0 systemdict put dup
4 $brkpage put bind readonly put/currentpacking where{pop/setpacking where{pop
oldpack setpacking}if}if
%%EndResource
%%BeginProcSet: Pscript_Res_Emul 5.0 0
/defineresource where{pop}{userdict begin/defineresource{userdict/Resources 2
copy known{get begin}{15 dict dup begin put}ifelse exch readonly exch
currentdict 1 index known not{dup 30 dict def}if load 3 -1 roll 2 index put
end}bind readonly def/findresource{userdict/Resources get exch get exch get}
bind readonly def/resourceforall{pop pop pop pop}bind readonly def
/resourcestatus{userdict/Resources 2 copy known{get exch 2 copy known{get exch
known{0 -1 true}{false}ifelse}{pop pop pop false}ifelse}{pop pop pop pop false}
ifelse}bind readonly def end}ifelse
%%EndProcSet
userdict /Pscript_WinNT_Incr 230 dict dup begin put
%%BeginResource: file Pscript_FatalError 5.0 0
userdict begin/FatalErrorIf{{initgraphics findfont 1 index 0 eq{exch pop}{dup
length dict begin{1 index/FID ne{def}{pop pop}ifelse}forall/Encoding
{ISOLatin1Encoding}stopped{StandardEncoding}if def currentdict end
/ErrFont-Latin1 exch definefont}ifelse exch scalefont setfont counttomark 3 div
cvi{moveto show}repeat showpage quit}{cleartomark}ifelse}bind def end
%%EndResource
userdict begin/PrtVMMsg{vmstatus exch sub exch pop gt{[
(This job requires more memory than is available in this printer.)100 500
(Try one or more of the following, and then print again:)100 485
(For the output format, choose Optimize For Portability.)115 470
(In the Device Settings page, make sure the Available PostScript Memory is accurate.)
115 455(Reduce the number of fonts in the document.)115 440
(Print the document in parts.)115 425 12/Times-Roman[/MSung-Light--ETen-B5-H
dup{findfont}stopped{cleartomark}{/FontName get eq{pop cleartomark[
<b8d3a4e5a5f3bbddad6ea5ceaabaa4baa673a4d3a6682e20b17aa569a548b8d5a5cea670a455aa
baa4e8aa6ba641a5b4a64ca147>100 500<a66222506f737453637269707422b9efb8dcaed82c
20bfefbedc22506f737453637269707428a569c4e2a9cab3cca8cea4c6202d2041445343292e>
115 485<a66222b35db3c6bfefb6b522b9efb8dcaed82c2022a569a5ceaabaa64caaedbef7b04f
bed0c5e9284b422922aabaadc8ac4fbaebbd54aaba2e>115 470<a662a4e5a5f3a4a4a4d6a5ce
a44cbad8a672c5e92e>115 455<b3e6bf57a5b4a64cb8d3a4e5a5f3aabaa4a3a650b3a1a4c0a9
ceadb62e>115 440 10 0/MSung-Light--ETen-B5-H}{cleartomark}ifelse}ifelse
showpage(%%[ PrinterError: Low Printer VM ]%%)= true FatalErrorIf}if}bind def
end version cvi 2016 ge{/VM?{pop}bind def}{/VM? userdict/PrtVMMsg get def}
ifelse
%%BeginResource: file Pscript_Win_Basic 5.0 0
/d/def load def/,/load load d/~/exch , d/?/ifelse , d/!/pop , d/`/begin , d/^
/index , d/@/dup , d/+/translate , d/$/roll , d/U/userdict , d/M/moveto , d/-
/rlineto , d/&/currentdict , d/:/gsave , d/;/grestore , d/F/false , d/T/true ,
d/N/newpath , d/E/end , d/Ac/arc , d/An/arcn , d/A/ashow , d/D/awidthshow , d/C
/closepath , d/V/div , d/O/eofill , d/L/fill , d/I/lineto , d/-c/curveto , d/-M
/rmoveto , d/+S/scale , d/Ji/setfont , d/Lc/setlinecap , d/Lj/setlinejoin , d
/Lw/setlinewidth , d/Lm/setmiterlimit , d/sd/setdash , d/S/show , d/LH/showpage
, d/K/stroke , d/W/widthshow , d/R/rotate , d/L2? false/languagelevel where{pop
languagelevel 2 ge{pop true}if}if d L2?{/xS/xshow , d/yS/yshow , d/zS/xyshow ,
d}if/b{bind d}bind d/bd{bind d}bind d/xd{~ d}bd/ld{, d}bd/bn/bind ld/lw/Lw ld
/lc/Lc ld/lj/Lj ld/sg/setgray ld/ADO_mxRot null d/self & d/OrgMx matrix
currentmatrix d/reinitialize{: OrgMx setmatrix[/TextInit/GraphInit/UtilsInit
counttomark{@ where{self eq}{F}?{cvx exec}{!}?}repeat cleartomark ;}b
/initialize{`{/Pscript_Win_Data where{!}{U/Pscript_Win_Data & put}?/ADO_mxRot ~
d/TextInitialised? F d reinitialize E}{U/Pscript_Win_Data 230 dict @ ` put
/ADO_mxRot ~ d/TextInitialised? F d reinitialize}?}b/terminate{!{& self eq
{exit}{E}?}loop E}b/suspend/terminate , d/resume{` Pscript_Win_Data `}b U `
/lucas 21690 d/featurebegin{countdictstack lucas[}b/featurecleanup{stopped
{cleartomark @ lucas eq{! exit}if}loop countdictstack ~ sub @ 0 gt{{E}repeat}
{!}?}b E/snap{transform 0.25 sub round 0.25 add ~ 0.25 sub round 0.25 add ~
itransform}b/dsnap{dtransform round ~ round ~ idtransform}b/nonzero_round{@ 0.5
ge{round}{@ -0.5 lt{round}{0 ge{1}{-1}?}?}?}b/nonzero_dsnap{dtransform
nonzero_round ~ nonzero_round ~ idtransform}b U<04>cvn{}put/rr{1 ^ 0 - 0 ~ -
neg 0 - C}b/irp{4 -2 $ + +S fx 4 2 $ M 1 ^ 0 - 0 ~ - neg 0 -}b/rp{4 2 $ M 1 ^ 0
- 0 ~ - neg 0 -}b/solid{[]0 sd}b/g{@ not{U/DefIf_save save put}if U/DefIf_bool
2 ^ put}b/DefIf_El{if U/DefIf_bool get not @{U/DefIf_save get restore}if}b/e
{DefIf_El !}b/UDF{L2?{undefinefont}{!}?}b/UDR{L2?{undefineresource}{! !}?}b
/freeVM{/Courier findfont[40 0 0 -40 0 0]makefont Ji 2 vmreclaim}b/hfRedefFont
{findfont @ length dict `{1 ^/FID ne{d}{! !}?}forall & E @ ` ~{/CharStrings 1
dict `/.notdef 0 d & E d}if/Encoding 256 array 0 1 255{1 ^ ~/.notdef put}for d
E definefont !}bind d/hfMkCIDFont{/CIDFont findresource @ length 2 add dict `{1
^ @/FID eq ~ @/XUID eq ~/UIDBase eq or or{! !}{d}?}forall/CDevProc ~ d/Metrics2
16 dict d/CIDFontName 1 ^ d & E 1 ^ ~/CIDFont defineresource ![~]composefont !}
bind d
%%EndResource
%%BeginResource: file Pscript_Win_Utils_L1 5.0 0
/rf{N rp L}b/fx{1 1 dtransform @ 0 ge{1 sub 1}{1 add -0.25}? 3 -1 $ @ 0 ge{1
sub 1}{1 add -0.25}? 3 1 $ 4 1 $ idtransform 4 -2 $ idtransform}b/BZ{4 -2 $
snap + +S fx rf}b/rs{N rp C K}b/rc{N rp clip N}b/UtilsInit{}b/setcolorspace{!}b
/scol{[/setgray/setrgbcolor/setcolor/setcmykcolor/setcolor/setgray]~ get cvx
exec}b/colspRefresh{}b/AddFontInfoBegin{/FontInfo 8 dict @ `}bind d/AddFontInfo
{/GlyphNames2Unicode 16 dict d/GlyphNames2HostCode 16 dict d}bind d
/AddFontInfoEnd{E d}bind d
%%EndResource
end
%%EndProlog

%%BeginSetup
[ 1 0 0 1 0 0 ] false Pscript_WinNT_Incr dup /initialize get exec
1 setlinecap 1 setlinejoin
/mysetup [ 72 600 V 0 0 -72 600 V 0 842.0003 ] def 
%%EndSetup

%%Page: 1 1
%%PageBoundingBox: 0 0 595 842
%%EndPageComments
%%BeginPageSetup
/DeviceRGB dup setcolorspace /colspABC exch def
mysetup concat colspRefresh
%%EndPageSetup

Pscript_WinNT_Incr begin
%%BeginResource: file Pscript_Win_GdiObject 5.0 0
/SavedCTM null d/CTMsave{/SavedCTM SavedCTM currentmatrix d}b/CTMrestore
{SavedCTM setmatrix}b/mp null d/ADO_mxRot null d/GDIHMatrix null d
/GDIHPatternDict 22 dict d GDIHPatternDict `/PatternType 1 d/PaintType 2 d/Reps
L2?{1}{5}? d/XStep 8 Reps mul d/YStep XStep d/BBox[0 0 XStep YStep]d/TilingType
1 d/PaintProc{` 1 Lw[]0 sd PaintData , exec E}b/FGnd null d/BGnd null d
/HS_Horizontal{horiz}b/HS_Vertical{vert}b/HS_FDiagonal{fdiag}b/HS_BDiagonal
{biag}b/HS_Cross{horiz vert}b/HS_DiagCross{fdiag biag}b/MaxXYStep XStep YStep
gt{XStep}{YStep}? d/horiz{Reps{0 4 M XStep 0 - 0 8 +}repeat 0 -8 Reps mul + K}b
/vert{Reps{4 0 M 0 YStep - 8 0 +}repeat 0 -8 Reps mul + K}b/biag{Reps{0 0 M
MaxXYStep @ - 0 YStep neg M MaxXYStep @ - 0 8 +}repeat 0 -8 Reps mul + 0 YStep
M 8 8 - K}b/fdiag{Reps{0 0 M MaxXYStep @ neg - 0 YStep M MaxXYStep @ neg - 0 8
+}repeat 0 -8 Reps mul + MaxXYStep @ M 8 -8 - K}b E/makehatch{4 -2 $/yOrg ~ d
/xOrg ~ d GDIHPatternDict/PaintData 3 -1 $ put CTMsave GDIHMatrix setmatrix
GDIHPatternDict matrix xOrg yOrg + mp CTMrestore ~ U ~ 2 ^ put}b/h0{/h0
/HS_Horizontal makehatch}b/h1{/h1/HS_Vertical makehatch}b/h2{/h2/HS_FDiagonal
makehatch}b/h3{/h3/HS_BDiagonal makehatch}b/h4{/h4/HS_Cross makehatch}b/h5{/h5
/HS_DiagCross makehatch}b/GDIBWPatternMx null d/pfprep{save 8 1 $
/PatternOfTheDay 8 1 $ GDIBWPatternDict `/yOrg ~ d/xOrg ~ d/PaintData ~ d/yExt
~ d/Width ~ d/BGnd ~ d/FGnd ~ d/Height yExt RepsV mul d/mx[Width 0 0 Height 0
0]d E build_pattern ~ !}b/pfbf{/fEOFill ~ d pfprep hbf fEOFill{O}{L}? restore}b
/GraphInit{GDIHMatrix null eq{/SavedCTM matrix d : ADO_mxRot concat 0 0 snap +
: 0.48 @ GDIHPatternDict ` YStep mul ~ XStep mul ~ nonzero_dsnap YStep V ~
XStep V ~ E +S/GDIHMatrix matrix currentmatrix readonly d ; : 0.24 -0.24 +S
GDIBWPatternDict ` Width Height E nonzero_dsnap +S/GDIBWPatternMx matrix
currentmatrix readonly d ; ;}if}b
%%EndResource
%%BeginResource: file Pscript_Win_GdiObject_L1 5.0 0
/GDIBWPatternDict 25 dict @ `/PatternType 1 d/PaintType 2 d/RepsV 6 d/RepsH 5 d
/BBox[0 0 RepsH 1]d/TilingType 1 d/XStep 1 d/YStep 1 d/Height 8 RepsV mul d
/Width 8 d/mx[Width 0 0 Height neg 0 Height]d/FGnd null d/BGnd null d
/SetBGndFGnd{}b/PaintProc{` SetBGndFGnd RepsH{Width Height F mx PaintData
imagemask Width 0 +}repeat E}b E d/GDIpattfill{@ ` BGnd null ne PaintType 2 eq
and{: BGnd aload ! scol fEOFill{O}{L}? ; FGnd aload ! U/iCol 2 ^ put @ 0 eq{!
2}{@ 1 eq ~ 2 eq or{4}{5}?}? -1 $}if E @ patterncalc : 4 ^/PaintType get 2 eq
{iCol 0 eq{6 -1 $}if iCol 1 eq iCol 2 eq or{8 -3 $}if iCol 3 eq iCol 4 eq or{9
-4 $}if iCol scol}if fEOFill{eoclip}{clip}? N patternfill ; N}b/hbf
{GDIpattfill}b/hfMain{/fEOFill ~ d ~/iCol ~ d GDIpattfill}b/hf{: hfMain ;}b
/mpstr 1 string d/mp{~ @ length 12 add dict copy `/PatternCTM matrix
currentmatrix d/PatternMatrix ~ d/PatWidth XStep mpstr length mul d/PatHeight
YStep d/FontType 3 d/Encoding 256 array d 3 string 0 1 255{Encoding ~ @ 3 ^ cvs
cvn put}for !/FontMatrix matrix d/FontBBox BBox d/BuildChar{! @ ` XStep 0
FontBBox aload ! setcachedevice/PaintProc , E : exec ;}b & E ~ @ 3 -1 $
definefont}b/build_pattern{: GDIBWPatternDict ` Width Height E dsnap +S
/GDIBWPatternMx matrix currentmatrix d ; CTMsave GDIBWPatternMx setmatrix
GDIBWPatternDict @ ` xOrg yOrg E matrix + mp CTMrestore}b/patterncalc{` :
PatternCTM setmatrix PatternMatrix concat BBox aload ! ! ! + pathbbox ;
PatHeight V ceiling 4 1 $ PatWidth V ceiling 4 1 $ PatHeight V floor 4 1 $
PatWidth V floor 4 1 $ 2 ^ sub cvi abs ~ 3 ^ sub cvi abs ~ 4 2 $ PatHeight mul
~ PatWidth mul ~ E}b/patternfill{5 -1 $ @ ` Ji PatternCTM setmatrix
PatternMatrix concat 0 2 ^ 2 ^ M 0 1 mpstr length 1 sub{1 ^ mpstr 3 1 $ put}for
! 2 ^{currentpoint 5 ^{mpstr S}repeat YStep add M}repeat ! ! ! ! E}b/pbf{: 14
dict `/fGray ~ d/fEOFill ~ d/yOrg ~ d/xOrg ~ d/PaintData ~ d/OutputBPP ~ d
/Height ~ d/Width ~ d/mx xOrg yOrg matrix + d fGray{/PaintProc{` Width Height
OutputBPP mx PaintData image E}b}{/PaintProc{` Width Height 8 mx PaintData F
OutputBPP 8 idiv colorimage E}b}? pathbbox fEOFill{eoclip}{clip}?/Top ~ d/Right
~ d/Bottom ~ d/Left ~ d Top Height neg Bottom 1 sub{Left Width Right 1 sub{1 ^
2 copy + & PaintProc neg ~ neg ~ +}bind for !}bind for E ;}b
%%EndResource
end reinitialize
: 150 150 4660 6715 rc : N 150 150 4661 6716 rp C 
1 1 1 1 scol  L ; ; N 668 5299 M 668 1114 I 4457 1114 I 4457 5299 I C 
1 1 1 1 scol  O 1 Lj 0 Lc 4 Lw solid N 668 5299 M 668 1114 I 4457 1114 I 4457 5299 I 668 5299 I : [ 1 0 0 1 150 150 ] concat K 
; 0 0 0 1 scol 2 Lw [ 4 33 ] 0 sd N 668 5299 M 668 1114 I : [ 1 0 0 1 150 150 ] concat K 
; : N 668 1114 1 1 rp C 
 L ; N 668 1114 M 668 1114 I : [ 1 0 0 1 150 150 ] concat K 
; : N 668 1114 1 1 rp C 
 L ; N 1046 5299 M 1046 1114 I : [ 1 0 0 1 150 150 ] concat K 
; : N 1046 1114 1 1 rp C 
 L ; N 1046 1114 M 1046 1114 I : [ 1 0 0 1 150 150 ] concat K 
; : N 1046 1114 1 1 rp C 
 L ; N 1425 5299 M 1425 1114 I : [ 1 0 0 1 150 150 ] concat K 
; : N 1425 1114 1 1 rp C 
 L ; N 1425 1114 M 1425 1114 I : [ 1 0 0 1 150 150 ] concat K 
; : N 1425 1114 1 1 rp C 
 L ; N 1804 5299 M 1804 1114 I : [ 1 0 0 1 150 150 ] concat K 
; : N 1804 1114 1 1 rp C 
 L ; N 1804 1114 M 1804 1114 I : [ 1 0 0 1 150 150 ] concat K 
; : N 1804 1114 1 1 rp C 
 L ; N 2183 5299 M 2183 1114 I : [ 1 0 0 1 150 150 ] concat K 
; : N 2183 1114 1 1 rp C 
 L ; N 2183 1114 M 2183 1114 I : [ 1 0 0 1 150 150 ] concat K 
; : N 2183 1114 1 1 rp C 
 L ; N 2562 5299 M 2562 1114 I : [ 1 0 0 1 150 150 ] concat K 
; : N 2562 1114 1 1 rp C 
 L ; N 2562 1114 M 2562 1114 I : [ 1 0 0 1 150 150 ] concat K 
; : N 2562 1114 1 1 rp C 
 L ; N 2941 5299 M 2941 1114 I : [ 1 0 0 1 150 150 ] concat K 
; : N 2941 1114 1 1 rp C 
 L ; N 2941 1114 M 2941 1114 I : [ 1 0 0 1 150 150 ] concat K 
; : N 2941 1114 1 1 rp C 
 L ; N 3320 5299 M 3320 1114 I : [ 1 0 0 1 150 150 ] concat K 
; : N 3320 1114 1 1 rp C 
 L ; N 3320 1114 M 3320 1114 I : [ 1 0 0 1 150 150 ] concat K 
; : N 3320 1114 1 1 rp C 
 L ; N 3699 5299 M 3699 1114 I : [ 1 0 0 1 150 150 ] concat K 
; : N 3699 1114 1 1 rp C 
 L ; N 3699 1114 M 3699 1114 I : [ 1 0 0 1 150 150 ] concat K 
; : N 3699 1114 1 1 rp C 
 L ; N 4078 5299 M 4078 1114 I : [ 1 0 0 1 150 150 ] concat K 
; : N 4078 1114 1 1 rp C 
 L ; N 4078 1114 M 4078 1114 I : [ 1 0 0 1 150 150 ] concat K 
; : N 4078 1114 1 1 rp C 
 L ; N 4457 5299 M 4457 1114 I : [ 1 0 0 1 150 150 ] concat K 
; : N 4457 1114 1 1 rp C 
 L ; N 4457 1114 M 4457 1114 I : [ 1 0 0 1 150 150 ] concat K 
; : N 4457 1114 1 1 rp C 
 L ; N 668 5299 M 4457 5299 I : [ 1 0 0 1 150 150 ] concat K 
; : N 4457 5299 1 1 rp C 
 L ; N 4457 5299 M 4457 5299 I : [ 1 0 0 1 150 150 ] concat K 
; : N 4457 5299 1 1 rp C 
 L ; N 668 4775 M 4457 4775 I : [ 1 0 0 1 150 150 ] concat K 
; : N 4457 4775 1 1 rp C 
 L ; N 4457 4775 M 4457 4775 I : [ 1 0 0 1 150 150 ] concat K 
; : N 4457 4775 1 1 rp C 
 L ; N 668 4252 M 4457 4252 I : [ 1 0 0 1 150 150 ] concat K 
; : N 4457 4252 1 1 rp C 
 L ; N 4457 4252 M 4457 4252 I : [ 1 0 0 1 150 150 ] concat K 
; : N 4457 4252 1 1 rp C 
 L ; N 668 3729 M 4457 3729 I : [ 1 0 0 1 150 150 ] concat K 
; : N 4457 3729 1 1 rp C 
 L ; N 4457 3729 M 4457 3729 I : [ 1 0 0 1 150 150 ] concat K 
; : N 4457 3729 1 1 rp C 
 L ; N 668 3206 M 4457 3206 I : [ 1 0 0 1 150 150 ] concat K 
; : N 4457 3206 1 1 rp C 
 L ; N 4457 3206 M 4457 3206 I : [ 1 0 0 1 150 150 ] concat K 
; : N 4457 3206 1 1 rp C 
 L ; N 668 2683 M 4457 2683 I : [ 1 0 0 1 150 150 ] concat K 
; : N 4457 2683 1 1 rp C 
 L ; N 4457 2683 M 4457 2683 I : [ 1 0 0 1 150 150 ] concat K 
; : N 4457 2683 1 1 rp C 
 L ; N 668 2160 M 4457 2160 I : [ 1 0 0 1 150 150 ] concat K 
; : N 4457 2160 1 1 rp C 
 L ; N 4457 2160 M 4457 2160 I : [ 1 0 0 1 150 150 ] concat K 
; : N 4457 2160 1 1 rp C 
 L ; N 668 1637 M 4457 1637 I : [ 1 0 0 1 150 150 ] concat K 
; : N 4457 1637 1 1 rp C 
 L ; N 4457 1637 M 4457 1637 I : [ 1 0 0 1 150 150 ] concat K 
; : N 4457 1637 1 1 rp C 
 L ; N 668 1114 M 4457 1114 I : [ 1 0 0 1 150 150 ] concat K 
; : N 4457 1114 1 1 rp C 
 L ; N 4457 1114 M 4457 1114 I : [ 1 0 0 1 150 150 ] concat K 
; : N 4457 1114 1 1 rp C 
 L ; 4 Lw solid N 668 1114 M 4457 1114 I : [ 1 0 0 1 150 150 ] concat K 
; : N 4457 1114 1 1 rp C 
 L ; N 668 5299 M 4457 5299 I : [ 1 0 0 1 150 150 ] concat K 
; : N 4457 5299 1 1 rp C 
 L ; N 4457 5299 M 4457 1114 I : [ 1 0 0 1 150 150 ] concat K 
; : N 4457 1114 1 1 rp C 
 L ; N 668 5299 M 668 1114 I : [ 1 0 0 1 150 150 ] concat K 
; : N 668 1114 1 1 rp C 
 L ; N 668 5299 M 4457 5299 I : [ 1 0 0 1 150 150 ] concat K 
; : N 4457 5299 1 1 rp C 
 L ; N 668 5299 M 668 1114 I : [ 1 0 0 1 150 150 ] concat K 
; : N 668 1114 1 1 rp C 
 L ; N 668 5299 M 668 5257 I : [ 1 0 0 1 150 150 ] concat K 
; : N 668 5257 1 1 rp C 
 L ; N 668 1114 M 668 1155 I : [ 1 0 0 1 150 150 ] concat K 
; : N 668 1155 1 1 rp C 
 L ; Pscript_WinNT_Incr begin
%%BeginResource: file Pscript_T3Hdr 5.0 0
{version cvi 2016 ge{32/FontType resourcestatus{pop pop true}{false}ifelse}
{false}ifelse}exec/Is2016andT32? exch def/T32DefSBCMap{/CIDInit/ProcSet
findresource begin 10 dict begin begincmap/CIDSystemInfo 3 dict dup begin
/Registry(Adobe)def/Ordering(Identity1)def/Supplement 0 def end def/CMapType 0
def/WMode 0 def 1 begincodespacerange<00><ff>endcodespacerange 1 begincidrange
<00><ff>0 endcidrange endcmap/DrvSBCMap currentdict/CMap defineresource pop end
end}bind def Is2016andT32?{T32DefSBCMap}def/T32RsrcBegin{Is2016andT32?{
/BitmapFontInit/ProcSet findresource begin}if}bind def/T32RsrcEnd{Is2016andT32?
{end}if}bind def/AddT32Char{6 1 roll 0 get 7 1 roll pop pop 5 1 roll pop
findfont/TT32R get addglyph}bind def/AddT3Char{findfont dup 5 2 roll 1 index
length 0 gt{cvx 1 index exch 4 exch put dup(imagemask)cvx cvn 5 exch put cvx}
{pop cvx}ifelse 3 -1 roll/CharProcs get 3 1 roll put dup/Encoding get 5 -1 roll
4 index put/Metrics get 3 1 roll put}bind def/AddT3T32Char Is2016andT32?{
/AddT32Char}{/AddT3Char}ifelse load def/GreNewFontT32{5 dict begin exch
/FontMatrix exch def exch/FontBBox exch def exch pop exch pop/CIDFontType 4 def
dup currentdict end/CIDFont defineresource 3 -1 roll dup/DrvSBCMap dup/CMap
resourcestatus{pop pop}{T32DefSBCMap}ifelse 5 -1 roll[exch]composefont dup
length dict copy dup/FID undef begin exch/TT32R exch def currentdict end
definefont/BitmapFontInit/ProcSet findresource begin/TT32R get[14 0 0 0 0 0]<>0
4 -1 roll addglyph end}bind def/GreNewFontT3{11 dict begin pop/FontType 3 def
/FontMatrix exch def/FontBBox exch def/Encoding exch def/CharProcs 257 dict def
CharProcs/.notdef{}put/Metrics 257 dict def Metrics/.notdef 3 -1 roll put
AddFontInfoBegin AddFontInfo AddFontInfoEnd/BuildChar{userdict begin/char exch
def dup/charname exch/Encoding get char get def dup/Metrics get charname 2 copy
known{get aload pop}{pop/.notdef get aload pop}ifelse setcachedevice begin
Encoding char get CharProcs exch 2 copy known{get}{pop/.notdef get}ifelse end
exec end}def currentdict end definefont pop}bind def/GreNewFont{Is2016andT32?
{GreNewFontT32}{GreNewFontT3}ifelse}bind def/UDF3{Is2016andT32?{/BitmapFontInit
/ProcSet findresource begin dup/CIDFont findresource removeall/CIDFont
undefineresource undefinefont end}{pop UDF}ifelse}bind def
%%EndResource
end reinitialize
/TT20b00
[66 0 0 0 0 0 ] 
 256 array 0 1 255 {1 index exch /.notdef put} for 
[0 0 0 0 ] 
[1 66 div 0 0 -1 66 div 0 0 ]
/__TT20b00
GreNewFont
T32RsrcBegin

1
/g305 [31 0 1 -45 29 5 ] 
/g305 [28 50 true [1 0 0 1 -1 45 ]  0 0]
[<00070000
003fe000
00f07800
01e03c00
03c01e00
07800f00
07000f00
0f000780
0e000780
1e0003c0
1e0003c0
3c0003c0
3c0001e0
3c0001e0
3c0001e0
7c0001e0
780001f0
780000f0
780000f0
780000f0
780000f0
780000f0
f80000f0
f80000f0
f80000f0
f80000f0
f80000f0
f80000f0
780000f0
780000f0
780000f0
780000f0
780000f0
780001f0
780001f0
7c0001e0
3c0001e0
3c0001e0
3c0003e0
1e0003c0
1e0003c0
1e000780
0f000780
0f000700
07800f00
03801e00
01c03c00
00f07800
007ff000
000f8000
>
 ]
/TT20b00 AddT3T32Char
T32RsrcEnd
Pscript_WinNT_Incr begin
%%BeginResource: file Pscript_Text 5.0 0
/TextInit{TextInitialised? not{/Pscript_Windows_Font & d/TextInitialised? T d
/fM[1 0 0 1 0 0]d/mFM matrix d/iMat[1 0 0.212557 1 0 0]d}if}b/copyfont{1 ^
length add dict `{1 ^/FID ne{d}{! !}?}forall & E}b/EncodeDict 11 dict d/bullets
{{/bullet}repeat}b/rF{3 copyfont @ ` ~ EncodeDict ~ get/Encoding ~ 3 ^/0 eq{&
/CharStrings known{CharStrings/Eth known not{! EncodeDict/ANSIEncodingOld get}
if}if}if d E}b/mF{@ 7 1 $ findfont ~{@/Encoding get @ StandardEncoding eq{! T}{
{ISOLatin1Encoding}stopped{! F}{eq}?{T}{@ ` T 32 1 127{Encoding 1 ^ get
StandardEncoding 3 -1 $ get eq and}for E}?}?}{F}?{1 ^ ~ rF}{0 copyfont}? 6 -2 $
! ! ~ !/pd_charset @ where{~ get 128 eq{@ FDV 2 copy get @ length array copy
put pd_CoverFCRange}if}{!}? 2 ^ ~ definefont fM 5 4 -1 $ put fM 4 0 put fM
makefont Pscript_Windows_Font 3 1 $ put}b/sLT{: Lw -M currentpoint snap M 0 - 0
Lc K ;}b/xUP null d/yUP null d/uW null d/xSP null d/ySP null d/sW null d/sSU{N
/uW ~ d/yUP ~ d/xUP ~ d}b/sU{xUP yUP uW sLT}b/sST{N/sW ~ d/ySP ~ d/xSP ~ d}b/sT
{xSP ySP sW sLT}b/sR{: + R 0 0 M}b/sRxy{: matrix astore concat 0 0 M}b/eR/; , d
/AddOrigFP{{&/FontInfo known{&/FontInfo get length 6 add}{6}? dict `
/WinPitchAndFamily ~ d/WinCharSet ~ d/OrigFontType ~ d/OrigFontStyle ~ d
/OrigFontName ~ d & E/FontInfo ~ d}{! ! ! ! !}?}b/mFS{makefont
Pscript_Windows_Font 3 1 $ put}b/mF42D{0 copyfont `/FontName ~ d 2 copy ~ sub 1
add dict `/.notdef 0 d 2 copy 1 ~{@ 3 ^ sub Encoding ~ get ~ d}for & E
/CharStrings ~ d ! ! & @ E/FontName get ~ definefont}b/mF42{15 dict ` @ 4 1 $
FontName ~ d/FontType 0 d/FMapType 2 d/FontMatrix[1 0 0 1 0 0]d 1 ^ 254 add 255
idiv @ array/Encoding ~ d 0 1 3 -1 $ 1 sub{@ Encoding 3 1 $ put}for/FDepVector
Encoding length array d/CharStrings 2 dict `/.notdef 0 d & E d 0 1 Encoding
length 1 sub{@ @ 10 lt{! FontName length 1 add string}{100 lt{FontName length 2
add string}{FontName length 3 add string}?}? @ 0 FontName @ length string cvs
putinterval @ 3 -1 $ @ 4 1 $ 3 string cvs FontName length ~ putinterval cvn 1 ^
256 mul @ 255 add 3 -1 $ 4 ^ findfont mF42D FDepVector 3 1 $ put}for & @ E
/FontName get ~ definefont ! ! ! mF}b/mF_OTF_V{~ ! ~ ! 4 -1 $ ! findfont 2 ^ ~
definefont fM @ @ 4 6 -1 $ neg put 5 0 put 90 matrix R matrix concatmatrix
makefont Pscript_Windows_Font 3 1 $ put}b/mF_TTF_V{3{~ !}repeat 3 -1 $ !
findfont 1 ^ ~ definefont Pscript_Windows_Font 3 1 $ put}b/UmF{L2?
{Pscript_Windows_Font ~ undef}{!}?}b/UmF42{@ findfont/FDepVector get{/FontName
get undefinefont}forall undefinefont}b
%%EndResource
end reinitialize
F /F0 0 /0 F /TT20b00 mF 
/F0S42 F0 [66.145 0 0 -66.145 0 0 ] mFS
F0S42 Ji 
653 5376 M <01>S 
N 1046 5299 M 1046 5257 I : [ 1 0 0 1 150 150 ] concat K 
; : N 1046 5257 1 1 rp C 
 L ; N 1046 1114 M 1046 1155 I : [ 1 0 0 1 150 150 ] concat K 
; : N 1046 1155 1 1 rp C 
 L ; T32RsrcBegin

2
/g310 [31 0 2 -45 27 5 ] 
/g310 [25 50 true [1 0 0 1 -2 45 ]  0 0]
[<00000180
007fff00
00ffff00
00fffe00
00fffe00
01c00000
01c00000
03800000
03800000
03000000
07000000
07000000
0e000000
0e000000
0fe00000
1ff80000
1ffe0000
3fff8000
3fffc000
00ffe000
001ff000
0007f800
0001f800
0000fc00
00007e00
00003e00
00001e00
00000f00
00000f00
00000f00
00000700
00000700
00000700
00000700
00000700
00000700
00000700
00000600
00000600
00000e00
00000c00
00000c00
00001800
00003800
60007000
fc00e000
ff83c000
7fff0000
3ffc0000
0fe00000
>
 ]
/TT20b00 AddT3T32Char
T32RsrcEnd
1031 5376 M <02>S 
N 1425 5299 M 1425 5257 I : [ 1 0 0 1 150 150 ] concat K 
; : N 1425 5257 1 1 rp C 
 L ; N 1425 1114 M 1425 1155 I : [ 1 0 0 1 150 150 ] concat K 
; : N 1425 1155 1 1 rp C 
 L ; T32RsrcBegin

3
/g306 [31 0 7 -44 24 4 ] 
/g306 [17 48 true [1 0 0 1 -7 44 ]  0 0]
[<006000
01e000
07e000
1fe000
7fe000
83e000
01e000
01e000
01e000
01e000
01e000
01e000
01e000
01e000
01e000
01e000
01e000
01e000
01e000
01e000
01e000
01e000
01e000
01e000
01e000
01e000
01e000
01e000
01e000
01e000
01e000
01e000
01e000
01e000
01e000
01e000
01e000
01e000
01e000
01e000
01e000
01e000
01e000
01e000
03e000
07f000
3ffe00
ffff80
>
 ]
/TT20b00 AddT3T32Char
T32RsrcEnd
1394 5376 M <0301>S 
N 1804 5299 M 1804 5257 I : [ 1 0 0 1 150 150 ] concat K 
; : N 1804 5257 1 1 rp C 
 L ; N 1804 1114 M 1804 1155 I : [ 1 0 0 1 150 150 ] concat K 
; : N 1804 1155 1 1 rp C 
 L ; 1773 5376 M <0302>S 
N 2183 5299 M 2183 5257 I : [ 1 0 0 1 150 150 ] concat K 
; : N 2183 5257 1 1 rp C 
 L ; N 2183 1114 M 2183 1155 I : [ 1 0 0 1 150 150 ] concat K 
; : N 2183 1155 1 1 rp C 
 L ; T32RsrcBegin

4
/g307 [31 0 2 -44 29 4 ] 
/g307 [27 48 true [1 0 0 1 -2 44 ]  0 0]
[<00ff8000
03ffe000
07fff000
0f03f800
1c00fc00
18007e00
30003e00
30003e00
60001f00
60000f00
40000f00
c0000f00
c0000f00
00000f00
00000f00
00000f00
00000f00
00000f00
00000e00
00000e00
00001e00
00001c00
00003c00
00003c00
00007800
00007000
0000f000
0000e000
0001c000
0003c000
00038000
00070000
000e0000
001c0000
001c0000
00380000
00700000
00e00000
01c00000
03800020
03800060
070000c0
0e0000c0
1c0001c0
3fffff80
3fffff80
7fffff80
ffffff00
>
 ]
/TT20b00 AddT3T32Char
T32RsrcEnd
2152 5376 M <0401>S 
N 2562 5299 M 2562 5257 I : [ 1 0 0 1 150 150 ] concat K 
; : N 2562 5257 1 1 rp C 
 L ; N 2562 1114 M 2562 1155 I : [ 1 0 0 1 150 150 ] concat K 
; : N 2562 1155 1 1 rp C 
 L ; 2531 5376 M <0402>S 
N 2941 5299 M 2941 5257 I : [ 1 0 0 1 150 150 ] concat K 
; : N 2941 5257 1 1 rp C 
 L ; N 2941 1114 M 2941 1155 I : [ 1 0 0 1 150 150 ] concat K 
; : N 2941 1155 1 1 rp C 
 L ; T32RsrcBegin

5
/g308 [31 0 3 -45 27 5 ] 
/g308 [24 50 true [1 0 0 1 -3 45 ]  0 0]
[<003c00
01ff80
07ffc0
0e07e0
1c01f0
3800f8
3000f8
700078
600038
400038
c00038
800038
000038
000038
000030
000070
000060
0000e0
0001c0
000380
000700
001fc0
007fe0
01fff0
000ff8
0001fc
0000fc
00003e
00003e
00001e
00000f
00000f
00000f
00000f
000007
000007
000007
000006
00000e
00000e
00000c
00001c
000018
000030
400070
f001e0
fe0780
ffff00
7ffc00
0fc000
>
 ]
/TT20b00 AddT3T32Char
T32RsrcEnd
2910 5376 M <0501>S 
N 3320 5299 M 3320 5257 I : [ 1 0 0 1 150 150 ] concat K 
; : N 3320 5257 1 1 rp C 
 L ; N 3320 1114 M 3320 1155 I : [ 1 0 0 1 150 150 ] concat K 
; : N 3320 1155 1 1 rp C 
 L ; 3289 5376 M <0502>S 
N 3699 5299 M 3699 5257 I : [ 1 0 0 1 150 150 ] concat K 
; : N 3699 5257 1 1 rp C 
 L ; N 3699 1114 M 3699 1155 I : [ 1 0 0 1 150 150 ] concat K 
; : N 3699 1155 1 1 rp C 
 L ; T32RsrcBegin

6
/g309 [31 0 1 -44 29 4 ] 
/g309 [28 48 true [1 0 0 1 -1 44 ]  0 0]
[<00001800
00001800
00003800
00003800
00007800
0000f800
0000f800
0001f800
0003b800
00033800
00073800
00063800
000e3800
001c3800
00183800
00383800
00703800
00703800
00e03800
00c03800
01c03800
03803800
03003800
07003800
0e003800
0e003800
1c003800
18003800
38003800
70003800
70003800
e0003800
c0003800
fffffff0
fffffff0
00003800
00003800
00003800
00003800
00003800
00003800
00003800
00003800
00003800
00003800
00003800
00003800
00003800
>
 ]
/TT20b00 AddT3T32Char
T32RsrcEnd
3668 5376 M <0601>S 
N 4078 5299 M 4078 5257 I : [ 1 0 0 1 150 150 ] concat K 
; : N 4078 5257 1 1 rp C 
 L ; N 4078 1114 M 4078 1155 I : [ 1 0 0 1 150 150 ] concat K 
; : N 4078 1155 1 1 rp C 
 L ; 4047 5376 M <0602>S 
N 4457 5299 M 4457 5257 I : [ 1 0 0 1 150 150 ] concat K 
; : N 4457 5257 1 1 rp C 
 L ; N 4457 1114 M 4457 1155 I : [ 1 0 0 1 150 150 ] concat K 
; : N 4457 1155 1 1 rp C 
 L ; 4426 5376 M <0201>S 
N 668 5299 M 709 5299 I : [ 1 0 0 1 150 150 ] concat K 
; : N 709 5299 1 1 rp C 
 L ; N 4457 5299 M 4415 5299 I : [ 1 0 0 1 150 150 ] concat K 
; : N 4415 5299 1 1 rp C 
 L ; 613 5320 M <01>S 
N 668 4775 M 709 4775 I : [ 1 0 0 1 150 150 ] concat K 
; : N 709 4775 1 1 rp C 
 L ; N 4457 4775 M 4415 4775 I : [ 1 0 0 1 150 150 ] concat K 
; : N 4415 4775 1 1 rp C 
 L ; T32RsrcBegin

7
/g303 [16 0 4 -3 11 5 ] 
/g303 [7 8 true [1 0 0 1 -4 3 ]  0 0]
[<7c
7e
fe
fe
fe
7e
7c
10
>
 ]
/TT20b00 AddT3T32Char
T32RsrcEnd
535 4796 M <01070102>S 
N 668 4252 M 709 4252 I : [ 1 0 0 1 150 150 ] concat K 
; : N 709 4252 1 1 rp C 
 L ; N 4457 4252 M 4415 4252 I : [ 1 0 0 1 150 150 ] concat K 
; : N 4415 4252 1 1 rp C 
 L ; 566 4273 M <010703>S 
N 668 3729 M 709 3729 I : [ 1 0 0 1 150 150 ] concat K 
; : N 709 3729 1 1 rp C 
 L ; N 4457 3729 M 4415 3729 I : [ 1 0 0 1 150 150 ] concat K 
; : N 4415 3729 1 1 rp C 
 L ; 535 3750 M <01070302>S 
N 668 3206 M 709 3206 I : [ 1 0 0 1 150 150 ] concat K 
; : N 709 3206 1 1 rp C 
 L ; N 4457 3206 M 4415 3206 I : [ 1 0 0 1 150 150 ] concat K 
; : N 4415 3206 1 1 rp C 
 L ; 566 3227 M <010704>S 
N 668 2683 M 709 2683 I : [ 1 0 0 1 150 150 ] concat K 
; : N 709 2683 1 1 rp C 
 L ; N 4457 2683 M 4415 2683 I : [ 1 0 0 1 150 150 ] concat K 
; : N 4415 2683 1 1 rp C 
 L ; 535 2704 M <01070402>S 
N 668 2160 M 709 2160 I : [ 1 0 0 1 150 150 ] concat K 
; : N 709 2160 1 1 rp C 
 L ; N 4457 2160 M 4415 2160 I : [ 1 0 0 1 150 150 ] concat K 
; : N 4415 2160 1 1 rp C 
 L ; 566 2181 M <010705>S 
N 668 1637 M 709 1637 I : [ 1 0 0 1 150 150 ] concat K 
; : N 709 1637 1 1 rp C 
 L ; N 4457 1637 M 4415 1637 I : [ 1 0 0 1 150 150 ] concat K 
; : N 4415 1637 1 1 rp C 
 L ; 535 1658 M <01070502>S 
N 668 1114 M 709 1114 I : [ 1 0 0 1 150 150 ] concat K 
; : N 709 1114 1 1 rp C 
 L ; N 4457 1114 M 4415 1114 I : [ 1 0 0 1 150 150 ] concat K 
; : N 4415 1114 1 1 rp C 
 L ; 566 1135 M <010706>S 
N 668 1114 M 4457 1114 I : [ 1 0 0 1 150 150 ] concat K 
; : N 4457 1114 1 1 rp C 
 L ; N 668 5299 M 4457 5299 I : [ 1 0 0 1 150 150 ] concat K 
; : N 4457 5299 1 1 rp C 
 L ; N 4457 5299 M 4457 1114 I : [ 1 0 0 1 150 150 ] concat K 
; : N 4457 1114 1 1 rp C 
 L ; N 668 5299 M 668 1114 I : [ 1 0 0 1 150 150 ] concat K 
; : N 668 1114 1 1 rp C 
 L ; 1 1 0 1 scol : 668 1447 101 3804 rc N 668 5247 M 669 5144 I 670 5043 I 671 4945 I 671 4848 I 672 4754 I 673 4661 I 674 4571 I 674 4482 I 675 4395 I 676 4310 I 677 4226 I 677 4144 I 678 4065 I 679 3986 I 680 3910 I 680 3835 I 681 3762 I 682 3690 I 683 3620 I 683 3551 I 684 3484 I 685 3419 I 686 3355 I 686 3292 I 687 3231 I 688 3171 I 689 3113 I 689 3056 I 690 3001 I 691 2946 I 692 2893 I 693 2842 I 693 2791 I 694 2742 I 695 2694 I 696 2648 I 696 2602 I 697 2558 I 698 2514 I 699 2472 I 699 2431 I 700 2392 I 701 2353 I 702 2315 I 702 2278 I 703 2243 I 704 2208 I 705 2174 I 705 2142 I 706 2110 I 707 2079 I 708 2049 I 708 2020 I 709 1992 I 710 1965 I 711 1939 I 711 1913 I 712 1889 I 713 1865 I 714 1842 I 714 1820 I 715 1798 I 716 1778 I 717 1758 I 718 1739 I 718 1720 I 719 1703 I 720 1686 I 721 1670 I 721 1654 I 722 1639 I 723 1625 I 724 1611 I 724 1598 I 725 1586 I 726 1574 I 727 1563 I 727 1552 I 728 1542 I 729 1533 I 730 1524 I 730 1516 I 731 1508 I 732 1501 I 733 1494 I 733 1488 I 734 1482 I 735 1477 I 736 1472 I 736 1468 I 737 1464 I 738 1461 I 739 1458 I 739 1456 I 740 1454 I 741 1452 I 742 1451 I 743 1450 I 744 1450 I 745 1450 I 746 1451 I 746 1452 I 747 1453 I 748 1455 I 749 1457 I 749 1460 I 750 1463 I 751 1466 I 752 1469 I 752 1473 I 753 1477 I 754 1482 I 755 1486 I 755 1491 I 756 1497 I 757 1502 I 758 1508 I 758 1514 I 759 1520 I 760 1527 I 761 1534 I 761 1541 I 762 1548 I 763 1555 I 764 1563 I 764 1571 I 765 1579 I : [ 1 0 0 1 150 150 ] concat K 
; ; N 765 1579 M 766 1587 I 767 1596 I 768 1605 I 768 1614 I 769 1623 I 770 1632 I 771 1642 I 771 1651 I 772 1661 I 773 1671 I 774 1681 I 774 1692 I 775 1702 I 776 1713 I 777 1724 I 777 1734 I 778 1745 I 779 1757 I 780 1768 I 780 1779 I 781 1791 I 782 1803 I 783 1814 I 783 1826 I 784 1838 I 785 1850 I 786 1863 I 786 1875 I 787 1887 I 788 1900 I 789 1912 I 790 1925 I 790 1938 I 791 1951 I 792 1964 I 793 1977 I 793 1990 I 794 2003 I 795 2016 I 796 2029 I 796 2043 I 797 2056 I 798 2069 I 799 2083 I 799 2096 I 800 2110 I 801 2124 I 802 2137 I 802 2151 I 803 2165 I 804 2179 I 805 2192 I 805 2206 I 806 2220 I 807 2234 I 808 2248 I 808 2262 I 809 2276 I 810 2290 I 811 2304 I 811 2318 I 812 2332 I 813 2346 I 814 2361 I 815 2375 I 815 2389 I 816 2403 I 817 2417 I 818 2431 I 818 2445 I 819 2460 I 820 2474 I 821 2488 I 821 2502 I 822 2516 I 823 2530 I 824 2544 I 824 2559 I 825 2573 I 826 2587 I 827 2601 I 827 2615 I 828 2629 I 829 2643 I 830 2657 I 830 2671 I 831 2685 I 832 2699 I 833 2713 I 833 2727 I 834 2741 I 835 2755 I 836 2769 I 836 2783 I 837 2797 I 838 2810 I 839 2824 I 840 2838 I 840 2852 I 841 2865 I 842 2879 I 843 2893 I 843 2906 I 844 2920 I 845 2933 I 846 2947 I 846 2960 I 847 2974 I 848 2987 I 849 3001 I 849 3014 I 850 3027 I 851 3040 I 852 3054 I 852 3067 I 853 3080 I 854 3093 I 855 3106 I 855 3119 I 856 3132 I 857 3145 I 858 3158 I 858 3171 I 859 3184 I 860 3196 I 861 3209 I 861 3222 I : [ 1 0 0 1 150 150 ] concat K 
; N 861 3222 M 862 3234 I 863 3247 I 864 3259 I 865 3272 I 865 3284 I 866 3297 I 867 3309 I 868 3321 I 868 3334 I 869 3346 I 870 3358 I 871 3370 I 871 3382 I 872 3394 I 873 3406 I 874 3418 I 874 3430 I 875 3442 I 876 3453 I 877 3465 I 877 3477 I 878 3488 I 879 3500 I 880 3511 I 880 3523 I 881 3534 I 882 3546 I 883 3557 I 883 3568 I 884 3579 I 885 3590 I 886 3602 I 887 3613 I 887 3624 I 888 3634 I 889 3645 I 890 3656 I 890 3667 I 891 3678 I 892 3688 I 893 3699 I 893 3710 I 894 3720 I 895 3731 I 896 3741 I 896 3751 I 897 3762 I 898 3772 I 899 3782 I 899 3792 I 900 3802 I 901 3812 I 902 3822 I 902 3832 I 903 3842 I 904 3852 I 905 3862 I 905 3872 I 906 3881 I 907 3891 I 908 3901 I 908 3910 I 909 3920 I 910 3929 I 911 3938 I 912 3948 I 912 3957 I 913 3966 I 914 3975 I 915 3985 I 915 3994 I 916 4003 I 917 4012 I 918 4021 I 918 4029 I 919 4038 I 920 4047 I 921 4056 I 921 4064 I 922 4073 I 923 4082 I 924 4090 I 924 4099 I 925 4107 I 926 4116 I 927 4124 I 927 4132 I 928 4140 I 929 4149 I 930 4157 I 930 4165 I 931 4173 I 932 4181 I 933 4189 I 933 4197 I 934 4205 I 935 4212 I 936 4220 I 937 4228 I 937 4235 I 938 4243 I 939 4251 I 940 4258 I 940 4266 I 941 4273 I 942 4280 I 943 4288 I 943 4295 I 944 4302 I 945 4310 I 946 4317 I 946 4324 I 947 4331 I 948 4338 I 949 4345 I 949 4352 I 950 4359 I 951 4366 I 952 4372 I 952 4379 I 953 4386 I 954 4393 I 955 4399 I 955 4406 I 956 4412 I 957 4419 I 958 4425 I : [ 1 0 0 1 150 150 ] concat K 
; N 958 4425 M 958 4432 I 959 4438 I 960 4445 I 961 4451 I 962 4457 I 962 4463 I 963 4469 I 964 4476 I 965 4482 I 965 4488 I 966 4494 I 967 4500 I 968 4506 I 968 4512 I 969 4517 I 970 4523 I 971 4529 I 971 4535 I 972 4541 I 973 4546 I 974 4552 I 974 4557 I 975 4563 I 976 4569 I 977 4574 I 977 4579 I 978 4585 I 979 4590 I 980 4596 I 980 4601 I 981 4606 I 982 4611 I 983 4617 I 984 4622 I 984 4627 I 985 4632 I 986 4637 I 987 4642 I 987 4647 I 988 4652 I 989 4657 I 990 4662 I 990 4667 I 991 4671 I 992 4676 I 993 4681 I 993 4686 I 994 4690 I 995 4695 I 996 4700 I 996 4704 I 997 4709 I 998 4713 I 999 4718 I 999 4722 I 1000 4727 I 1001 4731 I 1002 4735 I 1002 4740 I 1003 4744 I 1004 4748 I 1005 4753 I 1005 4757 I 1006 4761 I 1007 4765 I 1008 4769 I 1009 4773 I 1009 4778 I 1010 4782 I 1011 4786 I 1012 4790 I 1012 4793 I 1013 4797 I 1014 4801 I 1015 4805 I 1015 4809 I 1016 4813 I 1017 4817 I 1018 4820 I 1018 4824 I 1019 4828 I 1020 4831 I 1021 4835 I 1021 4839 I 1022 4842 I 1023 4846 I 1024 4849 I 1024 4853 I 1025 4857 I 1026 4860 I 1027 4863 I 1027 4867 I 1028 4870 I 1029 4874 I 1030 4877 I 1030 4880 I 1031 4884 I 1032 4887 I 1033 4890 I 1034 4893 I 1034 4897 I 1035 4900 I 1036 4903 I 1037 4906 I 1037 4909 I 1038 4912 I 1039 4915 I 1040 4918 I 1040 4921 I 1041 4924 I 1042 4927 I 1043 4930 I 1043 4933 I 1044 4936 I 1045 4939 I 1046 4942 I 1046 4945 I 1047 4947 I 1048 4950 I 1049 4953 I 1049 4956 I 1050 4958 I 1051 4961 I 1052 4964 I 1052 4967 I 1053 4969 I 1054 4972 I : [ 1 0 0 1 150 150 ] concat K 
; N 1054 4972 M 1055 4974 I 1055 4977 I 1056 4980 I 1057 4982 I 1058 4985 I 1059 4987 I 1059 4990 I 1060 4992 I 1061 4995 I 1062 4997 I 1062 5000 I 1063 5002 I 1064 5004 I 1065 5007 I 1065 5009 I 1066 5011 I 1067 5014 I 1068 5016 I 1068 5018 I 1069 5021 I 1070 5023 I 1071 5025 I 1071 5027 I 1072 5029 I 1073 5032 I 1074 5034 I 1074 5036 I 1075 5038 I 1076 5040 I 1077 5042 I 1077 5044 I 1078 5046 I 1079 5048 I 1080 5051 I 1081 5053 I 1081 5055 I 1082 5057 I 1083 5058 I 1084 5060 I 1084 5062 I 1085 5064 I 1086 5066 I 1087 5068 I 1087 5070 I 1088 5072 I 1089 5074 I 1090 5076 I 1090 5077 I 1091 5079 I 1092 5081 I 1093 5083 I 1093 5084 I 1094 5086 I 1095 5088 I 1096 5090 I 1096 5091 I 1097 5093 I 1098 5095 I 1099 5096 I 1099 5098 I 1100 5100 I 1101 5101 I 1102 5103 I 1102 5105 I 1103 5106 I 1104 5108 I 1105 5109 I 1106 5111 I 1106 5112 I 1107 5114 I 1108 5116 I 1109 5117 I 1109 5119 I 1110 5120 I 1111 5122 I 1112 5123 I 1112 5124 I 1113 5126 I 1114 5127 I 1115 5129 I 1115 5130 I 1116 5131 I 1117 5133 I 1118 5134 I 1118 5136 I 1119 5137 I 1120 5138 I 1121 5140 I 1121 5141 I 1122 5142 I 1123 5144 I 1124 5145 I 1124 5146 I 1125 5147 I 1126 5149 I 1127 5150 I 1127 5151 I 1128 5152 I 1129 5154 I 1130 5155 I 1131 5156 I 1131 5157 I 1132 5158 I 1133 5159 I 1134 5161 I 1134 5162 I 1135 5163 I 1136 5164 I 1137 5165 I 1137 5166 I 1138 5167 I 1139 5169 I 1140 5170 I 1140 5171 I 1141 5172 I 1142 5173 I 1143 5174 I 1143 5175 I 1144 5176 I 1145 5177 I 1146 5178 I 1146 5179 I 1147 5180 I 1148 5181 I 1149 5182 I 1149 5183 I 1150 5184 I : [ 1 0 0 1 150 150 ] concat K 
; N 1150 5184 M 1151 5185 I 1152 5186 I 1152 5187 I 1153 5188 I 1154 5189 I 1155 5190 I 1156 5191 I 1157 5192 I 1158 5193 I 1159 5194 I 1159 5195 I 1160 5196 I 1161 5197 I 1162 5198 I 1163 5199 I 1164 5200 I 1165 5201 I 1165 5202 I 1166 5203 I 1167 5203 I 1168 5204 I 1168 5205 I 1169 5206 I 1170 5207 I 1171 5208 I 1172 5209 I 1173 5210 I 1174 5211 I 1175 5212 I 1176 5213 I 1177 5214 I 1178 5215 I 1179 5215 I 1180 5216 I 1182 5218 I 1181 5218 I 1182 5218 I 1183 5219 I 1184 5220 I 1185 5221 I 1186 5222 I 1187 5223 I 1188 5224 I 1189 5224 I 1190 5225 I 1191 5226 I 1192 5227 I 1193 5228 I 1194 5228 I 1195 5229 I 1196 5230 I 1197 5231 I 1198 5231 I 1200 5233 I 1199 5233 I 1200 5233 I 1201 5234 I 1202 5234 I 1203 5235 I 1204 5236 I 1205 5236 I 1206 5237 I 1207 5238 I 1208 5239 I 1209 5240 I 1210 5240 I 1211 5241 I 1212 5242 I 1213 5242 I 1214 5243 I 1215 5243 I 1216 5244 I 1217 5244 I 1218 5245 I 1219 5246 I 1220 5246 I 1221 5247 I 1222 5248 I 1223 5248 I 1224 5249 I 1225 5249 I 1226 5250 I 1227 5250 I 1228 5251 I 1229 5251 I 1230 5252 I 1231 5253 I 1232 5253 I 1233 5253 I 1234 5254 I 1235 5255 I 1236 5255 I 1237 5256 I 1238 5256 I 1239 5256 I 1240 5257 I 1241 5257 I 1242 5258 I 1243 5259 I 1244 5259 I 1245 5259 I 1246 5260 I 1247 5260 I 1248 5261 I 1249 5261 I 1250 5262 I 1251 5262 I 1252 5262 I 1253 5263 I 1254 5263 I 1255 5263 I 1256 5264 I 1257 5264 I 1258 5265 I 1259 5265 I 1260 5265 I 1261 5266 I 1262 5266 I 1263 5267 I 1264 5267 I 1265 5267 I 1266 5268 I 1267 5268 I 1268 5269 I 1269 5269 I 1270 5269 I 1271 5270 I : [ 1 0 0 1 150 150 ] concat K 
; N 1271 5270 M 1272 5270 I 1273 5270 I 1274 5271 I 1275 5271 I 1276 5271 I 1277 5271 I 1278 5272 I 1279 5272 I 1280 5272 I 1281 5273 I 1282 5273 I 1283 5273 I 1284 5274 I 1285 5274 I 1286 5274 I 1287 5274 I 1288 5275 I 1289 5275 I 1290 5275 I 1291 5275 I 1292 5276 I 1293 5276 I 1294 5276 I 1295 5276 I 1296 5277 I 1297 5277 I 1298 5277 I 1299 5277 I 1300 5278 I 1301 5278 I 1302 5278 I 1303 5278 I 1304 5279 I 1305 5279 I 1306 5279 I 1307 5279 I 1308 5280 I 1309 5280 I 1310 5280 I 1311 5280 I 1312 5280 I 1313 5281 I 1314 5281 I 1315 5281 I 1316 5281 I 1317 5281 I 1318 5282 I 1319 5282 I 1320 5282 I 1321 5282 I 1322 5282 I 1323 5283 I 1324 5283 I 1325 5283 I 1326 5283 I 1327 5283 I 1328 5284 I 1329 5284 I 1330 5284 I 1331 5284 I 1332 5284 I 1333 5284 I 1334 5285 I 1335 5285 I 1336 5285 I 1337 5285 I 1338 5285 I 1339 5285 I 1340 5286 I 1341 5286 I 1342 5286 I 1343 5286 I 1344 5286 I 1345 5286 I 1346 5286 I 1347 5287 I 1348 5287 I 1349 5287 I 1350 5287 I 1351 5287 I 1352 5287 I 1353 5287 I 1354 5287 I 1355 5288 I 1356 5288 I 1357 5288 I 1358 5288 I 1359 5288 I 1360 5288 I 1361 5288 I 1362 5288 I 1363 5289 I 1364 5289 I 1365 5289 I 1366 5289 I 1367 5289 I 1368 5289 I 1369 5289 I 1370 5289 I 1371 5289 I 1372 5290 I 1373 5290 I 1374 5290 I 1375 5290 I 1376 5290 I 1377 5290 I 1378 5290 I 1379 5290 I 1380 5290 I 1381 5290 I 1382 5291 I 1383 5291 I 1384 5291 I 1385 5291 I 1386 5291 I 1387 5291 I 1388 5291 I 1389 5291 I 1390 5291 I 1391 5291 I 1392 5291 I 1393 5292 I 1394 5292 I 1395 5292 I 1396 5292 I 1397 5292 I 1398 5292 I : [ 1 0 0 1 150 150 ] concat K 
; : 1395 5289 134 11 rc N 1398 5292 M 1399 5292 I 1400 5292 I 1401 5292 I 1402 5292 I 1403 5292 I 1404 5292 I 1405 5292 I 1406 5293 I 1407 5293 I 1408 5293 I 1409 5293 I 1410 5293 I 1411 5293 I 1412 5293 I 1413 5293 I 1414 5293 I 1415 5293 I 1416 5293 I 1417 5293 I 1418 5293 I 1419 5293 I 1420 5293 I 1421 5293 I 1422 5294 I 1423 5294 I 1424 5294 I 1425 5294 I 1426 5294 I 1427 5294 I 1428 5294 I 1429 5294 I 1430 5294 I 1431 5294 I 1432 5294 I 1433 5294 I 1434 5294 I 1435 5294 I 1436 5294 I 1437 5294 I 1438 5294 I 1439 5294 I 1440 5295 I 1441 5295 I 1442 5295 I 1443 5295 I 1444 5295 I 1445 5295 I 1446 5295 I 1447 5295 I 1448 5295 I 1449 5295 I 1450 5295 I 1451 5295 I 1452 5295 I 1453 5295 I 1454 5295 I 1455 5295 I 1456 5295 I 1457 5295 I 1458 5295 I 1459 5295 I 1460 5295 I 1461 5295 I 1462 5295 I 1463 5295 I 1464 5295 I 1465 5296 I 1466 5296 I 1467 5296 I 1468 5296 I 1469 5296 I 1470 5296 I 1471 5296 I 1472 5296 I 1473 5296 I 1474 5296 I 1475 5296 I 1476 5296 I 1477 5296 I 1478 5296 I 1479 5296 I 1480 5296 I 1481 5296 I 1482 5296 I 1483 5296 I 1484 5296 I 1485 5296 I 1486 5296 I 1487 5296 I 1488 5296 I 1489 5296 I 1490 5296 I 1491 5296 I 1492 5296 I 1493 5296 I 1494 5296 I 1495 5296 I 1496 5296 I 1497 5296 I 1498 5296 I 1499 5297 I 1500 5297 I 1501 5297 I 1502 5297 I 1503 5297 I 1504 5297 I 1505 5297 I 1506 5297 I 1507 5297 I 1508 5297 I 1509 5297 I 1510 5297 I 1511 5297 I 1512 5297 I 1513 5297 I 1514 5297 I 1515 5297 I 1516 5297 I 1517 5297 I 1518 5297 I 1519 5297 I 1520 5297 I 1521 5297 I 1522 5297 I 1523 5297 I 1524 5297 I 1525 5297 I : [ 1 0 0 1 150 150 ] concat K 
; ; : 1522 5294 134 6 rc N 1525 5297 M 1526 5297 I 1527 5297 I 1528 5297 I 1529 5297 I 1530 5297 I 1531 5297 I 1532 5297 I 1533 5297 I 1534 5297 I 1535 5297 I 1536 5297 I 1537 5297 I 1538 5297 I 1539 5297 I 1540 5297 I 1541 5297 I 1542 5297 I 1543 5297 I 1544 5297 I 1545 5297 I 1546 5297 I 1547 5297 I 1548 5297 I 1549 5297 I 1550 5297 I 1551 5297 I 1552 5297 I 1553 5297 I 1554 5297 I 1555 5297 I 1556 5298 I 1557 5298 I 1558 5298 I 1559 5298 I 1560 5298 I 1561 5298 I 1562 5298 I 1563 5298 I 1564 5298 I 1565 5298 I 1566 5298 I 1567 5298 I 1568 5298 I 1569 5298 I 1570 5298 I 1571 5298 I 1572 5298 I 1573 5298 I 1574 5298 I 1575 5298 I 1576 5298 I 1577 5298 I 1578 5298 I 1579 5298 I 1580 5298 I 1581 5298 I 1582 5298 I 1583 5298 I 1584 5298 I 1585 5298 I 1586 5298 I 1587 5298 I 1588 5298 I 1589 5298 I 1590 5298 I 1591 5298 I 1592 5298 I 1593 5298 I 1594 5298 I 1595 5298 I 1596 5298 I 1597 5298 I 1598 5298 I 1599 5298 I 1600 5298 I 1601 5298 I 1602 5298 I 1603 5298 I 1604 5298 I 1605 5298 I 1606 5298 I 1607 5298 I 1608 5298 I 1609 5298 I 1610 5298 I 1611 5298 I 1612 5298 I 1613 5298 I 1614 5298 I 1615 5298 I 1616 5298 I 1617 5298 I 1618 5298 I 1619 5298 I 1620 5298 I 1621 5298 I 1622 5298 I 1623 5298 I 1624 5298 I 1625 5298 I 1626 5298 I 1627 5298 I 1628 5298 I 1629 5298 I 1630 5298 I 1631 5298 I 1632 5298 I 1633 5298 I 1634 5298 I 1635 5298 I 1636 5298 I 1637 5298 I 1638 5298 I 1639 5298 I 1640 5298 I 1641 5298 I 1642 5298 I 1643 5298 I 1644 5298 I 1645 5298 I 1646 5298 I 1647 5298 I 1648 5298 I 1649 5298 I 1650 5298 I 1651 5298 I 1652 5298 I : [ 1 0 0 1 150 150 ] concat K 
; ; : 1649 5295 134 5 rc N 1652 5298 M 1653 5298 I 1654 5298 I 1655 5298 I 1656 5298 I 1657 5298 I 1658 5298 I 1659 5298 I 1660 5298 I 1661 5298 I 1662 5298 I 1663 5298 I 1664 5298 I 1665 5298 I 1666 5298 I 1667 5298 I 1668 5298 I 1669 5298 I 1670 5298 I 1671 5298 I 1672 5298 I 1673 5298 I 1674 5298 I 1675 5298 I 1676 5298 I 1677 5298 I 1678 5298 I 1679 5298 I 1680 5298 I 1681 5298 I 1682 5298 I 1683 5298 I 1684 5298 I 1685 5298 I 1686 5298 I 1687 5298 I 1688 5298 I 1689 5298 I 1690 5298 I 1691 5298 I 1692 5298 I 1693 5298 I 1694 5298 I 1695 5298 I 1696 5298 I 1697 5298 I 1698 5298 I 1699 5298 I 1700 5298 I 1701 5298 I 1702 5298 I 1703 5298 I 1704 5298 I 1705 5298 I 1706 5298 I 1707 5298 I 1708 5298 I 1709 5298 I 1710 5298 I 1711 5298 I 1712 5298 I 1713 5298 I 1714 5298 I 1715 5298 I 1716 5298 I 1717 5298 I 1718 5298 I 1719 5298 I 1720 5298 I 1721 5298 I 1722 5298 I 1723 5298 I 1724 5298 I 1725 5298 I 1726 5298 I 1727 5298 I 1728 5298 I 1729 5298 I 1730 5298 I 1731 5298 I 1732 5298 I 1733 5298 I 1734 5298 I 1735 5298 I 1736 5298 I 1737 5298 I 1738 5298 I 1739 5298 I 1740 5298 I 1741 5298 I 1742 5298 I 1743 5298 I 1744 5298 I 1745 5298 I 1746 5298 I 1747 5298 I 1748 5298 I 1749 5298 I 1750 5298 I 1751 5298 I 1752 5298 I 1753 5298 I 1754 5298 I 1755 5298 I 1756 5298 I 1757 5298 I 1758 5298 I 1759 5298 I 1760 5298 I 1761 5298 I 1762 5298 I 1763 5298 I 1764 5298 I 1765 5298 I 1766 5298 I 1767 5298 I 1768 5298 I 1769 5298 I 1770 5298 I 1771 5298 I 1772 5298 I 1773 5298 I 1774 5298 I 1775 5298 I 1776 5298 I 1777 5298 I 1778 5298 I 1779 5298 I : [ 1 0 0 1 150 150 ] concat K 
; ; : 1776 5295 134 5 rc N 1779 5298 M 1780 5298 I 1781 5298 I 1782 5298 I 1783 5298 I 1784 5298 I 1785 5298 I 1786 5298 I 1787 5298 I 1788 5298 I 1789 5298 I 1790 5298 I 1791 5298 I 1792 5298 I 1793 5298 I 1794 5298 I 1795 5298 I 1796 5298 I 1797 5298 I 1798 5298 I 1799 5298 I 1800 5298 I 1801 5298 I 1802 5298 I 1803 5298 I 1804 5298 I 1805 5298 I 1806 5298 I 1807 5298 I 1808 5298 I 1809 5298 I 1810 5298 I 1811 5298 I 1812 5298 I 1813 5298 I 1814 5298 I 1815 5298 I 1816 5298 I 1817 5298 I 1818 5298 I 1819 5298 I 1820 5298 I 1821 5298 I 1822 5298 I 1823 5298 I 1824 5298 I 1825 5298 I 1826 5298 I 1827 5298 I 1828 5298 I 1829 5298 I 1830 5298 I 1831 5298 I 1832 5298 I 1833 5298 I 1834 5298 I 1835 5298 I 1836 5298 I 1837 5298 I 1838 5298 I 1839 5298 I 1840 5298 I 1841 5298 I 1842 5298 I 1843 5298 I 1844 5298 I 1845 5298 I 1846 5298 I 1847 5298 I 1848 5298 I 1849 5298 I 1850 5298 I 1851 5298 I 1852 5298 I 1853 5298 I 1854 5298 I 1855 5298 I 1856 5298 I 1857 5298 I 1858 5298 I 1859 5298 I 1860 5298 I 1861 5298 I 1862 5298 I 1863 5298 I 1864 5298 I 1865 5298 I 1866 5298 I 1867 5298 I 1868 5298 I 1869 5298 I 1870 5298 I 1871 5298 I 1872 5298 I 1873 5298 I 1874 5298 I 1875 5298 I 1876 5298 I 1877 5298 I 1878 5298 I 1879 5298 I 1880 5298 I 1881 5298 I 1882 5298 I 1883 5298 I 1884 5298 I 1885 5298 I 1886 5298 I 1887 5298 I 1888 5298 I 1889 5298 I 1890 5298 I 1891 5298 I 1892 5298 I 1893 5298 I 1894 5298 I 1895 5298 I 1896 5298 I 1897 5298 I 1898 5298 I 1899 5298 I 1900 5298 I 1901 5298 I 1902 5298 I 1903 5298 I 1904 5298 I 1905 5298 I 1906 5298 I : [ 1 0 0 1 150 150 ] concat K 
; ; : 1903 5295 134 5 rc N 1906 5298 M 1907 5298 I 1908 5298 I 1909 5298 I 1910 5298 I 1911 5298 I 1912 5298 I 1913 5298 I 1914 5298 I 1915 5298 I 1916 5298 I 1917 5298 I 1918 5298 I 1919 5298 I 1920 5298 I 1921 5298 I 1922 5298 I 1923 5298 I 1924 5298 I 1925 5298 I 1926 5298 I 1927 5298 I 1928 5298 I 1929 5298 I 1930 5298 I 1931 5298 I 1932 5298 I 1933 5298 I 1934 5298 I 1935 5298 I 1936 5298 I 1937 5298 I 1938 5298 I 1939 5298 I 1940 5298 I 1941 5298 I 1942 5298 I 1943 5298 I 1944 5298 I 1945 5298 I 1946 5298 I 1947 5298 I 1948 5298 I 1949 5298 I 1950 5298 I 1951 5298 I 1952 5298 I 1953 5298 I 1954 5298 I 1955 5298 I 1956 5298 I 1957 5298 I 1958 5298 I 1959 5298 I 1960 5298 I 1961 5298 I 1962 5298 I 1963 5298 I 1964 5298 I 1965 5298 I 1966 5298 I 1967 5298 I 1968 5298 I 1969 5298 I 1970 5298 I 1971 5298 I 1972 5298 I 1973 5298 I 1974 5298 I 1975 5298 I 1976 5298 I 1977 5298 I 1978 5298 I 1979 5298 I 1980 5298 I 1981 5298 I 1982 5298 I 1983 5298 I 1984 5298 I 1985 5298 I 1986 5298 I 1987 5298 I 1988 5298 I 1989 5298 I 1990 5298 I 1991 5298 I 1992 5298 I 1993 5298 I 1994 5298 I 1995 5298 I 1996 5298 I 1997 5298 I 1998 5298 I 1999 5298 I 2000 5298 I 2001 5298 I 2002 5298 I 2003 5298 I 2004 5298 I 2005 5298 I 2006 5298 I 2007 5298 I 2008 5298 I 2009 5298 I 2010 5298 I 2011 5298 I 2012 5298 I 2013 5298 I 2014 5298 I 2015 5298 I 2016 5298 I 2017 5298 I 2018 5298 I 2019 5298 I 2020 5298 I 2021 5298 I 2022 5298 I 2023 5298 I 2024 5298 I 2025 5298 I 2026 5298 I 2027 5298 I 2028 5298 I 2029 5298 I 2030 5298 I 2031 5298 I 2032 5298 I 2033 5298 I : [ 1 0 0 1 150 150 ] concat K 
; ; : 2030 5295 134 5 rc N 2033 5298 M 2034 5298 I 2035 5298 I 2036 5298 I 2037 5298 I 2038 5298 I 2039 5298 I 2040 5298 I 2041 5298 I 2042 5298 I 2043 5298 I 2044 5298 I 2045 5298 I 2046 5298 I 2047 5298 I 2048 5298 I 2049 5298 I 2050 5298 I 2051 5298 I 2052 5298 I 2053 5298 I 2054 5298 I 2055 5298 I 2056 5298 I 2057 5298 I 2058 5298 I 2059 5298 I 2060 5298 I 2061 5298 I 2062 5298 I 2063 5298 I 2064 5298 I 2065 5298 I 2066 5298 I 2067 5298 I 2068 5298 I 2069 5298 I 2070 5298 I 2071 5298 I 2072 5298 I 2073 5298 I 2074 5298 I 2075 5298 I 2076 5298 I 2077 5298 I 2078 5298 I 2079 5298 I 2080 5298 I 2081 5298 I 2082 5298 I 2083 5298 I 2084 5298 I 2085 5298 I 2086 5298 I 2087 5298 I 2088 5298 I 2089 5298 I 2090 5298 I 2091 5298 I 2092 5298 I 2093 5298 I 2094 5298 I 2095 5298 I 2096 5298 I 2097 5298 I 2098 5298 I 2099 5298 I 2100 5298 I 2101 5298 I 2102 5298 I 2103 5298 I 2104 5298 I 2105 5298 I 2106 5298 I 2107 5298 I 2108 5298 I 2109 5298 I 2110 5298 I 2111 5298 I 2112 5298 I 2113 5298 I 2114 5298 I 2115 5298 I 2116 5298 I 2117 5298 I 2118 5298 I 2119 5298 I 2120 5298 I 2121 5298 I 2122 5298 I 2123 5298 I 2124 5298 I 2125 5298 I 2126 5298 I 2127 5298 I 2128 5298 I 2129 5298 I 2130 5298 I 2131 5298 I 2132 5298 I 2133 5298 I 2134 5298 I 2135 5298 I 2136 5298 I 2137 5298 I 2138 5298 I 2139 5298 I 2140 5298 I 2141 5298 I 2142 5298 I 2143 5298 I 2144 5298 I 2145 5298 I 2146 5298 I 2147 5298 I 2148 5298 I 2149 5298 I 2150 5298 I 2151 5298 I 2152 5298 I 2153 5298 I 2154 5298 I 2155 5298 I 2156 5298 I 2157 5298 I 2158 5298 I 2159 5298 I 2160 5298 I : [ 1 0 0 1 150 150 ] concat K 
; ; : 2157 5295 134 5 rc N 2160 5298 M 2161 5298 I 2162 5298 I 2163 5298 I 2164 5298 I 2165 5298 I 2166 5298 I 2167 5298 I 2168 5298 I 2169 5298 I 2170 5298 I 2171 5298 I 2172 5298 I 2173 5298 I 2174 5298 I 2175 5298 I 2176 5298 I 2177 5298 I 2178 5298 I 2179 5298 I 2180 5298 I 2181 5298 I 2182 5298 I 2183 5298 I 2184 5298 I 2185 5298 I 2186 5298 I 2187 5298 I 2188 5298 I 2189 5298 I 2190 5298 I 2191 5298 I 2192 5298 I 2193 5298 I 2194 5298 I 2195 5298 I 2196 5298 I 2197 5298 I 2198 5298 I 2199 5298 I 2200 5298 I 2201 5298 I 2202 5298 I 2203 5298 I 2204 5298 I 2205 5298 I 2206 5298 I 2207 5298 I 2208 5298 I 2209 5298 I 2210 5298 I 2211 5298 I 2212 5298 I 2213 5298 I 2214 5298 I 2215 5298 I 2216 5298 I 2217 5298 I 2218 5298 I 2219 5298 I 2220 5298 I 2221 5298 I 2222 5298 I 2223 5298 I 2224 5298 I 2225 5298 I 2226 5298 I 2227 5298 I 2228 5298 I 2229 5298 I 2230 5298 I 2231 5298 I 2232 5298 I 2233 5298 I 2234 5298 I 2235 5298 I 2236 5298 I 2237 5298 I 2238 5298 I 2239 5298 I 2240 5298 I 2241 5298 I 2242 5298 I 2243 5298 I 2244 5298 I 2245 5298 I 2246 5298 I 2247 5298 I 2248 5298 I 2249 5298 I 2250 5298 I 2251 5298 I 2252 5298 I 2253 5298 I 2254 5298 I 2255 5298 I 2256 5298 I 2257 5298 I 2258 5298 I 2259 5298 I 2260 5298 I 2261 5298 I 2262 5298 I 2263 5298 I 2264 5298 I 2265 5298 I 2266 5298 I 2267 5298 I 2268 5298 I 2269 5298 I 2270 5298 I 2271 5298 I 2272 5298 I 2273 5298 I 2274 5298 I 2275 5298 I 2276 5298 I 2277 5298 I 2278 5298 I 2279 5298 I 2280 5298 I 2281 5298 I 2282 5298 I 2283 5298 I 2284 5298 I 2285 5298 I 2286 5298 I 2287 5298 I : [ 1 0 0 1 150 150 ] concat K 
; ; : 2284 5295 134 5 rc N 2287 5298 M 2288 5298 I 2289 5298 I 2290 5298 I 2291 5298 I 2292 5298 I 2293 5298 I 2294 5298 I 2295 5298 I 2296 5298 I 2297 5298 I 2298 5298 I 2299 5298 I 2300 5298 I 2301 5298 I 2302 5298 I 2303 5298 I 2304 5298 I 2305 5298 I 2306 5298 I 2307 5298 I 2308 5298 I 2309 5298 I 2310 5298 I 2311 5298 I 2312 5298 I 2313 5298 I 2314 5298 I 2315 5298 I 2316 5298 I 2317 5298 I 2318 5298 I 2319 5298 I 2320 5298 I 2321 5298 I 2322 5298 I 2323 5298 I 2324 5298 I 2325 5298 I 2326 5298 I 2327 5298 I 2328 5298 I 2329 5298 I 2330 5298 I 2331 5298 I 2332 5298 I 2333 5298 I 2334 5298 I 2335 5298 I 2336 5298 I 2337 5298 I 2338 5298 I 2339 5298 I 2340 5298 I 2341 5298 I 2342 5298 I 2343 5298 I 2344 5298 I 2345 5298 I 2346 5298 I 2347 5298 I 2348 5298 I 2349 5298 I 2350 5298 I 2351 5298 I 2352 5298 I 2353 5298 I 2354 5298 I 2355 5298 I 2356 5298 I 2357 5298 I 2358 5298 I 2359 5298 I 2360 5298 I 2361 5298 I 2362 5298 I 2363 5298 I 2364 5298 I 2365 5298 I 2366 5298 I 2367 5298 I 2368 5298 I 2369 5298 I 2370 5298 I 2371 5298 I 2372 5298 I 2373 5298 I 2374 5298 I 2375 5298 I 2376 5298 I 2377 5298 I 2378 5298 I 2379 5298 I 2380 5298 I 2381 5298 I 2382 5298 I 2383 5298 I 2384 5298 I 2385 5298 I 2386 5298 I 2387 5298 I 2388 5298 I 2389 5298 I 2390 5298 I 2391 5298 I 2392 5298 I 2393 5298 I 2394 5298 I 2395 5298 I 2396 5298 I 2397 5298 I 2398 5298 I 2399 5298 I 2400 5298 I 2401 5298 I 2402 5298 I 2403 5298 I 2404 5298 I 2405 5298 I 2406 5298 I 2407 5298 I 2408 5298 I 2409 5298 I 2410 5298 I 2411 5298 I 2412 5298 I 2413 5298 I 2414 5298 I : [ 1 0 0 1 150 150 ] concat K 
; ; : 2411 5295 134 5 rc N 2414 5298 M 2415 5298 I 2416 5298 I 2417 5298 I 2418 5298 I 2419 5298 I 2420 5298 I 2421 5298 I 2422 5298 I 2423 5298 I 2424 5298 I 2425 5298 I 2426 5298 I 2427 5298 I 2428 5298 I 2429 5298 I 2430 5298 I 2431 5298 I 2432 5298 I 2433 5298 I 2434 5298 I 2435 5298 I 2436 5298 I 2437 5298 I 2438 5298 I 2439 5298 I 2440 5298 I 2441 5298 I 2442 5298 I 2443 5298 I 2444 5298 I 2445 5298 I 2446 5298 I 2447 5298 I 2448 5298 I 2449 5298 I 2450 5298 I 2451 5298 I 2452 5298 I 2453 5298 I 2454 5298 I 2455 5298 I 2456 5298 I 2457 5298 I 2458 5298 I 2459 5298 I 2460 5298 I 2461 5298 I 2462 5298 I 2463 5298 I 2464 5298 I 2465 5298 I 2466 5298 I 2467 5298 I 2468 5298 I 2469 5298 I 2470 5298 I 2471 5298 I 2472 5298 I 2473 5298 I 2474 5298 I 2475 5298 I 2476 5298 I 2477 5298 I 2478 5298 I 2479 5298 I 2480 5298 I 2481 5298 I 2482 5298 I 2483 5298 I 2484 5298 I 2485 5298 I 2486 5298 I 2487 5298 I 2488 5298 I 2489 5298 I 2490 5298 I 2491 5298 I 2492 5298 I 2493 5298 I 2494 5298 I 2495 5298 I 2496 5298 I 2497 5298 I 2498 5298 I 2499 5298 I 2500 5298 I 2501 5298 I 2502 5298 I 2503 5298 I 2504 5298 I 2505 5298 I 2506 5298 I 2507 5298 I 2508 5298 I 2509 5298 I 2510 5298 I 2511 5298 I 2512 5298 I 2513 5298 I 2514 5298 I 2515 5298 I 2516 5298 I 2517 5298 I 2518 5298 I 2519 5298 I 2520 5298 I 2521 5298 I 2522 5298 I 2523 5298 I 2524 5298 I 2525 5298 I 2526 5298 I 2527 5298 I 2528 5298 I 2529 5298 I 2530 5298 I 2531 5298 I 2532 5298 I 2533 5298 I 2534 5298 I 2535 5298 I 2536 5298 I 2537 5298 I 2538 5298 I 2539 5298 I 2540 5298 I 2541 5298 I : [ 1 0 0 1 150 150 ] concat K 
; ; : 2538 5295 134 5 rc N 2541 5298 M 2542 5298 I 2543 5298 I 2544 5298 I 2545 5298 I 2546 5298 I 2547 5298 I 2548 5298 I 2549 5298 I 2550 5298 I 2551 5298 I 2552 5298 I 2553 5298 I 2554 5298 I 2555 5298 I 2556 5298 I 2557 5298 I 2558 5298 I 2559 5298 I 2560 5298 I 2561 5298 I 2562 5298 I 2563 5298 I 2564 5298 I 2565 5298 I 2566 5298 I 2567 5298 I 2568 5298 I 2569 5298 I 2570 5298 I 2571 5298 I 2572 5298 I 2573 5298 I 2574 5298 I 2575 5298 I 2576 5298 I 2577 5298 I 2578 5298 I 2579 5298 I 2580 5298 I 2581 5298 I 2582 5298 I 2583 5298 I 2584 5298 I 2585 5298 I 2586 5298 I 2587 5298 I 2588 5298 I 2589 5298 I 2590 5298 I 2591 5298 I 2592 5298 I 2593 5298 I 2594 5298 I 2595 5298 I 2596 5298 I 2597 5298 I 2598 5298 I 2599 5298 I 2600 5298 I 2601 5298 I 2602 5298 I 2603 5298 I 2604 5298 I 2605 5298 I 2606 5298 I 2607 5298 I 2608 5298 I 2609 5298 I 2610 5298 I 2611 5298 I 2612 5298 I 2613 5298 I 2614 5298 I 2615 5298 I 2616 5298 I 2617 5298 I 2618 5298 I 2619 5298 I 2620 5298 I 2621 5298 I 2622 5298 I 2623 5298 I 2624 5298 I 2625 5298 I 2626 5298 I 2627 5298 I 2628 5298 I 2629 5298 I 2630 5298 I 2631 5298 I 2632 5298 I 2633 5298 I 2634 5298 I 2635 5298 I 2636 5298 I 2637 5298 I 2638 5298 I 2639 5298 I 2640 5298 I 2641 5298 I 2642 5298 I 2643 5298 I 2644 5298 I 2645 5298 I 2646 5298 I 2647 5298 I 2648 5298 I 2649 5298 I 2650 5298 I 2651 5298 I 2652 5298 I 2653 5298 I 2654 5298 I 2655 5298 I 2656 5298 I 2657 5298 I 2658 5298 I 2659 5298 I 2660 5298 I 2661 5298 I 2662 5298 I 2663 5298 I 2664 5298 I 2665 5298 I 2666 5298 I 2667 5298 I 2668 5298 I : [ 1 0 0 1 150 150 ] concat K 
; ; : 2665 5295 134 5 rc N 2668 5298 M 2669 5298 I 2670 5298 I 2671 5298 I 2672 5298 I 2673 5298 I 2674 5298 I 2675 5298 I 2676 5298 I 2677 5298 I 2678 5298 I 2679 5298 I 2680 5298 I 2681 5298 I 2682 5298 I 2683 5298 I 2684 5298 I 2685 5298 I 2686 5298 I 2687 5298 I 2688 5298 I 2689 5298 I 2690 5298 I 2691 5298 I 2692 5298 I 2693 5298 I 2694 5298 I 2695 5298 I 2696 5298 I 2697 5298 I 2698 5298 I 2699 5298 I 2700 5298 I 2701 5298 I 2702 5298 I 2703 5298 I 2704 5298 I 2705 5298 I 2706 5298 I 2707 5298 I 2708 5298 I 2709 5298 I 2710 5298 I 2711 5298 I 2712 5298 I 2713 5298 I 2714 5298 I 2715 5298 I 2716 5298 I 2717 5298 I 2718 5298 I 2719 5298 I 2720 5298 I 2721 5298 I 2722 5298 I 2723 5298 I 2724 5298 I 2725 5298 I 2726 5298 I 2727 5298 I 2728 5298 I 2729 5298 I 2730 5298 I 2731 5298 I 2732 5298 I 2733 5298 I 2734 5298 I 2735 5298 I 2736 5298 I 2737 5298 I 2738 5298 I 2739 5298 I 2740 5298 I 2741 5298 I 2742 5298 I 2743 5298 I 2744 5298 I 2745 5298 I 2746 5298 I 2747 5298 I 2748 5298 I 2749 5298 I 2750 5298 I 2751 5298 I 2752 5298 I 2753 5298 I 2754 5298 I 2755 5298 I 2756 5298 I 2757 5298 I 2758 5298 I 2759 5298 I 2760 5298 I 2761 5298 I 2762 5298 I 2763 5298 I 2764 5298 I 2765 5298 I 2766 5298 I 2767 5298 I 2768 5298 I 2769 5298 I 2770 5298 I 2771 5298 I 2772 5298 I 2773 5298 I 2774 5298 I 2775 5298 I 2776 5298 I 2777 5298 I 2778 5298 I 2779 5298 I 2780 5298 I 2781 5298 I 2782 5298 I 2783 5298 I 2784 5298 I 2785 5298 I 2786 5298 I 2787 5298 I 2788 5298 I 2789 5298 I 2790 5298 I 2791 5298 I 2792 5298 I 2793 5298 I 2794 5298 I 2795 5298 I : [ 1 0 0 1 150 150 ] concat K 
; ; : 2792 5295 134 5 rc N 2795 5298 M 2796 5298 I 2797 5298 I 2798 5298 I 2799 5298 I 2800 5298 I 2801 5298 I 2802 5298 I 2803 5298 I 2804 5298 I 2805 5298 I 2806 5298 I 2807 5298 I 2808 5298 I 2809 5298 I 2810 5298 I 2811 5298 I 2812 5298 I 2813 5298 I 2814 5298 I 2815 5298 I 2816 5298 I 2817 5298 I 2818 5298 I 2819 5298 I 2820 5298 I 2821 5298 I 2822 5298 I 2823 5298 I 2824 5298 I 2825 5298 I 2826 5298 I 2827 5298 I 2828 5298 I 2829 5298 I 2830 5298 I 2831 5298 I 2832 5298 I 2833 5298 I 2834 5298 I 2835 5298 I 2836 5298 I 2837 5298 I 2838 5298 I 2839 5298 I 2840 5298 I 2841 5298 I 2842 5298 I 2843 5298 I 2844 5298 I 2845 5298 I 2846 5298 I 2847 5298 I 2848 5298 I 2849 5298 I 2850 5298 I 2851 5298 I 2852 5298 I 2853 5298 I 2854 5298 I 2855 5298 I 2856 5298 I 2857 5298 I 2858 5298 I 2859 5298 I 2860 5298 I 2861 5298 I 2862 5298 I 2863 5298 I 2864 5298 I 2865 5298 I 2866 5298 I 2867 5298 I 2868 5298 I 2869 5298 I 2870 5298 I 2871 5298 I 2872 5298 I 2873 5298 I 2874 5298 I 2875 5298 I 2876 5298 I 2877 5298 I 2878 5298 I 2879 5298 I 2880 5298 I 2881 5298 I 2882 5298 I 2883 5298 I 2884 5298 I 2885 5298 I 2886 5298 I 2887 5298 I 2888 5298 I 2889 5298 I 2890 5298 I 2891 5298 I 2892 5298 I 2893 5298 I 2894 5298 I 2895 5298 I 2896 5298 I 2897 5298 I 2898 5298 I 2899 5298 I 2900 5298 I 2901 5298 I 2902 5298 I 2903 5298 I 2904 5298 I 2905 5298 I 2906 5298 I 2907 5298 I 2908 5298 I 2909 5298 I 2910 5298 I 2911 5298 I 2912 5298 I 2913 5298 I 2914 5298 I 2915 5298 I 2916 5298 I 2917 5298 I 2918 5298 I 2919 5298 I 2920 5298 I 2921 5298 I 2922 5298 I : [ 1 0 0 1 150 150 ] concat K 
; ; : 2919 5295 134 5 rc N 2922 5298 M 2923 5298 I 2924 5298 I 2925 5298 I 2926 5298 I 2927 5298 I 2928 5298 I 2929 5298 I 2930 5298 I 2931 5298 I 2932 5298 I 2933 5298 I 2934 5298 I 2935 5298 I 2936 5298 I 2937 5298 I 2938 5298 I 2939 5298 I 2940 5298 I 2941 5298 I 2942 5298 I 2943 5298 I 2944 5298 I 2945 5298 I 2946 5298 I 2947 5298 I 2948 5298 I 2949 5298 I 2950 5298 I 2951 5298 I 2952 5298 I 2953 5298 I 2954 5298 I 2955 5298 I 2956 5298 I 2957 5298 I 2958 5298 I 2959 5298 I 2960 5298 I 2961 5298 I 2962 5298 I 2963 5298 I 2964 5298 I 2965 5298 I 2966 5298 I 2967 5298 I 2968 5298 I 2969 5298 I 2970 5298 I 2971 5298 I 2972 5298 I 2973 5298 I 2974 5298 I 2975 5298 I 2976 5298 I 2977 5298 I 2978 5298 I 2979 5298 I 2980 5298 I 2981 5298 I 2982 5298 I 2983 5298 I 2984 5298 I 2985 5298 I 2986 5298 I 2987 5298 I 2988 5298 I 2989 5298 I 2990 5298 I 2991 5298 I 2992 5298 I 2993 5298 I 2994 5298 I 2995 5298 I 2996 5298 I 2997 5298 I 2998 5298 I 2999 5298 I 3000 5298 I 3001 5298 I 3002 5298 I 3003 5298 I 3004 5298 I 3005 5298 I 3006 5298 I 3007 5298 I 3008 5298 I 3009 5298 I 3010 5298 I 3011 5298 I 3012 5298 I 3013 5298 I 3014 5298 I 3015 5298 I 3016 5298 I 3017 5298 I 3018 5298 I 3019 5298 I 3020 5298 I 3021 5298 I 3022 5298 I 3023 5298 I 3024 5298 I 3025 5298 I 3026 5298 I 3027 5298 I 3028 5298 I 3029 5298 I 3030 5298 I 3031 5298 I 3032 5298 I 3033 5298 I 3034 5298 I 3035 5298 I 3036 5298 I 3037 5298 I 3038 5298 I 3039 5298 I 3040 5298 I 3041 5298 I 3042 5298 I 3043 5298 I 3044 5298 I 3045 5298 I 3046 5298 I 3047 5298 I 3048 5298 I 3049 5298 I : [ 1 0 0 1 150 150 ] concat K 
; ; : 3046 5295 134 5 rc N 3049 5298 M 3050 5298 I 3051 5298 I 3052 5298 I 3053 5298 I 3054 5298 I 3055 5298 I 3056 5298 I 3057 5298 I 3058 5298 I 3059 5298 I 3060 5298 I 3061 5298 I 3062 5298 I 3063 5298 I 3064 5298 I 3065 5298 I 3066 5298 I 3067 5298 I 3068 5298 I 3069 5298 I 3070 5298 I 3071 5298 I 3072 5298 I 3073 5298 I 3074 5298 I 3075 5298 I 3076 5298 I 3077 5298 I 3078 5298 I 3079 5298 I 3080 5298 I 3081 5298 I 3082 5298 I 3083 5298 I 3084 5298 I 3085 5298 I 3086 5298 I 3087 5298 I 3088 5298 I 3089 5298 I 3090 5298 I 3091 5298 I 3092 5298 I 3093 5298 I 3094 5298 I 3095 5298 I 3096 5298 I 3097 5298 I 3098 5298 I 3099 5298 I 3100 5298 I 3101 5298 I 3102 5298 I 3103 5298 I 3104 5298 I 3105 5298 I 3106 5298 I 3107 5298 I 3108 5298 I 3109 5298 I 3110 5298 I 3111 5298 I 3112 5298 I 3113 5298 I 3114 5298 I 3115 5298 I 3116 5298 I 3117 5298 I 3118 5298 I 3119 5298 I 3120 5298 I 3121 5298 I 3122 5298 I 3123 5298 I 3124 5298 I 3125 5298 I 3126 5298 I 3127 5298 I 3128 5298 I 3129 5298 I 3130 5298 I 3131 5298 I 3132 5298 I 3133 5298 I 3134 5298 I 3135 5298 I 3136 5298 I 3137 5298 I 3138 5298 I 3139 5298 I 3140 5298 I 3141 5298 I 3142 5298 I 3143 5298 I 3144 5298 I 3145 5298 I 3146 5298 I 3147 5298 I 3148 5298 I 3149 5298 I 3150 5298 I 3151 5298 I 3152 5298 I 3153 5298 I 3154 5298 I 3155 5298 I 3156 5298 I 3157 5298 I 3158 5298 I 3159 5298 I 3160 5298 I 3161 5298 I 3162 5298 I 3163 5298 I 3164 5298 I 3165 5298 I 3166 5298 I 3167 5298 I 3168 5298 I 3169 5298 I 3170 5298 I 3171 5298 I 3172 5298 I 3173 5298 I 3174 5298 I 3175 5298 I 3176 5298 I : [ 1 0 0 1 150 150 ] concat K 
; ; : 3173 5295 134 5 rc N 3176 5298 M 3177 5298 I 3178 5298 I 3179 5298 I 3180 5298 I 3181 5298 I 3182 5298 I 3183 5298 I 3184 5298 I 3185 5298 I 3186 5298 I 3187 5298 I 3188 5298 I 3189 5298 I 3190 5298 I 3191 5298 I 3192 5298 I 3193 5298 I 3194 5298 I 3195 5298 I 3196 5298 I 3197 5298 I 3198 5298 I 3199 5298 I 3200 5298 I 3201 5298 I 3202 5298 I 3203 5298 I 3204 5298 I 3205 5298 I 3206 5298 I 3207 5298 I 3208 5298 I 3209 5298 I 3210 5298 I 3211 5298 I 3212 5298 I 3213 5298 I 3214 5298 I 3215 5298 I 3216 5298 I 3217 5298 I 3218 5298 I 3219 5298 I 3220 5298 I 3221 5298 I 3222 5298 I 3223 5298 I 3224 5298 I 3225 5298 I 3226 5298 I 3227 5298 I 3228 5298 I 3229 5298 I 3230 5298 I 3231 5298 I 3232 5298 I 3233 5298 I 3234 5298 I 3235 5298 I 3236 5298 I 3237 5298 I 3238 5298 I 3239 5298 I 3240 5298 I 3241 5298 I 3242 5298 I 3243 5298 I 3244 5298 I 3245 5298 I 3246 5298 I 3247 5298 I 3248 5298 I 3249 5298 I 3250 5298 I 3251 5298 I 3252 5298 I 3253 5298 I 3254 5298 I 3255 5298 I 3256 5298 I 3257 5298 I 3258 5298 I 3259 5298 I 3260 5298 I 3261 5298 I 3262 5298 I 3263 5298 I 3264 5298 I 3265 5298 I 3266 5298 I 3267 5298 I 3268 5298 I 3269 5298 I 3270 5298 I 3271 5298 I 3272 5298 I 3273 5298 I 3274 5298 I 3275 5298 I 3276 5298 I 3277 5298 I 3278 5298 I 3279 5298 I 3280 5298 I 3281 5298 I 3282 5298 I 3283 5298 I 3284 5298 I 3285 5298 I 3286 5298 I 3287 5298 I 3288 5298 I 3289 5298 I 3290 5298 I 3291 5298 I 3292 5298 I 3293 5298 I 3294 5298 I 3295 5298 I 3296 5298 I 3297 5298 I 3298 5298 I 3299 5298 I 3300 5298 I 3301 5298 I 3302 5298 I 3303 5298 I : [ 1 0 0 1 150 150 ] concat K 
; ; : 3300 5295 134 5 rc N 3303 5298 M 3304 5298 I 3305 5298 I 3306 5298 I 3307 5298 I 3308 5298 I 3309 5298 I 3310 5298 I 3311 5298 I 3312 5298 I 3313 5298 I 3314 5298 I 3315 5298 I 3316 5298 I 3317 5298 I 3318 5298 I 3319 5298 I 3320 5298 I 3321 5298 I 3322 5298 I 3323 5298 I 3324 5298 I 3325 5298 I 3326 5298 I 3327 5298 I 3328 5298 I 3329 5298 I 3330 5298 I 3331 5298 I 3332 5298 I 3333 5298 I 3334 5298 I 3335 5298 I 3336 5298 I 3337 5298 I 3338 5298 I 3339 5298 I 3340 5298 I 3341 5298 I 3342 5298 I 3343 5298 I 3344 5298 I 3345 5298 I 3346 5298 I 3347 5298 I 3348 5298 I 3349 5298 I 3350 5298 I 3351 5298 I 3352 5298 I 3353 5298 I 3354 5298 I 3355 5298 I 3356 5298 I 3357 5298 I 3358 5298 I 3359 5298 I 3360 5298 I 3361 5298 I 3362 5298 I 3363 5298 I 3364 5298 I 3365 5298 I 3366 5298 I 3367 5298 I 3368 5298 I 3369 5298 I 3370 5298 I 3371 5298 I 3372 5298 I 3373 5298 I 3374 5298 I 3375 5298 I 3376 5298 I 3377 5298 I 3378 5298 I 3379 5298 I 3380 5298 I 3381 5298 I 3382 5298 I 3383 5298 I 3384 5298 I 3385 5298 I 3386 5298 I 3387 5298 I 3388 5298 I 3389 5298 I 3390 5298 I 3391 5298 I 3392 5298 I 3393 5298 I 3394 5298 I 3395 5298 I 3396 5298 I 3397 5298 I 3398 5298 I 3399 5298 I 3400 5298 I 3401 5298 I 3402 5298 I 3403 5298 I 3404 5298 I 3405 5298 I 3406 5298 I 3407 5298 I 3408 5298 I 3409 5298 I 3410 5298 I 3411 5298 I 3412 5298 I 3413 5298 I 3414 5298 I 3415 5298 I 3416 5298 I 3417 5298 I 3418 5298 I 3419 5298 I 3420 5298 I 3421 5298 I 3422 5298 I 3423 5298 I 3424 5298 I 3425 5298 I 3426 5298 I 3427 5298 I 3428 5298 I 3429 5298 I 3430 5298 I : [ 1 0 0 1 150 150 ] concat K 
; ; : 3427 5295 134 5 rc N 3430 5298 M 3431 5298 I 3432 5298 I 3433 5298 I 3434 5298 I 3435 5298 I 3436 5298 I 3437 5298 I 3438 5298 I 3439 5298 I 3440 5298 I 3441 5298 I 3442 5298 I 3443 5298 I 3444 5298 I 3445 5298 I 3446 5298 I 3447 5298 I 3448 5298 I 3449 5298 I 3450 5298 I 3451 5298 I 3452 5298 I 3453 5298 I 3454 5298 I 3455 5298 I 3456 5298 I 3457 5298 I 3458 5298 I 3459 5298 I 3460 5298 I 3461 5298 I 3462 5298 I 3463 5298 I 3464 5298 I 3465 5298 I 3466 5298 I 3467 5298 I 3468 5298 I 3469 5298 I 3470 5298 I 3471 5298 I 3472 5298 I 3473 5298 I 3474 5298 I 3475 5298 I 3476 5298 I 3477 5298 I 3478 5298 I 3479 5298 I 3480 5298 I 3481 5298 I 3482 5298 I 3483 5298 I 3484 5298 I 3485 5298 I 3486 5298 I 3487 5298 I 3488 5298 I 3489 5298 I 3490 5298 I 3491 5298 I 3492 5298 I 3493 5298 I 3494 5298 I 3495 5298 I 3496 5298 I 3497 5298 I 3498 5298 I 3499 5298 I 3500 5298 I 3501 5298 I 3502 5298 I 3503 5298 I 3504 5298 I 3505 5298 I 3506 5298 I 3507 5298 I 3508 5298 I 3509 5298 I 3510 5298 I 3511 5298 I 3512 5298 I 3513 5298 I 3514 5298 I 3515 5298 I 3516 5298 I 3517 5298 I 3518 5298 I 3519 5298 I 3520 5298 I 3521 5298 I 3522 5298 I 3523 5298 I 3524 5298 I 3525 5298 I 3526 5298 I 3527 5298 I 3528 5298 I 3529 5298 I 3530 5298 I 3531 5298 I 3532 5298 I 3533 5298 I 3534 5298 I 3535 5298 I 3536 5298 I 3537 5298 I 3538 5298 I 3539 5298 I 3540 5298 I 3541 5298 I 3542 5298 I 3543 5298 I 3544 5298 I 3545 5298 I 3546 5298 I 3547 5298 I 3548 5298 I 3549 5298 I 3550 5298 I 3551 5298 I 3552 5298 I 3553 5298 I 3554 5298 I 3555 5298 I 3556 5298 I 3557 5298 I : [ 1 0 0 1 150 150 ] concat K 
; ; : 3554 5295 134 5 rc N 3557 5298 M 3558 5298 I 3559 5298 I 3560 5298 I 3561 5298 I 3562 5298 I 3563 5298 I 3564 5298 I 3565 5298 I 3566 5298 I 3567 5298 I 3568 5298 I 3569 5298 I 3570 5298 I 3571 5298 I 3572 5298 I 3573 5298 I 3574 5298 I 3575 5298 I 3576 5298 I 3577 5298 I 3578 5298 I 3579 5298 I 3580 5298 I 3581 5298 I 3582 5298 I 3583 5298 I 3584 5298 I 3585 5298 I 3586 5298 I 3587 5298 I 3588 5298 I 3589 5298 I 3590 5298 I 3591 5298 I 3592 5298 I 3593 5298 I 3594 5298 I 3595 5298 I 3596 5298 I 3597 5298 I 3598 5298 I 3599 5298 I 3600 5298 I 3601 5298 I 3602 5298 I 3603 5298 I 3604 5298 I 3605 5298 I 3606 5298 I 3607 5298 I 3608 5298 I 3609 5298 I 3610 5298 I 3611 5298 I 3612 5298 I 3613 5298 I 3614 5298 I 3615 5298 I 3616 5298 I 3617 5298 I 3618 5298 I 3619 5298 I 3620 5298 I 3621 5298 I 3622 5298 I 3623 5298 I 3624 5298 I 3625 5298 I 3626 5298 I 3627 5298 I 3628 5298 I 3629 5298 I 3630 5298 I 3631 5298 I 3632 5298 I 3633 5298 I 3634 5298 I 3635 5298 I 3636 5298 I 3637 5298 I 3638 5298 I 3639 5298 I 3640 5298 I 3641 5298 I 3642 5298 I 3643 5298 I 3644 5298 I 3645 5298 I 3646 5298 I 3647 5298 I 3648 5298 I 3649 5298 I 3650 5298 I 3651 5298 I 3652 5298 I 3653 5298 I 3654 5298 I 3655 5298 I 3656 5298 I 3657 5298 I 3658 5298 I 3659 5298 I 3660 5298 I 3661 5298 I 3662 5298 I 3663 5298 I 3664 5298 I 3665 5298 I 3666 5298 I 3667 5298 I 3668 5298 I 3669 5298 I 3670 5298 I 3671 5298 I 3672 5298 I 3673 5298 I 3674 5298 I 3675 5298 I 3676 5298 I 3677 5298 I 3678 5298 I 3679 5298 I 3680 5298 I 3681 5298 I 3682 5298 I 3683 5298 I 3684 5298 I : [ 1 0 0 1 150 150 ] concat K 
; ; : 3681 5295 134 5 rc N 3684 5298 M 3685 5298 I 3686 5298 I 3687 5298 I 3688 5298 I 3689 5298 I 3690 5298 I 3691 5298 I 3692 5298 I 3693 5298 I 3694 5298 I 3695 5298 I 3696 5298 I 3697 5298 I 3698 5298 I 3699 5298 I 3700 5298 I 3701 5298 I 3702 5298 I 3703 5298 I 3704 5298 I 3705 5298 I 3706 5298 I 3707 5298 I 3708 5298 I 3709 5298 I 3710 5298 I 3711 5298 I 3712 5298 I 3713 5298 I 3714 5298 I 3715 5298 I 3716 5298 I 3717 5298 I 3718 5298 I 3719 5298 I 3720 5298 I 3721 5298 I 3722 5298 I 3723 5298 I 3724 5298 I 3725 5298 I 3726 5298 I 3727 5298 I 3728 5298 I 3729 5298 I 3730 5298 I 3731 5298 I 3732 5298 I 3733 5298 I 3734 5298 I 3735 5298 I 3736 5298 I 3737 5298 I 3738 5298 I 3739 5298 I 3740 5298 I 3741 5298 I 3742 5298 I 3743 5298 I 3744 5298 I 3745 5298 I 3746 5298 I 3747 5298 I 3748 5298 I 3749 5298 I 3750 5298 I 3751 5298 I 3752 5298 I 3753 5298 I 3754 5298 I 3755 5298 I 3756 5298 I 3757 5298 I 3758 5298 I 3759 5298 I 3760 5298 I 3761 5298 I 3762 5298 I 3763 5298 I 3764 5298 I 3765 5298 I 3766 5298 I 3767 5298 I 3768 5298 I 3769 5298 I 3770 5298 I 3771 5298 I 3772 5298 I 3773 5298 I 3774 5298 I 3775 5298 I 3776 5298 I 3777 5298 I 3778 5298 I 3779 5298 I 3780 5298 I 3781 5298 I 3782 5298 I 3783 5298 I 3784 5298 I 3785 5298 I 3786 5298 I 3787 5298 I 3788 5298 I 3789 5298 I 3790 5298 I 3791 5298 I 3792 5298 I 3793 5298 I 3794 5298 I 3795 5298 I 3796 5298 I 3797 5298 I 3798 5298 I 3799 5298 I 3800 5298 I 3801 5298 I 3802 5298 I 3803 5298 I 3804 5298 I 3805 5298 I 3806 5299 I 3807 5299 I 3808 5299 I 3809 5299 I 3810 5299 I 3811 5299 I : [ 1 0 0 1 150 150 ] concat K 
; ; : 3808 5296 134 4 rc N 3811 5299 M 3812 5299 I 3813 5299 I 3814 5299 I 3815 5299 I 3816 5299 I 3817 5299 I 3818 5299 I 3819 5299 I 3820 5299 I 3821 5299 I 3822 5299 I 3823 5299 I 3824 5299 I 3825 5299 I 3826 5299 I 3827 5299 I 3828 5299 I 3829 5299 I 3830 5299 I 3831 5299 I 3832 5299 I 3833 5299 I 3834 5299 I 3835 5299 I 3836 5299 I 3837 5299 I 3838 5299 I 3839 5299 I 3840 5299 I 3841 5299 I 3842 5299 I 3843 5299 I 3844 5299 I 3845 5299 I 3846 5299 I 3847 5299 I 3848 5299 I 3849 5299 I 3850 5299 I 3851 5299 I 3852 5299 I 3853 5299 I 3854 5299 I 3855 5299 I 3856 5299 I 3857 5299 I 3858 5299 I 3859 5299 I 3860 5299 I 3861 5299 I 3862 5299 I 3863 5299 I 3864 5299 I 3865 5299 I 3866 5299 I 3867 5299 I 3868 5299 I 3869 5299 I 3870 5299 I 3871 5299 I 3872 5299 I 3873 5299 I 3874 5299 I 3875 5299 I 3876 5299 I 3877 5299 I 3878 5299 I 3879 5299 I 3880 5299 I 3881 5299 I 3882 5299 I 3883 5299 I 3884 5299 I 3885 5299 I 3886 5299 I 3887 5299 I 3888 5299 I 3889 5299 I 3890 5299 I 3891 5299 I 3892 5299 I 3893 5299 I 3894 5299 I 3895 5299 I 3896 5299 I 3897 5299 I 3898 5299 I 3899 5299 I 3900 5299 I 3901 5299 I 3902 5299 I 3903 5299 I 3904 5299 I 3905 5299 I 3906 5299 I 3907 5299 I 3908 5299 I 3909 5299 I 3910 5299 I 3911 5299 I 3912 5299 I 3913 5299 I 3914 5299 I 3915 5299 I 3916 5299 I 3917 5299 I 3918 5299 I 3919 5299 I 3920 5299 I 3921 5299 I 3922 5299 I 3923 5299 I 3924 5299 I 3925 5299 I 3926 5299 I 3927 5299 I 3928 5299 I 3929 5299 I 3930 5299 I 3931 5299 I 3932 5299 I 3933 5299 I 3934 5299 I 3935 5299 I 3936 5299 I 3937 5299 I 3938 5299 I : [ 1 0 0 1 150 150 ] concat K 
; ; : 3935 5296 134 4 rc N 3938 5299 M 3939 5299 I 3940 5299 I 3941 5299 I 3942 5299 I 3943 5299 I 3944 5299 I 3945 5299 I 3946 5299 I 3947 5299 I 3948 5299 I 3949 5299 I 3950 5299 I 3951 5299 I 3952 5299 I 3953 5299 I 3954 5299 I 3955 5299 I 3956 5299 I 3957 5299 I 3958 5299 I 3959 5299 I 3960 5299 I 3961 5299 I 3962 5299 I 3963 5299 I 3964 5299 I 3965 5299 I 3966 5299 I 3967 5299 I 3968 5299 I 3969 5299 I 3970 5299 I 3971 5299 I 3972 5299 I 3973 5299 I 3974 5299 I 3975 5299 I 3976 5299 I 3977 5299 I 3978 5299 I 3979 5299 I 3980 5299 I 3981 5299 I 3982 5299 I 3983 5299 I 3984 5299 I 3985 5299 I 3986 5299 I 3987 5299 I 3988 5299 I 3989 5299 I 3990 5299 I 3991 5299 I 3992 5299 I 3993 5299 I 3994 5299 I 3995 5299 I 3996 5299 I 3997 5299 I 3998 5299 I 3999 5299 I 4000 5299 I 4001 5299 I 4002 5299 I 4003 5299 I 4004 5299 I 4005 5299 I 4006 5299 I 4007 5299 I 4008 5299 I 4009 5299 I 4010 5299 I 4011 5299 I 4012 5299 I 4013 5299 I 4014 5299 I 4015 5299 I 4016 5299 I 4017 5299 I 4018 5299 I 4019 5299 I 4020 5299 I 4021 5299 I 4022 5299 I 4023 5299 I 4024 5299 I 4025 5299 I 4026 5299 I 4027 5299 I 4028 5299 I 4029 5299 I 4030 5299 I 4031 5299 I 4032 5299 I 4033 5299 I 4034 5299 I 4035 5299 I 4036 5299 I 4037 5299 I 4038 5299 I 4039 5299 I 4040 5299 I 4041 5299 I 4042 5299 I 4043 5299 I 4044 5299 I 4045 5299 I 4046 5299 I 4047 5299 I 4048 5299 I 4049 5299 I 4050 5299 I 4051 5299 I 4052 5299 I 4053 5299 I 4054 5299 I 4055 5299 I 4056 5299 I 4057 5299 I 4058 5299 I 4059 5299 I 4060 5299 I 4061 5299 I 4062 5299 I 4063 5299 I 4064 5299 I 4065 5299 I : [ 1 0 0 1 150 150 ] concat K 
; ; : 4062 5296 134 4 rc N 4065 5299 M 4066 5299 I 4067 5299 I 4068 5299 I 4069 5299 I 4070 5299 I 4071 5299 I 4072 5299 I 4073 5299 I 4074 5299 I 4075 5299 I 4076 5299 I 4077 5299 I 4078 5299 I 4079 5299 I 4080 5299 I 4081 5299 I 4082 5299 I 4083 5299 I 4084 5299 I 4085 5299 I 4086 5299 I 4087 5299 I 4088 5299 I 4089 5299 I 4090 5299 I 4091 5299 I 4092 5299 I 4093 5299 I 4094 5299 I 4095 5299 I 4096 5299 I 4097 5299 I 4098 5299 I 4099 5299 I 4100 5299 I 4101 5299 I 4102 5299 I 4103 5299 I 4104 5299 I 4105 5299 I 4106 5299 I 4107 5299 I 4108 5299 I 4109 5299 I 4110 5299 I 4111 5299 I 4112 5299 I 4113 5299 I 4114 5299 I 4115 5299 I 4116 5299 I 4117 5299 I 4118 5299 I 4119 5299 I 4120 5299 I 4121 5299 I 4122 5299 I 4123 5299 I 4124 5299 I 4125 5299 I 4126 5299 I 4127 5299 I 4128 5299 I 4129 5299 I 4130 5299 I 4131 5299 I 4132 5299 I 4133 5299 I 4134 5299 I 4135 5299 I 4136 5299 I 4137 5299 I 4138 5299 I 4139 5299 I 4140 5299 I 4141 5299 I 4142 5299 I 4143 5299 I 4144 5299 I 4145 5299 I 4146 5299 I 4147 5299 I 4148 5299 I 4149 5299 I 4150 5299 I 4151 5299 I 4152 5299 I 4153 5299 I 4154 5299 I 4155 5299 I 4156 5299 I 4157 5299 I 4158 5299 I 4159 5299 I 4160 5299 I 4161 5299 I 4162 5299 I 4163 5299 I 4164 5299 I 4165 5299 I 4166 5299 I 4167 5299 I 4168 5299 I 4169 5299 I 4170 5299 I 4171 5299 I 4172 5299 I 4173 5299 I 4174 5299 I 4175 5299 I 4176 5299 I 4177 5299 I 4178 5299 I 4179 5299 I 4180 5299 I 4181 5299 I 4182 5299 I 4183 5299 I 4184 5299 I 4185 5299 I 4186 5299 I 4187 5299 I 4188 5299 I 4189 5299 I 4190 5299 I 4191 5299 I 4192 5299 I : [ 1 0 0 1 150 150 ] concat K 
; ; : 4189 5296 134 4 rc N 4192 5299 M 4193 5299 I 4194 5299 I 4195 5299 I 4196 5299 I 4197 5299 I 4198 5299 I 4199 5299 I 4200 5299 I 4201 5299 I 4202 5299 I 4203 5299 I 4204 5299 I 4205 5299 I 4206 5299 I 4207 5299 I 4208 5299 I 4209 5299 I 4210 5299 I 4211 5299 I 4212 5299 I 4213 5299 I 4214 5299 I 4215 5299 I 4216 5299 I 4217 5299 I 4218 5299 I 4219 5299 I 4220 5299 I 4221 5299 I 4222 5299 I 4223 5299 I 4224 5299 I 4225 5299 I 4226 5299 I 4227 5299 I 4228 5299 I 4229 5299 I 4230 5299 I 4231 5299 I 4232 5299 I 4233 5299 I 4234 5299 I 4235 5299 I 4236 5299 I 4237 5299 I 4238 5299 I 4239 5299 I 4240 5299 I 4241 5299 I 4242 5299 I 4243 5299 I 4244 5299 I 4245 5299 I 4246 5299 I 4247 5299 I 4248 5299 I 4249 5299 I 4250 5299 I 4251 5299 I 4252 5299 I 4253 5299 I 4254 5299 I 4255 5299 I 4256 5299 I 4257 5299 I 4258 5299 I 4259 5299 I 4260 5299 I 4261 5299 I 4262 5299 I 4263 5299 I 4264 5299 I 4265 5299 I 4266 5299 I 4267 5299 I 4268 5299 I 4269 5299 I 4270 5299 I 4271 5299 I 4272 5299 I 4273 5299 I 4274 5299 I 4275 5299 I 4276 5299 I 4277 5299 I 4278 5299 I 4279 5299 I 4280 5299 I 4281 5299 I 4282 5299 I 4283 5299 I 4284 5299 I 4285 5299 I 4286 5299 I 4287 5299 I 4288 5299 I 4289 5299 I 4290 5299 I 4291 5299 I 4292 5299 I 4293 5299 I 4294 5299 I 4295 5299 I 4296 5299 I 4297 5299 I 4298 5299 I 4299 5299 I 4300 5299 I 4301 5299 I 4302 5299 I 4303 5299 I 4304 5299 I 4305 5299 I 4306 5299 I 4307 5299 I 4308 5299 I 4309 5299 I 4310 5299 I 4311 5299 I 4312 5299 I 4313 5299 I 4314 5299 I 4315 5299 I 4316 5299 I 4317 5299 I 4318 5299 I 4319 5299 I : [ 1 0 0 1 150 150 ] concat K 
; ; : 4316 5296 134 4 rc N 4319 5299 M 4320 5299 I 4321 5299 I 4322 5299 I 4323 5299 I 4324 5299 I 4325 5299 I 4326 5299 I 4327 5299 I 4328 5299 I 4329 5299 I 4330 5299 I 4331 5299 I 4332 5299 I 4333 5299 I 4334 5299 I 4335 5299 I 4336 5299 I 4337 5299 I 4338 5299 I 4339 5299 I 4340 5299 I 4341 5299 I 4342 5299 I 4343 5299 I 4344 5299 I 4345 5299 I 4346 5299 I 4347 5299 I 4348 5299 I 4349 5299 I 4350 5299 I 4351 5299 I 4352 5299 I 4353 5299 I 4354 5299 I 4355 5299 I 4356 5299 I 4357 5299 I 4358 5299 I 4359 5299 I 4360 5299 I 4361 5299 I 4362 5299 I 4363 5299 I 4364 5299 I 4365 5299 I 4366 5299 I 4367 5299 I 4368 5299 I 4369 5299 I 4370 5299 I 4371 5299 I 4372 5299 I 4373 5299 I 4374 5299 I 4375 5299 I 4376 5299 I 4377 5299 I 4378 5299 I 4379 5299 I 4380 5299 I 4381 5299 I 4382 5299 I 4383 5299 I 4384 5299 I 4385 5299 I 4386 5299 I 4387 5299 I 4388 5299 I 4389 5299 I 4390 5299 I 4391 5299 I 4392 5299 I 4393 5299 I 4394 5299 I 4395 5299 I 4396 5299 I 4397 5299 I 4398 5299 I 4399 5299 I 4400 5299 I 4401 5299 I 4402 5299 I 4403 5299 I 4404 5299 I 4405 5299 I 4406 5299 I 4407 5299 I 4408 5299 I 4409 5299 I 4410 5299 I 4411 5299 I 4412 5299 I 4413 5299 I 4414 5299 I 4415 5299 I 4416 5299 I 4417 5299 I 4418 5299 I 4419 5299 I 4420 5299 I 4421 5299 I 4422 5299 I 4423 5299 I 4424 5299 I 4425 5299 I 4426 5299 I 4427 5299 I 4428 5299 I 4429 5299 I 4430 5299 I 4431 5299 I 4432 5299 I 4433 5299 I 4434 5299 I 4435 5299 I 4436 5299 I 4437 5299 I 4438 5299 I 4439 5299 I 4440 5299 I 4441 5299 I 4442 5299 I 4443 5299 I 4444 5299 I 4445 5299 I 4446 5299 I : [ 1 0 0 1 150 150 ] concat K 
; ; : 4443 5296 15 4 rc N 4446 5299 M 4447 5299 I 4448 5299 I 4449 5299 I 4450 5299 I 4451 5299 I 4452 5299 I 4453 5299 I 4454 5299 I 4455 5299 I 4456 5299 I 4457 5299 I : [ 1 0 0 1 150 150 ] concat K 
; ; 0 0 0 1 scol T32RsrcBegin

8
/g341 [38 0 1 -44 37 4 ] 
/g341 [36 48 true [1 0 0 1 -1 44 ]  0 0]
[<ffffffffe0
ffffffffe0
ffffffffe0
fc00f003e0
f000f001e0
f000f000e0
e000f00060
e000f00060
c000f00060
c000f00030
c000f00030
8000f00030
0000f00000
0000f00000
0000f00000
0000f00000
0000f00000
0000f00000
0000f00000
0000f00000
0000f00000
0000f00000
0000f00000
0000f00000
0000f00000
0000f00000
0000f00000
0000f00000
0000f00000
0000f00000
0000f00000
0000f00000
0000f00000
0000f00000
0000f00000
0000f00000
0000f00000
0000f00000
0000f00000
0000f00000
0000f00000
0000f00000
0001f00000
0001f00000
0001f80000
0007fc0000
003fff8000
007fffe000
>
 ]
/TT20b00 AddT3T32Char

9
/g362 [17 0 1 -45 16 4 ] 
/g362 [15 49 true [1 0 0 1 -1 45 ]  0 0]
[<0300
0780
0f80
0f80
0780
0780
0000
0000
0000
0000
0000
0000
0000
0000
0000
0000
0000
0180
0f80
3f80
ff80
0f80
0780
0780
0380
0380
0380
0380
0380
0380
0380
0380
0380
0380
0380
0380
0380
0380
0380
0380
0380
0380
0380
0780
07c0
07c0
0fe0
3ff8
fffe
>
 ]
/TT20b00 AddT3T32Char

10
/g366 [48 0 1 -29 48 4 ] 
/g366 [47 33 true [1 0 0 1 -1 29 ]  0 0]
[<0100f8007c00
0703fc03fe00
3f07fe07ff00
ff1fff0fff80
1f3c1f1c1f80
0f700f300780
0fc007e007c0
078007c003c0
0700078003c0
0700038003c0
0700038003c0
0700038001c0
0700038001c0
0700038001c0
0700038001c0
0700038001c0
0700038001c0
0700038001c0
0700038001c0
0700038001c0
0700038001c0
0700038001c0
0700038001c0
0700038001c0
0700038001c0
0700038001c0
0700038001c0
0700038003c0
0700038003c0
0f8007c003e0
0f8007c007e0
3fe01ff00ff8
fff87ffc3ffe
>
 ]
/TT20b00 AddT3T32Char

11
/g358 [28 0 1 -29 26 4 ] 
/g358 [25 33 true [1 0 0 1 -1 29 ]  0 0]
[<003f8000
00ffe000
0381f000
0700f800
0c007c00
0c003c00
18001e00
38001e00
30001e00
30001f00
7fffff00
7fffff00
60000000
60000000
60000000
f0000000
f0000000
f0000000
f0000000
f0000000
70000000
78000000
78000080
78000180
7c000100
3c000300
3e000600
1f000c00
1f801c00
0fe0f800
07fff000
03ffe000
00ff8000
>
 ]
/TT20b00 AddT3T32Char

12
/g289 [17 0 0 0 1 1 ] 
/g289 [1 1 true [1 0 0 1 0 0 ]  0 0]
[<00
>
 ]
/TT20b00 AddT3T32Char

13
/g368 [31 0 2 -29 29 4 ] 
/g368 [27 33 true [1 0 0 1 -2 29 ]  0 0]
[<007f8000
01fff000
0780f800
0f007c00
0c001e00
1c001f00
38000f80
38000780
700007c0
700003c0
f00003c0
f00003e0
f00001e0
f00001e0
f00001e0
f00001e0
f00001e0
f00001e0
f00001e0
f00001e0
f00001e0
f80001c0
f80001c0
780001c0
7c000380
3c000380
3e000300
1e000700
1f000e00
0f801c00
07e03800
01fff000
00ffc000
>
 ]
/TT20b00 AddT3T32Char

14
/g359 [21 0 1 -45 24 4 ] 
/g359 [23 49 true [1 0 0 1 -1 45 ]  0 0]
[<0007f0
001ff8
0030fc
00607e
00c03e
01c01c
01c000
01c000
01c000
03c000
03c000
03c000
03c000
03c000
03c000
03c000
03c000
ffffc0
ffffc0
03c000
03c000
03c000
03c000
03c000
03c000
03c000
03c000
03c000
03c000
03c000
03c000
03c000
03c000
03c000
03c000
03c000
03c000
03c000
03c000
03c000
03c000
03c000
03c000
03c000
03c000
07c000
07e000
1ff800
ffff00
>
 ]
/TT20b00 AddT3T32Char

15
/g372 [24 0 3 -29 21 4 ] 
/g372 [18 33 true [1 0 0 1 -3 29 ]  0 0]
[<07f100
1e1f00
380700
700700
600300
600300
e00100
e00100
e00100
f00100
f00000
780000
7e0000
3f0000
1fc000
0fe000
03f800
01fc00
00ff00
003f80
001f80
0007c0
8003c0
8003c0
c001c0
c001c0
c001c0
c001c0
e001c0
f00380
f80300
fe0e00
87fc00
>
 ]
/TT20b00 AddT3T32Char

16
/g373 [17 0 1 -38 17 4 ] 
/g373 [16 42 true [1 0 0 1 -1 38 ]  0 0]
[<0100
0300
0300
0300
0700
0700
0f00
1f00
3f00
7f00
fffe
0f00
0f00
0f00
0f00
0f00
0f00
0f00
0f00
0f00
0f00
0f00
0f00
0f00
0f00
0f00
0f00
0f00
0f00
0f00
0f00
0f00
0f00
0f00
0f00
0f00
0f00
0f01
0783
07fe
07fc
03f0
>
 ]
/TT20b00 AddT3T32Char

17
/g315 [17 0 5 -29 12 5 ] 
/g315 [7 34 true [1 0 0 1 -5 29 ]  0 0]
[<38
7c
fe
fe
fe
fc
78
00
00
00
00
00
00
00
00
00
00
00
00
00
00
00
00
00
00
00
38
7c
fe
fe
fe
fe
7c
10
>
 ]
/TT20b00 AddT3T32Char
T32RsrcEnd
144 6852 M <08090A0B0C0D0E0E0F0B10110C010C0C0C0C0C0C0C0C0C0C0C0C0C0C0C>S 
LH
%%PageTrailer

%%Trailer
%%DocumentNeededResources: 
%%DocumentSuppliedResources: 
%%+ procset Pscript_WinNT_VMErrorHandler 5.0 0
%%+ procset Pscript_FatalError 5.0 0
%%+ procset Pscript_Win_Basic 5.0 0
%%+ procset Pscript_Win_Utils_L1 5.0 0
%%+ procset Pscript_Win_GdiObject 5.0 0
%%+ procset Pscript_Win_GdiObject_L1 5.0 0
%%+ procset Pscript_T3Hdr 5.0 0
%%+ procset Pscript_Text 5.0 0
Pscript_WinNT_Incr dup /terminate get exec
%%EOF
