%!PS-Adobe-3.0 EPSF-3.0
%%Creator: MATLAB, The Mathworks, Inc. Version 7.10.0.499 (R2010a). Operating System: Microsoft Windows 7.
%%Title: C:\workspace\homework\control\hw1\report\prob5.eps
%%CreationDate: 10/24/2011  02:44:35
%%DocumentNeededFonts: Helvetica
%%DocumentProcessColors: Cyan Magenta Yellow Black
%%LanguageLevel: 2
%%Pages: 1
%%BoundingBox:    87   262   507   578
%%EndComments

%%BeginProlog
% MathWorks dictionary
/MathWorks 160 dict begin
% definition operators
/bdef {bind def} bind def
/ldef {load def} bind def
/xdef {exch def} bdef
/xstore {exch store} bdef
% operator abbreviations
/c  /clip ldef
/cc /concat ldef
/cp /closepath ldef
/gr /grestore ldef
/gs /gsave ldef
/mt /moveto ldef
/np /newpath ldef
/cm /currentmatrix ldef
/sm /setmatrix ldef
/rm /rmoveto ldef
/rl /rlineto ldef
/s {show newpath} bdef
/sc {setcmykcolor} bdef
/sr /setrgbcolor ldef
/sg /setgray ldef
/w /setlinewidth ldef
/j /setlinejoin ldef
/cap /setlinecap ldef
/rc {rectclip} bdef
/rf {rectfill} bdef
% page state control
/pgsv () def
/bpage {/pgsv save def} bdef
/epage {pgsv restore} bdef
/bplot /gsave ldef
/eplot {stroke grestore} bdef
% orientation switch
/portraitMode 0 def /landscapeMode 1 def /rotateMode 2 def
% coordinate system mappings
/dpi2point 0 def
% font control
/FontSize 0 def
/FMS {/FontSize xstore findfont [FontSize 0 0 FontSize neg 0 0]
  makefont setfont} bdef
/ISOLatin1Encoding where {pop /WindowsLatin1Encoding 256 array bdef
ISOLatin1Encoding WindowsLatin1Encoding copy pop
/.notdef/.notdef/quotesinglbase/florin/quotedblbase/ellipsis/dagger
/daggerdbl/circumflex/perthousand/Scaron/guilsinglleft/OE/.notdef/.notdef
/.notdef/.notdef/quoteleft/quoteright/quotedblleft/quotedblright/bullet
/endash/emdash/tilde/trademark/scaron/guilsinglright/oe/.notdef/.notdef
/Ydieresis WindowsLatin1Encoding 128 32 getinterval astore pop}
{/WindowsLatin1Encoding StandardEncoding bdef} ifelse
/reencode {exch dup where {pop load} {pop StandardEncoding} ifelse
  exch dup 3 1 roll findfont dup length dict begin
  { 1 index /FID ne {def}{pop pop} ifelse } forall
  /Encoding exch def currentdict end definefont pop} bdef
/isroman {findfont /CharStrings get /Agrave known} bdef
/FMSR {3 1 roll 1 index dup isroman {reencode} {pop pop} ifelse
  exch FMS} bdef
/csm {1 dpi2point div -1 dpi2point div scale neg translate
 dup landscapeMode eq {pop -90 rotate}
  {rotateMode eq {90 rotate} if} ifelse} bdef
% line types: solid, dotted, dashed, dotdash
/SO { [] 0 setdash } bdef
/DO { [.5 dpi2point mul 4 dpi2point mul] 0 setdash } bdef
/DA { [6 dpi2point mul] 0 setdash } bdef
/DD { [.5 dpi2point mul 4 dpi2point mul 6 dpi2point mul 4
  dpi2point mul] 0 setdash } bdef
% macros for lines and objects
/L {lineto stroke} bdef
/MP {3 1 roll moveto 1 sub {rlineto} repeat} bdef
/AP {{rlineto} repeat} bdef
/PDlw -1 def
/W {/PDlw currentlinewidth def setlinewidth} def
/PP {closepath eofill} bdef
/DP {closepath stroke} bdef
/MR {4 -2 roll moveto dup  0 exch rlineto exch 0 rlineto
  neg 0 exch rlineto closepath} bdef
/FR {MR stroke} bdef
/PR {MR fill} bdef
/L1i {{currentfile picstr readhexstring pop} image} bdef
/tMatrix matrix def
/MakeOval {newpath tMatrix currentmatrix pop translate scale
0 0 1 0 360 arc tMatrix setmatrix} bdef
/FO {MakeOval stroke} bdef
/PO {MakeOval fill} bdef
/PD {currentlinewidth 2 div 0 360 arc fill
   PDlw -1 eq not {PDlw w /PDlw -1 def} if} def
/FA {newpath tMatrix currentmatrix pop translate scale
  0 0 1 5 -2 roll arc tMatrix setmatrix stroke} bdef
/PA {newpath tMatrix currentmatrix pop	translate 0 0 moveto scale
  0 0 1 5 -2 roll arc closepath tMatrix setmatrix fill} bdef
/FAn {newpath tMatrix currentmatrix pop translate scale
  0 0 1 5 -2 roll arcn tMatrix setmatrix stroke} bdef
/PAn {newpath tMatrix currentmatrix pop translate 0 0 moveto scale
  0 0 1 5 -2 roll arcn closepath tMatrix setmatrix fill} bdef
/vradius 0 def /hradius 0 def /lry 0 def
/lrx 0 def /uly 0 def /ulx 0 def /rad 0 def
/MRR {/vradius xdef /hradius xdef /lry xdef /lrx xdef /uly xdef
  /ulx xdef newpath tMatrix currentmatrix pop ulx hradius add uly
  vradius add translate hradius vradius scale 0 0 1 180 270 arc 
  tMatrix setmatrix lrx hradius sub uly vradius add translate
  hradius vradius scale 0 0 1 270 360 arc tMatrix setmatrix
  lrx hradius sub lry vradius sub translate hradius vradius scale
  0 0 1 0 90 arc tMatrix setmatrix ulx hradius add lry vradius sub
  translate hradius vradius scale 0 0 1 90 180 arc tMatrix setmatrix
  closepath} bdef
/FRR {MRR stroke } bdef
/PRR {MRR fill } bdef
/MlrRR {/lry xdef /lrx xdef /uly xdef /ulx xdef /rad lry uly sub 2 div def
  newpath tMatrix currentmatrix pop ulx rad add uly rad add translate
  rad rad scale 0 0 1 90 270 arc tMatrix setmatrix lrx rad sub lry rad
  sub translate rad rad scale 0 0 1 270 90 arc tMatrix setmatrix
  closepath} bdef
/FlrRR {MlrRR stroke } bdef
/PlrRR {MlrRR fill } bdef
/MtbRR {/lry xdef /lrx xdef /uly xdef /ulx xdef /rad lrx ulx sub 2 div def
  newpath tMatrix currentmatrix pop ulx rad add uly rad add translate
  rad rad scale 0 0 1 180 360 arc tMatrix setmatrix lrx rad sub lry rad
  sub translate rad rad scale 0 0 1 0 180 arc tMatrix setmatrix
  closepath} bdef
/FtbRR {MtbRR stroke } bdef
/PtbRR {MtbRR fill } bdef
/stri 6 array def /dtri 6 array def
/smat 6 array def /dmat 6 array def
/tmat1 6 array def /tmat2 6 array def /dif 3 array def
/asub {/ind2 exch def /ind1 exch def dup dup
  ind1 get exch ind2 get sub exch } bdef
/tri_to_matrix {
  2 0 asub 3 1 asub 4 0 asub 5 1 asub
  dup 0 get exch 1 get 7 -1 roll astore } bdef
/compute_transform {
  dmat dtri tri_to_matrix tmat1 invertmatrix 
  smat stri tri_to_matrix tmat2 concatmatrix } bdef
/ds {stri astore pop} bdef
/dt {dtri astore pop} bdef
/db {2 copy /cols xdef /rows xdef mul dup 3 mul string
  currentfile 
  3 index 0 eq {/ASCIIHexDecode filter}
  {/ASCII85Decode filter 3 index 2 eq {/RunLengthDecode filter} if }
  ifelse exch readstring pop
  dup 0 3 index getinterval /rbmap xdef
  dup 2 index dup getinterval /gbmap xdef
  1 index dup 2 mul exch getinterval /bbmap xdef pop pop}bdef
/it {gs np dtri aload pop moveto lineto lineto cp c
  cols rows 8 compute_transform 
  rbmap gbmap bbmap true 3 colorimage gr}bdef
/il {newpath moveto lineto stroke}bdef
currentdict end def
%%EndProlog

%%BeginSetup
MathWorks begin

0 cap

end
%%EndSetup

%%Page: 1 1
%%BeginPageSetup
%%PageBoundingBox:    87   262   507   578
MathWorks begin
bpage
%%EndPageSetup

%%BeginObject: obj1
bplot

/dpi2point 12 def
portraitMode 1044 6936 csm

    0     0  5045  3782 rc
87 dict begin %Colortable dictionary
/c0 { 0.000000 0.000000 0.000000 sr} bdef
/c1 { 1.000000 1.000000 1.000000 sr} bdef
/c2 { 0.900000 0.000000 0.000000 sr} bdef
/c3 { 0.000000 0.820000 0.000000 sr} bdef
/c4 { 0.000000 0.000000 0.800000 sr} bdef
/c5 { 0.910000 0.820000 0.320000 sr} bdef
/c6 { 1.000000 0.260000 0.820000 sr} bdef
/c7 { 0.000000 0.820000 0.820000 sr} bdef
c0
1 j
1 sg
   0    0 5046 3783 rf
6 w
0 1110 3802 0 0 -1110 764 1574 4 MP
PP
-3802 0 0 1110 3802 0 0 -1110 764 1574 5 MP stroke
4 w
DO
SO
6 w
0.4 sg
 764  464 mt 4566  464 L
 764 1574 mt 4566 1574 L
4566 1574 mt 4566  464 L
 764 1574 mt  764  464 L
 764 1574 mt 4566 1574 L
 764 1574 mt  764  464 L
 764 1574 mt  764 1535 L
 764  464 mt  764  502 L
%%IncludeResource: font Helvetica
/Helvetica /WindowsLatin1Encoding 96 FMSR

 738 1697 mt 
(0) s
1397 1574 mt 1397 1535 L
1397  464 mt 1397  502 L
1371 1697 mt 
(5) s
2031 1574 mt 2031 1535 L
2031  464 mt 2031  502 L
1978 1697 mt 
(10) s
2665 1574 mt 2665 1535 L
2665  464 mt 2665  502 L
2612 1697 mt 
(15) s
3298 1574 mt 3298 1535 L
3298  464 mt 3298  502 L
3245 1697 mt 
(20) s
3932 1574 mt 3932 1535 L
3932  464 mt 3932  502 L
3879 1697 mt 
(25) s
4566 1574 mt 4566 1535 L
4566  464 mt 4566  502 L
4513 1697 mt 
(30) s
 764 1574 mt  802 1574 L
4566 1574 mt 4527 1574 L
 676 1609 mt 
(0) s
 764 1296 mt  802 1296 L
4566 1296 mt 4527 1296 L
 596 1331 mt 
(0.2) s
 764 1019 mt  802 1019 L
4566 1019 mt 4527 1019 L
 596 1054 mt 
(0.4) s
 764  741 mt  802  741 L
4566  741 mt 4527  741 L
 596  776 mt 
(0.6) s
 764  464 mt  802  464 L
4566  464 mt 4527  464 L
 596  499 mt 
(0.8) s
 764  464 mt 4566  464 L
 764 1574 mt 4566 1574 L
4566 1574 mt 4566  464 L
 764 1574 mt  764  464 L
gs 764 464 3803 1111 rc
/c8 { 0.000000 0.000000 1.000000 sr} bdef
c8
7 0 6 0 7 0 6 0 7 0 6 0 7 0 6 0 
7 0 6 0 7 0 6 0 6 0 7 0 6 0 7 0 
6 0 7 0 6 0 7 0 6 0 7 0 6 0 6 0 
7 0 6 0 7 0 6 0 7 0 6 0 7 0 6 0 
7 0 6 0 6 0 7 0 6 0 7 0 6 0 7 0 
6 0 7 0 6 0 7 0 6 0 6 0 7 0 6 0 
7 0 6 0 7 0 6 0 7 0 6 0 7 0 6 0 
6 0 7 0 6 0 7 0 6 0 7 0 6 0 7 0 
6 0 7 0 6 0 6 0 7 0 6 0 7 0 6 0 
7 0 6 0 7 0 6 0 7 0 6 0 6 0 7 0 
6 0 7 0 6 0 7 0 6 0 7 0 6 0 7 0 
6 0 6 0 7 0 6 0 7 0 6 0 7 0 6 0 
7 0 6 0 7 0 6 0 6 0 7 0 6 0 7 0 
6 0 7 0 6 0 7 0 6 0 7 0 6 0 6 0 
7 0 6 0 7 0 6 0 7 0 6 0 7 0 6 0 
7 0 6 0 6 0 7 0 6 0 7 0 6 0 7 0 
6 0 7 0 6 0 7 0 6 0 6 0 7 0 6 0 
7 0 6 0 7 0 6 0 7 0 6 0 7 0 6 0 
6 0 7 0 6 0 7 0 6 0 7 0 6 0 7 0 
6 0 7 0 6 0 6 0 7 0 6 0 7 0 6 0 
7 0 6 0 7 0 6 0 7 0 6 0 6 0 7 0 
6 0 7 0 6 0 7 0 6 0 7 0 6 0 7 0 
6 0 6 0 7 0 6 0 7 0 6 0 7 0 6 0 
7 0 6 0 7 0 6 0 6 0 7 0 6 0 7 0 
6 0 7 0 6 0 7 0 6 0 7 0 6 0 7 0 
6 0 6 0 7 0 6 0 7 0 6 0 7 0 6 0 
7 0 6 0 7 0 6 0 6 0 7 0 6 0 7 0 
6 0 7 0 6 0 7 0 6 0 7 0 6 0 6 0 
7 0 6 0 7 0 6 0 7 0 6 0 7 0 6 0 
7 0 6 0 6 0 7 0 6 0 7 0 6 0 7 0 
6 0 7 0 6 0 7 0 6 0 6 0 7 0 6 0 
7 0 6 0 7 0 6 0 7 0 6 0 7 0 6 0 
6 0 7 0 6 0 7 0 6 0 7 0 6 0 7 0 
6 0 7 0 6 0 6 0 7 0 6 0 7 0 6 0 
7 0 6 0 7 0 6 0 7 0 6 0 6 0 7 0 
6 0 7 0 6 0 7 0 6 0 7 0 6 0 7 0 
6 0 6 0 7 0 6 0 7 0 6 0 7 0 6 0 
7 0 6 0 7 0 2635 533 300 MP stroke
6 0 6 0 7 0 6 0 7 0 6 0 7 0 6 0 
7 0 6 0 7 0 6 0 6 0 7 0 6 0 7 0 
6 0 7 0 6 0 7 0 6 0 7 0 6 0 6 0 
7 0 6 0 7 0 6 0 7 0 6 0 7 0 6 0 
7 0 6 0 6 0 7 0 6 0 7 0 6 0 7 0 
6 0 7 0 6 0 7 0 6 0 6 0 7 0 6 0 
7 0 6 0 7 0 6 0 7 0 6 0 7 0 6 0 
6 0 7 0 6 0 7 0 6 0 7 0 6 0 7 0 
6 0 7 0 6 0 6 0 7 0 6 0 7 0 6 0 
7 0 6 0 7 0 6 0 7 0 6 0 6 0 7 0 
6 0 7 0 6 0 7 0 6 0 7 0 6 0 7 0 
6 0 6 0 7 0 6 0 7 0 6 0 7 0 6 0 
7 0 6 0 7 0 6 0 7 0 6 0 6 0 7 0 
6 0 7 0 6 0 7 0 6 0 7 0 6 0 7 0 
6 0 6 0 7 0 6 0 7 0 6 0 7 0 6 0 
7 0 6 0 7 0 6 0 6 0 7 0 6 0 7 0 
6 0 7 0 6 0 7 0 6 0 7 0 6 0 6 0 
7 0 6 0 7 -1 6 0 7 0 6 0 7 0 6 0 
7 0 6 0 6 0 7 0 6 0 7 0 6 0 7 0 
6 0 7 0 6 0 7 0 6 0 6 -1 7 0 6 0 
7 0 6 0 7 0 6 0 7 0 6 0 7 -1 6 0 
6 0 7 0 6 0 7 0 6 0 7 -1 6 0 7 0 
6 0 7 0 6 -1 6 0 7 0 6 -1 7 0 6 0 
7 0 6 -1 7 0 6 -1 7 0 6 0 6 -1 7 0 
6 -1 7 0 6 -1 7 0 6 -1 7 -1 6 0 7 -1 
6 -1 6 -1 7 0 6 -1 7 -1 6 -1 7 -1 6 -1 
7 -1 6 -1 7 -2 6 -1 6 -1 7 -2 6 -1 7 -2 
6 -2 7 -1 6 -2 7 -2 6 -2 7 -2 6 -3 6 -2 
7 -3 6 -2 7 -3 6 -3 7 -3 6 -3 7 -4 6 -3 
7 -4 6 -4 6 -4 7 -5 6 -4 7 -5 6 -5 7 -6 
6 -5 7 -6 6 -6 7 -7 6 -7 6 -7 7 -8 6 -8 
7 -9 6 -9 7 -9 6 -10 7 -10 6 -11 7 -12 6 -12 
6 -13 7 -13 6 -14 7 -15 6 -16 7 -16 6 -17 7 -18 
6 -19 7 -20 6 -21 6 -21 7 -23 6 -24 7 -25 6 -26 
7 -27 6 -28 7 -29 6 -30 7 -31 6 -32 6 -32 7 -33 
6 -34 7 -33 6 -33 7 -32 6 -30 7 -28 6 -25 7 -19 
6 -14 6 -5 764 1574 291 MP stroke
DO
0 sg
3677 0 126 0 764 533 3 MP stroke
SO
/c9 { 0.000000 0.650000 0.000000 sr} bdef
c9
2 0 2 0 1 0 2 0 2 0 1 0 2 0 2 0 
1 0 2 0 2 0 1 0 2 0 2 0 1 0 2 0 
2 0 1 0 2 0 2 0 1 0 2 0 2 0 1 0 
2 0 2 0 1 0 2 0 2 0 1 0 2 0 2 0 
1 0 2 0 2 0 1 0 2 0 2 0 1 0 2 0 
2 0 1 0 2 0 2 0 1 0 2 0 2 0 1 0 
2 0 2 0 1 0 2 0 2 0 1 0 2 0 2 0 
1 0 2 0 2 0 1 0 2 0 2 0 1 0 2 0 
2 0 1 0 2 0 1 0 2 0 2 0 1 0 2 0 
2 0 1 0 2 0 2 0 1 0 2 0 2 0 1 0 
2 0 2 0 1 0 2 0 2 0 1 0 2 0 2 0 
1 0 2 0 2 0 1 0 2 0 2 0 1 0 2 0 
2 0 1 0 2 0 2 0 1 0 2 0 2 0 1 0 
2 0 2 0 1 0 2 0 2 0 1 0 2 0 2 0 
1 0 2 0 2 0 1 0 2 0 2 0 1 0 2 0 
2 0 1 0 2 0 2 0 1 0 2 0 2 0 1 0 
2 0 2 0 1 0 2 0 2 0 1 0 2 0 1 0 
2 0 2 0 1 0 2 0 2 0 1 0 2 0 2 0 
1 0 2 0 2 0 1 0 2 0 2 0 1 0 2 0 
2 0 1 0 2 0 2 0 1 0 2 0 2 0 1 0 
2 0 2 0 1 0 2 0 2 0 1 0 2 0 2 0 
1 0 2 0 2 0 1 0 2 0 2 0 1 0 2 0 
2 0 1 0 2 0 2 0 1 0 2 0 2 0 1 0 
2 0 2 0 1 0 2 0 2 0 1 0 2 0 2 0 
1 0 2 0 2 0 1 0 2 0 2 0 1 0 2 0 
2 0 1 0 2 0 1 0 2 0 2 0 1 0 2 0 
2 0 1 0 2 0 2 0 1 0 2 0 2 0 1 0 
2 0 2 0 1 0 2 0 2 0 1 0 2 0 2 0 
1 0 2 0 2 0 1 0 2 0 2 0 1 0 2 0 
2 0 1 0 2 0 2 0 1 0 2 0 2 0 1 0 
2 0 2 0 1 0 2 0 2 0 1 0 2 0 2 0 
1 0 2 0 2 0 1 0 2 0 2 0 1 0 2 0 
2 0 1 0 2 0 2 0 1 0 2 0 2 0 1 0 
2 0 2 0 1 0 2 0 2 0 1 0 2 0 1 0 
2 0 2 0 1 0 2 0 2 0 1 0 2 0 2 0 
1 0 2 0 2 0 1 0 2 0 2 0 1 0 2 0 
2 0 1 0 2 0 2 0 1 0 2 0 2 0 1 0 
2 0 2 0 1 0 4069 1573 300 MP stroke
2 0 2 0 1 0 2 0 2 0 1 0 2 0 2 0 
1 0 2 0 2 0 1 0 2 0 2 0 1 0 2 0 
2 0 1 0 2 0 2 0 1 0 2 0 2 0 1 0 
2 0 2 0 1 0 2 0 2 0 1 0 2 0 2 0 
1 0 2 0 2 0 1 0 2 0 1 0 2 0 2 0 
1 0 2 0 2 0 1 0 2 0 2 0 1 0 2 0 
2 0 1 0 2 0 2 0 1 0 2 0 2 0 1 0 
2 0 2 0 1 0 2 0 2 0 1 0 2 0 2 0 
1 0 2 0 2 0 1 0 2 0 2 0 1 0 2 0 
2 0 1 0 2 0 2 0 1 0 2 0 2 0 1 0 
2 0 2 0 1 0 2 0 2 0 1 0 2 0 2 0 
1 0 2 0 2 0 1 0 2 0 2 0 1 0 2 0 
2 0 1 0 2 0 2 0 1 0 2 0 2 0 1 0 
2 0 1 0 2 0 2 0 1 0 2 0 2 0 1 0 
2 0 2 0 1 0 2 0 2 0 1 0 2 0 2 0 
1 0 2 0 2 0 1 0 2 0 2 0 1 0 2 0 
2 0 1 0 2 0 2 0 1 0 2 0 2 0 1 0 
2 0 2 0 1 0 2 0 2 0 1 0 2 0 2 0 
1 0 2 0 2 0 1 0 2 0 2 0 1 0 2 0 
2 0 1 0 2 0 2 0 1 0 2 0 2 0 1 0 
2 0 2 0 1 0 2 0 2 0 1 0 2 0 2 0 
1 0 2 0 2 0 1 0 2 0 1 0 2 0 2 0 
1 0 2 0 2 0 1 0 2 0 2 0 1 0 2 0 
2 0 1 0 2 0 2 0 1 0 2 0 2 0 1 0 
2 0 2 0 1 0 2 0 2 0 1 0 2 0 2 0 
1 0 2 0 2 0 1 0 2 0 2 0 1 0 2 0 
2 0 1 0 2 0 2 0 1 0 2 0 2 0 1 0 
2 0 2 0 1 0 2 0 2 0 1 0 2 0 2 0 
1 0 2 0 2 0 1 0 2 0 2 0 1 0 2 0 
2 0 1 0 2 0 2 0 1 0 2 0 2 0 1 0 
2 0 1 0 2 0 2 0 1 0 2 0 2 0 1 0 
2 0 2 0 1 0 2 0 2 0 1 0 2 0 2 0 
1 0 2 0 2 0 1 0 2 0 2 0 1 0 2 0 
2 0 1 0 2 0 2 0 1 0 2 0 2 0 1 0 
2 0 2 0 1 0 2 0 2 0 1 0 2 0 2 0 
1 0 2 0 2 0 1 0 2 0 2 0 1 0 2 0 
2 0 1 0 2 0 2 0 1 0 2 0 2 0 1 0 
2 0 2 0 1 0 3572 1573 300 MP stroke
2 0 2 0 1 0 2 0 2 0 1 0 2 0 1 0 
2 0 2 0 1 0 2 0 2 0 1 0 2 0 2 0 
1 0 2 0 2 0 1 0 2 0 2 0 1 0 2 0 
2 0 1 0 2 0 2 0 1 0 2 0 2 0 1 0 
2 0 2 0 1 0 2 0 2 0 1 0 2 0 2 0 
1 0 2 0 2 0 1 0 2 0 2 0 1 0 2 0 
2 0 1 0 2 0 2 0 1 0 2 0 2 0 1 0 
2 0 2 0 1 0 2 0 2 0 1 0 2 0 2 0 
1 0 2 0 2 0 1 0 2 0 2 0 1 0 2 0 
2 0 1 0 2 0 1 0 2 0 2 0 1 0 2 0 
2 0 1 0 2 0 2 0 1 0 2 0 2 0 1 0 
2 0 2 0 1 0 2 0 2 0 1 0 2 0 2 0 
1 0 2 0 2 0 1 0 2 0 2 0 1 0 2 0 
2 0 1 0 2 0 2 0 1 0 2 0 2 0 1 0 
2 0 2 0 1 0 2 0 2 0 1 0 2 0 2 0 
1 0 2 0 2 0 1 0 2 0 2 0 1 0 2 0 
2 0 1 0 2 0 2 0 1 0 2 0 2 0 1 0 
2 0 2 0 1 0 2 0 2 0 1 0 2 0 1 0 
2 0 2 0 1 0 2 0 2 0 1 0 2 0 2 0 
1 0 2 0 2 0 1 0 2 0 2 0 1 0 2 0 
2 0 1 0 2 0 2 0 1 0 2 0 2 0 1 0 
2 0 2 0 1 0 2 0 2 0 1 0 2 0 2 0 
1 0 2 0 2 0 1 0 2 0 2 0 1 0 2 0 
2 0 1 0 2 0 2 0 1 0 2 0 2 0 1 0 
2 0 2 0 1 0 2 0 2 0 1 0 2 0 2 0 
1 0 2 0 2 0 1 0 2 0 2 0 1 0 2 0 
2 0 1 0 2 0 1 0 2 0 2 0 1 0 2 0 
2 0 1 0 2 0 2 0 1 0 2 0 2 0 1 0 
2 0 2 0 1 0 2 0 2 0 1 0 2 0 2 0 
1 0 2 0 2 0 1 0 2 0 2 0 1 0 2 0 
2 0 1 0 2 0 2 0 1 0 2 0 2 0 1 0 
2 0 2 0 1 0 2 0 2 0 1 0 2 0 2 0 
1 0 2 0 2 0 1 0 2 0 2 0 1 0 2 0 
2 0 1 0 2 0 2 0 1 0 2 0 2 0 1 0 
2 0 2 0 1 0 2 0 1 0 2 0 2 0 1 0 
2 0 2 0 1 0 2 0 2 0 1 0 2 0 2 0 
1 0 2 0 2 0 1 0 2 0 2 0 1 0 2 0 
2 0 1 0 2 0 3075 1573 300 MP stroke
2 0 1 0 2 0 2 0 1 0 2 0 2 0 1 0 
2 0 2 0 1 0 2 0 2 0 1 0 2 0 2 0 
1 0 2 0 2 0 1 0 2 0 2 0 1 0 2 0 
2 0 1 0 2 0 2 0 1 0 2 0 2 0 1 0 
2 0 2 0 1 0 2 0 2 0 1 0 2 0 2 0 
1 0 2 0 2 0 1 0 2 0 1 0 2 0 2 0 
1 0 2 0 2 0 1 0 2 0 2 0 1 0 2 0 
2 0 1 0 2 0 2 0 1 0 2 0 2 0 1 0 
2 0 2 0 1 0 2 0 2 0 1 0 2 0 2 0 
1 0 2 0 2 0 1 0 2 0 2 0 1 0 2 0 
2 0 1 0 2 0 2 0 1 0 2 0 2 0 1 0 
2 0 2 0 1 0 2 0 2 0 1 0 2 0 2 0 
1 0 2 0 2 0 1 0 2 0 2 0 1 0 2 0 
2 0 1 0 2 0 2 0 1 0 2 0 2 0 1 0 
2 0 1 0 2 0 2 0 1 0 2 0 2 0 1 0 
2 0 2 0 1 0 2 0 2 0 1 0 2 0 2 0 
1 0 2 0 2 0 1 0 2 0 2 0 1 0 2 0 
2 0 1 0 2 0 2 0 1 0 2 0 2 0 1 0 
2 0 2 0 1 0 2 0 2 0 1 0 2 0 2 0 
1 0 2 0 2 0 1 0 2 0 2 0 1 0 2 0 
2 0 1 0 2 0 2 0 1 0 2 0 2 0 1 0 
2 0 2 0 1 0 2 0 2 0 1 0 2 0 2 0 
1 0 2 0 2 0 1 0 2 0 1 0 2 0 2 0 
1 0 2 0 2 0 1 0 2 0 2 0 1 0 2 0 
2 0 1 0 2 0 2 0 1 0 2 0 2 0 1 0 
2 0 2 0 1 0 2 0 2 0 1 0 2 0 2 0 
1 0 2 0 2 0 1 0 2 0 2 0 1 0 2 0 
2 0 1 0 2 0 2 0 1 0 2 0 2 0 1 0 
2 0 2 0 1 0 2 0 2 0 1 0 2 0 2 0 
1 0 2 0 2 0 1 0 2 0 2 0 1 0 2 0 
2 0 1 0 2 0 2 0 1 0 2 0 1 0 2 0 
2 0 1 0 2 0 2 0 1 0 2 0 2 0 1 0 
2 0 2 0 1 0 2 0 2 0 1 0 2 0 2 0 
1 0 2 0 2 0 1 0 2 0 2 0 1 0 2 0 
2 0 1 0 2 0 2 0 1 0 2 0 2 0 1 0 
2 0 2 0 1 0 2 0 2 0 1 0 2 0 2 0 
1 0 2 0 2 0 1 0 2 0 2 0 1 0 2 0 
2 0 1 0 2 0 2578 1573 300 MP stroke
2 0 1 0 2 0 2 0 1 0 2 0 2 0 1 0 
2 0 2 0 1 0 2 0 2 0 1 0 2 0 1 0 
2 0 2 0 1 0 2 0 2 0 1 0 2 0 2 0 
1 0 2 0 2 0 1 0 2 0 2 0 1 0 2 0 
2 0 1 0 2 0 2 0 1 0 2 0 2 0 1 0 
2 0 2 0 1 0 2 0 2 0 1 0 2 0 2 0 
1 0 2 0 2 0 1 0 2 0 2 0 1 0 2 0 
2 0 1 0 2 0 2 0 1 0 2 0 2 0 1 0 
2 0 2 0 1 0 2 0 2 0 1 0 2 0 2 0 
1 0 2 0 2 0 1 0 2 0 2 0 1 0 2 0 
2 0 1 0 2 0 1 0 2 0 2 0 1 0 2 0 
2 0 1 0 2 0 2 0 1 0 2 0 2 0 1 0 
2 0 2 0 1 0 2 0 2 0 1 0 2 0 2 0 
1 0 2 0 2 0 1 0 2 0 2 0 1 0 2 0 
2 0 1 0 2 0 2 0 1 0 2 0 2 0 1 0 
2 0 2 0 1 0 2 0 2 0 1 0 2 0 2 0 
1 0 2 0 2 0 1 0 2 0 2 0 1 0 2 0 
2 0 1 0 2 0 2 0 1 0 2 0 2 0 1 0 
2 0 2 0 1 0 2 0 2 0 1 0 2 0 1 0 
2 0 2 0 1 0 2 0 2 0 1 0 2 0 2 0 
1 0 2 0 2 0 1 0 2 0 2 0 1 0 2 0 
2 0 1 0 2 0 2 0 1 0 2 0 2 0 1 0 
2 0 2 0 1 0 2 0 2 0 1 0 2 0 2 0 
1 0 2 0 2 0 1 0 2 0 2 0 1 0 2 0 
2 0 1 0 2 0 2 0 1 0 2 0 2 0 1 0 
2 0 2 0 1 0 2 0 2 0 1 0 2 0 2 0 
1 0 2 0 2 0 1 0 2 0 2 0 1 0 2 0 
2 0 1 0 2 0 1 0 2 0 2 0 1 0 2 0 
2 0 1 0 2 0 2 0 1 0 2 0 2 0 1 0 
2 0 2 0 1 0 2 0 2 0 1 0 2 0 2 0 
1 0 2 0 2 0 1 0 2 0 2 0 1 0 2 0 
2 0 1 0 2 0 2 0 1 0 2 0 2 0 1 0 
2 0 2 0 1 0 2 0 2 0 1 0 2 0 2 0 
1 0 2 0 2 0 1 0 2 0 2 0 1 0 2 0 
2 0 1 0 2 0 2 0 1 0 2 0 2 0 1 0 
2 0 2 0 1 0 2 0 1 0 2 0 2 0 1 0 
2 0 2 0 1 0 2 0 2 0 1 0 2 0 2 0 
1 0 2 0 2 0 2081 1573 300 MP stroke
1 0 2 0 2 0 1 0 2 0 2 0 1 0 2 0 
2 0 1 0 2 0 2 0 1 0 2 0 2 0 1 0 
2 0 2 0 1 0 2 0 2 0 1 0 2 0 2 0 
1 0 2 0 2 0 1 0 2 0 2 0 1 0 2 0 
2 0 1 0 2 0 2 0 1 0 2 0 2 0 1 0 
2 0 2 0 1 0 2 0 2 0 1 0 2 0 2 0 
1 0 2 0 2 0 1 0 2 0 1 0 2 0 2 0 
1 0 2 0 2 0 1 0 2 0 2 0 1 0 2 0 
2 0 1 0 2 0 2 0 1 0 2 0 2 0 1 0 
2 0 2 0 1 0 2 0 2 0 1 0 2 0 2 0 
1 0 2 0 2 0 1 0 2 0 2 0 1 0 2 0 
2 0 1 0 2 0 2 0 1 0 2 0 2 0 1 0 
2 0 2 0 1 0 2 0 2 0 1 0 2 0 2 0 
1 0 2 0 2 0 1 0 2 0 2 0 1 0 2 0 
2 0 1 0 2 0 2 0 1 0 2 0 2 0 1 0 
2 0 1 0 2 0 2 0 1 0 2 0 2 0 1 0 
2 0 2 0 1 0 2 0 2 0 1 0 2 0 2 0 
1 0 2 0 2 0 1 0 2 0 2 0 1 0 2 0 
2 0 1 0 2 0 2 0 1 0 2 0 2 0 1 0 
2 0 2 0 1 0 2 0 2 0 1 0 2 0 2 0 
1 0 2 0 2 0 1 0 2 0 2 0 1 0 2 0 
2 0 1 0 2 0 2 0 1 0 2 0 2 0 1 0 
2 0 2 0 1 0 2 0 2 0 1 0 2 0 2 0 
1 0 2 0 2 0 1 0 2 0 1 0 2 0 2 0 
1 0 2 0 2 0 1 0 2 0 2 0 1 0 2 0 
2 0 1 0 2 0 2 0 1 0 2 0 2 0 1 0 
2 0 2 0 1 0 2 0 2 0 1 0 2 0 2 0 
1 0 2 0 2 0 1 0 2 0 2 0 1 0 2 0 
2 0 1 0 2 0 2 0 1 0 2 0 2 0 1 0 
2 0 2 0 1 0 2 0 2 0 1 0 2 0 2 0 
1 0 2 1 2 0 1 0 2 0 2 0 1 0 2 0 
2 0 1 0 2 0 2 0 1 0 2 0 1 0 2 0 
2 0 1 0 2 0 2 0 1 0 2 0 2 0 1 0 
2 0 2 0 1 0 2 0 2 0 1 0 2 0 2 0 
1 0 2 0 2 0 1 0 2 0 2 0 1 0 2 0 
2 0 1 0 2 0 2 0 1 0 2 0 2 0 1 0 
2 0 2 0 1 0 2 0 2 0 1 0 2 1 2 0 
1 0 2 0 2 0 1584 1571 300 MP stroke
1 0 2 0 2 0 1 0 2 0 2 0 1 0 2 0 
2 0 1 0 2 0 2 0 1 0 2 0 2 0 1 0 
2 0 2 0 1 0 2 0 2 0 1 0 2 0 1 0 
2 0 2 1 1 0 2 0 2 0 1 0 2 0 2 0 
1 0 2 0 2 0 1 0 2 0 2 0 1 0 2 0 
2 0 1 0 2 0 2 0 1 0 2 0 2 0 1 1 
2 0 2 0 1 0 2 0 2 0 1 0 2 0 2 0 
1 0 2 0 2 0 1 0 2 0 2 0 1 0 2 0 
2 1 1 0 2 0 2 0 1 0 2 0 2 0 1 0 
2 0 2 0 1 0 2 0 2 0 1 0 2 1 2 0 
1 0 2 0 2 0 1 0 2 0 2 0 1 0 2 0 
2 0 1 0 2 1 1 0 2 0 2 0 1 0 2 0 
2 0 1 0 2 0 2 0 1 1 2 0 2 0 1 0 
2 0 2 0 1 0 2 0 2 0 1 1 2 0 2 0 
1 0 2 0 2 0 1 0 2 0 2 1 1 0 2 0 
2 0 1 0 2 0 2 0 1 0 2 1 2 0 1 0 
2 0 2 0 1 0 2 1 2 0 1 0 2 0 2 0 
1 0 2 1 2 0 1 0 2 0 2 0 1 0 2 1 
2 0 1 0 2 0 2 0 1 1 2 0 2 0 1 0 
2 0 2 1 1 0 2 0 2 0 1 0 2 1 1 0 
2 0 2 0 1 1 2 0 2 0 1 0 2 1 2 0 
1 0 2 0 2 1 1 0 2 0 2 0 1 1 2 0 
2 0 1 1 2 0 2 0 1 0 2 1 2 0 1 0 
2 1 2 0 1 0 2 1 2 0 1 0 2 1 2 0 
1 0 2 1 2 0 1 0 2 1 2 0 1 0 2 1 
2 0 1 1 2 0 2 0 1 1 2 0 2 1 1 0 
2 1 2 0 1 0 2 1 2 0 1 1 2 0 2 1 
1 0 2 1 2 0 1 1 2 0 2 1 1 0 2 1 
1 0 2 1 2 0 1 1 2 0 2 1 1 1 2 0 
2 1 1 0 2 1 2 1 1 0 2 1 2 0 1 1 
2 1 2 0 1 1 2 1 2 1 1 0 2 1 2 1 
1 0 2 1 2 1 1 1 2 0 2 1 1 1 2 1 
2 1 1 0 2 1 2 1 1 1 2 1 2 1 1 0 
2 1 2 1 1 1 2 1 2 1 1 1 2 1 2 1 
1 1 2 1 2 1 1 1 2 1 2 1 1 1 2 1 
2 1 1 2 2 1 2 1 1 1 2 1 2 1 1 2 
2 1 2 1 1 1 2 2 1 1 2 1 2 2 1 1 
2 1 2 2 1 1 1088 1466 300 MP stroke
2 1 2 2 1 1 2 2 2 1 1 2 2 1 2 2 
1 1 2 2 2 2 1 1 2 2 2 2 1 1 2 2 
2 2 1 2 2 1 2 2 1 2 2 2 2 2 1 2 
2 2 2 2 1 2 2 2 2 2 1 2 2 2 2 2 
1 2 2 2 2 2 1 3 2 2 2 2 1 3 2 2 
2 2 1 3 2 2 2 3 1 2 2 3 2 2 1 3 
2 2 2 3 1 3 2 3 2 2 1 3 2 3 2 3 
1 3 2 3 2 3 1 3 2 3 1 3 2 3 2 3 
1 3 2 4 2 3 1 3 2 4 2 3 1 3 2 4 
2 3 1 4 2 4 2 3 1 4 2 4 2 4 1 3 
2 4 2 4 1 4 2 4 2 4 1 4 2 4 2 5 
1 4 2 4 2 4 1 5 2 4 2 5 1 4 2 5 
2 4 1 5 2 5 2 4 1 5 2 5 2 5 1 5 
2 4 2 5 1 5 2 5 2 6 1 5 2 5 2 5 
1 5 2 5 2 6 1 5 2 5 2 6 1 5 2 5 
2 6 1 5 2 6 2 5 1 5 2 6 2 5 1 6 
2 5 1 5 2 6 2 5 1 5 2 5 2 6 1 5 
2 5 2 5 1 5 2 5 2 4 1 5 2 4 2 5 
1 4 2 4 2 4 1 4 2 3 2 4 1 3 2 3 
2 2 1 2 2 2 2 2 1 1 2 1 2 1 1 0 
2 0 2 -1 1 -1 2 -2 2 -3 1 -3 2 -4 2 -4 
1 -6 2 -6 2 -7 1 -8 2 -8 2 -10 1 -11 2 -12 
2 -13 1 -15 2 -16 2 -18 1 -18 2 -21 2 -22 1 -25 
2 -26 2 -28 1 -30 2 -33 2 -35 1 -37 2 -41 2 -43 
1 -46 2 -50 1 -53 764 1574 196 MP stroke
DO
0 sg
3677 0 126 0 764 1574 3 MP stroke
gr

0 sg
DO
%%IncludeResource: font Helvetica
/Helvetica /WindowsLatin1Encoding 120 FMSR

 747 1617 mt 
( ) s
4550  506 mt 
( ) s
SO
%%IncludeResource: font Symbol
/Symbol /WindowsLatin1Encoding 96 FMSR

2535  270 mt 
(b) s
%%IncludeResource: font Helvetica
/Helvetica /WindowsLatin1Encoding 96 FMSR

2587  270 mt 
(=0) s
2389 1825 mt 
(Time \(sec\)) s
 423 1154 mt  -90 rotate
(Amplitude) s
90 rotate
1 sg
0 278 576 0 0 -278 3931 802 4 MP
PP
-576 0 0 278 576 0 0 -278 3931 802 5 MP stroke
4 w
DO
SO
6 w
0 sg
3931  524 mt 4507  524 L
3931  802 mt 4507  802 L
4507  802 mt 4507  524 L
3931  802 mt 3931  524 L
3931  802 mt 4507  802 L
3931  802 mt 3931  524 L
3931  524 mt 4507  524 L
3931  802 mt 4507  802 L
4507  802 mt 4507  524 L
3931  802 mt 3931  524 L
4386  636 mt 
(y) s
gs 3931 524 577 279 rc
c8
349 0 4000 602 2 MP stroke
gr

c8
0 sg
4386  759 mt 
(y') s
gs 3931 524 577 279 rc
c9
349 0 4000 723 2 MP stroke
gr

c9
1 sg
0 1110 3802 0 0 -1110 764 3366 4 MP
PP
-3802 0 0 1110 3802 0 0 -1110 764 3366 5 MP stroke
4 w
DO
SO
6 w
0.4 sg
 764 2256 mt 4566 2256 L
 764 3366 mt 4566 3366 L
4566 3366 mt 4566 2256 L
 764 3366 mt  764 2256 L
 764 3366 mt 4566 3366 L
 764 3366 mt  764 2256 L
 764 3366 mt  764 3327 L
 764 2256 mt  764 2294 L
 738 3489 mt 
(0) s
1397 3366 mt 1397 3327 L
1397 2256 mt 1397 2294 L
1371 3489 mt 
(5) s
2031 3366 mt 2031 3327 L
2031 2256 mt 2031 2294 L
1978 3489 mt 
(10) s
2665 3366 mt 2665 3327 L
2665 2256 mt 2665 2294 L
2612 3489 mt 
(15) s
3298 3366 mt 3298 3327 L
3298 2256 mt 3298 2294 L
3245 3489 mt 
(20) s
3932 3366 mt 3932 3327 L
3932 2256 mt 3932 2294 L
3879 3489 mt 
(25) s
4566 3366 mt 4566 3327 L
4566 2256 mt 4566 2294 L
4513 3489 mt 
(30) s
 764 3366 mt  802 3366 L
4566 3366 mt 4527 3366 L
 540 3401 mt 
(-0.2) s
 764 3088 mt  802 3088 L
4566 3088 mt 4527 3088 L
 676 3123 mt 
(0) s
 764 2811 mt  802 2811 L
4566 2811 mt 4527 2811 L
 596 2846 mt 
(0.2) s
 764 2533 mt  802 2533 L
4566 2533 mt 4527 2533 L
 596 2568 mt 
(0.4) s
 764 2256 mt  802 2256 L
4566 2256 mt 4527 2256 L
 596 2291 mt 
(0.6) s
 764 2256 mt 4566 2256 L
 764 3366 mt 4566 3366 L
4566 3366 mt 4566 2256 L
 764 3366 mt  764 2256 L
gs 764 2256 3803 1111 rc
c8
7 0 7 0 6 0 7 0 7 0 6 0 7 0 7 0 
6 0 7 0 7 0 6 0 7 0 7 0 6 0 7 0 
6 0 7 0 7 0 6 0 7 0 7 0 6 0 7 0 
7 0 6 0 7 0 7 0 6 0 7 0 7 0 6 0 
7 0 6 0 7 0 7 0 6 0 7 0 7 0 6 0 
7 0 7 0 6 0 7 0 7 0 6 0 7 0 7 0 
6 0 7 0 6 0 7 0 7 0 6 0 7 0 7 0 
6 0 7 0 7 0 6 0 7 0 7 0 6 0 7 0 
7 0 6 0 7 0 6 0 7 0 7 0 6 0 7 0 
7 0 6 0 7 0 7 0 6 0 7 0 7 0 6 0 
7 0 7 0 6 0 7 0 6 0 7 0 7 0 6 0 
7 0 7 0 6 0 7 0 7 0 6 0 7 0 7 0 
6 0 7 0 7 0 6 0 7 0 6 0 7 0 7 0 
6 0 7 0 7 0 6 0 7 0 7 0 6 0 7 0 
7 0 6 0 7 0 7 0 6 0 7 0 6 0 7 0 
7 0 6 0 7 0 7 0 6 0 7 0 7 0 6 0 
7 0 7 0 6 0 7 0 7 0 6 0 7 0 6 0 
7 0 7 0 6 0 7 0 7 0 6 0 7 0 7 0 
6 0 7 0 7 0 6 0 7 0 7 0 6 0 7 0 
6 0 7 0 7 0 6 0 7 0 7 0 6 0 7 0 
7 0 6 0 7 0 7 0 6 0 7 0 7 0 6 0 
7 0 6 0 7 0 7 0 6 0 7 0 7 0 6 0 
7 0 7 0 6 0 7 0 7 0 6 0 7 0 7 0 
6 0 7 0 6 0 7 0 7 0 6 0 7 0 7 0 
6 0 7 0 7 0 6 0 7 0 7 0 6 0 7 0 
7 0 6 0 7 0 6 0 7 0 7 0 6 0 7 0 
7 0 6 0 7 0 7 0 6 0 7 0 7 0 6 0 
7 0 7 0 6 0 7 0 6 0 7 0 7 0 6 0 
7 0 7 0 6 0 7 0 7 0 6 0 7 0 7 0 
6 0 7 0 7 0 6 0 7 0 6 0 7 0 7 0 
6 0 7 0 7 0 6 0 7 0 7 0 6 0 7 0 
7 0 6 0 7 0 7 0 6 0 7 0 6 0 7 0 
7 0 6 0 7 0 7 0 6 0 7 0 7 0 6 0 
7 0 7 0 6 0 7 0 7 0 6 0 7 0 6 0 
7 0 7 0 6 0 7 0 7 0 6 0 7 0 7 0 
6 0 7 0 7 0 6 0 7 0 6 0 7 0 7 0 
6 0 7 0 7 0 6 0 7 0 7 0 6 0 7 0 
7 0 6 0 7 0 2578 3088 300 MP stroke
7 0 6 0 7 0 6 0 7 0 7 0 6 0 7 0 
7 0 6 0 7 0 7 0 6 0 7 0 7 0 6 0 
7 0 7 0 6 0 7 0 6 0 7 0 7 0 6 0 
7 0 7 0 6 0 7 0 7 0 6 0 7 0 7 0 
6 0 7 0 7 0 6 0 7 0 6 0 7 0 7 0 
6 0 7 0 7 0 6 0 7 0 7 0 6 0 7 0 
7 0 6 0 7 0 7 0 6 0 7 0 6 0 7 0 
7 0 6 0 7 0 7 0 6 0 7 0 7 0 6 0 
7 0 7 0 6 0 7 0 7 0 6 0 7 0 6 0 
7 0 7 0 6 0 7 0 7 0 6 0 7 1 7 0 
6 0 7 0 7 0 6 0 7 0 7 0 6 0 7 0 
6 0 7 0 7 0 6 0 7 0 7 0 6 0 7 0 
7 0 6 0 7 0 7 0 6 0 7 1 7 0 6 0 
7 0 6 0 7 0 7 0 6 0 7 0 7 0 6 0 
7 1 7 0 6 0 7 0 7 0 6 0 7 0 7 0 
6 1 7 0 6 0 7 0 7 0 6 1 7 0 7 0 
6 0 7 0 7 1 6 0 7 0 7 1 6 0 7 0 
7 1 6 0 7 0 6 1 7 0 7 0 6 1 7 0 
7 1 6 0 7 1 7 0 6 1 7 0 7 1 6 1 
7 0 7 1 6 1 7 0 6 1 7 1 7 1 6 1 
7 1 7 1 6 1 7 1 7 1 6 1 7 1 7 1 
6 1 7 2 7 1 6 1 7 2 6 1 7 2 7 2 
6 1 7 2 7 2 6 2 7 2 7 2 6 2 7 2 
7 3 6 2 7 3 7 2 6 3 7 3 6 3 7 3 
7 3 6 3 7 3 7 4 6 3 7 4 7 4 6 3 
7 4 7 5 6 4 7 4 7 5 6 4 7 5 6 5 
7 5 7 5 6 6 7 5 7 6 6 6 7 5 7 6 
6 7 7 6 7 6 6 7 7 6 7 7 6 7 7 7 
6 6 7 7 7 7 6 8 7 7 7 7 6 7 7 7 
7 7 6 6 7 7 7 6 6 7 7 6 7 6 6 5 
7 5 6 5 7 4 7 3 6 3 7 2 7 2 6 0 
7 0 7 -2 6 -2 7 -4 7 -5 6 -7 7 -8 7 -9 
6 -12 7 -13 6 -15 7 -16 7 -19 6 -20 7 -22 7 -24 
6 -25 7 -26 7 -27 6 -26 7 -25 7 -23 6 -19 7 -14 
6 -5 764 3088 274 MP stroke
DO
0 sg
3677 0 126 0 764 3088 3 MP stroke
SO
c9
7 0 7 0 6 0 7 0 7 0 6 0 7 0 7 0 
6 0 7 0 7 0 6 0 7 0 7 0 6 0 7 0 
6 0 7 0 7 0 6 0 7 0 7 0 6 0 7 0 
7 0 6 0 7 0 7 0 6 0 7 0 7 0 6 0 
7 0 6 0 7 0 7 0 6 0 7 0 7 0 6 0 
7 0 7 0 6 0 7 0 7 0 6 0 7 0 7 0 
6 0 7 0 6 0 7 0 7 0 6 0 7 0 7 0 
6 0 7 0 7 0 6 0 7 0 7 0 6 0 7 0 
7 0 6 0 7 0 6 0 7 0 7 0 6 0 7 0 
7 0 6 0 7 0 7 0 6 0 7 0 7 0 6 0 
7 0 7 0 6 0 7 0 6 0 7 0 7 0 6 0 
7 0 7 0 6 0 7 0 7 0 6 0 7 0 7 0 
6 0 7 0 7 0 6 0 7 0 6 0 7 0 7 0 
6 0 7 0 7 0 6 0 7 0 7 0 6 0 7 0 
7 0 6 0 7 0 7 0 6 0 7 0 6 0 7 0 
7 0 6 0 7 0 7 0 6 0 7 0 7 0 6 0 
7 0 7 0 6 0 7 0 7 0 6 0 7 0 6 0 
7 0 7 0 6 0 7 0 7 0 6 0 7 0 7 0 
6 0 7 0 7 0 6 0 7 0 7 0 6 0 7 0 
6 0 7 0 7 0 6 0 7 0 7 0 6 0 7 0 
7 0 6 0 7 0 7 0 6 0 7 0 7 0 6 0 
7 0 6 0 7 0 7 0 6 0 7 0 7 0 6 0 
7 0 7 0 6 0 7 0 7 0 6 0 7 0 7 0 
6 0 7 0 6 0 7 0 7 0 6 0 7 0 7 0 
6 0 7 0 7 0 6 0 7 0 7 0 6 0 7 0 
7 0 6 0 7 0 6 0 7 0 7 0 6 0 7 0 
7 0 6 0 7 0 7 0 6 0 7 0 7 0 6 0 
7 0 7 0 6 0 7 0 6 0 7 0 7 0 6 0 
7 0 7 0 6 0 7 0 7 0 6 0 7 0 7 0 
6 0 7 0 7 0 6 0 7 0 6 0 7 0 7 0 
6 0 7 0 7 0 6 0 7 0 7 0 6 0 7 0 
7 0 6 0 7 0 7 0 6 0 7 0 6 0 7 0 
7 0 6 0 7 0 7 0 6 0 7 0 7 0 6 0 
7 0 7 0 6 0 7 0 7 0 6 0 7 0 6 0 
7 0 7 0 6 0 7 0 7 0 6 0 7 0 7 0 
6 0 7 0 7 0 6 0 7 0 6 0 7 0 7 0 
6 0 7 0 7 0 6 0 7 0 7 0 6 0 7 0 
7 0 6 0 7 0 2578 3088 300 MP stroke
7 0 6 0 7 0 6 0 7 0 7 0 6 0 7 0 
7 0 6 0 7 0 7 0 6 0 7 0 7 0 6 0 
7 0 7 0 6 0 7 0 6 0 7 0 7 0 6 0 
7 0 7 0 6 0 7 0 7 0 6 0 7 0 7 0 
6 0 7 0 7 0 6 0 7 0 6 0 7 0 7 0 
6 0 7 0 7 0 6 0 7 0 7 0 6 0 7 0 
7 0 6 0 7 0 7 0 6 0 7 0 6 0 7 0 
7 0 6 0 7 0 7 0 6 0 7 0 7 0 6 0 
7 0 7 0 6 0 7 0 7 0 6 0 7 0 6 0 
7 0 7 0 6 0 7 0 7 0 6 0 7 0 7 0 
6 -1 7 0 7 0 6 0 7 0 7 0 6 0 7 0 
6 0 7 0 7 0 6 0 7 0 7 0 6 0 7 0 
7 0 6 0 7 0 7 0 6 0 7 0 7 0 6 0 
7 -1 6 0 7 0 7 0 6 0 7 0 7 0 6 0 
7 0 7 0 6 0 7 -1 7 0 6 0 7 0 7 0 
6 0 7 0 6 0 7 -1 7 0 6 0 7 0 7 0 
6 -1 7 0 7 0 6 0 7 0 7 -1 6 0 7 0 
7 0 6 -1 7 0 6 0 7 -1 7 0 6 0 7 -1 
7 0 6 0 7 -1 7 0 6 -1 7 0 7 -1 6 0 
7 -1 7 0 6 -1 7 0 6 -1 7 -1 7 0 6 -1 
7 -1 7 0 6 -1 7 -1 7 -1 6 -1 7 -1 7 -1 
6 0 7 -1 7 -1 6 -2 7 -1 6 -1 7 -1 7 -1 
6 -1 7 -2 7 -1 6 -1 7 -2 7 -1 6 -2 7 -1 
7 -2 6 -2 7 -1 7 -2 6 -2 7 -2 6 -2 7 -2 
7 -2 6 -2 7 -2 7 -2 6 -2 7 -3 7 -2 6 -2 
7 -3 7 -2 6 -3 7 -2 7 -3 6 -2 7 -3 6 -2 
7 -3 7 -2 6 -3 7 -3 7 -2 6 -3 7 -2 7 -3 
6 -2 7 -2 7 -2 6 -3 7 -2 7 -1 6 -2 7 -1 
6 -2 7 -1 7 0 6 -1 7 0 7 1 6 0 7 2 
7 1 6 3 7 3 7 3 6 5 7 5 7 6 6 6 
7 8 6 9 7 11 7 11 6 13 7 14 7 15 6 18 
7 18 7 21 6 22 7 24 7 26 6 28 7 30 7 31 
6 33 7 34 6 35 7 35 7 35 6 34 7 32 7 28 
6 23 7 15 7 3 6 -11 7 -30 7 -57 6 -89 7 -132 
6 -187 764 3088 274 MP stroke
DO
0 sg
3677 0 126 0 764 3088 3 MP stroke
gr

0 sg
DO
%%IncludeResource: font Helvetica
/Helvetica /WindowsLatin1Encoding 120 FMSR

 747 3409 mt 
( ) s
4550 2298 mt 
( ) s
SO
%%IncludeResource: font Symbol
/Symbol /WindowsLatin1Encoding 96 FMSR

2535 2062 mt 
(b) s
%%IncludeResource: font Helvetica
/Helvetica /WindowsLatin1Encoding 96 FMSR

2587 2062 mt 
(=1) s
2389 3617 mt 
(Time \(sec\)) s
 367 2946 mt  -90 rotate
(Amplitude) s
90 rotate
1 sg
0 278 576 0 0 -278 3931 2594 4 MP
PP
-576 0 0 278 576 0 0 -278 3931 2594 5 MP stroke
4 w
DO
SO
6 w
0 sg
3931 2316 mt 4507 2316 L
3931 2594 mt 4507 2594 L
4507 2594 mt 4507 2316 L
3931 2594 mt 3931 2316 L
3931 2594 mt 4507 2594 L
3931 2594 mt 3931 2316 L
3931 2316 mt 4507 2316 L
3931 2594 mt 4507 2594 L
4507 2594 mt 4507 2316 L
3931 2594 mt 3931 2316 L
4386 2428 mt 
(y) s
gs 3931 2316 577 279 rc
c8
349 0 4000 2394 2 MP stroke
gr

c8
0 sg
4386 2551 mt 
(y') s
gs 3931 2316 577 279 rc
c9
349 0 4000 2515 2 MP stroke
gr

c9

end %%Color Dict

eplot
%%EndObject

epage
end

showpage

%%Trailer
%%EOF
