%!PS-Adobe-3.0 EPSF-3.0
%%Title: MATLAB
%%Creator: PScript5.dll Version 5.2.2
%%CreationDate: 10/24/2011 11:42:45
%%For: XDrz
%%BoundingBox: 0 0 595 842
%%Pages: 1
%%Orientation: Portrait
%%PageOrder: Ascend
%%DocumentNeededResources: (atend)
%%DocumentSuppliedResources: (atend)
%%DocumentData: Clean7Bit
%%TargetDevice: () (52.3) 320
%%LanguageLevel: 1
%%EndComments

%%BeginDefaults
%%PageBoundingBox: 0 0 595 842
%%ViewingOrientation: 1 0 0 1
%%EndDefaults

%%BeginProlog
%%BeginResource: file Pscript_WinNT_VMErrorHandler 5.0 0
/currentpacking where{pop/oldpack currentpacking def/setpacking where{pop false
setpacking}if}if/$brkpage 64 dict def $brkpage begin/prnt{dup type/stringtype
ne{=string cvs}if dup length 6 mul/tx exch def/ty 10 def currentpoint/toy exch
def/tox exch def 1 setgray newpath tox toy 2 sub moveto 0 ty rlineto tx 0
rlineto 0 ty neg rlineto closepath fill tox toy moveto 0 setgray show}bind def
/nl{currentpoint exch pop lmargin exch moveto 0 -10 rmoveto}def/=={/cp 0 def
typeprint nl}def/typeprint{dup type exec}readonly def/lmargin 72 def/rmargin 72
def/tprint{dup length cp add rmargin gt{nl/cp 0 def}if dup length cp add/cp
exch def prnt}readonly def/cvsprint{=string cvs tprint( )tprint}readonly def
/integertype{cvsprint}readonly def/realtype{cvsprint}readonly def/booleantype
{cvsprint}readonly def/operatortype{(--)tprint =string cvs tprint(-- )tprint}
readonly def/marktype{pop(-mark- )tprint}readonly def/dicttype{pop
(-dictionary- )tprint}readonly def/nulltype{pop(-null- )tprint}readonly def
/filetype{pop(-filestream- )tprint}readonly def/savetype{pop(-savelevel- )
tprint}readonly def/fonttype{pop(-fontid- )tprint}readonly def/nametype{dup
xcheck not{(/)tprint}if cvsprint}readonly def/stringtype{dup rcheck{(\()tprint
tprint(\))tprint}{pop(-string- )tprint}ifelse}readonly def/arraytype{dup rcheck
{dup xcheck{({)tprint{typeprint}forall(})tprint}{([)tprint{typeprint}forall(])
tprint}ifelse}{pop(-array- )tprint}ifelse}readonly def/packedarraytype{dup
rcheck{dup xcheck{({)tprint{typeprint}forall(})tprint}{([)tprint{typeprint}
forall(])tprint}ifelse}{pop(-packedarray- )tprint}ifelse}readonly def/courier
/Courier findfont 10 scalefont def end errordict/handleerror{systemdict begin
$error begin $brkpage begin newerror{/newerror false store vmstatus pop pop 0
ne{grestoreall}if initgraphics courier setfont lmargin 720 moveto errorname
(VMerror)eq{version cvi 2016 ge{userdict/ehsave known{clear userdict/ehsave get
restore 2 vmreclaim}if vmstatus exch pop exch pop PrtVMMsg}if}if systemdict
/showpage get exec(%%[ Error: )print errorname =print(; OffendingCommand: )
print/command load =print( ]%%)= flush}if end end end}dup 0 systemdict put dup
4 $brkpage put bind readonly put/currentpacking where{pop/setpacking where{pop
oldpack setpacking}if}if
%%EndResource
%%BeginProcSet: Pscript_Res_Emul 5.0 0
/defineresource where{pop}{userdict begin/defineresource{userdict/Resources 2
copy known{get begin}{15 dict dup begin put}ifelse exch readonly exch
currentdict 1 index known not{dup 30 dict def}if load 3 -1 roll 2 index put
end}bind readonly def/findresource{userdict/Resources get exch get exch get}
bind readonly def/resourceforall{pop pop pop pop}bind readonly def
/resourcestatus{userdict/Resources 2 copy known{get exch 2 copy known{get exch
known{0 -1 true}{false}ifelse}{pop pop pop false}ifelse}{pop pop pop pop false}
ifelse}bind readonly def end}ifelse
%%EndProcSet
userdict /Pscript_WinNT_Incr 230 dict dup begin put
%%BeginResource: file Pscript_FatalError 5.0 0
userdict begin/FatalErrorIf{{initgraphics findfont 1 index 0 eq{exch pop}{dup
length dict begin{1 index/FID ne{def}{pop pop}ifelse}forall/Encoding
{ISOLatin1Encoding}stopped{StandardEncoding}if def currentdict end
/ErrFont-Latin1 exch definefont}ifelse exch scalefont setfont counttomark 3 div
cvi{moveto show}repeat showpage quit}{cleartomark}ifelse}bind def end
%%EndResource
userdict begin/PrtVMMsg{vmstatus exch sub exch pop gt{[
(This job requires more memory than is available in this printer.)100 500
(Try one or more of the following, and then print again:)100 485
(For the output format, choose Optimize For Portability.)115 470
(In the Device Settings page, make sure the Available PostScript Memory is accurate.)
115 455(Reduce the number of fonts in the document.)115 440
(Print the document in parts.)115 425 12/Times-Roman[/MSung-Light--ETen-B5-H
dup{findfont}stopped{cleartomark}{/FontName get eq{pop cleartomark[
<b8d3a4e5a5f3bbddad6ea5ceaabaa4baa673a4d3a6682e20b17aa569a548b8d5a5cea670a455aa
baa4e8aa6ba641a5b4a64ca147>100 500<a66222506f737453637269707422b9efb8dcaed82c
20bfefbedc22506f737453637269707428a569c4e2a9cab3cca8cea4c6202d2041445343292e>
115 485<a66222b35db3c6bfefb6b522b9efb8dcaed82c2022a569a5ceaabaa64caaedbef7b04f
bed0c5e9284b422922aabaadc8ac4fbaebbd54aaba2e>115 470<a662a4e5a5f3a4a4a4d6a5ce
a44cbad8a672c5e92e>115 455<b3e6bf57a5b4a64cb8d3a4e5a5f3aabaa4a3a650b3a1a4c0a9
ceadb62e>115 440 10 0/MSung-Light--ETen-B5-H}{cleartomark}ifelse}ifelse
showpage(%%[ PrinterError: Low Printer VM ]%%)= true FatalErrorIf}if}bind def
end version cvi 2016 ge{/VM?{pop}bind def}{/VM? userdict/PrtVMMsg get def}
ifelse
%%BeginResource: file Pscript_Win_Basic 5.0 0
/d/def load def/,/load load d/~/exch , d/?/ifelse , d/!/pop , d/`/begin , d/^
/index , d/@/dup , d/+/translate , d/$/roll , d/U/userdict , d/M/moveto , d/-
/rlineto , d/&/currentdict , d/:/gsave , d/;/grestore , d/F/false , d/T/true ,
d/N/newpath , d/E/end , d/Ac/arc , d/An/arcn , d/A/ashow , d/D/awidthshow , d/C
/closepath , d/V/div , d/O/eofill , d/L/fill , d/I/lineto , d/-c/curveto , d/-M
/rmoveto , d/+S/scale , d/Ji/setfont , d/Lc/setlinecap , d/Lj/setlinejoin , d
/Lw/setlinewidth , d/Lm/setmiterlimit , d/sd/setdash , d/S/show , d/LH/showpage
, d/K/stroke , d/W/widthshow , d/R/rotate , d/L2? false/languagelevel where{pop
languagelevel 2 ge{pop true}if}if d L2?{/xS/xshow , d/yS/yshow , d/zS/xyshow ,
d}if/b{bind d}bind d/bd{bind d}bind d/xd{~ d}bd/ld{, d}bd/bn/bind ld/lw/Lw ld
/lc/Lc ld/lj/Lj ld/sg/setgray ld/ADO_mxRot null d/self & d/OrgMx matrix
currentmatrix d/reinitialize{: OrgMx setmatrix[/TextInit/GraphInit/UtilsInit
counttomark{@ where{self eq}{F}?{cvx exec}{!}?}repeat cleartomark ;}b
/initialize{`{/Pscript_Win_Data where{!}{U/Pscript_Win_Data & put}?/ADO_mxRot ~
d/TextInitialised? F d reinitialize E}{U/Pscript_Win_Data 230 dict @ ` put
/ADO_mxRot ~ d/TextInitialised? F d reinitialize}?}b/terminate{!{& self eq
{exit}{E}?}loop E}b/suspend/terminate , d/resume{` Pscript_Win_Data `}b U `
/lucas 21690 d/featurebegin{countdictstack lucas[}b/featurecleanup{stopped
{cleartomark @ lucas eq{! exit}if}loop countdictstack ~ sub @ 0 gt{{E}repeat}
{!}?}b E/snap{transform 0.25 sub round 0.25 add ~ 0.25 sub round 0.25 add ~
itransform}b/dsnap{dtransform round ~ round ~ idtransform}b/nonzero_round{@ 0.5
ge{round}{@ -0.5 lt{round}{0 ge{1}{-1}?}?}?}b/nonzero_dsnap{dtransform
nonzero_round ~ nonzero_round ~ idtransform}b U<04>cvn{}put/rr{1 ^ 0 - 0 ~ -
neg 0 - C}b/irp{4 -2 $ + +S fx 4 2 $ M 1 ^ 0 - 0 ~ - neg 0 -}b/rp{4 2 $ M 1 ^ 0
- 0 ~ - neg 0 -}b/solid{[]0 sd}b/g{@ not{U/DefIf_save save put}if U/DefIf_bool
2 ^ put}b/DefIf_El{if U/DefIf_bool get not @{U/DefIf_save get restore}if}b/e
{DefIf_El !}b/UDF{L2?{undefinefont}{!}?}b/UDR{L2?{undefineresource}{! !}?}b
/freeVM{/Courier findfont[40 0 0 -40 0 0]makefont Ji 2 vmreclaim}b/hfRedefFont
{findfont @ length dict `{1 ^/FID ne{d}{! !}?}forall & E @ ` ~{/CharStrings 1
dict `/.notdef 0 d & E d}if/Encoding 256 array 0 1 255{1 ^ ~/.notdef put}for d
E definefont !}bind d/hfMkCIDFont{/CIDFont findresource @ length 2 add dict `{1
^ @/FID eq ~ @/XUID eq ~/UIDBase eq or or{! !}{d}?}forall/CDevProc ~ d/Metrics2
16 dict d/CIDFontName 1 ^ d & E 1 ^ ~/CIDFont defineresource ![~]composefont !}
bind d
%%EndResource
%%BeginResource: file Pscript_Win_Utils_L1 5.0 0
/rf{N rp L}b/fx{1 1 dtransform @ 0 ge{1 sub 1}{1 add -0.25}? 3 -1 $ @ 0 ge{1
sub 1}{1 add -0.25}? 3 1 $ 4 1 $ idtransform 4 -2 $ idtransform}b/BZ{4 -2 $
snap + +S fx rf}b/rs{N rp C K}b/rc{N rp clip N}b/UtilsInit{}b/setcolorspace{!}b
/scol{[/setgray/setrgbcolor/setcolor/setcmykcolor/setcolor/setgray]~ get cvx
exec}b/colspRefresh{}b/AddFontInfoBegin{/FontInfo 8 dict @ `}bind d/AddFontInfo
{/GlyphNames2Unicode 16 dict d/GlyphNames2HostCode 16 dict d}bind d
/AddFontInfoEnd{E d}bind d
%%EndResource
end
%%EndProlog

%%BeginSetup
[ 1 0 0 1 0 0 ] false Pscript_WinNT_Incr dup /initialize get exec
1 setlinecap 1 setlinejoin
/mysetup [ 72 600 V 0 0 -72 600 V 0 842.0003 ] def 
%%EndSetup

%%Page: 1 1
%%PageBoundingBox: 0 0 595 842
%%EndPageComments
%%BeginPageSetup
/DeviceRGB dup setcolorspace /colspABC exch def
mysetup concat colspRefresh
%%EndPageSetup

Pscript_WinNT_Incr begin
%%BeginResource: file Pscript_Win_GdiObject 5.0 0
/SavedCTM null d/CTMsave{/SavedCTM SavedCTM currentmatrix d}b/CTMrestore
{SavedCTM setmatrix}b/mp null d/ADO_mxRot null d/GDIHMatrix null d
/GDIHPatternDict 22 dict d GDIHPatternDict `/PatternType 1 d/PaintType 2 d/Reps
L2?{1}{5}? d/XStep 8 Reps mul d/YStep XStep d/BBox[0 0 XStep YStep]d/TilingType
1 d/PaintProc{` 1 Lw[]0 sd PaintData , exec E}b/FGnd null d/BGnd null d
/HS_Horizontal{horiz}b/HS_Vertical{vert}b/HS_FDiagonal{fdiag}b/HS_BDiagonal
{biag}b/HS_Cross{horiz vert}b/HS_DiagCross{fdiag biag}b/MaxXYStep XStep YStep
gt{XStep}{YStep}? d/horiz{Reps{0 4 M XStep 0 - 0 8 +}repeat 0 -8 Reps mul + K}b
/vert{Reps{4 0 M 0 YStep - 8 0 +}repeat 0 -8 Reps mul + K}b/biag{Reps{0 0 M
MaxXYStep @ - 0 YStep neg M MaxXYStep @ - 0 8 +}repeat 0 -8 Reps mul + 0 YStep
M 8 8 - K}b/fdiag{Reps{0 0 M MaxXYStep @ neg - 0 YStep M MaxXYStep @ neg - 0 8
+}repeat 0 -8 Reps mul + MaxXYStep @ M 8 -8 - K}b E/makehatch{4 -2 $/yOrg ~ d
/xOrg ~ d GDIHPatternDict/PaintData 3 -1 $ put CTMsave GDIHMatrix setmatrix
GDIHPatternDict matrix xOrg yOrg + mp CTMrestore ~ U ~ 2 ^ put}b/h0{/h0
/HS_Horizontal makehatch}b/h1{/h1/HS_Vertical makehatch}b/h2{/h2/HS_FDiagonal
makehatch}b/h3{/h3/HS_BDiagonal makehatch}b/h4{/h4/HS_Cross makehatch}b/h5{/h5
/HS_DiagCross makehatch}b/GDIBWPatternMx null d/pfprep{save 8 1 $
/PatternOfTheDay 8 1 $ GDIBWPatternDict `/yOrg ~ d/xOrg ~ d/PaintData ~ d/yExt
~ d/Width ~ d/BGnd ~ d/FGnd ~ d/Height yExt RepsV mul d/mx[Width 0 0 Height 0
0]d E build_pattern ~ !}b/pfbf{/fEOFill ~ d pfprep hbf fEOFill{O}{L}? restore}b
/GraphInit{GDIHMatrix null eq{/SavedCTM matrix d : ADO_mxRot concat 0 0 snap +
: 0.48 @ GDIHPatternDict ` YStep mul ~ XStep mul ~ nonzero_dsnap YStep V ~
XStep V ~ E +S/GDIHMatrix matrix currentmatrix readonly d ; : 0.24 -0.24 +S
GDIBWPatternDict ` Width Height E nonzero_dsnap +S/GDIBWPatternMx matrix
currentmatrix readonly d ; ;}if}b
%%EndResource
%%BeginResource: file Pscript_Win_GdiObject_L1 5.0 0
/GDIBWPatternDict 25 dict @ `/PatternType 1 d/PaintType 2 d/RepsV 6 d/RepsH 5 d
/BBox[0 0 RepsH 1]d/TilingType 1 d/XStep 1 d/YStep 1 d/Height 8 RepsV mul d
/Width 8 d/mx[Width 0 0 Height neg 0 Height]d/FGnd null d/BGnd null d
/SetBGndFGnd{}b/PaintProc{` SetBGndFGnd RepsH{Width Height F mx PaintData
imagemask Width 0 +}repeat E}b E d/GDIpattfill{@ ` BGnd null ne PaintType 2 eq
and{: BGnd aload ! scol fEOFill{O}{L}? ; FGnd aload ! U/iCol 2 ^ put @ 0 eq{!
2}{@ 1 eq ~ 2 eq or{4}{5}?}? -1 $}if E @ patterncalc : 4 ^/PaintType get 2 eq
{iCol 0 eq{6 -1 $}if iCol 1 eq iCol 2 eq or{8 -3 $}if iCol 3 eq iCol 4 eq or{9
-4 $}if iCol scol}if fEOFill{eoclip}{clip}? N patternfill ; N}b/hbf
{GDIpattfill}b/hfMain{/fEOFill ~ d ~/iCol ~ d GDIpattfill}b/hf{: hfMain ;}b
/mpstr 1 string d/mp{~ @ length 12 add dict copy `/PatternCTM matrix
currentmatrix d/PatternMatrix ~ d/PatWidth XStep mpstr length mul d/PatHeight
YStep d/FontType 3 d/Encoding 256 array d 3 string 0 1 255{Encoding ~ @ 3 ^ cvs
cvn put}for !/FontMatrix matrix d/FontBBox BBox d/BuildChar{! @ ` XStep 0
FontBBox aload ! setcachedevice/PaintProc , E : exec ;}b & E ~ @ 3 -1 $
definefont}b/build_pattern{: GDIBWPatternDict ` Width Height E dsnap +S
/GDIBWPatternMx matrix currentmatrix d ; CTMsave GDIBWPatternMx setmatrix
GDIBWPatternDict @ ` xOrg yOrg E matrix + mp CTMrestore}b/patterncalc{` :
PatternCTM setmatrix PatternMatrix concat BBox aload ! ! ! + pathbbox ;
PatHeight V ceiling 4 1 $ PatWidth V ceiling 4 1 $ PatHeight V floor 4 1 $
PatWidth V floor 4 1 $ 2 ^ sub cvi abs ~ 3 ^ sub cvi abs ~ 4 2 $ PatHeight mul
~ PatWidth mul ~ E}b/patternfill{5 -1 $ @ ` Ji PatternCTM setmatrix
PatternMatrix concat 0 2 ^ 2 ^ M 0 1 mpstr length 1 sub{1 ^ mpstr 3 1 $ put}for
! 2 ^{currentpoint 5 ^{mpstr S}repeat YStep add M}repeat ! ! ! ! E}b/pbf{: 14
dict `/fGray ~ d/fEOFill ~ d/yOrg ~ d/xOrg ~ d/PaintData ~ d/OutputBPP ~ d
/Height ~ d/Width ~ d/mx xOrg yOrg matrix + d fGray{/PaintProc{` Width Height
OutputBPP mx PaintData image E}b}{/PaintProc{` Width Height 8 mx PaintData F
OutputBPP 8 idiv colorimage E}b}? pathbbox fEOFill{eoclip}{clip}?/Top ~ d/Right
~ d/Bottom ~ d/Left ~ d Top Height neg Bottom 1 sub{Left Width Right 1 sub{1 ^
2 copy + & PaintProc neg ~ neg ~ +}bind for !}bind for E ;}b
%%EndResource
end reinitialize
: 150 150 4660 6715 rc : N 150 150 4661 6716 rp C 
1 1 1 1 scol  L ; ; N 668 5299 M 668 1114 I 4457 1114 I 4457 5299 I C 
1 1 1 1 scol  O 1 Lj 0 Lc 4 Lw solid N 668 5299 M 668 1114 I 4457 1114 I 4457 5299 I 668 5299 I : [ 1 0 0 1 150 150 ] concat K 
; 0 0 0 1 scol 2 Lw [ 4 33 ] 0 sd N 668 5299 M 668 1114 I : [ 1 0 0 1 150 150 ] concat K 
; : N 668 1114 1 1 rp C 
 L ; N 668 1114 M 668 1114 I : [ 1 0 0 1 150 150 ] concat K 
; : N 668 1114 1 1 rp C 
 L ; N 1046 5299 M 1046 1114 I : [ 1 0 0 1 150 150 ] concat K 
; : N 1046 1114 1 1 rp C 
 L ; N 1046 1114 M 1046 1114 I : [ 1 0 0 1 150 150 ] concat K 
; : N 1046 1114 1 1 rp C 
 L ; N 1425 5299 M 1425 1114 I : [ 1 0 0 1 150 150 ] concat K 
; : N 1425 1114 1 1 rp C 
 L ; N 1425 1114 M 1425 1114 I : [ 1 0 0 1 150 150 ] concat K 
; : N 1425 1114 1 1 rp C 
 L ; N 1804 5299 M 1804 1114 I : [ 1 0 0 1 150 150 ] concat K 
; : N 1804 1114 1 1 rp C 
 L ; N 1804 1114 M 1804 1114 I : [ 1 0 0 1 150 150 ] concat K 
; : N 1804 1114 1 1 rp C 
 L ; N 2183 5299 M 2183 1114 I : [ 1 0 0 1 150 150 ] concat K 
; : N 2183 1114 1 1 rp C 
 L ; N 2183 1114 M 2183 1114 I : [ 1 0 0 1 150 150 ] concat K 
; : N 2183 1114 1 1 rp C 
 L ; N 2562 5299 M 2562 1114 I : [ 1 0 0 1 150 150 ] concat K 
; : N 2562 1114 1 1 rp C 
 L ; N 2562 1114 M 2562 1114 I : [ 1 0 0 1 150 150 ] concat K 
; : N 2562 1114 1 1 rp C 
 L ; N 2941 5299 M 2941 1114 I : [ 1 0 0 1 150 150 ] concat K 
; : N 2941 1114 1 1 rp C 
 L ; N 2941 1114 M 2941 1114 I : [ 1 0 0 1 150 150 ] concat K 
; : N 2941 1114 1 1 rp C 
 L ; N 3320 5299 M 3320 1114 I : [ 1 0 0 1 150 150 ] concat K 
; : N 3320 1114 1 1 rp C 
 L ; N 3320 1114 M 3320 1114 I : [ 1 0 0 1 150 150 ] concat K 
; : N 3320 1114 1 1 rp C 
 L ; N 3699 5299 M 3699 1114 I : [ 1 0 0 1 150 150 ] concat K 
; : N 3699 1114 1 1 rp C 
 L ; N 3699 1114 M 3699 1114 I : [ 1 0 0 1 150 150 ] concat K 
; : N 3699 1114 1 1 rp C 
 L ; N 4078 5299 M 4078 1114 I : [ 1 0 0 1 150 150 ] concat K 
; : N 4078 1114 1 1 rp C 
 L ; N 4078 1114 M 4078 1114 I : [ 1 0 0 1 150 150 ] concat K 
; : N 4078 1114 1 1 rp C 
 L ; N 4457 5299 M 4457 1114 I : [ 1 0 0 1 150 150 ] concat K 
; : N 4457 1114 1 1 rp C 
 L ; N 4457 1114 M 4457 1114 I : [ 1 0 0 1 150 150 ] concat K 
; : N 4457 1114 1 1 rp C 
 L ; N 668 5299 M 4457 5299 I : [ 1 0 0 1 150 150 ] concat K 
; : N 4457 5299 1 1 rp C 
 L ; N 4457 5299 M 4457 5299 I : [ 1 0 0 1 150 150 ] concat K 
; : N 4457 5299 1 1 rp C 
 L ; N 668 4775 M 4457 4775 I : [ 1 0 0 1 150 150 ] concat K 
; : N 4457 4775 1 1 rp C 
 L ; N 4457 4775 M 4457 4775 I : [ 1 0 0 1 150 150 ] concat K 
; : N 4457 4775 1 1 rp C 
 L ; N 668 4252 M 4457 4252 I : [ 1 0 0 1 150 150 ] concat K 
; : N 4457 4252 1 1 rp C 
 L ; N 4457 4252 M 4457 4252 I : [ 1 0 0 1 150 150 ] concat K 
; : N 4457 4252 1 1 rp C 
 L ; N 668 3729 M 4457 3729 I : [ 1 0 0 1 150 150 ] concat K 
; : N 4457 3729 1 1 rp C 
 L ; N 4457 3729 M 4457 3729 I : [ 1 0 0 1 150 150 ] concat K 
; : N 4457 3729 1 1 rp C 
 L ; N 668 3206 M 4457 3206 I : [ 1 0 0 1 150 150 ] concat K 
; : N 4457 3206 1 1 rp C 
 L ; N 4457 3206 M 4457 3206 I : [ 1 0 0 1 150 150 ] concat K 
; : N 4457 3206 1 1 rp C 
 L ; N 668 2683 M 4457 2683 I : [ 1 0 0 1 150 150 ] concat K 
; : N 4457 2683 1 1 rp C 
 L ; N 4457 2683 M 4457 2683 I : [ 1 0 0 1 150 150 ] concat K 
; : N 4457 2683 1 1 rp C 
 L ; N 668 2160 M 4457 2160 I : [ 1 0 0 1 150 150 ] concat K 
; : N 4457 2160 1 1 rp C 
 L ; N 4457 2160 M 4457 2160 I : [ 1 0 0 1 150 150 ] concat K 
; : N 4457 2160 1 1 rp C 
 L ; N 668 1637 M 4457 1637 I : [ 1 0 0 1 150 150 ] concat K 
; : N 4457 1637 1 1 rp C 
 L ; N 4457 1637 M 4457 1637 I : [ 1 0 0 1 150 150 ] concat K 
; : N 4457 1637 1 1 rp C 
 L ; N 668 1114 M 4457 1114 I : [ 1 0 0 1 150 150 ] concat K 
; : N 4457 1114 1 1 rp C 
 L ; N 4457 1114 M 4457 1114 I : [ 1 0 0 1 150 150 ] concat K 
; : N 4457 1114 1 1 rp C 
 L ; 4 Lw solid N 668 1114 M 4457 1114 I : [ 1 0 0 1 150 150 ] concat K 
; : N 4457 1114 1 1 rp C 
 L ; N 668 5299 M 4457 5299 I : [ 1 0 0 1 150 150 ] concat K 
; : N 4457 5299 1 1 rp C 
 L ; N 4457 5299 M 4457 1114 I : [ 1 0 0 1 150 150 ] concat K 
; : N 4457 1114 1 1 rp C 
 L ; N 668 5299 M 668 1114 I : [ 1 0 0 1 150 150 ] concat K 
; : N 668 1114 1 1 rp C 
 L ; N 668 5299 M 4457 5299 I : [ 1 0 0 1 150 150 ] concat K 
; : N 4457 5299 1 1 rp C 
 L ; N 668 5299 M 668 1114 I : [ 1 0 0 1 150 150 ] concat K 
; : N 668 1114 1 1 rp C 
 L ; N 668 5299 M 668 5257 I : [ 1 0 0 1 150 150 ] concat K 
; : N 668 5257 1 1 rp C 
 L ; N 668 1114 M 668 1155 I : [ 1 0 0 1 150 150 ] concat K 
; : N 668 1155 1 1 rp C 
 L ; Pscript_WinNT_Incr begin
%%BeginResource: file Pscript_T3Hdr 5.0 0
{version cvi 2016 ge{32/FontType resourcestatus{pop pop true}{false}ifelse}
{false}ifelse}exec/Is2016andT32? exch def/T32DefSBCMap{/CIDInit/ProcSet
findresource begin 10 dict begin begincmap/CIDSystemInfo 3 dict dup begin
/Registry(Adobe)def/Ordering(Identity1)def/Supplement 0 def end def/CMapType 0
def/WMode 0 def 1 begincodespacerange<00><ff>endcodespacerange 1 begincidrange
<00><ff>0 endcidrange endcmap/DrvSBCMap currentdict/CMap defineresource pop end
end}bind def Is2016andT32?{T32DefSBCMap}def/T32RsrcBegin{Is2016andT32?{
/BitmapFontInit/ProcSet findresource begin}if}bind def/T32RsrcEnd{Is2016andT32?
{end}if}bind def/AddT32Char{6 1 roll 0 get 7 1 roll pop pop 5 1 roll pop
findfont/TT32R get addglyph}bind def/AddT3Char{findfont dup 5 2 roll 1 index
length 0 gt{cvx 1 index exch 4 exch put dup(imagemask)cvx cvn 5 exch put cvx}
{pop cvx}ifelse 3 -1 roll/CharProcs get 3 1 roll put dup/Encoding get 5 -1 roll
4 index put/Metrics get 3 1 roll put}bind def/AddT3T32Char Is2016andT32?{
/AddT32Char}{/AddT3Char}ifelse load def/GreNewFontT32{5 dict begin exch
/FontMatrix exch def exch/FontBBox exch def exch pop exch pop/CIDFontType 4 def
dup currentdict end/CIDFont defineresource 3 -1 roll dup/DrvSBCMap dup/CMap
resourcestatus{pop pop}{T32DefSBCMap}ifelse 5 -1 roll[exch]composefont dup
length dict copy dup/FID undef begin exch/TT32R exch def currentdict end
definefont/BitmapFontInit/ProcSet findresource begin/TT32R get[14 0 0 0 0 0]<>0
4 -1 roll addglyph end}bind def/GreNewFontT3{11 dict begin pop/FontType 3 def
/FontMatrix exch def/FontBBox exch def/Encoding exch def/CharProcs 257 dict def
CharProcs/.notdef{}put/Metrics 257 dict def Metrics/.notdef 3 -1 roll put
AddFontInfoBegin AddFontInfo AddFontInfoEnd/BuildChar{userdict begin/char exch
def dup/charname exch/Encoding get char get def dup/Metrics get charname 2 copy
known{get aload pop}{pop/.notdef get aload pop}ifelse setcachedevice begin
Encoding char get CharProcs exch 2 copy known{get}{pop/.notdef get}ifelse end
exec end}def currentdict end definefont pop}bind def/GreNewFont{Is2016andT32?
{GreNewFontT32}{GreNewFontT3}ifelse}bind def/UDF3{Is2016andT32?{/BitmapFontInit
/ProcSet findresource begin dup/CIDFont findresource removeall/CIDFont
undefineresource undefinefont end}{pop UDF}ifelse}bind def
%%EndResource
end reinitialize
/TT1Fb00
[66 0 0 0 0 0 ] 
 256 array 0 1 255 {1 index exch /.notdef put} for 
[0 0 0 0 ] 
[1 66 div 0 0 -1 66 div 0 0 ]
/__TT1Fb00
GreNewFont
T32RsrcBegin

1
/g305 [31 0 1 -45 29 5 ] 
/g305 [28 50 true [1 0 0 1 -1 45 ]  0 0]
[<00070000
003fe000
00f07800
01e03c00
03c01e00
07800f00
07000f00
0f000780
0e000780
1e0003c0
1e0003c0
3c0003c0
3c0001e0
3c0001e0
3c0001e0
7c0001e0
780001f0
780000f0
780000f0
780000f0
780000f0
780000f0
f80000f0
f80000f0
f80000f0
f80000f0
f80000f0
f80000f0
780000f0
780000f0
780000f0
780000f0
780000f0
780001f0
780001f0
7c0001e0
3c0001e0
3c0001e0
3c0003e0
1e0003c0
1e0003c0
1e000780
0f000780
0f000700
07800f00
03801e00
01c03c00
00f07800
007ff000
000f8000
>
 ]
/TT1Fb00 AddT3T32Char
T32RsrcEnd
Pscript_WinNT_Incr begin
%%BeginResource: file Pscript_Text 5.0 0
/TextInit{TextInitialised? not{/Pscript_Windows_Font & d/TextInitialised? T d
/fM[1 0 0 1 0 0]d/mFM matrix d/iMat[1 0 0.212557 1 0 0]d}if}b/copyfont{1 ^
length add dict `{1 ^/FID ne{d}{! !}?}forall & E}b/EncodeDict 11 dict d/bullets
{{/bullet}repeat}b/rF{3 copyfont @ ` ~ EncodeDict ~ get/Encoding ~ 3 ^/0 eq{&
/CharStrings known{CharStrings/Eth known not{! EncodeDict/ANSIEncodingOld get}
if}if}if d E}b/mF{@ 7 1 $ findfont ~{@/Encoding get @ StandardEncoding eq{! T}{
{ISOLatin1Encoding}stopped{! F}{eq}?{T}{@ ` T 32 1 127{Encoding 1 ^ get
StandardEncoding 3 -1 $ get eq and}for E}?}?}{F}?{1 ^ ~ rF}{0 copyfont}? 6 -2 $
! ! ~ !/pd_charset @ where{~ get 128 eq{@ FDV 2 copy get @ length array copy
put pd_CoverFCRange}if}{!}? 2 ^ ~ definefont fM 5 4 -1 $ put fM 4 0 put fM
makefont Pscript_Windows_Font 3 1 $ put}b/sLT{: Lw -M currentpoint snap M 0 - 0
Lc K ;}b/xUP null d/yUP null d/uW null d/xSP null d/ySP null d/sW null d/sSU{N
/uW ~ d/yUP ~ d/xUP ~ d}b/sU{xUP yUP uW sLT}b/sST{N/sW ~ d/ySP ~ d/xSP ~ d}b/sT
{xSP ySP sW sLT}b/sR{: + R 0 0 M}b/sRxy{: matrix astore concat 0 0 M}b/eR/; , d
/AddOrigFP{{&/FontInfo known{&/FontInfo get length 6 add}{6}? dict `
/WinPitchAndFamily ~ d/WinCharSet ~ d/OrigFontType ~ d/OrigFontStyle ~ d
/OrigFontName ~ d & E/FontInfo ~ d}{! ! ! ! !}?}b/mFS{makefont
Pscript_Windows_Font 3 1 $ put}b/mF42D{0 copyfont `/FontName ~ d 2 copy ~ sub 1
add dict `/.notdef 0 d 2 copy 1 ~{@ 3 ^ sub Encoding ~ get ~ d}for & E
/CharStrings ~ d ! ! & @ E/FontName get ~ definefont}b/mF42{15 dict ` @ 4 1 $
FontName ~ d/FontType 0 d/FMapType 2 d/FontMatrix[1 0 0 1 0 0]d 1 ^ 254 add 255
idiv @ array/Encoding ~ d 0 1 3 -1 $ 1 sub{@ Encoding 3 1 $ put}for/FDepVector
Encoding length array d/CharStrings 2 dict `/.notdef 0 d & E d 0 1 Encoding
length 1 sub{@ @ 10 lt{! FontName length 1 add string}{100 lt{FontName length 2
add string}{FontName length 3 add string}?}? @ 0 FontName @ length string cvs
putinterval @ 3 -1 $ @ 4 1 $ 3 string cvs FontName length ~ putinterval cvn 1 ^
256 mul @ 255 add 3 -1 $ 4 ^ findfont mF42D FDepVector 3 1 $ put}for & @ E
/FontName get ~ definefont ! ! ! mF}b/mF_OTF_V{~ ! ~ ! 4 -1 $ ! findfont 2 ^ ~
definefont fM @ @ 4 6 -1 $ neg put 5 0 put 90 matrix R matrix concatmatrix
makefont Pscript_Windows_Font 3 1 $ put}b/mF_TTF_V{3{~ !}repeat 3 -1 $ !
findfont 1 ^ ~ definefont Pscript_Windows_Font 3 1 $ put}b/UmF{L2?
{Pscript_Windows_Font ~ undef}{!}?}b/UmF42{@ findfont/FDepVector get{/FontName
get undefinefont}forall undefinefont}b
%%EndResource
end reinitialize
F /F0 0 /0 F /TT1Fb00 mF 
/F0S42 F0 [66.145 0 0 -66.145 0 0 ] mFS
F0S42 Ji 
653 5376 M <01>S 
N 1046 5299 M 1046 5257 I : [ 1 0 0 1 150 150 ] concat K 
; : N 1046 5257 1 1 rp C 
 L ; N 1046 1114 M 1046 1155 I : [ 1 0 0 1 150 150 ] concat K 
; : N 1046 1155 1 1 rp C 
 L ; T32RsrcBegin

2
/g310 [31 0 2 -45 27 5 ] 
/g310 [25 50 true [1 0 0 1 -2 45 ]  0 0]
[<00000180
007fff00
00ffff00
00fffe00
00fffe00
01c00000
01c00000
03800000
03800000
03000000
07000000
07000000
0e000000
0e000000
0fe00000
1ff80000
1ffe0000
3fff8000
3fffc000
00ffe000
001ff000
0007f800
0001f800
0000fc00
00007e00
00003e00
00001e00
00000f00
00000f00
00000f00
00000700
00000700
00000700
00000700
00000700
00000700
00000700
00000600
00000600
00000e00
00000c00
00000c00
00001800
00003800
60007000
fc00e000
ff83c000
7fff0000
3ffc0000
0fe00000
>
 ]
/TT1Fb00 AddT3T32Char
T32RsrcEnd
1031 5376 M <02>S 
N 1425 5299 M 1425 5257 I : [ 1 0 0 1 150 150 ] concat K 
; : N 1425 5257 1 1 rp C 
 L ; N 1425 1114 M 1425 1155 I : [ 1 0 0 1 150 150 ] concat K 
; : N 1425 1155 1 1 rp C 
 L ; T32RsrcBegin

3
/g306 [31 0 7 -44 24 4 ] 
/g306 [17 48 true [1 0 0 1 -7 44 ]  0 0]
[<006000
01e000
07e000
1fe000
7fe000
83e000
01e000
01e000
01e000
01e000
01e000
01e000
01e000
01e000
01e000
01e000
01e000
01e000
01e000
01e000
01e000
01e000
01e000
01e000
01e000
01e000
01e000
01e000
01e000
01e000
01e000
01e000
01e000
01e000
01e000
01e000
01e000
01e000
01e000
01e000
01e000
01e000
01e000
01e000
03e000
07f000
3ffe00
ffff80
>
 ]
/TT1Fb00 AddT3T32Char
T32RsrcEnd
1394 5376 M <0301>S 
N 1804 5299 M 1804 5257 I : [ 1 0 0 1 150 150 ] concat K 
; : N 1804 5257 1 1 rp C 
 L ; N 1804 1114 M 1804 1155 I : [ 1 0 0 1 150 150 ] concat K 
; : N 1804 1155 1 1 rp C 
 L ; 1773 5376 M <0302>S 
N 2183 5299 M 2183 5257 I : [ 1 0 0 1 150 150 ] concat K 
; : N 2183 5257 1 1 rp C 
 L ; N 2183 1114 M 2183 1155 I : [ 1 0 0 1 150 150 ] concat K 
; : N 2183 1155 1 1 rp C 
 L ; T32RsrcBegin

4
/g307 [31 0 2 -44 29 4 ] 
/g307 [27 48 true [1 0 0 1 -2 44 ]  0 0]
[<00ff8000
03ffe000
07fff000
0f03f800
1c00fc00
18007e00
30003e00
30003e00
60001f00
60000f00
40000f00
c0000f00
c0000f00
00000f00
00000f00
00000f00
00000f00
00000f00
00000e00
00000e00
00001e00
00001c00
00003c00
00003c00
00007800
00007000
0000f000
0000e000
0001c000
0003c000
00038000
00070000
000e0000
001c0000
001c0000
00380000
00700000
00e00000
01c00000
03800020
03800060
070000c0
0e0000c0
1c0001c0
3fffff80
3fffff80
7fffff80
ffffff00
>
 ]
/TT1Fb00 AddT3T32Char
T32RsrcEnd
2152 5376 M <0401>S 
N 2562 5299 M 2562 5257 I : [ 1 0 0 1 150 150 ] concat K 
; : N 2562 5257 1 1 rp C 
 L ; N 2562 1114 M 2562 1155 I : [ 1 0 0 1 150 150 ] concat K 
; : N 2562 1155 1 1 rp C 
 L ; 2531 5376 M <0402>S 
N 2941 5299 M 2941 5257 I : [ 1 0 0 1 150 150 ] concat K 
; : N 2941 5257 1 1 rp C 
 L ; N 2941 1114 M 2941 1155 I : [ 1 0 0 1 150 150 ] concat K 
; : N 2941 1155 1 1 rp C 
 L ; T32RsrcBegin

5
/g308 [31 0 3 -45 27 5 ] 
/g308 [24 50 true [1 0 0 1 -3 45 ]  0 0]
[<003c00
01ff80
07ffc0
0e07e0
1c01f0
3800f8
3000f8
700078
600038
400038
c00038
800038
000038
000038
000030
000070
000060
0000e0
0001c0
000380
000700
001fc0
007fe0
01fff0
000ff8
0001fc
0000fc
00003e
00003e
00001e
00000f
00000f
00000f
00000f
000007
000007
000007
000006
00000e
00000e
00000c
00001c
000018
000030
400070
f001e0
fe0780
ffff00
7ffc00
0fc000
>
 ]
/TT1Fb00 AddT3T32Char
T32RsrcEnd
2910 5376 M <0501>S 
N 3320 5299 M 3320 5257 I : [ 1 0 0 1 150 150 ] concat K 
; : N 3320 5257 1 1 rp C 
 L ; N 3320 1114 M 3320 1155 I : [ 1 0 0 1 150 150 ] concat K 
; : N 3320 1155 1 1 rp C 
 L ; 3289 5376 M <0502>S 
N 3699 5299 M 3699 5257 I : [ 1 0 0 1 150 150 ] concat K 
; : N 3699 5257 1 1 rp C 
 L ; N 3699 1114 M 3699 1155 I : [ 1 0 0 1 150 150 ] concat K 
; : N 3699 1155 1 1 rp C 
 L ; T32RsrcBegin

6
/g309 [31 0 1 -44 29 4 ] 
/g309 [28 48 true [1 0 0 1 -1 44 ]  0 0]
[<00001800
00001800
00003800
00003800
00007800
0000f800
0000f800
0001f800
0003b800
00033800
00073800
00063800
000e3800
001c3800
00183800
00383800
00703800
00703800
00e03800
00c03800
01c03800
03803800
03003800
07003800
0e003800
0e003800
1c003800
18003800
38003800
70003800
70003800
e0003800
c0003800
fffffff0
fffffff0
00003800
00003800
00003800
00003800
00003800
00003800
00003800
00003800
00003800
00003800
00003800
00003800
00003800
>
 ]
/TT1Fb00 AddT3T32Char
T32RsrcEnd
3668 5376 M <0601>S 
N 4078 5299 M 4078 5257 I : [ 1 0 0 1 150 150 ] concat K 
; : N 4078 5257 1 1 rp C 
 L ; N 4078 1114 M 4078 1155 I : [ 1 0 0 1 150 150 ] concat K 
; : N 4078 1155 1 1 rp C 
 L ; 4047 5376 M <0602>S 
N 4457 5299 M 4457 5257 I : [ 1 0 0 1 150 150 ] concat K 
; : N 4457 5257 1 1 rp C 
 L ; N 4457 1114 M 4457 1155 I : [ 1 0 0 1 150 150 ] concat K 
; : N 4457 1155 1 1 rp C 
 L ; 4426 5376 M <0201>S 
N 668 5299 M 709 5299 I : [ 1 0 0 1 150 150 ] concat K 
; : N 709 5299 1 1 rp C 
 L ; N 4457 5299 M 4415 5299 I : [ 1 0 0 1 150 150 ] concat K 
; : N 4415 5299 1 1 rp C 
 L ; T32RsrcBegin

7
/g302 [21 0 2 -15 18 -10 ] 
/g302 [16 5 true [1 0 0 1 -2 15 ]  0 0]
[<ffff
ffff
ffff
ffff
ffff
>
 ]
/TT1Fb00 AddT3T32Char

8
/g303 [16 0 4 -3 11 5 ] 
/g303 [7 8 true [1 0 0 1 -4 3 ]  0 0]
[<7c
7e
fe
fe
fe
7e
7c
10
>
 ]
/TT1Fb00 AddT3T32Char
T32RsrcEnd
545 5320 M <07010804>S 
N 668 4775 M 709 4775 I : [ 1 0 0 1 150 150 ] concat K 
; : N 709 4775 1 1 rp C 
 L ; N 4457 4775 M 4415 4775 I : [ 1 0 0 1 150 150 ] concat K 
; : N 4415 4775 1 1 rp C 
 L ; 545 4796 M <07010803>S 
N 668 4252 M 709 4252 I : [ 1 0 0 1 150 150 ] concat K 
; : N 709 4252 1 1 rp C 
 L ; N 4457 4252 M 4415 4252 I : [ 1 0 0 1 150 150 ] concat K 
; : N 4415 4252 1 1 rp C 
 L ; 613 4273 M <01>S 
N 668 3729 M 709 3729 I : [ 1 0 0 1 150 150 ] concat K 
; : N 709 3729 1 1 rp C 
 L ; N 4457 3729 M 4415 3729 I : [ 1 0 0 1 150 150 ] concat K 
; : N 4415 3729 1 1 rp C 
 L ; 566 3750 M <010803>S 
N 668 3206 M 709 3206 I : [ 1 0 0 1 150 150 ] concat K 
; : N 709 3206 1 1 rp C 
 L ; N 4457 3206 M 4415 3206 I : [ 1 0 0 1 150 150 ] concat K 
; : N 4415 3206 1 1 rp C 
 L ; 566 3227 M <010804>S 
N 668 2683 M 709 2683 I : [ 1 0 0 1 150 150 ] concat K 
; : N 709 2683 1 1 rp C 
 L ; N 4457 2683 M 4415 2683 I : [ 1 0 0 1 150 150 ] concat K 
; : N 4415 2683 1 1 rp C 
 L ; 566 2704 M <010805>S 
N 668 2160 M 709 2160 I : [ 1 0 0 1 150 150 ] concat K 
; : N 709 2160 1 1 rp C 
 L ; N 4457 2160 M 4415 2160 I : [ 1 0 0 1 150 150 ] concat K 
; : N 4415 2160 1 1 rp C 
 L ; 566 2181 M <010806>S 
N 668 1637 M 709 1637 I : [ 1 0 0 1 150 150 ] concat K 
; : N 709 1637 1 1 rp C 
 L ; N 4457 1637 M 4415 1637 I : [ 1 0 0 1 150 150 ] concat K 
; : N 4415 1637 1 1 rp C 
 L ; 566 1658 M <010802>S 
N 668 1114 M 709 1114 I : [ 1 0 0 1 150 150 ] concat K 
; : N 709 1114 1 1 rp C 
 L ; N 4457 1114 M 4415 1114 I : [ 1 0 0 1 150 150 ] concat K 
; : N 4415 1114 1 1 rp C 
 L ; T32RsrcBegin

9
/g311 [31 0 2 -45 29 5 ] 
/g311 [27 50 true [1 0 0 1 -2 45 ]  0 0]
[<000007c0
00007f00
0001f800
0007e000
000f8000
001e0000
003c0000
00f80000
00f00000
01e00000
03c00000
07800000
07800000
0f000000
1f000000
1e000000
3e000000
3e000000
3c1fe000
7c7ff800
7dfffc00
7f807e00
7e001f00
fc000f80
f8000f80
f80007c0
f00007c0
f00003c0
f00003e0
f00003e0
f00001e0
f00001e0
f00001e0
f00001e0
700001e0
700001e0
700001e0
780001e0
780001c0
380001c0
3c0001c0
3c0003c0
1e000380
1e000780
0f000700
07800e00
03c01c00
01f8f800
007ff000
001f8000
>
 ]
/TT1Fb00 AddT3T32Char
T32RsrcEnd
566 1135 M <010809>S 
N 668 1114 M 4457 1114 I : [ 1 0 0 1 150 150 ] concat K 
; : N 4457 1114 1 1 rp C 
 L ; N 668 5299 M 4457 5299 I : [ 1 0 0 1 150 150 ] concat K 
; : N 4457 5299 1 1 rp C 
 L ; N 4457 5299 M 4457 1114 I : [ 1 0 0 1 150 150 ] concat K 
; : N 4457 1114 1 1 rp C 
 L ; N 668 5299 M 668 1114 I : [ 1 0 0 1 150 150 ] concat K 
; : N 668 1114 1 1 rp C 
 L ; 1 1 0 1 scol : 668 1391 102 2839 rc N 668 4226 M 669 4174 I 670 4123 I 671 4072 I 671 4022 I 672 3972 I 673 3923 I 674 3875 I 674 3827 I 675 3779 I 676 3732 I 677 3685 I 677 3639 I 678 3594 I 679 3549 I 680 3504 I 680 3460 I 681 3417 I 682 3374 I 683 3331 I 683 3289 I 684 3248 I 685 3207 I 686 3167 I 686 3127 I 687 3088 I 688 3049 I 689 3010 I 689 2972 I 690 2935 I 691 2898 I 692 2862 I 693 2826 I 693 2791 I 694 2756 I 695 2722 I 696 2688 I 696 2654 I 697 2622 I 698 2589 I 699 2557 I 699 2526 I 700 2495 I 701 2464 I 702 2435 I 702 2405 I 703 2376 I 704 2348 I 705 2319 I 705 2292 I 706 2265 I 707 2238 I 708 2212 I 708 2186 I 709 2161 I 710 2136 I 711 2112 I 711 2088 I 712 2065 I 713 2042 I 714 2019 I 714 1997 I 715 1975 I 716 1954 I 717 1933 I 718 1913 I 718 1893 I 719 1874 I 720 1855 I 721 1836 I 721 1818 I 722 1800 I 723 1783 I 724 1766 I 724 1749 I 725 1733 I 726 1718 I 727 1702 I 727 1688 I 728 1673 I 729 1659 I 730 1645 I 730 1632 I 731 1619 I 732 1607 I 733 1595 I 733 1583 I 734 1572 I 735 1561 I 736 1550 I 736 1540 I 737 1530 I 738 1521 I 739 1512 I 739 1503 I 740 1495 I 741 1487 I 742 1479 I 743 1472 I 743 1465 I 744 1458 I 745 1452 I 746 1446 I 746 1440 I 747 1435 I 748 1430 I 749 1426 I 749 1421 I 750 1417 I 751 1414 I 752 1411 I 752 1408 I 753 1405 I 754 1403 I 755 1400 I 755 1399 I 756 1397 I 757 1396 I 758 1395 I 759 1394 I 760 1395 I 761 1395 I 762 1396 I 763 1397 I 764 1399 I 764 1401 I 765 1402 I 766 1405 I : [ 1 0 0 1 150 150 ] concat K 
; ; N 766 1405 M 767 1407 I 768 1410 I 768 1413 I 769 1416 I 770 1420 I 771 1423 I 771 1427 I 772 1432 I 773 1436 I 774 1441 I 774 1446 I 775 1451 I 776 1456 I 777 1462 I 777 1468 I 778 1474 I 779 1480 I 780 1487 I 780 1493 I 781 1500 I 782 1507 I 783 1515 I 783 1522 I 784 1530 I 785 1538 I 786 1546 I 786 1554 I 787 1562 I 788 1571 I 789 1580 I 790 1589 I 790 1598 I 791 1608 I 792 1617 I 793 1627 I 793 1637 I 794 1647 I 795 1657 I 796 1667 I 796 1678 I 797 1688 I 798 1699 I 799 1710 I 799 1721 I 800 1732 I 801 1744 I 802 1755 I 802 1767 I 803 1779 I 804 1791 I 805 1803 I 805 1815 I 806 1827 I 807 1839 I 808 1852 I 808 1864 I 809 1877 I 810 1890 I 811 1903 I 811 1916 I 812 1929 I 813 1942 I 814 1956 I 815 1969 I 815 1983 I 816 1996 I 817 2010 I 818 2024 I 818 2038 I 819 2052 I 820 2066 I 821 2080 I 821 2094 I 822 2109 I 823 2123 I 824 2137 I 824 2152 I 825 2166 I 826 2181 I 827 2196 I 827 2210 I 828 2225 I 829 2240 I 830 2255 I 830 2270 I 831 2285 I 832 2300 I 833 2315 I 833 2330 I 834 2345 I 835 2361 I 836 2376 I 836 2391 I 837 2406 I 838 2422 I 839 2437 I 840 2453 I 840 2468 I 841 2483 I 842 2499 I 843 2514 I 843 2530 I 844 2545 I 845 2561 I 846 2577 I 846 2592 I 847 2608 I 848 2623 I 849 2639 I 849 2655 I 850 2670 I 851 2686 I 852 2701 I 852 2717 I 853 2733 I 854 2748 I 855 2764 I 855 2779 I 856 2795 I 857 2811 I 858 2826 I 858 2842 I 859 2857 I 860 2873 I 861 2888 I 861 2904 I 862 2919 I : [ 1 0 0 1 150 150 ] concat K 
; N 862 2919 M 863 2935 I 864 2950 I 865 2965 I 865 2981 I 866 2996 I 867 3011 I 868 3027 I 868 3042 I 869 3057 I 870 3072 I 871 3088 I 871 3103 I 872 3118 I 873 3133 I 874 3148 I 874 3163 I 875 3178 I 876 3193 I 877 3207 I 877 3222 I 878 3237 I 879 3252 I 880 3266 I 880 3281 I 881 3296 I 882 3310 I 883 3325 I 883 3339 I 884 3353 I 885 3368 I 886 3382 I 887 3396 I 887 3410 I 888 3424 I 889 3438 I 890 3452 I 890 3466 I 891 3480 I 892 3494 I 893 3508 I 893 3521 I 894 3535 I 895 3548 I 896 3562 I 896 3575 I 897 3589 I 898 3602 I 899 3615 I 899 3628 I 900 3641 I 901 3654 I 902 3667 I 902 3680 I 903 3693 I 904 3706 I 905 3718 I 905 3731 I 906 3743 I 907 3756 I 908 3768 I 908 3781 I 909 3793 I 910 3805 I 911 3817 I 912 3829 I 912 3841 I 913 3853 I 914 3864 I 915 3876 I 915 3888 I 916 3899 I 917 3911 I 918 3922 I 918 3933 I 919 3944 I 920 3955 I 921 3966 I 921 3977 I 922 3988 I 923 3999 I 924 4010 I 924 4020 I 925 4031 I 926 4041 I 927 4052 I 927 4062 I 928 4072 I 929 4082 I 930 4092 I 930 4102 I 931 4112 I 932 4122 I 933 4132 I 933 4141 I 934 4151 I 935 4160 I 936 4170 I 937 4179 I 937 4188 I 938 4197 I 939 4206 I 940 4215 I 940 4224 I 941 4233 I 942 4241 I 943 4250 I 943 4259 I 944 4267 I 945 4275 I 946 4284 I 946 4292 I 947 4300 I 948 4308 I 949 4316 I 949 4324 I 950 4331 I 951 4339 I 952 4347 I 952 4354 I 953 4361 I 954 4369 I 955 4376 I 955 4383 I 956 4390 I 957 4397 I 958 4404 I 958 4411 I : [ 1 0 0 1 150 150 ] concat K 
; N 958 4411 M 959 4418 I 960 4424 I 961 4431 I 962 4437 I 962 4444 I 963 4450 I 964 4456 I 965 4462 I 965 4468 I 966 4474 I 967 4480 I 968 4486 I 968 4492 I 969 4498 I 970 4503 I 971 4509 I 971 4514 I 972 4519 I 973 4525 I 974 4530 I 974 4535 I 975 4540 I 976 4545 I 977 4550 I 977 4555 I 978 4559 I 979 4564 I 980 4568 I 980 4573 I 981 4577 I 982 4582 I 983 4586 I 984 4590 I 984 4594 I 985 4598 I 986 4602 I 987 4606 I 987 4610 I 988 4614 I 989 4617 I 990 4621 I 990 4624 I 991 4628 I 992 4631 I 993 4634 I 993 4638 I 994 4641 I 995 4644 I 996 4647 I 996 4650 I 997 4653 I 998 4656 I 999 4658 I 999 4661 I 1000 4664 I 1001 4666 I 1002 4669 I 1002 4671 I 1003 4673 I 1004 4676 I 1005 4678 I 1005 4680 I 1006 4682 I 1007 4684 I 1008 4686 I 1009 4688 I 1009 4690 I 1010 4691 I 1011 4693 I 1012 4695 I 1012 4696 I 1013 4698 I 1014 4699 I 1015 4701 I 1015 4702 I 1016 4703 I 1017 4705 I 1018 4706 I 1018 4707 I 1019 4708 I 1020 4709 I 1021 4710 I 1021 4711 I 1022 4712 I 1023 4713 I 1024 4714 I 1025 4715 I 1026 4715 I 1027 4716 I 1028 4717 I 1029 4717 I 1030 4718 I 1031 4718 I 1032 4718 I 1033 4718 I 1034 4718 I 1035 4718 I 1036 4718 I 1037 4718 I 1038 4718 I 1039 4717 I 1040 4717 I 1041 4716 I 1042 4716 I 1043 4715 I 1044 4714 I 1045 4714 I 1046 4713 I 1047 4712 I 1048 4711 I 1049 4710 I 1050 4709 I 1051 4708 I 1052 4707 I 1052 4706 I 1053 4705 I 1054 4704 I 1055 4703 I 1055 4702 I 1056 4701 I 1057 4699 I 1058 4698 I 1059 4697 I 1059 4696 I 1060 4695 I 1061 4693 I 1062 4692 I : [ 1 0 0 1 150 150 ] concat K 
; N 1062 4692 M 1062 4690 I 1063 4689 I 1064 4688 I 1065 4686 I 1065 4685 I 1066 4683 I 1067 4681 I 1068 4680 I 1068 4678 I 1069 4677 I 1070 4675 I 1071 4673 I 1071 4672 I 1072 4670 I 1073 4668 I 1074 4666 I 1074 4664 I 1075 4663 I 1076 4661 I 1077 4659 I 1077 4657 I 1078 4655 I 1079 4653 I 1080 4651 I 1081 4649 I 1081 4647 I 1082 4645 I 1083 4643 I 1084 4641 I 1084 4639 I 1085 4637 I 1086 4635 I 1087 4633 I 1087 4630 I 1088 4628 I 1089 4626 I 1090 4624 I 1090 4622 I 1091 4619 I 1092 4617 I 1093 4615 I 1093 4613 I 1094 4610 I 1095 4608 I 1096 4606 I 1096 4604 I 1097 4601 I 1098 4599 I 1099 4596 I 1099 4594 I 1100 4592 I 1101 4589 I 1102 4587 I 1102 4585 I 1103 4582 I 1104 4580 I 1105 4577 I 1106 4575 I 1106 4572 I 1107 4570 I 1108 4567 I 1109 4565 I 1109 4563 I 1110 4560 I 1111 4558 I 1112 4555 I 1112 4553 I 1113 4550 I 1114 4548 I 1115 4545 I 1115 4543 I 1116 4540 I 1117 4537 I 1118 4535 I 1118 4532 I 1119 4530 I 1120 4527 I 1121 4525 I 1121 4522 I 1122 4520 I 1123 4517 I 1124 4515 I 1124 4512 I 1125 4510 I 1126 4507 I 1127 4504 I 1127 4502 I 1128 4499 I 1129 4497 I 1130 4494 I 1131 4492 I 1131 4489 I 1132 4487 I 1133 4484 I 1134 4482 I 1134 4479 I 1135 4477 I 1136 4474 I 1137 4472 I 1137 4469 I 1138 4466 I 1139 4464 I 1140 4461 I 1140 4459 I 1141 4456 I 1142 4454 I 1143 4451 I 1143 4449 I 1144 4446 I 1145 4444 I 1146 4442 I 1146 4439 I 1147 4437 I 1148 4434 I 1149 4432 I 1149 4429 I 1150 4427 I 1151 4424 I 1152 4422 I 1152 4420 I 1153 4417 I 1154 4415 I 1155 4412 I 1156 4410 I 1156 4408 I 1157 4405 I 1158 4403 I : [ 1 0 0 1 150 150 ] concat K 
; N 1158 4403 M 1159 4401 I 1159 4398 I 1160 4396 I 1161 4394 I 1162 4391 I 1162 4389 I 1163 4387 I 1164 4384 I 1165 4382 I 1165 4380 I 1166 4378 I 1167 4375 I 1168 4373 I 1168 4371 I 1169 4369 I 1170 4366 I 1171 4364 I 1171 4362 I 1172 4360 I 1173 4358 I 1174 4356 I 1174 4353 I 1175 4351 I 1176 4349 I 1177 4347 I 1177 4345 I 1178 4343 I 1179 4341 I 1180 4339 I 1181 4337 I 1181 4335 I 1182 4333 I 1183 4331 I 1184 4329 I 1184 4327 I 1185 4325 I 1186 4323 I 1187 4321 I 1187 4319 I 1188 4317 I 1189 4315 I 1190 4313 I 1190 4311 I 1191 4309 I 1192 4308 I 1193 4306 I 1193 4304 I 1194 4302 I 1195 4300 I 1196 4298 I 1196 4297 I 1197 4295 I 1198 4293 I 1199 4291 I 1199 4290 I 1200 4288 I 1201 4286 I 1202 4285 I 1203 4283 I 1203 4281 I 1204 4280 I 1205 4278 I 1206 4276 I 1206 4275 I 1207 4273 I 1208 4272 I 1209 4270 I 1209 4268 I 1210 4267 I 1211 4265 I 1212 4264 I 1212 4262 I 1213 4261 I 1214 4259 I 1215 4258 I 1215 4257 I 1216 4255 I 1217 4254 I 1218 4252 I 1218 4251 I 1219 4250 I 1220 4248 I 1221 4247 I 1221 4245 I 1222 4244 I 1223 4243 I 1224 4242 I 1224 4240 I 1225 4239 I 1226 4238 I 1227 4237 I 1228 4235 I 1228 4234 I 1229 4233 I 1230 4232 I 1231 4231 I 1231 4229 I 1232 4228 I 1233 4227 I 1234 4226 I 1234 4225 I 1235 4224 I 1236 4223 I 1237 4222 I 1237 4221 I 1238 4220 I 1239 4219 I 1240 4218 I 1240 4217 I 1241 4216 I 1242 4215 I 1243 4214 I 1243 4213 I 1244 4212 I 1245 4211 I 1246 4210 I 1246 4209 I 1247 4208 I 1248 4208 I 1249 4207 I 1249 4206 I 1250 4205 I 1251 4204 I 1252 4204 I 1253 4203 I 1253 4202 I 1254 4201 I : [ 1 0 0 1 150 150 ] concat K 
; N 1254 4201 M 1255 4201 I 1256 4200 I 1256 4199 I 1257 4198 I 1258 4198 I 1260 4196 I 1259 4196 I 1260 4196 I 1261 4195 I 1262 4194 I 1263 4193 I 1264 4193 I 1266 4191 I 1265 4191 I 1266 4191 I 1267 4190 I 1268 4189 I 1269 4189 I 1270 4188 I 1271 4187 I 1272 4187 I 1273 4186 I 1274 4186 I 1275 4185 I 1276 4185 I 1277 4184 I 1278 4184 I 1279 4183 I 1280 4183 I 1281 4182 I 1282 4182 I 1283 4181 I 1284 4181 I 1285 4181 I 1286 4180 I 1287 4180 I 1288 4180 I 1289 4179 I 1290 4179 I 1291 4179 I 1292 4178 I 1293 4178 I 1294 4178 I 1295 4178 I 1296 4177 I 1297 4177 I 1298 4177 I 1299 4177 I 1300 4177 I 1301 4177 I 1302 4177 I 1303 4177 I 1304 4176 I 1305 4176 I 1306 4176 I 1307 4176 I 1308 4176 I 1309 4176 I 1310 4176 I 1311 4176 I 1312 4176 I 1313 4176 I 1314 4176 I 1315 4177 I 1316 4177 I 1317 4177 I 1318 4177 I 1319 4177 I 1320 4177 I 1321 4177 I 1322 4177 I 1323 4177 I 1324 4178 I 1325 4178 I 1326 4178 I 1327 4178 I 1328 4178 I 1329 4179 I 1330 4179 I 1331 4179 I 1332 4179 I 1333 4180 I 1334 4180 I 1335 4180 I 1336 4180 I 1337 4181 I 1338 4181 I 1339 4181 I 1340 4182 I 1341 4182 I 1342 4182 I 1343 4183 I 1344 4183 I 1345 4183 I 1346 4184 I 1347 4184 I 1348 4185 I 1349 4185 I 1350 4185 I 1351 4186 I 1352 4186 I 1353 4187 I 1354 4187 I 1355 4187 I 1356 4188 I 1357 4188 I 1358 4189 I 1359 4189 I 1360 4190 I 1361 4190 I 1362 4191 I 1363 4191 I 1364 4191 I 1365 4192 I 1366 4192 I 1367 4193 I 1368 4194 I 1369 4194 I 1370 4194 I 1371 4195 I 1372 4195 I 1373 4196 I 1374 4196 I 1375 4197 I 1376 4197 I 1377 4198 I 1378 4199 I : [ 1 0 0 1 150 150 ] concat K 
; N 1378 4199 M 1379 4199 I 1380 4199 I 1381 4200 I 1382 4201 I 1383 4201 I 1384 4202 I 1385 4202 I 1386 4203 I 1387 4203 I 1388 4204 I 1389 4204 I 1390 4205 I 1391 4205 I 1392 4206 I 1393 4207 I 1394 4207 I 1395 4207 I 1396 4208 I 1397 4209 I 1398 4209 I 1399 4210 I 1400 4210 I 1401 4211 I 1402 4211 I 1403 4212 I 1404 4212 I 1405 4213 I 1406 4214 I 1407 4214 I 1408 4215 I 1409 4215 I 1410 4216 I 1411 4216 I 1412 4217 I 1413 4217 I 1414 4218 I 1415 4219 I 1416 4219 I 1417 4219 I 1418 4220 I 1419 4221 I 1420 4221 I 1421 4221 I 1422 4222 I 1423 4223 I 1424 4223 I 1425 4224 I 1426 4224 I 1427 4225 I 1428 4225 I 1429 4226 I 1430 4226 I 1431 4227 I 1432 4227 I 1433 4228 I 1434 4229 I 1435 4229 I 1436 4229 I 1437 4230 I 1438 4230 I 1439 4231 I 1440 4232 I 1441 4232 I 1442 4232 I 1443 4233 I 1444 4233 I 1445 4234 I 1446 4234 I 1447 4235 I 1448 4235 I 1449 4235 I 1450 4236 I 1451 4237 I 1452 4237 I 1453 4238 I 1454 4238 I 1455 4238 I 1456 4239 I 1457 4239 I 1458 4240 I 1459 4240 I 1460 4241 I 1461 4241 I 1462 4241 I 1463 4242 I 1464 4242 I 1465 4243 I 1466 4243 I 1467 4243 I 1468 4244 I 1469 4244 I 1470 4245 I 1471 4245 I 1472 4245 I 1473 4246 I 1474 4246 I 1475 4247 I 1476 4247 I 1477 4247 I 1478 4248 I 1479 4248 I 1480 4248 I 1481 4249 I 1482 4249 I 1483 4249 I 1484 4250 I 1485 4250 I 1486 4250 I 1487 4251 I 1488 4251 I 1489 4251 I 1490 4252 I 1491 4252 I 1492 4252 I 1493 4252 I 1494 4253 I 1495 4253 I 1496 4253 I 1497 4254 I 1498 4254 I 1499 4254 I 1500 4254 I 1501 4255 I 1502 4255 I 1503 4255 I 1504 4255 I 1505 4256 I : [ 1 0 0 1 150 150 ] concat K 
; N 1505 4256 M 1506 4256 I 1507 4256 I 1508 4256 I 1509 4257 I 1510 4257 I 1511 4257 I 1512 4257 I 1513 4258 I 1514 4258 I 1515 4258 I 1516 4258 I 1517 4258 I 1518 4259 I 1519 4259 I 1520 4259 I 1521 4259 I 1522 4259 I 1523 4260 I 1524 4260 I 1525 4260 I 1526 4260 I 1527 4260 I 1528 4260 I 1529 4261 I 1530 4261 I 1531 4261 I 1532 4261 I 1533 4261 I 1534 4261 I 1535 4261 I 1536 4262 I 1537 4262 I 1538 4262 I 1539 4262 I 1540 4262 I 1541 4262 I 1542 4262 I 1543 4262 I 1544 4263 I 1545 4263 I 1546 4263 I 1547 4263 I 1548 4263 I 1549 4263 I 1550 4263 I 1551 4263 I 1552 4263 I 1553 4263 I 1554 4264 I 1555 4264 I 1556 4264 I 1557 4264 I 1558 4264 I 1559 4264 I 1560 4264 I 1561 4264 I 1562 4264 I 1563 4264 I 1564 4264 I 1565 4264 I 1566 4264 I 1567 4264 I 1568 4264 I 1569 4264 I 1570 4264 I 1571 4264 I 1572 4264 I 1573 4264 I 1574 4265 I 1575 4265 I 1576 4265 I 1577 4265 I 1578 4265 I 1579 4265 I 1580 4265 I 1581 4265 I 1582 4265 I 1583 4265 I 1584 4265 I 1585 4265 I 1586 4265 I 1587 4265 I 1588 4265 I 1589 4265 I 1590 4265 I 1591 4265 I 1592 4265 I 1593 4265 I 1594 4265 I 1595 4265 I 1596 4264 I 1597 4264 I 1598 4264 I 1599 4264 I 1600 4264 I 1601 4264 I 1602 4264 I 1603 4264 I 1604 4264 I 1605 4264 I 1606 4264 I 1607 4264 I 1608 4264 I 1609 4264 I 1610 4264 I 1611 4264 I 1612 4264 I 1613 4264 I 1614 4264 I 1615 4264 I 1616 4264 I 1617 4264 I 1618 4264 I 1619 4264 I 1620 4263 I 1621 4263 I 1622 4263 I 1623 4263 I 1624 4263 I 1625 4263 I 1626 4263 I 1627 4263 I 1628 4263 I 1629 4263 I 1630 4263 I 1631 4263 I 1632 4263 I : [ 1 0 0 1 150 150 ] concat K 
; N 1632 4263 M 1633 4263 I 1634 4263 I 1635 4262 I 1636 4262 I 1637 4262 I 1638 4262 I 1639 4262 I 1640 4262 I 1641 4262 I 1642 4262 I 1643 4262 I 1644 4262 I 1645 4262 I 1646 4262 I 1647 4261 I 1648 4261 I 1649 4261 I 1650 4261 I 1651 4261 I 1652 4261 I 1653 4261 I 1654 4261 I 1655 4261 I 1656 4261 I 1657 4261 I 1658 4261 I 1659 4260 I 1660 4260 I 1661 4260 I 1662 4260 I 1663 4260 I 1664 4260 I 1665 4260 I 1666 4260 I 1667 4260 I 1668 4260 I 1669 4260 I 1670 4260 I 1671 4259 I 1672 4259 I 1673 4259 I 1674 4259 I 1675 4259 I 1676 4259 I 1677 4259 I 1678 4259 I 1679 4259 I 1680 4259 I 1681 4259 I 1682 4258 I 1683 4258 I 1684 4258 I 1685 4258 I 1686 4258 I 1687 4258 I 1688 4258 I 1689 4258 I 1690 4258 I 1691 4258 I 1692 4258 I 1693 4258 I 1694 4257 I 1695 4257 I 1696 4257 I 1697 4257 I 1698 4257 I 1699 4257 I 1700 4257 I 1701 4257 I 1702 4257 I 1703 4257 I 1704 4257 I 1705 4256 I 1706 4256 I 1707 4256 I 1708 4256 I 1709 4256 I 1710 4256 I 1711 4256 I 1712 4256 I 1713 4256 I 1714 4256 I 1715 4256 I 1716 4256 I 1717 4255 I 1718 4255 I 1719 4255 I 1720 4255 I 1721 4255 I 1722 4255 I 1723 4255 I 1724 4255 I 1725 4255 I 1726 4255 I 1727 4255 I 1728 4255 I 1729 4255 I 1730 4255 I 1731 4254 I 1732 4254 I 1733 4254 I 1734 4254 I 1735 4254 I 1736 4254 I 1737 4254 I 1738 4254 I 1739 4254 I 1740 4254 I 1741 4254 I 1742 4254 I 1743 4254 I 1744 4254 I 1745 4254 I 1746 4253 I 1747 4253 I 1748 4253 I 1749 4253 I 1750 4253 I 1751 4253 I 1752 4253 I 1753 4253 I 1754 4253 I 1755 4253 I 1756 4253 I 1757 4253 I 1758 4253 I 1759 4253 I : [ 1 0 0 1 150 150 ] concat K 
; N 1759 4253 M 1760 4253 I 1761 4253 I 1762 4253 I 1763 4252 I 1764 4252 I 1765 4252 I 1766 4252 I 1767 4252 I 1768 4252 I 1769 4252 I 1770 4252 I 1771 4252 I 1772 4252 I 1773 4252 I 1774 4252 I 1775 4252 I 1776 4252 I 1777 4252 I 1778 4252 I 1779 4252 I 1780 4252 I 1781 4252 I 1782 4252 I 1783 4252 I 1784 4252 I 1785 4251 I 1786 4251 I 1787 4251 I 1788 4251 I 1789 4251 I 1790 4251 I 1791 4251 I 1792 4251 I 1793 4251 I 1794 4251 I 1795 4251 I 1796 4251 I 1797 4251 I 1798 4251 I 1799 4251 I 1800 4251 I 1801 4251 I 1802 4251 I 1803 4251 I 1804 4251 I 1805 4251 I 1806 4251 I 1807 4251 I 1808 4251 I 1809 4251 I 1810 4251 I 1811 4251 I 1812 4251 I 1813 4251 I 1814 4251 I 1815 4251 I 1816 4251 I 1817 4251 I 1818 4251 I 1819 4251 I 1820 4251 I 1821 4251 I 1822 4251 I 1823 4250 I 1824 4250 I 1825 4250 I 1826 4250 I 1827 4250 I 1828 4250 I 1829 4250 I 1830 4250 I 1831 4250 I 1832 4250 I 1833 4250 I 1834 4250 I 1835 4250 I 1836 4250 I 1837 4250 I 1838 4250 I 1839 4250 I 1840 4250 I 1841 4250 I 1842 4250 I 1843 4250 I 1844 4250 I 1845 4250 I 1846 4250 I 1847 4250 I 1848 4250 I 1849 4250 I 1850 4250 I 1851 4250 I 1852 4250 I 1853 4250 I 1854 4250 I 1855 4250 I 1856 4250 I 1857 4250 I 1858 4250 I 1859 4250 I 1860 4250 I 1861 4250 I 1862 4250 I 1863 4250 I 1864 4250 I 1865 4250 I 1866 4250 I 1867 4250 I 1868 4250 I 1869 4250 I 1870 4250 I 1871 4250 I 1872 4250 I 1873 4250 I 1874 4250 I 1875 4250 I 1876 4250 I 1877 4250 I 1878 4250 I 1879 4250 I 1880 4250 I 1881 4250 I 1882 4250 I 1883 4250 I 1884 4250 I 1885 4250 I 1886 4250 I : [ 1 0 0 1 150 150 ] concat K 
; N 1886 4250 M 1887 4250 I 1888 4250 I 1889 4250 I 1890 4250 I 1891 4250 I 1892 4250 I 1893 4250 I 1894 4250 I 1895 4250 I 1896 4250 I 1897 4250 I 1898 4250 I 1899 4250 I 1900 4250 I 1901 4250 I 1902 4250 I 1903 4251 I 1904 4251 I 1905 4251 I 1906 4251 I 1907 4251 I 1908 4251 I 1909 4251 I 1910 4251 I 1911 4251 I 1912 4251 I 1913 4251 I 1914 4251 I 1915 4251 I 1916 4251 I 1917 4251 I 1918 4251 I 1919 4251 I 1920 4251 I 1921 4251 I 1922 4251 I 1923 4251 I 1924 4251 I 1925 4251 I 1926 4251 I 1927 4251 I 1928 4251 I 1929 4251 I 1930 4251 I 1931 4251 I 1932 4251 I 1933 4251 I 1934 4251 I 1935 4251 I 1936 4251 I 1937 4251 I 1938 4251 I 1939 4251 I 1940 4251 I 1941 4251 I 1942 4251 I 1943 4251 I 1944 4251 I 1945 4251 I 1946 4251 I 1947 4251 I 1948 4251 I 1949 4251 I 1950 4251 I 1951 4251 I 1952 4251 I 1953 4251 I 1954 4251 I 1955 4251 I 1956 4251 I 1957 4251 I 1958 4251 I 1959 4251 I 1960 4251 I 1961 4251 I 1962 4251 I 1963 4251 I 1964 4251 I 1965 4251 I 1966 4251 I 1967 4251 I 1968 4251 I 1969 4251 I 1970 4251 I 1971 4251 I 1972 4251 I 1973 4251 I 1974 4251 I 1975 4252 I 1976 4252 I 1977 4252 I 1978 4252 I 1979 4252 I 1980 4252 I 1981 4252 I 1982 4252 I 1983 4252 I 1984 4252 I 1985 4252 I 1986 4252 I 1987 4252 I 1988 4252 I 1989 4252 I 1990 4252 I 1991 4252 I 1992 4252 I 1993 4252 I 1994 4252 I 1995 4252 I 1996 4252 I 1997 4252 I 1998 4252 I 1999 4252 I 2000 4252 I 2001 4252 I 2002 4252 I 2003 4252 I 2004 4252 I 2005 4252 I 2006 4252 I 2007 4252 I 2008 4252 I 2009 4252 I 2010 4252 I 2011 4252 I 2012 4252 I 2013 4252 I : [ 1 0 0 1 150 150 ] concat K 
; N 2013 4252 M 2014 4252 I 2015 4252 I 2016 4252 I 2017 4252 I 2018 4252 I 2019 4252 I 2020 4252 I 2021 4252 I 2022 4252 I 2023 4252 I 2024 4252 I 2025 4252 I 2026 4252 I 2027 4252 I 2028 4252 I 2029 4252 I 2030 4252 I 2031 4252 I 2032 4252 I 2033 4252 I 2034 4252 I 2035 4252 I 2036 4252 I 2037 4252 I 2038 4252 I 2039 4252 I 2040 4252 I 2041 4252 I 2042 4252 I 2043 4252 I 2044 4252 I 2045 4252 I 2046 4252 I 2047 4252 I 2048 4252 I 2049 4252 I 2050 4252 I 2051 4252 I 2052 4252 I 2053 4252 I 2054 4252 I 2055 4252 I 2056 4252 I 2057 4252 I 2058 4252 I 2059 4252 I 2060 4252 I 2061 4252 I 2062 4252 I 2063 4252 I 2064 4252 I 2065 4252 I 2066 4252 I 2067 4252 I 2068 4252 I 2069 4252 I 2070 4252 I 2071 4252 I 2072 4252 I 2073 4252 I 2074 4252 I 2075 4252 I 2076 4252 I 2077 4252 I 2078 4252 I 2079 4252 I 2080 4252 I 2081 4252 I 2082 4252 I 2083 4252 I 2084 4252 I 2085 4252 I 2086 4252 I 2087 4253 I 2088 4253 I 2089 4253 I 2090 4253 I 2091 4253 I 2092 4253 I 2093 4253 I 2094 4253 I 2095 4253 I 2096 4253 I 2097 4253 I 2098 4253 I 2099 4253 I 2100 4253 I 2101 4253 I 2102 4253 I 2103 4253 I 2104 4253 I 2105 4253 I 2106 4253 I 2107 4253 I 2108 4253 I 2109 4253 I 2110 4253 I 2111 4253 I 2112 4253 I 2113 4253 I 2114 4253 I 2115 4253 I 2116 4253 I 2117 4253 I 2118 4253 I 2119 4253 I 2120 4253 I 2121 4253 I 2122 4253 I 2123 4253 I 2124 4253 I 2125 4253 I 2126 4253 I 2127 4253 I 2128 4253 I 2129 4253 I 2130 4253 I 2131 4253 I 2132 4253 I 2133 4253 I 2134 4253 I 2135 4253 I 2136 4253 I 2137 4253 I 2138 4253 I 2139 4253 I 2140 4253 I : [ 1 0 0 1 150 150 ] concat K 
; N 2140 4253 M 2141 4253 I 2142 4253 I 2143 4253 I 2144 4253 I 2145 4253 I 2146 4253 I 2147 4253 I 2148 4253 I 2149 4253 I 2150 4253 I 2151 4253 I 2152 4253 I 2153 4253 I 2154 4253 I 2155 4253 I 2156 4253 I 2157 4253 I 2158 4253 I 2159 4253 I 2160 4253 I 2161 4253 I 2162 4253 I 2163 4253 I 2164 4253 I 2165 4253 I 2166 4253 I 2167 4253 I 2168 4253 I 2169 4253 I 2170 4253 I 2171 4253 I 2172 4253 I 2173 4253 I 2174 4253 I 2175 4253 I 2176 4253 I 2177 4253 I 2178 4253 I 2179 4253 I 2180 4253 I 2181 4253 I 2182 4253 I 2183 4253 I 2184 4253 I 2185 4253 I 2186 4253 I 2187 4253 I 2188 4253 I 2189 4253 I 2190 4253 I 2191 4253 I 2192 4253 I 2193 4253 I 2194 4253 I 2195 4252 I 2196 4252 I 2197 4252 I 2198 4252 I 2199 4252 I 2200 4252 I 2201 4252 I 2202 4252 I 2203 4252 I 2204 4252 I 2205 4252 I 2206 4252 I 2207 4252 I 2208 4252 I 2209 4252 I 2210 4252 I 2211 4252 I 2212 4252 I 2213 4252 I 2214 4252 I 2215 4252 I 2216 4252 I 2217 4252 I 2218 4252 I 2219 4252 I 2220 4252 I 2221 4252 I 2222 4252 I 2223 4252 I 2224 4252 I 2225 4252 I 2226 4252 I 2227 4252 I 2228 4252 I 2229 4252 I 2230 4252 I 2231 4252 I 2232 4252 I 2233 4252 I 2234 4252 I 2235 4252 I 2236 4252 I 2237 4252 I 2238 4252 I 2239 4252 I 2240 4252 I 2241 4252 I 2242 4252 I 2243 4252 I 2244 4252 I 2245 4252 I 2246 4252 I 2247 4252 I 2248 4252 I 2249 4252 I 2250 4252 I 2251 4252 I 2252 4252 I 2253 4252 I 2254 4252 I 2255 4252 I 2256 4252 I 2257 4252 I 2258 4252 I 2259 4252 I 2260 4252 I 2261 4252 I 2262 4252 I 2263 4252 I 2264 4252 I 2265 4252 I 2266 4252 I 2267 4252 I : [ 1 0 0 1 150 150 ] concat K 
; N 2267 4252 M 2268 4252 I 2269 4252 I 2270 4252 I 2271 4252 I 2272 4252 I 2273 4252 I 2274 4252 I 2275 4252 I 2276 4252 I 2277 4252 I 2278 4252 I 2279 4252 I 2280 4252 I 2281 4252 I 2282 4252 I 2283 4252 I 2284 4252 I 2285 4252 I 2286 4252 I 2287 4252 I 2288 4252 I 2289 4252 I 2290 4252 I 2291 4252 I 2292 4252 I 2293 4252 I 2294 4252 I 2295 4252 I 2296 4252 I 2297 4252 I 2298 4252 I 2299 4252 I 2300 4252 I 2301 4252 I 2302 4252 I 2303 4252 I 2304 4252 I 2305 4252 I 2306 4252 I 2307 4252 I 2308 4252 I 2309 4252 I 2310 4252 I 2311 4252 I 2312 4252 I 2313 4252 I 2314 4252 I 2315 4252 I 2316 4252 I 2317 4252 I 2318 4252 I 2319 4252 I 2320 4252 I 2321 4252 I 2322 4252 I 2323 4252 I 2324 4252 I 2325 4252 I 2326 4252 I 2327 4252 I 2328 4252 I 2329 4252 I 2330 4252 I 2331 4252 I 2332 4252 I 2333 4252 I 2334 4252 I 2335 4252 I 2336 4252 I 2337 4252 I 2338 4252 I 2339 4252 I 2340 4252 I 2341 4252 I 2342 4252 I 2343 4252 I 2344 4252 I 2345 4252 I 2346 4252 I 2347 4252 I 2348 4252 I 2349 4252 I 2350 4252 I 2351 4252 I 2352 4252 I 2353 4252 I 2354 4252 I 2355 4252 I 2356 4252 I 2357 4252 I 2358 4252 I 2359 4252 I 2360 4252 I 2361 4252 I 2362 4252 I 2363 4252 I 2364 4252 I 2365 4252 I 2366 4252 I 2367 4252 I 2368 4252 I 2369 4252 I 2370 4252 I 2371 4252 I 2372 4252 I 2373 4252 I 2374 4252 I 2375 4252 I 2376 4252 I 2377 4252 I 2378 4252 I 2379 4252 I 2380 4252 I 2381 4252 I 2382 4252 I 2383 4252 I 2384 4252 I 2385 4252 I 2386 4252 I 2387 4252 I 2388 4252 I 2389 4252 I 2390 4252 I 2391 4252 I 2392 4252 I 2393 4252 I 2394 4252 I : [ 1 0 0 1 150 150 ] concat K 
; N 2394 4252 M 2395 4252 I 2396 4252 I 2397 4252 I 2398 4252 I 2399 4252 I 2400 4252 I 2401 4252 I 2402 4252 I 2403 4252 I 2404 4252 I 2405 4252 I 2406 4252 I 2407 4252 I 2408 4252 I 2409 4252 I 2410 4252 I 2411 4252 I 2412 4252 I 2413 4252 I 2414 4252 I 2415 4252 I 2416 4252 I 2417 4252 I 2418 4252 I 2419 4252 I 2420 4252 I 2421 4252 I 2422 4252 I 2423 4252 I 2424 4252 I 2425 4252 I 2426 4252 I 2427 4252 I 2428 4252 I 2429 4252 I 2430 4252 I 2431 4252 I 2432 4252 I 2433 4252 I 2434 4252 I 2435 4252 I 2436 4252 I 2437 4252 I 2438 4252 I 2439 4252 I 2440 4252 I 2441 4252 I 2442 4252 I 2443 4252 I 2444 4252 I 2445 4252 I 2446 4252 I 2447 4252 I 2448 4252 I 2449 4252 I 2450 4252 I 2451 4252 I 2452 4252 I 2453 4252 I 2454 4252 I 2455 4252 I 2456 4252 I 2457 4252 I 2458 4252 I 2459 4252 I 2460 4252 I 2461 4252 I 2462 4252 I 2463 4252 I 2464 4252 I 2465 4252 I 2466 4252 I 2467 4252 I 2468 4252 I 2469 4252 I 2470 4252 I 2471 4252 I 2472 4252 I 2473 4252 I 2474 4252 I 2475 4252 I 2476 4252 I 2477 4252 I 2478 4252 I 2479 4252 I 2480 4252 I 2481 4252 I 2482 4252 I 2483 4252 I 2484 4252 I 2485 4252 I 2486 4252 I 2487 4252 I 2488 4252 I 2489 4252 I 2490 4252 I 2491 4252 I 2492 4252 I 2493 4252 I 2494 4252 I 2495 4252 I 2496 4252 I 2497 4252 I 2498 4252 I 2499 4252 I 2500 4252 I 2501 4252 I 2502 4252 I 2503 4252 I 2504 4252 I 2505 4252 I 2506 4252 I 2507 4252 I 2508 4252 I 2509 4252 I 2510 4252 I 2511 4252 I 2512 4252 I 2513 4252 I 2514 4252 I 2515 4252 I 2516 4252 I 2517 4252 I 2518 4252 I 2519 4252 I 2520 4252 I 2521 4252 I : [ 1 0 0 1 150 150 ] concat K 
; N 2521 4252 M 2522 4252 I 2523 4252 I 2524 4252 I 2525 4252 I 2526 4252 I 2527 4252 I 2528 4252 I 2529 4252 I 2530 4252 I 2531 4252 I 2532 4252 I 2533 4252 I 2534 4252 I 2535 4252 I 2536 4252 I 2537 4252 I 2538 4252 I 2539 4252 I 2540 4252 I 2541 4252 I 2542 4252 I 2543 4252 I 2544 4252 I 2545 4252 I 2546 4252 I 2547 4252 I 2548 4252 I 2549 4252 I 2550 4252 I 2551 4252 I 2552 4252 I 2553 4252 I 2554 4252 I 2555 4252 I 2556 4252 I 2557 4252 I 2558 4252 I 2559 4252 I 2560 4252 I 2561 4252 I 2562 4252 I 2563 4252 I 2564 4252 I 2565 4252 I 2566 4252 I 2567 4252 I 2568 4252 I 2569 4252 I 2570 4252 I 2571 4252 I 2572 4252 I 2573 4252 I 2574 4252 I 2575 4252 I 2576 4252 I 2577 4252 I 2578 4252 I 2579 4252 I 2580 4252 I 2581 4252 I 2582 4252 I 2583 4252 I 2584 4252 I 2585 4252 I 2586 4252 I 2587 4252 I 2588 4252 I 2589 4252 I 2590 4252 I 2591 4252 I 2592 4252 I 2593 4252 I 2594 4252 I 2595 4252 I 2596 4252 I 2597 4252 I 2598 4252 I 2599 4252 I 2600 4252 I 2601 4252 I 2602 4252 I 2603 4252 I 2604 4252 I 2605 4252 I 2606 4252 I 2607 4252 I 2608 4252 I 2609 4252 I 2610 4252 I 2611 4252 I 2612 4252 I 2613 4252 I 2614 4252 I 2615 4252 I 2616 4252 I 2617 4252 I 2618 4252 I 2619 4252 I 2620 4252 I 2621 4252 I 2622 4252 I 2623 4252 I 2624 4252 I 2625 4252 I 2626 4252 I 2627 4252 I 2628 4252 I 2629 4252 I 2630 4252 I 2631 4252 I 2632 4252 I 2633 4252 I 2634 4252 I 2635 4252 I 2636 4252 I 2637 4252 I 2638 4252 I 2639 4252 I 2640 4252 I 2641 4252 I 2642 4252 I 2643 4252 I 2644 4252 I 2645 4252 I 2646 4252 I 2647 4252 I 2648 4252 I : [ 1 0 0 1 150 150 ] concat K 
; N 2648 4252 M 2649 4252 I 2650 4252 I 2651 4252 I 2652 4252 I 2653 4252 I 2654 4252 I 2655 4252 I 2656 4252 I 2657 4252 I 2658 4252 I 2659 4252 I 2660 4252 I 2661 4252 I 2662 4252 I 2663 4252 I 2664 4252 I 2665 4252 I 2666 4252 I 2667 4252 I 2668 4252 I 2669 4252 I 2670 4252 I 2671 4252 I 2672 4252 I 2673 4252 I 2674 4252 I 2675 4252 I 2676 4252 I 2677 4252 I 2678 4252 I 2679 4252 I 2680 4252 I 2681 4252 I 2682 4252 I 2683 4252 I 2684 4252 I 2685 4252 I 2686 4252 I 2687 4252 I 2688 4252 I 2689 4252 I 2690 4252 I 2691 4252 I 2692 4252 I 2693 4252 I 2694 4252 I 2695 4252 I 2696 4252 I 2697 4252 I 2698 4252 I 2699 4252 I 2700 4252 I 2701 4252 I 2702 4252 I 2703 4252 I 2704 4252 I 2705 4252 I 2706 4252 I 2707 4252 I 2708 4252 I 2709 4252 I 2710 4252 I 2711 4252 I 2712 4252 I 2713 4252 I 2714 4252 I 2715 4252 I 2716 4252 I 2717 4252 I 2718 4252 I 2719 4252 I 2720 4252 I 2721 4252 I 2722 4252 I 2723 4252 I 2724 4252 I 2725 4252 I 2726 4252 I 2727 4252 I 2728 4252 I 2729 4252 I 2730 4252 I 2731 4252 I 2732 4252 I 2733 4252 I 2734 4252 I 2735 4252 I 2736 4252 I 2737 4252 I 2738 4252 I 2739 4252 I 2740 4252 I 2741 4252 I 2742 4252 I 2743 4252 I 2744 4252 I 2745 4252 I 2746 4252 I 2747 4252 I 2748 4252 I 2749 4252 I 2750 4252 I 2751 4252 I 2752 4252 I 2753 4252 I 2754 4252 I 2755 4252 I 2756 4252 I 2757 4252 I 2758 4252 I 2759 4252 I 2760 4252 I 2761 4252 I 2762 4252 I 2763 4252 I 2764 4252 I 2765 4252 I 2766 4252 I 2767 4252 I 2768 4252 I 2769 4252 I 2770 4252 I 2771 4252 I 2772 4252 I 2773 4252 I 2774 4252 I 2775 4252 I : [ 1 0 0 1 150 150 ] concat K 
; N 2775 4252 M 2776 4252 I 2777 4252 I 2778 4252 I 2779 4252 I 2780 4252 I 2781 4252 I 2782 4252 I 2783 4252 I 2784 4252 I 2785 4252 I 2786 4252 I 2787 4252 I 2788 4252 I 2789 4252 I 2790 4252 I 2791 4252 I 2792 4252 I 2793 4252 I 2794 4252 I 2795 4252 I 2796 4252 I 2797 4252 I 2798 4252 I 2799 4252 I 2800 4252 I 2801 4252 I 2802 4252 I 2803 4252 I 2804 4252 I 2805 4252 I 2806 4252 I 2807 4252 I 2808 4252 I 2809 4252 I 2810 4252 I 2811 4252 I 2812 4252 I 2813 4252 I 2814 4252 I 2815 4252 I 2816 4252 I 2817 4252 I 2818 4252 I 2819 4252 I 2820 4252 I 2821 4252 I 2822 4252 I 2823 4252 I 2824 4252 I 2825 4252 I 2826 4252 I 2827 4252 I 2828 4252 I 2829 4252 I 2830 4252 I 2831 4252 I 2832 4252 I 2833 4252 I 2834 4252 I 2835 4252 I 2836 4252 I 2837 4252 I 2838 4252 I 2839 4252 I 2840 4252 I 2841 4252 I 2842 4252 I 2843 4252 I 2844 4252 I 2845 4252 I 2846 4252 I 2847 4252 I 2848 4252 I 2849 4252 I 2850 4252 I 2851 4252 I 2852 4252 I 2853 4252 I 2854 4252 I 2855 4252 I 2856 4252 I 2857 4252 I 2858 4252 I 2859 4252 I 2860 4252 I 2861 4252 I 2862 4252 I 2863 4252 I 2864 4252 I 2865 4252 I 2866 4252 I 2867 4252 I 2868 4252 I 2869 4252 I 2870 4252 I 2871 4252 I 2872 4252 I 2873 4252 I 2874 4252 I 2875 4252 I 2876 4252 I 2877 4252 I 2878 4252 I 2879 4252 I 2880 4252 I 2881 4252 I 2882 4252 I 2883 4252 I 2884 4252 I 2885 4252 I 2886 4252 I 2887 4252 I 2888 4252 I 2889 4252 I 2890 4252 I 2891 4252 I 2892 4252 I 2893 4252 I 2894 4252 I 2895 4252 I 2896 4252 I 2897 4252 I 2898 4252 I 2899 4252 I 2900 4252 I 2901 4252 I 2902 4252 I : [ 1 0 0 1 150 150 ] concat K 
; N 2902 4252 M 2903 4252 I 2904 4252 I 2905 4252 I 2906 4252 I 2907 4252 I 2908 4252 I 2909 4252 I 2910 4252 I 2911 4252 I 2912 4252 I 2913 4252 I 2914 4252 I 2915 4252 I 2916 4252 I 2917 4252 I 2918 4252 I 2919 4252 I 2920 4252 I 2921 4252 I 2922 4252 I 2923 4252 I 2924 4252 I 2925 4252 I 2926 4252 I 2927 4252 I 2928 4252 I 2929 4252 I 2930 4252 I 2931 4252 I 2932 4252 I 2933 4252 I 2934 4252 I 2935 4252 I 2936 4252 I 2937 4252 I 2938 4252 I 2939 4252 I 2940 4252 I 2941 4252 I 2942 4252 I 2943 4252 I 2944 4252 I 2945 4252 I 2946 4252 I 2947 4252 I 2948 4252 I 2949 4252 I 2950 4252 I 2951 4252 I 2952 4252 I 2953 4252 I 2954 4252 I 2955 4252 I 2956 4252 I 2957 4252 I 2958 4252 I 2959 4252 I 2960 4252 I 2961 4252 I 2962 4252 I 2963 4252 I 2964 4252 I 2965 4252 I 2966 4252 I 2967 4252 I 2968 4252 I 2969 4252 I 2970 4252 I 2971 4252 I 2972 4252 I 2973 4252 I 2974 4252 I 2975 4252 I 2976 4252 I 2977 4252 I 2978 4252 I 2979 4252 I 2980 4252 I 2981 4252 I 2982 4252 I 2983 4252 I 2984 4252 I 2985 4252 I 2986 4252 I 2987 4252 I 2988 4252 I 2989 4252 I 2990 4252 I 2991 4252 I 2992 4252 I 2993 4252 I 2994 4252 I 2995 4252 I 2996 4252 I 2997 4252 I 2998 4252 I 2999 4252 I 3000 4252 I 3001 4252 I 3002 4252 I 3003 4252 I 3004 4252 I 3005 4252 I 3006 4252 I 3007 4252 I 3008 4252 I 3009 4252 I 3010 4252 I 3011 4252 I 3012 4252 I 3013 4252 I 3014 4252 I 3015 4252 I 3016 4252 I 3017 4252 I 3018 4252 I 3019 4252 I 3020 4252 I 3021 4252 I 3022 4252 I 3023 4252 I 3024 4252 I 3025 4252 I 3026 4252 I 3027 4252 I 3028 4252 I 3029 4252 I : [ 1 0 0 1 150 150 ] concat K 
; N 3029 4252 M 3030 4252 I 3031 4252 I 3032 4252 I 3033 4252 I 3034 4252 I 3035 4252 I 3036 4252 I 3037 4252 I 3038 4252 I 3039 4252 I 3040 4252 I 3041 4252 I 3042 4252 I 3043 4252 I 3044 4252 I 3045 4252 I 3046 4252 I 3047 4252 I 3048 4252 I 3049 4252 I 3050 4252 I 3051 4252 I 3052 4252 I 3053 4252 I 3054 4252 I 3055 4252 I 3056 4252 I 3057 4252 I 3058 4252 I 3059 4252 I 3060 4252 I 3061 4252 I 3062 4252 I 3063 4252 I 3064 4252 I 3065 4252 I 3066 4252 I 3067 4252 I 3068 4252 I 3069 4252 I 3070 4252 I 3071 4252 I 3072 4252 I 3073 4252 I 3074 4252 I 3075 4252 I 3076 4252 I 3077 4252 I 3078 4252 I 3079 4252 I 3080 4252 I 3081 4252 I 3082 4252 I 3083 4252 I 3084 4252 I 3085 4252 I 3086 4252 I 3087 4252 I 3088 4252 I 3089 4252 I 3090 4252 I 3091 4252 I 3092 4252 I 3093 4252 I 3094 4252 I 3095 4252 I 3096 4252 I 3097 4252 I 3098 4252 I 3099 4252 I 3100 4252 I 3101 4252 I 3102 4252 I 3103 4252 I 3104 4252 I 3105 4252 I 3106 4252 I 3107 4252 I 3108 4252 I 3109 4252 I 3110 4252 I 3111 4252 I 3112 4252 I 3113 4252 I 3114 4252 I 3115 4252 I 3116 4252 I 3117 4252 I 3118 4252 I 3119 4252 I 3120 4252 I 3121 4252 I 3122 4252 I 3123 4252 I 3124 4252 I 3125 4252 I 3126 4252 I 3127 4252 I 3128 4252 I 3129 4252 I 3130 4252 I 3131 4252 I 3132 4252 I 3133 4252 I 3134 4252 I 3135 4252 I 3136 4252 I 3137 4252 I 3138 4252 I 3139 4252 I 3140 4252 I 3141 4252 I 3142 4252 I 3143 4252 I 3144 4252 I 3145 4252 I 3146 4252 I 3147 4252 I 3148 4252 I 3149 4252 I 3150 4252 I 3151 4252 I 3152 4252 I 3153 4252 I 3154 4252 I 3155 4252 I 3156 4252 I : [ 1 0 0 1 150 150 ] concat K 
; N 3156 4252 M 3157 4252 I 3158 4252 I 3159 4252 I 3160 4252 I 3161 4252 I 3162 4252 I 3163 4252 I 3164 4252 I 3165 4252 I 3166 4252 I 3167 4252 I 3168 4252 I 3169 4252 I 3170 4252 I 3171 4252 I 3172 4252 I 3173 4252 I 3174 4252 I 3175 4252 I 3176 4252 I 3177 4252 I 3178 4252 I 3179 4252 I 3180 4252 I 3181 4252 I 3182 4252 I 3183 4252 I 3184 4252 I 3185 4252 I 3186 4252 I 3187 4252 I 3188 4252 I 3189 4252 I 3190 4252 I 3191 4252 I 3192 4252 I 3193 4252 I 3194 4252 I 3195 4252 I 3196 4252 I 3197 4252 I 3198 4252 I 3199 4252 I 3200 4252 I 3201 4252 I 3202 4252 I 3203 4252 I 3204 4252 I 3205 4252 I 3206 4252 I 3207 4252 I 3208 4252 I 3209 4252 I 3210 4252 I 3211 4252 I 3212 4252 I 3213 4252 I 3214 4252 I 3215 4252 I 3216 4252 I 3217 4252 I 3218 4252 I 3219 4252 I 3220 4252 I 3221 4252 I 3222 4252 I 3223 4252 I 3224 4252 I 3225 4252 I 3226 4252 I 3227 4252 I 3228 4252 I 3229 4252 I 3230 4252 I 3231 4252 I 3232 4252 I 3233 4252 I 3234 4252 I 3235 4252 I 3236 4252 I 3237 4252 I 3238 4252 I 3239 4252 I 3240 4252 I 3241 4252 I 3242 4252 I 3243 4252 I 3244 4252 I 3245 4252 I 3246 4252 I 3247 4252 I 3248 4252 I 3249 4252 I 3250 4252 I 3251 4252 I 3252 4252 I 3253 4252 I 3254 4252 I 3255 4252 I 3256 4252 I 3257 4252 I 3258 4252 I 3259 4252 I 3260 4252 I 3261 4252 I 3262 4252 I 3263 4252 I 3264 4252 I 3265 4252 I 3266 4252 I 3267 4252 I 3268 4252 I 3269 4252 I 3270 4252 I 3271 4252 I 3272 4252 I 3273 4252 I 3274 4252 I 3275 4252 I 3276 4252 I 3277 4252 I 3278 4252 I 3279 4252 I 3280 4252 I 3281 4252 I 3282 4252 I 3283 4252 I : [ 1 0 0 1 150 150 ] concat K 
; N 3283 4252 M 3284 4252 I 3285 4252 I 3286 4252 I 3287 4252 I 3288 4252 I 3289 4252 I 3290 4252 I 3291 4252 I 3292 4252 I 3293 4252 I 3294 4252 I 3295 4252 I 3296 4252 I 3297 4252 I 3298 4252 I 3299 4252 I 3300 4252 I 3301 4252 I 3302 4252 I 3303 4252 I 3304 4252 I 3305 4252 I 3306 4252 I 3307 4252 I 3308 4252 I 3309 4252 I 3310 4252 I 3311 4252 I 3312 4252 I 3313 4252 I 3314 4252 I 3315 4252 I 3316 4252 I 3317 4252 I 3318 4252 I 3319 4252 I 3320 4252 I 3321 4252 I 3322 4252 I 3323 4252 I 3324 4252 I 3325 4252 I 3326 4252 I 3327 4252 I 3328 4252 I 3329 4252 I 3330 4252 I 3331 4252 I 3332 4252 I 3333 4252 I 3334 4252 I 3335 4252 I 3336 4252 I 3337 4252 I 3338 4252 I 3339 4252 I 3340 4252 I 3341 4252 I 3342 4252 I 3343 4252 I 3344 4252 I 3345 4252 I 3346 4252 I 3347 4252 I 3348 4252 I 3349 4252 I 3350 4252 I 3351 4252 I 3352 4252 I 3353 4252 I 3354 4252 I 3355 4252 I 3356 4252 I 3357 4252 I 3358 4252 I 3359 4252 I 3360 4252 I 3361 4252 I 3362 4252 I 3363 4252 I 3364 4252 I 3365 4252 I 3366 4252 I 3367 4252 I 3368 4252 I 3369 4252 I 3370 4252 I 3371 4252 I 3372 4252 I 3373 4252 I 3374 4252 I 3375 4252 I 3376 4252 I 3377 4252 I 3378 4252 I 3379 4252 I 3380 4252 I 3381 4252 I 3382 4252 I 3383 4252 I 3384 4252 I 3385 4252 I 3386 4252 I 3387 4252 I 3388 4252 I 3389 4252 I 3390 4252 I 3391 4252 I 3392 4252 I 3393 4252 I 3394 4252 I 3395 4252 I 3396 4252 I 3397 4252 I 3398 4252 I 3399 4252 I 3400 4252 I 3401 4252 I 3402 4252 I 3403 4252 I 3404 4252 I 3405 4252 I 3406 4252 I 3407 4252 I 3408 4252 I 3409 4252 I 3410 4252 I : [ 1 0 0 1 150 150 ] concat K 
; N 3410 4252 M 3411 4252 I 3412 4252 I 3413 4252 I 3414 4252 I 3415 4252 I 3416 4252 I 3417 4252 I 3418 4252 I 3419 4252 I 3420 4252 I 3421 4252 I 3422 4252 I 3423 4252 I 3424 4252 I 3425 4252 I 3426 4252 I 3427 4252 I 3428 4252 I 3429 4252 I 3430 4252 I 3431 4252 I 3432 4252 I 3433 4252 I 3434 4252 I 3435 4252 I 3436 4252 I 3437 4252 I 3438 4252 I 3439 4252 I 3440 4252 I 3441 4252 I 3442 4252 I 3443 4252 I 3444 4252 I 3445 4252 I 3446 4252 I 3447 4252 I 3448 4252 I 3449 4252 I 3450 4252 I 3451 4252 I 3452 4252 I 3453 4252 I 3454 4252 I 3455 4252 I 3456 4252 I 3457 4252 I 3458 4252 I 3459 4252 I 3460 4252 I 3461 4252 I 3462 4252 I 3463 4252 I 3464 4252 I 3465 4252 I 3466 4252 I 3467 4252 I 3468 4252 I 3469 4252 I 3470 4252 I 3471 4252 I 3472 4252 I 3473 4252 I 3474 4252 I 3475 4252 I 3476 4252 I 3477 4252 I 3478 4252 I 3479 4252 I 3480 4252 I 3481 4252 I 3482 4252 I 3483 4252 I 3484 4252 I 3485 4252 I 3486 4252 I 3487 4252 I 3488 4252 I 3489 4252 I 3490 4252 I 3491 4252 I 3492 4252 I 3493 4252 I 3494 4252 I 3495 4252 I 3496 4252 I 3497 4252 I 3498 4252 I 3499 4252 I 3500 4252 I 3501 4252 I 3502 4252 I 3503 4252 I 3504 4252 I 3505 4252 I 3506 4252 I 3507 4252 I 3508 4252 I 3509 4252 I 3510 4252 I 3511 4252 I 3512 4252 I 3513 4252 I 3514 4252 I 3515 4252 I 3516 4252 I 3517 4252 I 3518 4252 I 3519 4252 I 3520 4252 I 3521 4252 I 3522 4252 I 3523 4252 I 3524 4252 I 3525 4252 I 3526 4252 I 3527 4252 I 3528 4252 I 3529 4252 I 3530 4252 I 3531 4252 I 3532 4252 I 3533 4252 I 3534 4252 I 3535 4252 I 3536 4252 I 3537 4252 I : [ 1 0 0 1 150 150 ] concat K 
; N 3537 4252 M 3538 4252 I 3539 4252 I 3540 4252 I 3541 4252 I 3542 4252 I 3543 4252 I 3544 4252 I 3545 4252 I 3546 4252 I 3547 4252 I 3548 4252 I 3549 4252 I 3550 4252 I 3551 4252 I 3552 4252 I 3553 4252 I 3554 4252 I 3555 4252 I 3556 4252 I 3557 4252 I 3558 4252 I 3559 4252 I 3560 4252 I 3561 4252 I 3562 4252 I 3563 4252 I 3564 4252 I 3565 4252 I 3566 4252 I 3567 4252 I 3568 4252 I 3569 4252 I 3570 4252 I 3571 4252 I 3572 4252 I 3573 4252 I 3574 4252 I 3575 4252 I 3576 4252 I 3577 4252 I 3578 4252 I 3579 4252 I 3580 4252 I 3581 4252 I 3582 4252 I 3583 4252 I 3584 4252 I 3585 4252 I 3586 4252 I 3587 4252 I 3588 4252 I 3589 4252 I 3590 4252 I 3591 4252 I 3592 4252 I 3593 4252 I 3594 4252 I 3595 4252 I 3596 4252 I 3597 4252 I 3598 4252 I 3599 4252 I 3600 4252 I 3601 4252 I 3602 4252 I 3603 4252 I 3604 4252 I 3605 4252 I 3606 4252 I 3607 4252 I 3608 4252 I 3609 4252 I 3610 4252 I 3611 4252 I 3612 4252 I 3613 4252 I 3614 4252 I 3615 4252 I 3616 4252 I 3617 4252 I 3618 4252 I 3619 4252 I 3620 4252 I 3621 4252 I 3622 4252 I 3623 4252 I 3624 4252 I 3625 4252 I 3626 4252 I 3627 4252 I 3628 4252 I 3629 4252 I 3630 4252 I 3631 4252 I 3632 4252 I 3633 4252 I 3634 4252 I 3635 4252 I 3636 4252 I 3637 4252 I 3638 4252 I 3639 4252 I 3640 4252 I 3641 4252 I 3642 4252 I 3643 4252 I 3644 4252 I 3645 4252 I 3646 4252 I 3647 4252 I 3648 4252 I 3649 4252 I 3650 4252 I 3651 4252 I 3652 4252 I 3653 4252 I 3654 4252 I 3655 4252 I 3656 4252 I 3657 4252 I 3658 4252 I 3659 4252 I 3660 4252 I 3661 4252 I 3662 4252 I 3663 4252 I 3664 4252 I : [ 1 0 0 1 150 150 ] concat K 
; N 3664 4252 M 3665 4252 I 3666 4252 I 3667 4252 I 3668 4252 I 3669 4252 I 3670 4252 I 3671 4252 I 3672 4252 I 3673 4252 I 3674 4252 I 3675 4252 I 3676 4252 I 3677 4252 I 3678 4252 I 3679 4252 I 3680 4252 I 3681 4252 I 3682 4252 I 3683 4252 I 3684 4252 I 3685 4252 I 3686 4252 I 3687 4252 I 3688 4252 I 3689 4252 I 3690 4252 I 3691 4252 I 3692 4252 I 3693 4252 I 3694 4252 I 3695 4252 I 3696 4252 I 3697 4252 I 3698 4252 I 3699 4252 I 3700 4252 I 3701 4252 I 3702 4252 I 3703 4252 I 3704 4252 I 3705 4252 I 3706 4252 I 3707 4252 I 3708 4252 I 3709 4252 I 3710 4252 I 3711 4252 I 3712 4252 I 3713 4252 I 3714 4252 I 3715 4252 I 3716 4252 I 3717 4252 I 3718 4252 I 3719 4252 I 3720 4252 I 3721 4252 I 3722 4252 I 3723 4252 I 3724 4252 I 3725 4252 I 3726 4252 I 3727 4252 I 3728 4252 I 3729 4252 I 3730 4252 I 3731 4252 I 3732 4252 I 3733 4252 I 3734 4252 I 3735 4252 I 3736 4252 I 3737 4252 I 3738 4252 I 3739 4252 I 3740 4252 I 3741 4252 I 3742 4252 I 3743 4252 I 3744 4252 I 3745 4252 I 3746 4252 I 3747 4252 I 3748 4252 I 3749 4252 I 3750 4252 I 3751 4252 I 3752 4252 I 3753 4252 I 3754 4252 I 3755 4252 I 3756 4252 I 3757 4252 I 3758 4252 I 3759 4252 I 3760 4252 I 3761 4252 I 3762 4252 I 3763 4252 I 3764 4252 I 3765 4252 I 3766 4252 I 3767 4252 I 3768 4252 I 3769 4252 I 3770 4252 I 3771 4252 I 3772 4252 I 3773 4252 I 3774 4252 I 3775 4252 I 3776 4252 I 3777 4252 I 3778 4252 I 3779 4252 I 3780 4252 I 3781 4252 I 3782 4252 I 3783 4252 I 3784 4252 I 3785 4252 I 3786 4252 I 3787 4252 I 3788 4252 I 3789 4252 I 3790 4252 I 3791 4252 I : [ 1 0 0 1 150 150 ] concat K 
; N 3791 4252 M 3792 4252 I 3793 4252 I 3794 4252 I 3795 4252 I 3796 4252 I 3797 4252 I 3798 4252 I 3799 4252 I 3800 4252 I 3801 4252 I 3802 4252 I 3803 4252 I 3804 4252 I 3805 4252 I 3806 4252 I 3807 4252 I 3808 4252 I 3809 4252 I 3810 4252 I 3811 4252 I 3812 4252 I 3813 4252 I 3814 4252 I 3815 4252 I 3816 4252 I 3817 4252 I 3818 4252 I 3819 4252 I 3820 4252 I 3821 4252 I 3822 4252 I 3823 4252 I 3824 4252 I 3825 4252 I 3826 4252 I 3827 4252 I 3828 4252 I 3829 4252 I 3830 4252 I 3831 4252 I 3832 4252 I 3833 4252 I 3834 4252 I 3835 4252 I 3836 4252 I 3837 4252 I 3838 4252 I 3839 4252 I 3840 4252 I 3841 4252 I 3842 4252 I 3843 4252 I 3844 4252 I 3845 4252 I 3846 4252 I 3847 4252 I 3848 4252 I 3849 4252 I 3850 4252 I 3851 4252 I 3852 4252 I 3853 4252 I 3854 4252 I 3855 4252 I 3856 4252 I 3857 4252 I 3858 4252 I 3859 4252 I 3860 4252 I 3861 4252 I 3862 4252 I 3863 4252 I 3864 4252 I 3865 4252 I 3866 4252 I 3867 4252 I 3868 4252 I 3869 4252 I 3870 4252 I 3871 4252 I 3872 4252 I 3873 4252 I 3874 4252 I 3875 4252 I 3876 4252 I 3877 4252 I 3878 4252 I 3879 4252 I 3880 4252 I 3881 4252 I 3882 4252 I 3883 4252 I 3884 4252 I 3885 4252 I 3886 4252 I 3887 4252 I 3888 4252 I 3889 4252 I 3890 4252 I 3891 4252 I 3892 4252 I 3893 4252 I 3894 4252 I 3895 4252 I 3896 4252 I 3897 4252 I 3898 4252 I 3899 4252 I 3900 4252 I 3901 4252 I 3902 4252 I 3903 4252 I 3904 4252 I 3905 4252 I 3906 4252 I 3907 4252 I 3908 4252 I 3909 4252 I 3910 4252 I 3911 4252 I 3912 4252 I 3913 4252 I 3914 4252 I 3915 4252 I 3916 4252 I 3917 4252 I 3918 4252 I : [ 1 0 0 1 150 150 ] concat K 
; N 3918 4252 M 3919 4252 I 3920 4252 I 3921 4252 I 3922 4252 I 3923 4252 I 3924 4252 I 3925 4252 I 3926 4252 I 3927 4252 I 3928 4252 I 3929 4252 I 3930 4252 I 3931 4252 I 3932 4252 I 3933 4252 I 3934 4252 I 3935 4252 I 3936 4252 I 3937 4252 I 3938 4252 I 3939 4252 I 3940 4252 I 3941 4252 I 3942 4252 I 3943 4252 I 3944 4252 I 3945 4252 I 3946 4252 I 3947 4252 I 3948 4252 I 3949 4252 I 3950 4252 I 3951 4252 I 3952 4252 I 3953 4252 I 3954 4252 I 3955 4252 I 3956 4252 I 3957 4252 I 3958 4252 I 3959 4252 I 3960 4252 I 3961 4252 I 3962 4252 I 3963 4252 I 3964 4252 I 3965 4252 I 3966 4252 I 3967 4252 I 3968 4252 I 3969 4252 I 3970 4252 I 3971 4252 I 3972 4252 I 3973 4252 I 3974 4252 I 3975 4252 I 3976 4252 I 3977 4252 I 3978 4252 I 3979 4252 I 3980 4252 I 3981 4252 I 3982 4252 I 3983 4252 I 3984 4252 I 3985 4252 I 3986 4252 I 3987 4252 I 3988 4252 I 3989 4252 I 3990 4252 I 3991 4252 I 3992 4252 I 3993 4252 I 3994 4252 I 3995 4252 I 3996 4252 I 3997 4252 I 3998 4252 I 3999 4252 I 4000 4252 I 4001 4252 I 4002 4252 I 4003 4252 I 4004 4252 I 4005 4252 I 4006 4252 I 4007 4252 I 4008 4252 I 4009 4252 I 4010 4252 I 4011 4252 I 4012 4252 I 4013 4252 I 4014 4252 I 4015 4252 I 4016 4252 I 4017 4252 I 4018 4252 I 4019 4252 I 4020 4252 I 4021 4252 I 4022 4252 I 4023 4252 I 4024 4252 I 4025 4252 I 4026 4252 I 4027 4252 I 4028 4252 I 4029 4252 I 4030 4252 I 4031 4252 I 4032 4252 I 4033 4252 I 4034 4252 I 4035 4252 I 4036 4252 I 4037 4252 I 4038 4252 I 4039 4252 I 4040 4252 I 4041 4252 I 4042 4252 I 4043 4252 I 4044 4252 I 4045 4252 I : [ 1 0 0 1 150 150 ] concat K 
; N 4045 4252 M 4046 4252 I 4047 4252 I 4048 4252 I 4049 4252 I 4050 4252 I 4051 4252 I 4052 4252 I 4053 4252 I 4054 4252 I 4055 4252 I 4056 4252 I 4057 4252 I 4058 4252 I 4059 4252 I 4060 4252 I 4061 4252 I 4062 4252 I 4063 4252 I 4064 4252 I 4065 4252 I 4066 4252 I 4067 4252 I 4068 4252 I 4069 4252 I 4070 4252 I 4071 4252 I 4072 4252 I 4073 4252 I 4074 4252 I 4075 4252 I 4076 4252 I 4077 4252 I 4078 4252 I 4079 4252 I 4080 4252 I 4081 4252 I 4082 4252 I 4083 4252 I 4084 4252 I 4085 4252 I 4086 4252 I 4087 4252 I 4088 4252 I 4089 4252 I 4090 4252 I 4091 4252 I 4092 4252 I 4093 4252 I 4094 4252 I 4095 4252 I 4096 4252 I 4097 4252 I 4098 4252 I 4099 4252 I 4100 4252 I 4101 4252 I 4102 4252 I 4103 4252 I 4104 4252 I 4105 4252 I 4106 4252 I 4107 4252 I 4108 4252 I 4109 4252 I 4110 4252 I 4111 4252 I 4112 4252 I 4113 4252 I 4114 4252 I 4115 4252 I 4116 4252 I 4117 4252 I 4118 4252 I 4119 4252 I 4120 4252 I 4121 4252 I 4122 4252 I 4123 4252 I 4124 4252 I 4125 4252 I 4126 4252 I 4127 4252 I 4128 4252 I 4129 4252 I 4130 4252 I 4131 4252 I 4132 4252 I 4133 4252 I 4134 4252 I 4135 4252 I 4136 4252 I 4137 4252 I 4138 4252 I 4139 4252 I 4140 4252 I 4141 4252 I 4142 4252 I 4143 4252 I 4144 4252 I 4145 4252 I 4146 4252 I 4147 4252 I 4148 4252 I 4149 4252 I 4150 4252 I 4151 4252 I 4152 4252 I 4153 4252 I 4154 4252 I 4155 4252 I 4156 4252 I 4157 4252 I 4158 4252 I 4159 4252 I 4160 4252 I 4161 4252 I 4162 4252 I 4163 4252 I 4164 4252 I 4165 4252 I 4166 4252 I 4167 4252 I 4168 4252 I 4169 4252 I 4170 4252 I 4171 4252 I 4172 4252 I : [ 1 0 0 1 150 150 ] concat K 
; N 4172 4252 M 4173 4252 I 4174 4252 I 4175 4252 I 4176 4252 I 4177 4252 I 4178 4252 I 4179 4252 I 4180 4252 I 4181 4252 I 4182 4252 I 4183 4252 I 4184 4252 I 4185 4252 I 4186 4252 I 4187 4252 I 4188 4252 I 4189 4252 I 4190 4252 I 4191 4252 I 4192 4252 I 4193 4252 I 4194 4252 I 4195 4252 I 4196 4252 I 4197 4252 I 4198 4252 I 4199 4252 I 4200 4252 I 4201 4252 I 4202 4252 I 4203 4252 I 4204 4252 I 4205 4252 I 4206 4252 I 4207 4252 I 4208 4252 I 4209 4252 I 4210 4252 I 4211 4252 I 4212 4252 I 4213 4252 I 4214 4252 I 4215 4252 I 4216 4252 I 4217 4252 I 4218 4252 I 4219 4252 I 4220 4252 I 4221 4252 I 4222 4252 I 4223 4252 I 4224 4252 I 4225 4252 I 4226 4252 I 4227 4252 I 4228 4252 I 4229 4252 I 4230 4252 I 4231 4252 I 4232 4252 I 4233 4252 I 4234 4252 I 4235 4252 I 4236 4252 I 4237 4252 I 4238 4252 I 4239 4252 I 4240 4252 I 4241 4252 I 4242 4252 I 4243 4252 I 4244 4252 I 4245 4252 I 4246 4252 I 4247 4252 I 4248 4252 I 4249 4252 I 4250 4252 I 4251 4252 I 4252 4252 I 4253 4252 I 4254 4252 I 4255 4252 I 4256 4252 I 4257 4252 I 4258 4252 I 4259 4252 I 4260 4252 I 4261 4252 I 4262 4252 I 4263 4252 I 4264 4252 I 4265 4252 I 4266 4252 I 4267 4252 I 4268 4252 I 4269 4252 I 4270 4252 I 4271 4252 I 4272 4252 I 4273 4252 I 4274 4252 I 4275 4252 I 4276 4252 I 4277 4252 I 4278 4252 I 4279 4252 I 4280 4252 I 4281 4252 I 4282 4252 I 4283 4252 I 4284 4252 I 4285 4252 I 4286 4252 I 4287 4252 I 4288 4252 I 4289 4252 I 4290 4252 I 4291 4252 I 4292 4252 I 4293 4252 I 4294 4252 I 4295 4252 I 4296 4252 I 4297 4252 I 4298 4252 I 4299 4252 I : [ 1 0 0 1 150 150 ] concat K 
; N 4299 4252 M 4300 4252 I 4301 4252 I 4302 4252 I 4303 4252 I 4304 4252 I 4305 4252 I 4306 4252 I 4307 4252 I 4308 4252 I 4309 4252 I 4310 4252 I 4311 4252 I 4312 4252 I 4313 4252 I 4314 4252 I 4315 4252 I 4316 4252 I 4317 4252 I 4318 4252 I 4319 4252 I 4320 4252 I 4321 4252 I 4322 4252 I 4323 4252 I 4324 4252 I 4325 4252 I 4326 4252 I 4327 4252 I 4328 4252 I 4329 4252 I 4330 4252 I 4331 4252 I 4332 4252 I 4333 4252 I 4334 4252 I 4335 4252 I 4336 4252 I 4337 4252 I 4338 4252 I 4339 4252 I 4340 4252 I 4341 4252 I 4342 4252 I 4343 4252 I 4344 4252 I 4345 4252 I 4346 4252 I 4347 4252 I 4348 4252 I 4349 4252 I 4350 4252 I 4351 4252 I 4352 4252 I 4353 4252 I 4354 4252 I 4355 4252 I 4356 4252 I 4357 4252 I 4358 4252 I 4359 4252 I 4360 4252 I 4361 4252 I 4362 4252 I 4363 4252 I 4364 4252 I 4365 4252 I 4366 4252 I 4367 4252 I 4368 4252 I 4369 4252 I 4370 4252 I 4371 4252 I 4372 4252 I 4373 4252 I 4374 4252 I 4375 4252 I 4376 4252 I 4377 4252 I 4378 4252 I 4379 4252 I 4380 4252 I 4381 4252 I 4382 4252 I 4383 4252 I 4384 4252 I 4385 4252 I 4386 4252 I 4387 4252 I 4388 4252 I 4389 4252 I 4390 4252 I 4391 4252 I 4392 4252 I 4393 4252 I 4394 4252 I 4395 4252 I 4396 4252 I 4397 4252 I 4398 4252 I 4399 4252 I 4400 4252 I 4401 4252 I 4402 4252 I 4403 4252 I 4404 4252 I 4405 4252 I 4406 4252 I 4407 4252 I 4408 4252 I 4409 4252 I 4410 4252 I 4411 4252 I 4412 4252 I 4413 4252 I 4414 4252 I 4415 4252 I 4416 4252 I 4417 4252 I 4418 4252 I 4419 4252 I 4420 4252 I 4421 4252 I 4422 4252 I 4423 4252 I 4424 4252 I 4425 4252 I 4426 4252 I : [ 1 0 0 1 150 150 ] concat K 
; : 4423 4249 35 7 rc N 4426 4252 M 4427 4252 I 4428 4252 I 4429 4252 I 4430 4252 I 4431 4252 I 4432 4252 I 4433 4252 I 4434 4252 I 4435 4252 I 4436 4252 I 4437 4252 I 4438 4252 I 4439 4252 I 4440 4252 I 4441 4252 I 4442 4252 I 4443 4252 I 4444 4252 I 4445 4252 I 4446 4252 I 4447 4252 I 4448 4252 I 4449 4252 I 4450 4252 I 4451 4252 I 4452 4252 I 4453 4252 I 4454 4252 I 4455 4252 I 4456 4252 I 4457 4252 I : [ 1 0 0 1 150 150 ] concat K 
; ; 0 0 0 1 scol T32RsrcBegin

10
/g341 [38 0 1 -44 37 4 ] 
/g341 [36 48 true [1 0 0 1 -1 44 ]  0 0]
[<ffffffffe0
ffffffffe0
ffffffffe0
fc00f003e0
f000f001e0
f000f000e0
e000f00060
e000f00060
c000f00060
c000f00030
c000f00030
8000f00030
0000f00000
0000f00000
0000f00000
0000f00000
0000f00000
0000f00000
0000f00000
0000f00000
0000f00000
0000f00000
0000f00000
0000f00000
0000f00000
0000f00000
0000f00000
0000f00000
0000f00000
0000f00000
0000f00000
0000f00000
0000f00000
0000f00000
0000f00000
0000f00000
0000f00000
0000f00000
0000f00000
0000f00000
0000f00000
0000f00000
0001f00000
0001f00000
0001f80000
0007fc0000
003fff8000
007fffe000
>
 ]
/TT1Fb00 AddT3T32Char

11
/g362 [17 0 1 -45 16 4 ] 
/g362 [15 49 true [1 0 0 1 -1 45 ]  0 0]
[<0300
0780
0f80
0f80
0780
0780
0000
0000
0000
0000
0000
0000
0000
0000
0000
0000
0000
0180
0f80
3f80
ff80
0f80
0780
0780
0380
0380
0380
0380
0380
0380
0380
0380
0380
0380
0380
0380
0380
0380
0380
0380
0380
0380
0380
0780
07c0
07c0
0fe0
3ff8
fffe
>
 ]
/TT1Fb00 AddT3T32Char

12
/g366 [48 0 1 -29 48 4 ] 
/g366 [47 33 true [1 0 0 1 -1 29 ]  0 0]
[<0100f8007c00
0703fc03fe00
3f07fe07ff00
ff1fff0fff80
1f3c1f1c1f80
0f700f300780
0fc007e007c0
078007c003c0
0700078003c0
0700038003c0
0700038003c0
0700038001c0
0700038001c0
0700038001c0
0700038001c0
0700038001c0
0700038001c0
0700038001c0
0700038001c0
0700038001c0
0700038001c0
0700038001c0
0700038001c0
0700038001c0
0700038001c0
0700038001c0
0700038001c0
0700038003c0
0700038003c0
0f8007c003e0
0f8007c007e0
3fe01ff00ff8
fff87ffc3ffe
>
 ]
/TT1Fb00 AddT3T32Char

13
/g358 [28 0 1 -29 26 4 ] 
/g358 [25 33 true [1 0 0 1 -1 29 ]  0 0]
[<003f8000
00ffe000
0381f000
0700f800
0c007c00
0c003c00
18001e00
38001e00
30001e00
30001f00
7fffff00
7fffff00
60000000
60000000
60000000
f0000000
f0000000
f0000000
f0000000
f0000000
70000000
78000000
78000080
78000180
7c000100
3c000300
3e000600
1f000c00
1f801c00
0fe0f800
07fff000
03ffe000
00ff8000
>
 ]
/TT1Fb00 AddT3T32Char

14
/g289 [17 0 0 0 1 1 ] 
/g289 [1 1 true [1 0 0 1 0 0 ]  0 0]
[<00
>
 ]
/TT1Fb00 AddT3T32Char

15
/g368 [31 0 2 -29 29 4 ] 
/g368 [27 33 true [1 0 0 1 -2 29 ]  0 0]
[<007f8000
01fff000
0780f800
0f007c00
0c001e00
1c001f00
38000f80
38000780
700007c0
700003c0
f00003c0
f00003e0
f00001e0
f00001e0
f00001e0
f00001e0
f00001e0
f00001e0
f00001e0
f00001e0
f00001e0
f80001c0
f80001c0
780001c0
7c000380
3c000380
3e000300
1e000700
1f000e00
0f801c00
07e03800
01fff000
00ffc000
>
 ]
/TT1Fb00 AddT3T32Char

16
/g359 [21 0 1 -45 24 4 ] 
/g359 [23 49 true [1 0 0 1 -1 45 ]  0 0]
[<0007f0
001ff8
0030fc
00607e
00c03e
01c01c
01c000
01c000
01c000
03c000
03c000
03c000
03c000
03c000
03c000
03c000
03c000
ffffc0
ffffc0
03c000
03c000
03c000
03c000
03c000
03c000
03c000
03c000
03c000
03c000
03c000
03c000
03c000
03c000
03c000
03c000
03c000
03c000
03c000
03c000
03c000
03c000
03c000
03c000
03c000
03c000
07c000
07e000
1ff800
ffff00
>
 ]
/TT1Fb00 AddT3T32Char

17
/g372 [24 0 3 -29 21 4 ] 
/g372 [18 33 true [1 0 0 1 -3 29 ]  0 0]
[<07f100
1e1f00
380700
700700
600300
600300
e00100
e00100
e00100
f00100
f00000
780000
7e0000
3f0000
1fc000
0fe000
03f800
01fc00
00ff00
003f80
001f80
0007c0
8003c0
8003c0
c001c0
c001c0
c001c0
c001c0
e001c0
f00380
f80300
fe0e00
87fc00
>
 ]
/TT1Fb00 AddT3T32Char

18
/g373 [17 0 1 -38 17 4 ] 
/g373 [16 42 true [1 0 0 1 -1 38 ]  0 0]
[<0100
0300
0300
0300
0700
0700
0f00
1f00
3f00
7f00
fffe
0f00
0f00
0f00
0f00
0f00
0f00
0f00
0f00
0f00
0f00
0f00
0f00
0f00
0f00
0f00
0f00
0f00
0f00
0f00
0f00
0f00
0f00
0f00
0f00
0f00
0f00
0f01
0783
07fe
07fc
03f0
>
 ]
/TT1Fb00 AddT3T32Char

19
/g315 [17 0 5 -29 12 5 ] 
/g315 [7 34 true [1 0 0 1 -5 29 ]  0 0]
[<38
7c
fe
fe
fe
fc
78
00
00
00
00
00
00
00
00
00
00
00
00
00
00
00
00
00
00
00
38
7c
fe
fe
fe
fe
7c
10
>
 ]
/TT1Fb00 AddT3T32Char
T32RsrcEnd
144 6852 M <0A0B0C0D0E0F1010110D12130E010E0E0E0E0E0E0E0E0E0E0E0E0E0E0E>S 
LH
%%PageTrailer

%%Trailer
%%DocumentNeededResources: 
%%DocumentSuppliedResources: 
%%+ procset Pscript_WinNT_VMErrorHandler 5.0 0
%%+ procset Pscript_FatalError 5.0 0
%%+ procset Pscript_Win_Basic 5.0 0
%%+ procset Pscript_Win_Utils_L1 5.0 0
%%+ procset Pscript_Win_GdiObject 5.0 0
%%+ procset Pscript_Win_GdiObject_L1 5.0 0
%%+ procset Pscript_T3Hdr 5.0 0
%%+ procset Pscript_Text 5.0 0
Pscript_WinNT_Incr dup /terminate get exec
%%EOF
