%!PS-Adobe-3.0 EPSF-3.0
%%Title: MATLAB
%%Creator: PScript5.dll Version 5.2.2
%%CreationDate: 10/24/2011 11:50:45
%%For: XDrz
%%BoundingBox: 0 0 595 842
%%Pages: 1
%%Orientation: Portrait
%%PageOrder: Ascend
%%DocumentNeededResources: (atend)
%%DocumentSuppliedResources: (atend)
%%DocumentData: Clean7Bit
%%TargetDevice: () (52.3) 320
%%LanguageLevel: 1
%%EndComments

%%BeginDefaults
%%PageBoundingBox: 0 0 595 842
%%ViewingOrientation: 1 0 0 1
%%EndDefaults

%%BeginProlog
%%BeginResource: file Pscript_WinNT_VMErrorHandler 5.0 0
/currentpacking where{pop/oldpack currentpacking def/setpacking where{pop false
setpacking}if}if/$brkpage 64 dict def $brkpage begin/prnt{dup type/stringtype
ne{=string cvs}if dup length 6 mul/tx exch def/ty 10 def currentpoint/toy exch
def/tox exch def 1 setgray newpath tox toy 2 sub moveto 0 ty rlineto tx 0
rlineto 0 ty neg rlineto closepath fill tox toy moveto 0 setgray show}bind def
/nl{currentpoint exch pop lmargin exch moveto 0 -10 rmoveto}def/=={/cp 0 def
typeprint nl}def/typeprint{dup type exec}readonly def/lmargin 72 def/rmargin 72
def/tprint{dup length cp add rmargin gt{nl/cp 0 def}if dup length cp add/cp
exch def prnt}readonly def/cvsprint{=string cvs tprint( )tprint}readonly def
/integertype{cvsprint}readonly def/realtype{cvsprint}readonly def/booleantype
{cvsprint}readonly def/operatortype{(--)tprint =string cvs tprint(-- )tprint}
readonly def/marktype{pop(-mark- )tprint}readonly def/dicttype{pop
(-dictionary- )tprint}readonly def/nulltype{pop(-null- )tprint}readonly def
/filetype{pop(-filestream- )tprint}readonly def/savetype{pop(-savelevel- )
tprint}readonly def/fonttype{pop(-fontid- )tprint}readonly def/nametype{dup
xcheck not{(/)tprint}if cvsprint}readonly def/stringtype{dup rcheck{(\()tprint
tprint(\))tprint}{pop(-string- )tprint}ifelse}readonly def/arraytype{dup rcheck
{dup xcheck{({)tprint{typeprint}forall(})tprint}{([)tprint{typeprint}forall(])
tprint}ifelse}{pop(-array- )tprint}ifelse}readonly def/packedarraytype{dup
rcheck{dup xcheck{({)tprint{typeprint}forall(})tprint}{([)tprint{typeprint}
forall(])tprint}ifelse}{pop(-packedarray- )tprint}ifelse}readonly def/courier
/Courier findfont 10 scalefont def end errordict/handleerror{systemdict begin
$error begin $brkpage begin newerror{/newerror false store vmstatus pop pop 0
ne{grestoreall}if initgraphics courier setfont lmargin 720 moveto errorname
(VMerror)eq{version cvi 2016 ge{userdict/ehsave known{clear userdict/ehsave get
restore 2 vmreclaim}if vmstatus exch pop exch pop PrtVMMsg}if}if systemdict
/showpage get exec(%%[ Error: )print errorname =print(; OffendingCommand: )
print/command load =print( ]%%)= flush}if end end end}dup 0 systemdict put dup
4 $brkpage put bind readonly put/currentpacking where{pop/setpacking where{pop
oldpack setpacking}if}if
%%EndResource
%%BeginProcSet: Pscript_Res_Emul 5.0 0
/defineresource where{pop}{userdict begin/defineresource{userdict/Resources 2
copy known{get begin}{15 dict dup begin put}ifelse exch readonly exch
currentdict 1 index known not{dup 30 dict def}if load 3 -1 roll 2 index put
end}bind readonly def/findresource{userdict/Resources get exch get exch get}
bind readonly def/resourceforall{pop pop pop pop}bind readonly def
/resourcestatus{userdict/Resources 2 copy known{get exch 2 copy known{get exch
known{0 -1 true}{false}ifelse}{pop pop pop false}ifelse}{pop pop pop pop false}
ifelse}bind readonly def end}ifelse
%%EndProcSet
userdict /Pscript_WinNT_Incr 230 dict dup begin put
%%BeginResource: file Pscript_FatalError 5.0 0
userdict begin/FatalErrorIf{{initgraphics findfont 1 index 0 eq{exch pop}{dup
length dict begin{1 index/FID ne{def}{pop pop}ifelse}forall/Encoding
{ISOLatin1Encoding}stopped{StandardEncoding}if def currentdict end
/ErrFont-Latin1 exch definefont}ifelse exch scalefont setfont counttomark 3 div
cvi{moveto show}repeat showpage quit}{cleartomark}ifelse}bind def end
%%EndResource
userdict begin/PrtVMMsg{vmstatus exch sub exch pop gt{[
(This job requires more memory than is available in this printer.)100 500
(Try one or more of the following, and then print again:)100 485
(For the output format, choose Optimize For Portability.)115 470
(In the Device Settings page, make sure the Available PostScript Memory is accurate.)
115 455(Reduce the number of fonts in the document.)115 440
(Print the document in parts.)115 425 12/Times-Roman[/MSung-Light--ETen-B5-H
dup{findfont}stopped{cleartomark}{/FontName get eq{pop cleartomark[
<b8d3a4e5a5f3bbddad6ea5ceaabaa4baa673a4d3a6682e20b17aa569a548b8d5a5cea670a455aa
baa4e8aa6ba641a5b4a64ca147>100 500<a66222506f737453637269707422b9efb8dcaed82c
20bfefbedc22506f737453637269707428a569c4e2a9cab3cca8cea4c6202d2041445343292e>
115 485<a66222b35db3c6bfefb6b522b9efb8dcaed82c2022a569a5ceaabaa64caaedbef7b04f
bed0c5e9284b422922aabaadc8ac4fbaebbd54aaba2e>115 470<a662a4e5a5f3a4a4a4d6a5ce
a44cbad8a672c5e92e>115 455<b3e6bf57a5b4a64cb8d3a4e5a5f3aabaa4a3a650b3a1a4c0a9
ceadb62e>115 440 10 0/MSung-Light--ETen-B5-H}{cleartomark}ifelse}ifelse
showpage(%%[ PrinterError: Low Printer VM ]%%)= true FatalErrorIf}if}bind def
end version cvi 2016 ge{/VM?{pop}bind def}{/VM? userdict/PrtVMMsg get def}
ifelse
%%BeginResource: file Pscript_Win_Basic 5.0 0
/d/def load def/,/load load d/~/exch , d/?/ifelse , d/!/pop , d/`/begin , d/^
/index , d/@/dup , d/+/translate , d/$/roll , d/U/userdict , d/M/moveto , d/-
/rlineto , d/&/currentdict , d/:/gsave , d/;/grestore , d/F/false , d/T/true ,
d/N/newpath , d/E/end , d/Ac/arc , d/An/arcn , d/A/ashow , d/D/awidthshow , d/C
/closepath , d/V/div , d/O/eofill , d/L/fill , d/I/lineto , d/-c/curveto , d/-M
/rmoveto , d/+S/scale , d/Ji/setfont , d/Lc/setlinecap , d/Lj/setlinejoin , d
/Lw/setlinewidth , d/Lm/setmiterlimit , d/sd/setdash , d/S/show , d/LH/showpage
, d/K/stroke , d/W/widthshow , d/R/rotate , d/L2? false/languagelevel where{pop
languagelevel 2 ge{pop true}if}if d L2?{/xS/xshow , d/yS/yshow , d/zS/xyshow ,
d}if/b{bind d}bind d/bd{bind d}bind d/xd{~ d}bd/ld{, d}bd/bn/bind ld/lw/Lw ld
/lc/Lc ld/lj/Lj ld/sg/setgray ld/ADO_mxRot null d/self & d/OrgMx matrix
currentmatrix d/reinitialize{: OrgMx setmatrix[/TextInit/GraphInit/UtilsInit
counttomark{@ where{self eq}{F}?{cvx exec}{!}?}repeat cleartomark ;}b
/initialize{`{/Pscript_Win_Data where{!}{U/Pscript_Win_Data & put}?/ADO_mxRot ~
d/TextInitialised? F d reinitialize E}{U/Pscript_Win_Data 230 dict @ ` put
/ADO_mxRot ~ d/TextInitialised? F d reinitialize}?}b/terminate{!{& self eq
{exit}{E}?}loop E}b/suspend/terminate , d/resume{` Pscript_Win_Data `}b U `
/lucas 21690 d/featurebegin{countdictstack lucas[}b/featurecleanup{stopped
{cleartomark @ lucas eq{! exit}if}loop countdictstack ~ sub @ 0 gt{{E}repeat}
{!}?}b E/snap{transform 0.25 sub round 0.25 add ~ 0.25 sub round 0.25 add ~
itransform}b/dsnap{dtransform round ~ round ~ idtransform}b/nonzero_round{@ 0.5
ge{round}{@ -0.5 lt{round}{0 ge{1}{-1}?}?}?}b/nonzero_dsnap{dtransform
nonzero_round ~ nonzero_round ~ idtransform}b U<04>cvn{}put/rr{1 ^ 0 - 0 ~ -
neg 0 - C}b/irp{4 -2 $ + +S fx 4 2 $ M 1 ^ 0 - 0 ~ - neg 0 -}b/rp{4 2 $ M 1 ^ 0
- 0 ~ - neg 0 -}b/solid{[]0 sd}b/g{@ not{U/DefIf_save save put}if U/DefIf_bool
2 ^ put}b/DefIf_El{if U/DefIf_bool get not @{U/DefIf_save get restore}if}b/e
{DefIf_El !}b/UDF{L2?{undefinefont}{!}?}b/UDR{L2?{undefineresource}{! !}?}b
/freeVM{/Courier findfont[40 0 0 -40 0 0]makefont Ji 2 vmreclaim}b/hfRedefFont
{findfont @ length dict `{1 ^/FID ne{d}{! !}?}forall & E @ ` ~{/CharStrings 1
dict `/.notdef 0 d & E d}if/Encoding 256 array 0 1 255{1 ^ ~/.notdef put}for d
E definefont !}bind d/hfMkCIDFont{/CIDFont findresource @ length 2 add dict `{1
^ @/FID eq ~ @/XUID eq ~/UIDBase eq or or{! !}{d}?}forall/CDevProc ~ d/Metrics2
16 dict d/CIDFontName 1 ^ d & E 1 ^ ~/CIDFont defineresource ![~]composefont !}
bind d
%%EndResource
%%BeginResource: file Pscript_Win_Utils_L1 5.0 0
/rf{N rp L}b/fx{1 1 dtransform @ 0 ge{1 sub 1}{1 add -0.25}? 3 -1 $ @ 0 ge{1
sub 1}{1 add -0.25}? 3 1 $ 4 1 $ idtransform 4 -2 $ idtransform}b/BZ{4 -2 $
snap + +S fx rf}b/rs{N rp C K}b/rc{N rp clip N}b/UtilsInit{}b/setcolorspace{!}b
/scol{[/setgray/setrgbcolor/setcolor/setcmykcolor/setcolor/setgray]~ get cvx
exec}b/colspRefresh{}b/AddFontInfoBegin{/FontInfo 8 dict @ `}bind d/AddFontInfo
{/GlyphNames2Unicode 16 dict d/GlyphNames2HostCode 16 dict d}bind d
/AddFontInfoEnd{E d}bind d
%%EndResource
end
%%EndProlog

%%BeginSetup
[ 1 0 0 1 0 0 ] false Pscript_WinNT_Incr dup /initialize get exec
1 setlinecap 1 setlinejoin
/mysetup [ 72 600 V 0 0 -72 600 V 0 842.0003 ] def 
%%EndSetup

%%Page: 1 1
%%PageBoundingBox: 0 0 595 842
%%EndPageComments
%%BeginPageSetup
/DeviceRGB dup setcolorspace /colspABC exch def
mysetup concat colspRefresh
%%EndPageSetup

Pscript_WinNT_Incr begin
%%BeginResource: file Pscript_Win_GdiObject 5.0 0
/SavedCTM null d/CTMsave{/SavedCTM SavedCTM currentmatrix d}b/CTMrestore
{SavedCTM setmatrix}b/mp null d/ADO_mxRot null d/GDIHMatrix null d
/GDIHPatternDict 22 dict d GDIHPatternDict `/PatternType 1 d/PaintType 2 d/Reps
L2?{1}{5}? d/XStep 8 Reps mul d/YStep XStep d/BBox[0 0 XStep YStep]d/TilingType
1 d/PaintProc{` 1 Lw[]0 sd PaintData , exec E}b/FGnd null d/BGnd null d
/HS_Horizontal{horiz}b/HS_Vertical{vert}b/HS_FDiagonal{fdiag}b/HS_BDiagonal
{biag}b/HS_Cross{horiz vert}b/HS_DiagCross{fdiag biag}b/MaxXYStep XStep YStep
gt{XStep}{YStep}? d/horiz{Reps{0 4 M XStep 0 - 0 8 +}repeat 0 -8 Reps mul + K}b
/vert{Reps{4 0 M 0 YStep - 8 0 +}repeat 0 -8 Reps mul + K}b/biag{Reps{0 0 M
MaxXYStep @ - 0 YStep neg M MaxXYStep @ - 0 8 +}repeat 0 -8 Reps mul + 0 YStep
M 8 8 - K}b/fdiag{Reps{0 0 M MaxXYStep @ neg - 0 YStep M MaxXYStep @ neg - 0 8
+}repeat 0 -8 Reps mul + MaxXYStep @ M 8 -8 - K}b E/makehatch{4 -2 $/yOrg ~ d
/xOrg ~ d GDIHPatternDict/PaintData 3 -1 $ put CTMsave GDIHMatrix setmatrix
GDIHPatternDict matrix xOrg yOrg + mp CTMrestore ~ U ~ 2 ^ put}b/h0{/h0
/HS_Horizontal makehatch}b/h1{/h1/HS_Vertical makehatch}b/h2{/h2/HS_FDiagonal
makehatch}b/h3{/h3/HS_BDiagonal makehatch}b/h4{/h4/HS_Cross makehatch}b/h5{/h5
/HS_DiagCross makehatch}b/GDIBWPatternMx null d/pfprep{save 8 1 $
/PatternOfTheDay 8 1 $ GDIBWPatternDict `/yOrg ~ d/xOrg ~ d/PaintData ~ d/yExt
~ d/Width ~ d/BGnd ~ d/FGnd ~ d/Height yExt RepsV mul d/mx[Width 0 0 Height 0
0]d E build_pattern ~ !}b/pfbf{/fEOFill ~ d pfprep hbf fEOFill{O}{L}? restore}b
/GraphInit{GDIHMatrix null eq{/SavedCTM matrix d : ADO_mxRot concat 0 0 snap +
: 0.48 @ GDIHPatternDict ` YStep mul ~ XStep mul ~ nonzero_dsnap YStep V ~
XStep V ~ E +S/GDIHMatrix matrix currentmatrix readonly d ; : 0.24 -0.24 +S
GDIBWPatternDict ` Width Height E nonzero_dsnap +S/GDIBWPatternMx matrix
currentmatrix readonly d ; ;}if}b
%%EndResource
%%BeginResource: file Pscript_Win_GdiObject_L1 5.0 0
/GDIBWPatternDict 25 dict @ `/PatternType 1 d/PaintType 2 d/RepsV 6 d/RepsH 5 d
/BBox[0 0 RepsH 1]d/TilingType 1 d/XStep 1 d/YStep 1 d/Height 8 RepsV mul d
/Width 8 d/mx[Width 0 0 Height neg 0 Height]d/FGnd null d/BGnd null d
/SetBGndFGnd{}b/PaintProc{` SetBGndFGnd RepsH{Width Height F mx PaintData
imagemask Width 0 +}repeat E}b E d/GDIpattfill{@ ` BGnd null ne PaintType 2 eq
and{: BGnd aload ! scol fEOFill{O}{L}? ; FGnd aload ! U/iCol 2 ^ put @ 0 eq{!
2}{@ 1 eq ~ 2 eq or{4}{5}?}? -1 $}if E @ patterncalc : 4 ^/PaintType get 2 eq
{iCol 0 eq{6 -1 $}if iCol 1 eq iCol 2 eq or{8 -3 $}if iCol 3 eq iCol 4 eq or{9
-4 $}if iCol scol}if fEOFill{eoclip}{clip}? N patternfill ; N}b/hbf
{GDIpattfill}b/hfMain{/fEOFill ~ d ~/iCol ~ d GDIpattfill}b/hf{: hfMain ;}b
/mpstr 1 string d/mp{~ @ length 12 add dict copy `/PatternCTM matrix
currentmatrix d/PatternMatrix ~ d/PatWidth XStep mpstr length mul d/PatHeight
YStep d/FontType 3 d/Encoding 256 array d 3 string 0 1 255{Encoding ~ @ 3 ^ cvs
cvn put}for !/FontMatrix matrix d/FontBBox BBox d/BuildChar{! @ ` XStep 0
FontBBox aload ! setcachedevice/PaintProc , E : exec ;}b & E ~ @ 3 -1 $
definefont}b/build_pattern{: GDIBWPatternDict ` Width Height E dsnap +S
/GDIBWPatternMx matrix currentmatrix d ; CTMsave GDIBWPatternMx setmatrix
GDIBWPatternDict @ ` xOrg yOrg E matrix + mp CTMrestore}b/patterncalc{` :
PatternCTM setmatrix PatternMatrix concat BBox aload ! ! ! + pathbbox ;
PatHeight V ceiling 4 1 $ PatWidth V ceiling 4 1 $ PatHeight V floor 4 1 $
PatWidth V floor 4 1 $ 2 ^ sub cvi abs ~ 3 ^ sub cvi abs ~ 4 2 $ PatHeight mul
~ PatWidth mul ~ E}b/patternfill{5 -1 $ @ ` Ji PatternCTM setmatrix
PatternMatrix concat 0 2 ^ 2 ^ M 0 1 mpstr length 1 sub{1 ^ mpstr 3 1 $ put}for
! 2 ^{currentpoint 5 ^{mpstr S}repeat YStep add M}repeat ! ! ! ! E}b/pbf{: 14
dict `/fGray ~ d/fEOFill ~ d/yOrg ~ d/xOrg ~ d/PaintData ~ d/OutputBPP ~ d
/Height ~ d/Width ~ d/mx xOrg yOrg matrix + d fGray{/PaintProc{` Width Height
OutputBPP mx PaintData image E}b}{/PaintProc{` Width Height 8 mx PaintData F
OutputBPP 8 idiv colorimage E}b}? pathbbox fEOFill{eoclip}{clip}?/Top ~ d/Right
~ d/Bottom ~ d/Left ~ d Top Height neg Bottom 1 sub{Left Width Right 1 sub{1 ^
2 copy + & PaintProc neg ~ neg ~ +}bind for !}bind for E ;}b
%%EndResource
end reinitialize
: 150 150 4660 6715 rc : N 150 150 4661 6716 rp C 
1 1 1 1 scol  L ; ; N 668 5299 M 668 1114 I 4457 1114 I 4457 5299 I C 
1 1 1 1 scol  O 1 Lj 0 Lc 4 Lw solid N 668 5299 M 668 1114 I 4457 1114 I 4457 5299 I 668 5299 I : [ 1 0 0 1 150 150 ] concat K 
; 0 0 0 1 scol 2 Lw [ 4 33 ] 0 sd N 668 5299 M 668 1114 I : [ 1 0 0 1 150 150 ] concat K 
; : N 668 1114 1 1 rp C 
 L ; N 668 1114 M 668 1114 I : [ 1 0 0 1 150 150 ] concat K 
; : N 668 1114 1 1 rp C 
 L ; N 1046 5299 M 1046 1114 I : [ 1 0 0 1 150 150 ] concat K 
; : N 1046 1114 1 1 rp C 
 L ; N 1046 1114 M 1046 1114 I : [ 1 0 0 1 150 150 ] concat K 
; : N 1046 1114 1 1 rp C 
 L ; N 1425 5299 M 1425 1114 I : [ 1 0 0 1 150 150 ] concat K 
; : N 1425 1114 1 1 rp C 
 L ; N 1425 1114 M 1425 1114 I : [ 1 0 0 1 150 150 ] concat K 
; : N 1425 1114 1 1 rp C 
 L ; N 1804 5299 M 1804 1114 I : [ 1 0 0 1 150 150 ] concat K 
; : N 1804 1114 1 1 rp C 
 L ; N 1804 1114 M 1804 1114 I : [ 1 0 0 1 150 150 ] concat K 
; : N 1804 1114 1 1 rp C 
 L ; N 2183 5299 M 2183 1114 I : [ 1 0 0 1 150 150 ] concat K 
; : N 2183 1114 1 1 rp C 
 L ; N 2183 1114 M 2183 1114 I : [ 1 0 0 1 150 150 ] concat K 
; : N 2183 1114 1 1 rp C 
 L ; N 2562 5299 M 2562 1114 I : [ 1 0 0 1 150 150 ] concat K 
; : N 2562 1114 1 1 rp C 
 L ; N 2562 1114 M 2562 1114 I : [ 1 0 0 1 150 150 ] concat K 
; : N 2562 1114 1 1 rp C 
 L ; N 2941 5299 M 2941 1114 I : [ 1 0 0 1 150 150 ] concat K 
; : N 2941 1114 1 1 rp C 
 L ; N 2941 1114 M 2941 1114 I : [ 1 0 0 1 150 150 ] concat K 
; : N 2941 1114 1 1 rp C 
 L ; N 3320 5299 M 3320 1114 I : [ 1 0 0 1 150 150 ] concat K 
; : N 3320 1114 1 1 rp C 
 L ; N 3320 1114 M 3320 1114 I : [ 1 0 0 1 150 150 ] concat K 
; : N 3320 1114 1 1 rp C 
 L ; N 3699 5299 M 3699 1114 I : [ 1 0 0 1 150 150 ] concat K 
; : N 3699 1114 1 1 rp C 
 L ; N 3699 1114 M 3699 1114 I : [ 1 0 0 1 150 150 ] concat K 
; : N 3699 1114 1 1 rp C 
 L ; N 4078 5299 M 4078 1114 I : [ 1 0 0 1 150 150 ] concat K 
; : N 4078 1114 1 1 rp C 
 L ; N 4078 1114 M 4078 1114 I : [ 1 0 0 1 150 150 ] concat K 
; : N 4078 1114 1 1 rp C 
 L ; N 4457 5299 M 4457 1114 I : [ 1 0 0 1 150 150 ] concat K 
; : N 4457 1114 1 1 rp C 
 L ; N 4457 1114 M 4457 1114 I : [ 1 0 0 1 150 150 ] concat K 
; : N 4457 1114 1 1 rp C 
 L ; N 668 5299 M 4457 5299 I : [ 1 0 0 1 150 150 ] concat K 
; : N 4457 5299 1 1 rp C 
 L ; N 4457 5299 M 4457 5299 I : [ 1 0 0 1 150 150 ] concat K 
; : N 4457 5299 1 1 rp C 
 L ; N 668 4880 M 4457 4880 I : [ 1 0 0 1 150 150 ] concat K 
; : N 4457 4880 1 1 rp C 
 L ; N 4457 4880 M 4457 4880 I : [ 1 0 0 1 150 150 ] concat K 
; : N 4457 4880 1 1 rp C 
 L ; N 668 4462 M 4457 4462 I : [ 1 0 0 1 150 150 ] concat K 
; : N 4457 4462 1 1 rp C 
 L ; N 4457 4462 M 4457 4462 I : [ 1 0 0 1 150 150 ] concat K 
; : N 4457 4462 1 1 rp C 
 L ; N 668 4043 M 4457 4043 I : [ 1 0 0 1 150 150 ] concat K 
; : N 4457 4043 1 1 rp C 
 L ; N 4457 4043 M 4457 4043 I : [ 1 0 0 1 150 150 ] concat K 
; : N 4457 4043 1 1 rp C 
 L ; N 668 3625 M 4457 3625 I : [ 1 0 0 1 150 150 ] concat K 
; : N 4457 3625 1 1 rp C 
 L ; N 4457 3625 M 4457 3625 I : [ 1 0 0 1 150 150 ] concat K 
; : N 4457 3625 1 1 rp C 
 L ; N 668 3206 M 4457 3206 I : [ 1 0 0 1 150 150 ] concat K 
; : N 4457 3206 1 1 rp C 
 L ; N 4457 3206 M 4457 3206 I : [ 1 0 0 1 150 150 ] concat K 
; : N 4457 3206 1 1 rp C 
 L ; N 668 2787 M 4457 2787 I : [ 1 0 0 1 150 150 ] concat K 
; : N 4457 2787 1 1 rp C 
 L ; N 4457 2787 M 4457 2787 I : [ 1 0 0 1 150 150 ] concat K 
; : N 4457 2787 1 1 rp C 
 L ; N 668 2369 M 4457 2369 I : [ 1 0 0 1 150 150 ] concat K 
; : N 4457 2369 1 1 rp C 
 L ; N 4457 2369 M 4457 2369 I : [ 1 0 0 1 150 150 ] concat K 
; : N 4457 2369 1 1 rp C 
 L ; N 668 1951 M 4457 1951 I : [ 1 0 0 1 150 150 ] concat K 
; : N 4457 1951 1 1 rp C 
 L ; N 4457 1951 M 4457 1951 I : [ 1 0 0 1 150 150 ] concat K 
; : N 4457 1951 1 1 rp C 
 L ; N 668 1532 M 4457 1532 I : [ 1 0 0 1 150 150 ] concat K 
; : N 4457 1532 1 1 rp C 
 L ; N 4457 1532 M 4457 1532 I : [ 1 0 0 1 150 150 ] concat K 
; : N 4457 1532 1 1 rp C 
 L ; N 668 1114 M 4457 1114 I : [ 1 0 0 1 150 150 ] concat K 
; : N 4457 1114 1 1 rp C 
 L ; N 4457 1114 M 4457 1114 I : [ 1 0 0 1 150 150 ] concat K 
; : N 4457 1114 1 1 rp C 
 L ; 4 Lw solid N 668 1114 M 4457 1114 I : [ 1 0 0 1 150 150 ] concat K 
; : N 4457 1114 1 1 rp C 
 L ; N 668 5299 M 4457 5299 I : [ 1 0 0 1 150 150 ] concat K 
; : N 4457 5299 1 1 rp C 
 L ; N 4457 5299 M 4457 1114 I : [ 1 0 0 1 150 150 ] concat K 
; : N 4457 1114 1 1 rp C 
 L ; N 668 5299 M 668 1114 I : [ 1 0 0 1 150 150 ] concat K 
; : N 668 1114 1 1 rp C 
 L ; N 668 5299 M 4457 5299 I : [ 1 0 0 1 150 150 ] concat K 
; : N 4457 5299 1 1 rp C 
 L ; N 668 5299 M 668 1114 I : [ 1 0 0 1 150 150 ] concat K 
; : N 668 1114 1 1 rp C 
 L ; N 668 5299 M 668 5257 I : [ 1 0 0 1 150 150 ] concat K 
; : N 668 5257 1 1 rp C 
 L ; N 668 1114 M 668 1155 I : [ 1 0 0 1 150 150 ] concat K 
; : N 668 1155 1 1 rp C 
 L ; Pscript_WinNT_Incr begin
%%BeginResource: file Pscript_T3Hdr 5.0 0
{version cvi 2016 ge{32/FontType resourcestatus{pop pop true}{false}ifelse}
{false}ifelse}exec/Is2016andT32? exch def/T32DefSBCMap{/CIDInit/ProcSet
findresource begin 10 dict begin begincmap/CIDSystemInfo 3 dict dup begin
/Registry(Adobe)def/Ordering(Identity1)def/Supplement 0 def end def/CMapType 0
def/WMode 0 def 1 begincodespacerange<00><ff>endcodespacerange 1 begincidrange
<00><ff>0 endcidrange endcmap/DrvSBCMap currentdict/CMap defineresource pop end
end}bind def Is2016andT32?{T32DefSBCMap}def/T32RsrcBegin{Is2016andT32?{
/BitmapFontInit/ProcSet findresource begin}if}bind def/T32RsrcEnd{Is2016andT32?
{end}if}bind def/AddT32Char{6 1 roll 0 get 7 1 roll pop pop 5 1 roll pop
findfont/TT32R get addglyph}bind def/AddT3Char{findfont dup 5 2 roll 1 index
length 0 gt{cvx 1 index exch 4 exch put dup(imagemask)cvx cvn 5 exch put cvx}
{pop cvx}ifelse 3 -1 roll/CharProcs get 3 1 roll put dup/Encoding get 5 -1 roll
4 index put/Metrics get 3 1 roll put}bind def/AddT3T32Char Is2016andT32?{
/AddT32Char}{/AddT3Char}ifelse load def/GreNewFontT32{5 dict begin exch
/FontMatrix exch def exch/FontBBox exch def exch pop exch pop/CIDFontType 4 def
dup currentdict end/CIDFont defineresource 3 -1 roll dup/DrvSBCMap dup/CMap
resourcestatus{pop pop}{T32DefSBCMap}ifelse 5 -1 roll[exch]composefont dup
length dict copy dup/FID undef begin exch/TT32R exch def currentdict end
definefont/BitmapFontInit/ProcSet findresource begin/TT32R get[14 0 0 0 0 0]<>0
4 -1 roll addglyph end}bind def/GreNewFontT3{11 dict begin pop/FontType 3 def
/FontMatrix exch def/FontBBox exch def/Encoding exch def/CharProcs 257 dict def
CharProcs/.notdef{}put/Metrics 257 dict def Metrics/.notdef 3 -1 roll put
AddFontInfoBegin AddFontInfo AddFontInfoEnd/BuildChar{userdict begin/char exch
def dup/charname exch/Encoding get char get def dup/Metrics get charname 2 copy
known{get aload pop}{pop/.notdef get aload pop}ifelse setcachedevice begin
Encoding char get CharProcs exch 2 copy known{get}{pop/.notdef get}ifelse end
exec end}def currentdict end definefont pop}bind def/GreNewFont{Is2016andT32?
{GreNewFontT32}{GreNewFontT3}ifelse}bind def/UDF3{Is2016andT32?{/BitmapFontInit
/ProcSet findresource begin dup/CIDFont findresource removeall/CIDFont
undefineresource undefinefont end}{pop UDF}ifelse}bind def
%%EndResource
end reinitialize
/TT24b00
[66 0 0 0 0 0 ] 
 256 array 0 1 255 {1 index exch /.notdef put} for 
[0 0 0 0 ] 
[1 66 div 0 0 -1 66 div 0 0 ]
/__TT24b00
GreNewFont
T32RsrcBegin

1
/g305 [31 0 1 -45 29 5 ] 
/g305 [28 50 true [1 0 0 1 -1 45 ]  0 0]
[<00070000
003fe000
00f07800
01e03c00
03c01e00
07800f00
07000f00
0f000780
0e000780
1e0003c0
1e0003c0
3c0003c0
3c0001e0
3c0001e0
3c0001e0
7c0001e0
780001f0
780000f0
780000f0
780000f0
780000f0
780000f0
f80000f0
f80000f0
f80000f0
f80000f0
f80000f0
f80000f0
780000f0
780000f0
780000f0
780000f0
780000f0
780001f0
780001f0
7c0001e0
3c0001e0
3c0001e0
3c0003e0
1e0003c0
1e0003c0
1e000780
0f000780
0f000700
07800f00
03801e00
01c03c00
00f07800
007ff000
000f8000
>
 ]
/TT24b00 AddT3T32Char
T32RsrcEnd
Pscript_WinNT_Incr begin
%%BeginResource: file Pscript_Text 5.0 0
/TextInit{TextInitialised? not{/Pscript_Windows_Font & d/TextInitialised? T d
/fM[1 0 0 1 0 0]d/mFM matrix d/iMat[1 0 0.212557 1 0 0]d}if}b/copyfont{1 ^
length add dict `{1 ^/FID ne{d}{! !}?}forall & E}b/EncodeDict 11 dict d/bullets
{{/bullet}repeat}b/rF{3 copyfont @ ` ~ EncodeDict ~ get/Encoding ~ 3 ^/0 eq{&
/CharStrings known{CharStrings/Eth known not{! EncodeDict/ANSIEncodingOld get}
if}if}if d E}b/mF{@ 7 1 $ findfont ~{@/Encoding get @ StandardEncoding eq{! T}{
{ISOLatin1Encoding}stopped{! F}{eq}?{T}{@ ` T 32 1 127{Encoding 1 ^ get
StandardEncoding 3 -1 $ get eq and}for E}?}?}{F}?{1 ^ ~ rF}{0 copyfont}? 6 -2 $
! ! ~ !/pd_charset @ where{~ get 128 eq{@ FDV 2 copy get @ length array copy
put pd_CoverFCRange}if}{!}? 2 ^ ~ definefont fM 5 4 -1 $ put fM 4 0 put fM
makefont Pscript_Windows_Font 3 1 $ put}b/sLT{: Lw -M currentpoint snap M 0 - 0
Lc K ;}b/xUP null d/yUP null d/uW null d/xSP null d/ySP null d/sW null d/sSU{N
/uW ~ d/yUP ~ d/xUP ~ d}b/sU{xUP yUP uW sLT}b/sST{N/sW ~ d/ySP ~ d/xSP ~ d}b/sT
{xSP ySP sW sLT}b/sR{: + R 0 0 M}b/sRxy{: matrix astore concat 0 0 M}b/eR/; , d
/AddOrigFP{{&/FontInfo known{&/FontInfo get length 6 add}{6}? dict `
/WinPitchAndFamily ~ d/WinCharSet ~ d/OrigFontType ~ d/OrigFontStyle ~ d
/OrigFontName ~ d & E/FontInfo ~ d}{! ! ! ! !}?}b/mFS{makefont
Pscript_Windows_Font 3 1 $ put}b/mF42D{0 copyfont `/FontName ~ d 2 copy ~ sub 1
add dict `/.notdef 0 d 2 copy 1 ~{@ 3 ^ sub Encoding ~ get ~ d}for & E
/CharStrings ~ d ! ! & @ E/FontName get ~ definefont}b/mF42{15 dict ` @ 4 1 $
FontName ~ d/FontType 0 d/FMapType 2 d/FontMatrix[1 0 0 1 0 0]d 1 ^ 254 add 255
idiv @ array/Encoding ~ d 0 1 3 -1 $ 1 sub{@ Encoding 3 1 $ put}for/FDepVector
Encoding length array d/CharStrings 2 dict `/.notdef 0 d & E d 0 1 Encoding
length 1 sub{@ @ 10 lt{! FontName length 1 add string}{100 lt{FontName length 2
add string}{FontName length 3 add string}?}? @ 0 FontName @ length string cvs
putinterval @ 3 -1 $ @ 4 1 $ 3 string cvs FontName length ~ putinterval cvn 1 ^
256 mul @ 255 add 3 -1 $ 4 ^ findfont mF42D FDepVector 3 1 $ put}for & @ E
/FontName get ~ definefont ! ! ! mF}b/mF_OTF_V{~ ! ~ ! 4 -1 $ ! findfont 2 ^ ~
definefont fM @ @ 4 6 -1 $ neg put 5 0 put 90 matrix R matrix concatmatrix
makefont Pscript_Windows_Font 3 1 $ put}b/mF_TTF_V{3{~ !}repeat 3 -1 $ !
findfont 1 ^ ~ definefont Pscript_Windows_Font 3 1 $ put}b/UmF{L2?
{Pscript_Windows_Font ~ undef}{!}?}b/UmF42{@ findfont/FDepVector get{/FontName
get undefinefont}forall undefinefont}b
%%EndResource
end reinitialize
F /F0 0 /0 F /TT24b00 mF 
/F0S42 F0 [66.145 0 0 -66.145 0 0 ] mFS
F0S42 Ji 
653 5376 M <01>S 
N 1046 5299 M 1046 5257 I : [ 1 0 0 1 150 150 ] concat K 
; : N 1046 5257 1 1 rp C 
 L ; N 1046 1114 M 1046 1155 I : [ 1 0 0 1 150 150 ] concat K 
; : N 1046 1155 1 1 rp C 
 L ; T32RsrcBegin

2
/g310 [31 0 2 -45 27 5 ] 
/g310 [25 50 true [1 0 0 1 -2 45 ]  0 0]
[<00000180
007fff00
00ffff00
00fffe00
00fffe00
01c00000
01c00000
03800000
03800000
03000000
07000000
07000000
0e000000
0e000000
0fe00000
1ff80000
1ffe0000
3fff8000
3fffc000
00ffe000
001ff000
0007f800
0001f800
0000fc00
00007e00
00003e00
00001e00
00000f00
00000f00
00000f00
00000700
00000700
00000700
00000700
00000700
00000700
00000700
00000600
00000600
00000e00
00000c00
00000c00
00001800
00003800
60007000
fc00e000
ff83c000
7fff0000
3ffc0000
0fe00000
>
 ]
/TT24b00 AddT3T32Char
T32RsrcEnd
1031 5376 M <02>S 
N 1425 5299 M 1425 5257 I : [ 1 0 0 1 150 150 ] concat K 
; : N 1425 5257 1 1 rp C 
 L ; N 1425 1114 M 1425 1155 I : [ 1 0 0 1 150 150 ] concat K 
; : N 1425 1155 1 1 rp C 
 L ; T32RsrcBegin

3
/g306 [31 0 7 -44 24 4 ] 
/g306 [17 48 true [1 0 0 1 -7 44 ]  0 0]
[<006000
01e000
07e000
1fe000
7fe000
83e000
01e000
01e000
01e000
01e000
01e000
01e000
01e000
01e000
01e000
01e000
01e000
01e000
01e000
01e000
01e000
01e000
01e000
01e000
01e000
01e000
01e000
01e000
01e000
01e000
01e000
01e000
01e000
01e000
01e000
01e000
01e000
01e000
01e000
01e000
01e000
01e000
01e000
01e000
03e000
07f000
3ffe00
ffff80
>
 ]
/TT24b00 AddT3T32Char
T32RsrcEnd
1394 5376 M <0301>S 
N 1804 5299 M 1804 5257 I : [ 1 0 0 1 150 150 ] concat K 
; : N 1804 5257 1 1 rp C 
 L ; N 1804 1114 M 1804 1155 I : [ 1 0 0 1 150 150 ] concat K 
; : N 1804 1155 1 1 rp C 
 L ; 1773 5376 M <0302>S 
N 2183 5299 M 2183 5257 I : [ 1 0 0 1 150 150 ] concat K 
; : N 2183 5257 1 1 rp C 
 L ; N 2183 1114 M 2183 1155 I : [ 1 0 0 1 150 150 ] concat K 
; : N 2183 1155 1 1 rp C 
 L ; T32RsrcBegin

4
/g307 [31 0 2 -44 29 4 ] 
/g307 [27 48 true [1 0 0 1 -2 44 ]  0 0]
[<00ff8000
03ffe000
07fff000
0f03f800
1c00fc00
18007e00
30003e00
30003e00
60001f00
60000f00
40000f00
c0000f00
c0000f00
00000f00
00000f00
00000f00
00000f00
00000f00
00000e00
00000e00
00001e00
00001c00
00003c00
00003c00
00007800
00007000
0000f000
0000e000
0001c000
0003c000
00038000
00070000
000e0000
001c0000
001c0000
00380000
00700000
00e00000
01c00000
03800020
03800060
070000c0
0e0000c0
1c0001c0
3fffff80
3fffff80
7fffff80
ffffff00
>
 ]
/TT24b00 AddT3T32Char
T32RsrcEnd
2152 5376 M <0401>S 
N 2562 5299 M 2562 5257 I : [ 1 0 0 1 150 150 ] concat K 
; : N 2562 5257 1 1 rp C 
 L ; N 2562 1114 M 2562 1155 I : [ 1 0 0 1 150 150 ] concat K 
; : N 2562 1155 1 1 rp C 
 L ; 2531 5376 M <0402>S 
N 2941 5299 M 2941 5257 I : [ 1 0 0 1 150 150 ] concat K 
; : N 2941 5257 1 1 rp C 
 L ; N 2941 1114 M 2941 1155 I : [ 1 0 0 1 150 150 ] concat K 
; : N 2941 1155 1 1 rp C 
 L ; T32RsrcBegin

5
/g308 [31 0 3 -45 27 5 ] 
/g308 [24 50 true [1 0 0 1 -3 45 ]  0 0]
[<003c00
01ff80
07ffc0
0e07e0
1c01f0
3800f8
3000f8
700078
600038
400038
c00038
800038
000038
000038
000030
000070
000060
0000e0
0001c0
000380
000700
001fc0
007fe0
01fff0
000ff8
0001fc
0000fc
00003e
00003e
00001e
00000f
00000f
00000f
00000f
000007
000007
000007
000006
00000e
00000e
00000c
00001c
000018
000030
400070
f001e0
fe0780
ffff00
7ffc00
0fc000
>
 ]
/TT24b00 AddT3T32Char
T32RsrcEnd
2910 5376 M <0501>S 
N 3320 5299 M 3320 5257 I : [ 1 0 0 1 150 150 ] concat K 
; : N 3320 5257 1 1 rp C 
 L ; N 3320 1114 M 3320 1155 I : [ 1 0 0 1 150 150 ] concat K 
; : N 3320 1155 1 1 rp C 
 L ; 3289 5376 M <0502>S 
N 3699 5299 M 3699 5257 I : [ 1 0 0 1 150 150 ] concat K 
; : N 3699 5257 1 1 rp C 
 L ; N 3699 1114 M 3699 1155 I : [ 1 0 0 1 150 150 ] concat K 
; : N 3699 1155 1 1 rp C 
 L ; T32RsrcBegin

6
/g309 [31 0 1 -44 29 4 ] 
/g309 [28 48 true [1 0 0 1 -1 44 ]  0 0]
[<00001800
00001800
00003800
00003800
00007800
0000f800
0000f800
0001f800
0003b800
00033800
00073800
00063800
000e3800
001c3800
00183800
00383800
00703800
00703800
00e03800
00c03800
01c03800
03803800
03003800
07003800
0e003800
0e003800
1c003800
18003800
38003800
70003800
70003800
e0003800
c0003800
fffffff0
fffffff0
00003800
00003800
00003800
00003800
00003800
00003800
00003800
00003800
00003800
00003800
00003800
00003800
00003800
>
 ]
/TT24b00 AddT3T32Char
T32RsrcEnd
3668 5376 M <0601>S 
N 4078 5299 M 4078 5257 I : [ 1 0 0 1 150 150 ] concat K 
; : N 4078 5257 1 1 rp C 
 L ; N 4078 1114 M 4078 1155 I : [ 1 0 0 1 150 150 ] concat K 
; : N 4078 1155 1 1 rp C 
 L ; 4047 5376 M <0602>S 
N 4457 5299 M 4457 5257 I : [ 1 0 0 1 150 150 ] concat K 
; : N 4457 5257 1 1 rp C 
 L ; N 4457 1114 M 4457 1155 I : [ 1 0 0 1 150 150 ] concat K 
; : N 4457 1155 1 1 rp C 
 L ; 4426 5376 M <0201>S 
N 668 5299 M 709 5299 I : [ 1 0 0 1 150 150 ] concat K 
; : N 709 5299 1 1 rp C 
 L ; N 4457 5299 M 4415 5299 I : [ 1 0 0 1 150 150 ] concat K 
; : N 4415 5299 1 1 rp C 
 L ; T32RsrcBegin

7
/g302 [21 0 2 -15 18 -10 ] 
/g302 [16 5 true [1 0 0 1 -2 15 ]  0 0]
[<ffff
ffff
ffff
ffff
ffff
>
 ]
/TT24b00 AddT3T32Char
T32RsrcEnd
592 5320 M <0703>S 
N 668 4880 M 709 4880 I : [ 1 0 0 1 150 150 ] concat K 
; : N 709 4880 1 1 rp C 
 L ; N 4457 4880 M 4415 4880 I : [ 1 0 0 1 150 150 ] concat K 
; : N 4415 4880 1 1 rp C 
 L ; T32RsrcBegin

8
/g303 [16 0 4 -3 11 5 ] 
/g303 [7 8 true [1 0 0 1 -4 3 ]  0 0]
[<7c
7e
fe
fe
fe
7e
7c
10
>
 ]
/TT24b00 AddT3T32Char

9
/g313 [31 0 3 -45 28 5 ] 
/g313 [25 50 true [1 0 0 1 -3 45 ]  0 0]
[<001c0000
01ffc000
03c3e000
0e007800
1c003800
38001c00
30000e00
70000e00
70000e00
70000e00
70000e00
70000e00
70000e00
78000e00
78001e00
7c001c00
3c003c00
3e003800
1f007000
0fc0e000
0fe1c000
07ff0000
03fe0000
01ff0000
00ff8000
00ffc000
01cfe000
0387f000
0703f800
0e00fc00
1c007e00
38003e00
38001f00
70000f00
70000f00
70000700
70000780
70000780
f0000780
70000380
70000300
70000700
78000700
38000600
3c000e00
1e001c00
0f003800
07c0f000
01ffc000
007e0000
>
 ]
/TT24b00 AddT3T32Char
T32RsrcEnd
545 4901 M <07010809>S 
N 668 4462 M 709 4462 I : [ 1 0 0 1 150 150 ] concat K 
; : N 709 4462 1 1 rp C 
 L ; N 4457 4462 M 4415 4462 I : [ 1 0 0 1 150 150 ] concat K 
; : N 4415 4462 1 1 rp C 
 L ; T32RsrcBegin

10
/g311 [31 0 2 -45 29 5 ] 
/g311 [27 50 true [1 0 0 1 -2 45 ]  0 0]
[<000007c0
00007f00
0001f800
0007e000
000f8000
001e0000
003c0000
00f80000
00f00000
01e00000
03c00000
07800000
07800000
0f000000
1f000000
1e000000
3e000000
3e000000
3c1fe000
7c7ff800
7dfffc00
7f807e00
7e001f00
fc000f80
f8000f80
f80007c0
f00007c0
f00003c0
f00003e0
f00003e0
f00001e0
f00001e0
f00001e0
f00001e0
700001e0
700001e0
700001e0
780001e0
780001c0
380001c0
3c0001c0
3c0003c0
1e000380
1e000780
0f000700
07800e00
03c01c00
01f8f800
007ff000
001f8000
>
 ]
/TT24b00 AddT3T32Char
T32RsrcEnd
545 4483 M <0701080A>S 
N 668 4043 M 709 4043 I : [ 1 0 0 1 150 150 ] concat K 
; : N 709 4043 1 1 rp C 
 L ; N 4457 4043 M 4415 4043 I : [ 1 0 0 1 150 150 ] concat K 
; : N 4415 4043 1 1 rp C 
 L ; 545 4064 M <07010806>S 
N 668 3625 M 709 3625 I : [ 1 0 0 1 150 150 ] concat K 
; : N 709 3625 1 1 rp C 
 L ; N 4457 3625 M 4415 3625 I : [ 1 0 0 1 150 150 ] concat K 
; : N 4415 3625 1 1 rp C 
 L ; 545 3646 M <07010804>S 
N 668 3206 M 709 3206 I : [ 1 0 0 1 150 150 ] concat K 
; : N 709 3206 1 1 rp C 
 L ; N 4457 3206 M 4415 3206 I : [ 1 0 0 1 150 150 ] concat K 
; : N 4415 3206 1 1 rp C 
 L ; 613 3227 M <01>S 
N 668 2787 M 709 2787 I : [ 1 0 0 1 150 150 ] concat K 
; : N 709 2787 1 1 rp C 
 L ; N 4457 2787 M 4415 2787 I : [ 1 0 0 1 150 150 ] concat K 
; : N 4415 2787 1 1 rp C 
 L ; 566 2808 M <010804>S 
N 668 2369 M 709 2369 I : [ 1 0 0 1 150 150 ] concat K 
; : N 709 2369 1 1 rp C 
 L ; N 4457 2369 M 4415 2369 I : [ 1 0 0 1 150 150 ] concat K 
; : N 4415 2369 1 1 rp C 
 L ; 566 2390 M <010806>S 
N 668 1951 M 709 1951 I : [ 1 0 0 1 150 150 ] concat K 
; : N 709 1951 1 1 rp C 
 L ; N 4457 1951 M 4415 1951 I : [ 1 0 0 1 150 150 ] concat K 
; : N 4415 1951 1 1 rp C 
 L ; 566 1972 M <01080A>S 
N 668 1532 M 709 1532 I : [ 1 0 0 1 150 150 ] concat K 
; : N 709 1532 1 1 rp C 
 L ; N 4457 1532 M 4415 1532 I : [ 1 0 0 1 150 150 ] concat K 
; : N 4415 1532 1 1 rp C 
 L ; 566 1553 M <010809>S 
N 668 1114 M 709 1114 I : [ 1 0 0 1 150 150 ] concat K 
; : N 709 1114 1 1 rp C 
 L ; N 4457 1114 M 4415 1114 I : [ 1 0 0 1 150 150 ] concat K 
; : N 4415 1114 1 1 rp C 
 L ; 613 1135 M <03>S 
N 668 1114 M 4457 1114 I : [ 1 0 0 1 150 150 ] concat K 
; : N 4457 1114 1 1 rp C 
 L ; N 668 5299 M 4457 5299 I : [ 1 0 0 1 150 150 ] concat K 
; : N 4457 5299 1 1 rp C 
 L ; N 4457 5299 M 4457 1114 I : [ 1 0 0 1 150 150 ] concat K 
; : N 4457 1114 1 1 rp C 
 L ; N 668 5299 M 668 1114 I : [ 1 0 0 1 150 150 ] concat K 
; : N 668 1114 1 1 rp C 
 L ; 1 1 0 1 scol : 668 1201 100 1999 rc N 668 3196 M 669 3175 I 670 3154 I 671 3133 I 671 3112 I 672 3091 I 673 3070 I 674 3049 I 674 3028 I 675 3008 I 676 2987 I 677 2966 I 677 2945 I 678 2924 I 679 2904 I 680 2883 I 680 2862 I 681 2842 I 682 2821 I 683 2801 I 683 2780 I 684 2760 I 685 2739 I 686 2719 I 686 2698 I 687 2678 I 688 2658 I 689 2638 I 689 2618 I 690 2598 I 691 2578 I 692 2558 I 693 2538 I 693 2518 I 694 2498 I 695 2479 I 696 2459 I 696 2440 I 697 2420 I 698 2401 I 699 2382 I 699 2362 I 700 2343 I 701 2324 I 702 2305 I 702 2286 I 703 2268 I 704 2249 I 705 2230 I 705 2212 I 706 2194 I 707 2175 I 708 2157 I 708 2139 I 709 2121 I 710 2103 I 711 2086 I 711 2068 I 712 2051 I 713 2033 I 714 2016 I 714 1999 I 715 1982 I 716 1965 I 717 1948 I 718 1931 I 718 1915 I 719 1898 I 720 1882 I 721 1866 I 721 1850 I 722 1834 I 723 1818 I 724 1803 I 724 1787 I 725 1772 I 726 1757 I 727 1742 I 727 1727 I 728 1712 I 729 1698 I 730 1683 I 730 1669 I 731 1655 I 732 1641 I 733 1627 I 733 1613 I 734 1600 I 735 1587 I 736 1573 I 736 1560 I 737 1548 I 738 1535 I 739 1522 I 739 1510 I 740 1498 I 741 1486 I 742 1474 I 743 1462 I 743 1451 I 744 1440 I 745 1428 I 746 1418 I 746 1407 I 747 1396 I 748 1386 I 749 1376 I 749 1365 I 750 1356 I 751 1346 I 752 1336 I 752 1327 I 753 1318 I 754 1309 I 755 1300 I 755 1292 I 756 1283 I 757 1275 I 758 1267 I 758 1260 I 759 1252 I 760 1245 I 761 1237 I 761 1230 I 762 1224 I 763 1217 I 764 1211 I 764 1204 I : [ 1 0 0 1 150 150 ] concat K 
; ; : 761 1114 104 938 rc N 764 1204 M 765 1198 I 766 1193 I 767 1187 I 768 1182 I 768 1176 I 769 1171 I 770 1167 I 771 1162 I 771 1158 I 772 1153 I 773 1150 I 774 1146 I 774 1142 I 775 1139 I 776 1136 I 777 1133 I 777 1130 I 778 1128 I 779 1125 I 780 1123 I 780 1121 I 781 1120 I 782 1118 I 783 1117 I 783 1116 I 784 1115 I 785 1114 I 786 1114 I 787 1114 I 788 1114 I 789 1114 I 790 1115 I 790 1116 I 791 1117 I 792 1118 I 793 1119 I 793 1121 I 794 1123 I 795 1125 I 796 1127 I 796 1130 I 797 1132 I 798 1135 I 799 1138 I 799 1142 I 800 1145 I 801 1149 I 802 1153 I 802 1157 I 803 1161 I 804 1166 I 805 1171 I 805 1176 I 806 1181 I 807 1186 I 808 1192 I 808 1197 I 809 1203 I 810 1210 I 811 1216 I 811 1223 I 812 1229 I 813 1236 I 814 1243 I 815 1251 I 815 1258 I 816 1266 I 817 1274 I 818 1282 I 818 1290 I 819 1299 I 820 1308 I 821 1317 I 821 1326 I 822 1335 I 823 1344 I 824 1354 I 824 1364 I 825 1374 I 826 1384 I 827 1394 I 827 1405 I 828 1416 I 829 1427 I 830 1438 I 830 1449 I 831 1461 I 832 1472 I 833 1484 I 833 1496 I 834 1508 I 835 1520 I 836 1533 I 836 1546 I 837 1558 I 838 1571 I 839 1584 I 840 1598 I 840 1611 I 841 1625 I 842 1639 I 843 1653 I 843 1667 I 844 1681 I 845 1695 I 846 1710 I 846 1725 I 847 1739 I 848 1754 I 849 1770 I 849 1785 I 850 1800 I 851 1816 I 852 1832 I 852 1847 I 853 1863 I 854 1880 I 855 1896 I 855 1912 I 856 1929 I 857 1945 I 858 1962 I 858 1979 I 859 1996 I 860 2013 I 861 2030 I 861 2048 I : [ 1 0 0 1 150 150 ] concat K 
; ; N 861 2048 M 862 2065 I 863 2083 I 864 2101 I 865 2118 I 865 2136 I 866 2154 I 867 2172 I 868 2191 I 868 2209 I 869 2228 I 870 2246 I 871 2265 I 871 2283 I 872 2302 I 873 2321 I 874 2340 I 874 2359 I 875 2378 I 876 2398 I 877 2417 I 877 2436 I 878 2456 I 879 2476 I 880 2495 I 880 2515 I 881 2535 I 882 2555 I 883 2574 I 883 2594 I 884 2614 I 885 2635 I 886 2655 I 887 2675 I 887 2695 I 888 2716 I 889 2736 I 890 2756 I 890 2777 I 891 2797 I 892 2818 I 893 2838 I 893 2859 I 894 2880 I 895 2900 I 896 2921 I 896 2942 I 897 2963 I 898 2983 I 899 3004 I 899 3025 I 900 3046 I 901 3067 I 902 3088 I 902 3109 I 903 3129 I 904 3150 I 905 3171 I 905 3192 I 906 3213 I 907 3234 I 908 3255 I 908 3276 I 909 3297 I 910 3318 I 911 3339 I 912 3359 I 912 3380 I 913 3401 I 914 3422 I 915 3443 I 915 3464 I 916 3484 I 917 3505 I 918 3526 I 918 3546 I 919 3567 I 920 3588 I 921 3608 I 921 3629 I 922 3649 I 923 3670 I 924 3690 I 924 3710 I 925 3731 I 926 3751 I 927 3771 I 927 3791 I 928 3811 I 929 3831 I 930 3851 I 930 3871 I 931 3891 I 932 3911 I 933 3930 I 933 3950 I 934 3969 I 935 3989 I 936 4008 I 937 4027 I 937 4047 I 938 4066 I 939 4085 I 940 4104 I 940 4123 I 941 4141 I 942 4160 I 943 4179 I 943 4197 I 944 4215 I 945 4234 I 946 4252 I 946 4270 I 947 4288 I 948 4306 I 949 4324 I 949 4341 I 950 4359 I 951 4376 I 952 4393 I 952 4411 I 953 4428 I 954 4445 I 955 4461 I 955 4478 I 956 4495 I 957 4511 I 958 4527 I : [ 1 0 0 1 150 150 ] concat K 
; : 955 4524 104 776 rc N 958 4527 M 958 4543 I 959 4559 I 960 4575 I 961 4591 I 962 4607 I 962 4622 I 963 4638 I 964 4653 I 965 4668 I 965 4683 I 966 4697 I 967 4712 I 968 4726 I 968 4741 I 969 4755 I 970 4769 I 971 4783 I 971 4796 I 972 4810 I 973 4823 I 974 4836 I 974 4850 I 975 4862 I 976 4875 I 977 4888 I 977 4900 I 978 4912 I 979 4924 I 980 4936 I 980 4948 I 981 4959 I 982 4971 I 983 4982 I 984 4993 I 984 5004 I 985 5014 I 986 5025 I 987 5035 I 987 5045 I 988 5055 I 989 5065 I 990 5074 I 990 5083 I 991 5093 I 992 5102 I 993 5110 I 993 5119 I 994 5127 I 995 5135 I 996 5143 I 996 5151 I 997 5159 I 998 5166 I 999 5173 I 999 5181 I 1000 5187 I 1001 5194 I 1002 5200 I 1002 5207 I 1003 5213 I 1004 5219 I 1005 5224 I 1005 5230 I 1006 5235 I 1007 5240 I 1008 5245 I 1009 5249 I 1009 5254 I 1010 5258 I 1011 5262 I 1012 5266 I 1012 5269 I 1013 5273 I 1014 5276 I 1015 5279 I 1015 5282 I 1016 5284 I 1017 5286 I 1018 5289 I 1018 5291 I 1019 5292 I 1020 5294 I 1021 5295 I 1021 5296 I 1022 5297 I 1023 5298 I 1024 5298 I 1025 5298 I 1026 5298 I 1027 5297 I 1028 5297 I 1029 5296 I 1030 5294 I 1030 5293 I 1031 5291 I 1032 5290 I 1033 5287 I 1034 5285 I 1034 5283 I 1035 5280 I 1036 5277 I 1037 5274 I 1037 5271 I 1038 5267 I 1039 5264 I 1040 5260 I 1040 5256 I 1041 5251 I 1042 5247 I 1043 5242 I 1043 5237 I 1044 5232 I 1045 5227 I 1046 5221 I 1046 5215 I 1047 5210 I 1048 5203 I 1049 5197 I 1049 5191 I 1050 5184 I 1051 5177 I 1052 5170 I 1052 5162 I 1053 5155 I 1054 5147 I 1055 5139 I 1055 5131 I : [ 1 0 0 1 150 150 ] concat K 
; ; N 1055 5131 M 1056 5123 I 1057 5114 I 1058 5106 I 1059 5097 I 1059 5088 I 1060 5079 I 1061 5069 I 1062 5059 I 1062 5050 I 1063 5040 I 1064 5030 I 1065 5019 I 1065 5009 I 1066 4998 I 1067 4987 I 1068 4976 I 1068 4965 I 1069 4953 I 1070 4942 I 1071 4930 I 1071 4918 I 1072 4906 I 1073 4894 I 1074 4881 I 1074 4868 I 1075 4856 I 1076 4843 I 1077 4830 I 1077 4816 I 1078 4803 I 1079 4789 I 1080 4776 I 1081 4762 I 1081 4748 I 1082 4733 I 1083 4719 I 1084 4704 I 1084 4690 I 1085 4675 I 1086 4660 I 1087 4645 I 1087 4630 I 1088 4614 I 1089 4599 I 1090 4583 I 1090 4567 I 1091 4551 I 1092 4535 I 1093 4519 I 1093 4502 I 1094 4486 I 1095 4469 I 1096 4453 I 1096 4436 I 1097 4419 I 1098 4402 I 1099 4384 I 1099 4367 I 1100 4350 I 1101 4332 I 1102 4314 I 1102 4296 I 1103 4279 I 1104 4261 I 1105 4242 I 1106 4224 I 1106 4206 I 1107 4187 I 1108 4169 I 1109 4150 I 1109 4132 I 1110 4113 I 1111 4094 I 1112 4075 I 1112 4056 I 1113 4037 I 1114 4017 I 1115 3998 I 1115 3979 I 1116 3959 I 1117 3940 I 1118 3920 I 1118 3900 I 1119 3880 I 1120 3861 I 1121 3841 I 1121 3821 I 1122 3801 I 1123 3781 I 1124 3760 I 1124 3740 I 1125 3720 I 1126 3700 I 1127 3679 I 1127 3659 I 1128 3638 I 1129 3618 I 1130 3597 I 1131 3577 I 1131 3556 I 1132 3536 I 1133 3515 I 1134 3494 I 1134 3473 I 1135 3453 I 1136 3432 I 1137 3411 I 1137 3390 I 1138 3369 I 1139 3349 I 1140 3328 I 1140 3307 I 1141 3286 I 1142 3265 I 1143 3244 I 1143 3223 I 1144 3202 I 1145 3181 I 1146 3160 I 1146 3139 I 1147 3119 I 1148 3098 I 1149 3077 I 1149 3056 I 1150 3035 I 1151 3014 I 1152 2993 I : [ 1 0 0 1 150 150 ] concat K 
; N 1152 2993 M 1152 2973 I 1153 2952 I 1154 2931 I 1155 2910 I 1156 2890 I 1156 2869 I 1157 2848 I 1158 2828 I 1159 2807 I 1159 2787 I 1160 2766 I 1161 2746 I 1162 2725 I 1162 2705 I 1163 2685 I 1164 2664 I 1165 2644 I 1165 2624 I 1166 2604 I 1167 2584 I 1168 2564 I 1168 2544 I 1169 2524 I 1170 2505 I 1171 2485 I 1171 2465 I 1172 2446 I 1173 2426 I 1174 2407 I 1174 2388 I 1175 2368 I 1176 2349 I 1177 2330 I 1177 2311 I 1178 2292 I 1179 2274 I 1180 2255 I 1181 2236 I 1181 2218 I 1182 2199 I 1183 2181 I 1184 2163 I 1184 2145 I 1185 2127 I 1186 2109 I 1187 2091 I 1187 2074 I 1188 2056 I 1189 2039 I 1190 2021 I 1190 2004 I 1191 1987 I 1192 1970 I 1193 1953 I 1193 1937 I 1194 1920 I 1195 1904 I 1196 1887 I 1196 1871 I 1197 1855 I 1198 1839 I 1199 1823 I 1199 1808 I 1200 1792 I 1201 1777 I 1202 1762 I 1203 1747 I 1203 1732 I 1204 1717 I 1205 1702 I 1206 1688 I 1206 1673 I 1207 1659 I 1208 1645 I 1209 1631 I 1209 1618 I 1210 1604 I 1211 1591 I 1212 1578 I 1212 1565 I 1213 1552 I 1214 1539 I 1215 1526 I 1215 1514 I 1216 1502 I 1217 1490 I 1218 1478 I 1218 1466 I 1219 1455 I 1220 1443 I 1221 1432 I 1221 1421 I 1222 1410 I 1223 1400 I 1224 1389 I 1224 1379 I 1225 1369 I 1226 1359 I 1227 1349 I 1228 1339 I 1228 1330 I 1229 1321 I 1230 1312 I 1231 1303 I 1231 1295 I 1232 1286 I 1233 1278 I 1234 1270 I 1234 1262 I 1235 1254 I 1236 1247 I 1237 1240 I 1237 1233 I 1238 1226 I 1239 1219 I 1240 1213 I 1240 1206 I 1241 1200 I 1242 1194 I 1243 1189 I 1243 1183 I 1244 1178 I 1245 1173 I 1246 1168 I 1246 1163 I 1247 1159 I 1248 1155 I : [ 1 0 0 1 150 150 ] concat K 
; : 1245 1114 105 1130 rc N 1248 1155 M 1249 1151 I 1249 1147 I 1250 1143 I 1251 1140 I 1252 1137 I 1253 1134 I 1253 1131 I 1254 1128 I 1255 1126 I 1256 1124 I 1256 1122 I 1257 1120 I 1258 1118 I 1259 1117 I 1259 1116 I 1260 1115 I 1261 1114 I 1262 1114 I 1263 1114 I 1264 1114 I 1265 1115 I 1266 1115 I 1267 1116 I 1268 1117 I 1268 1119 I 1269 1120 I 1270 1122 I 1271 1124 I 1271 1126 I 1272 1129 I 1273 1131 I 1274 1134 I 1274 1137 I 1275 1141 I 1276 1144 I 1277 1148 I 1278 1152 I 1278 1156 I 1279 1160 I 1280 1164 I 1281 1169 I 1281 1174 I 1282 1179 I 1283 1184 I 1284 1190 I 1284 1196 I 1285 1201 I 1286 1208 I 1287 1214 I 1287 1220 I 1288 1227 I 1289 1234 I 1290 1241 I 1290 1248 I 1291 1256 I 1292 1264 I 1293 1271 I 1293 1280 I 1294 1288 I 1295 1296 I 1296 1305 I 1296 1314 I 1297 1323 I 1298 1332 I 1299 1341 I 1300 1351 I 1300 1361 I 1301 1371 I 1302 1381 I 1303 1391 I 1303 1402 I 1304 1412 I 1305 1423 I 1306 1434 I 1306 1445 I 1307 1457 I 1308 1468 I 1309 1480 I 1309 1492 I 1310 1504 I 1311 1516 I 1312 1529 I 1312 1541 I 1313 1554 I 1314 1567 I 1315 1580 I 1315 1594 I 1316 1607 I 1317 1621 I 1318 1634 I 1318 1648 I 1319 1662 I 1320 1676 I 1321 1691 I 1321 1705 I 1322 1720 I 1323 1735 I 1324 1750 I 1325 1765 I 1325 1780 I 1326 1795 I 1327 1811 I 1328 1827 I 1328 1842 I 1329 1858 I 1330 1874 I 1331 1891 I 1331 1907 I 1332 1923 I 1333 1940 I 1334 1957 I 1334 1974 I 1335 1991 I 1336 2008 I 1337 2025 I 1337 2042 I 1338 2060 I 1339 2077 I 1340 2095 I 1340 2113 I 1341 2131 I 1342 2149 I 1343 2167 I 1343 2185 I 1344 2203 I 1345 2222 I 1346 2240 I : [ 1 0 0 1 150 150 ] concat K 
; ; N 1346 2240 M 1346 2259 I 1347 2277 I 1348 2296 I 1349 2315 I 1350 2334 I 1350 2353 I 1351 2372 I 1352 2392 I 1353 2411 I 1353 2430 I 1354 2450 I 1355 2469 I 1356 2489 I 1356 2509 I 1357 2528 I 1358 2548 I 1359 2568 I 1359 2588 I 1360 2608 I 1361 2628 I 1362 2648 I 1362 2669 I 1363 2689 I 1364 2709 I 1365 2729 I 1365 2750 I 1366 2770 I 1367 2791 I 1368 2811 I 1368 2832 I 1369 2852 I 1370 2873 I 1371 2894 I 1371 2914 I 1372 2935 I 1373 2956 I 1374 2977 I 1375 2998 I 1375 3018 I 1376 3039 I 1377 3060 I 1378 3081 I 1378 3102 I 1379 3123 I 1380 3144 I 1381 3165 I 1381 3186 I 1382 3206 I 1383 3227 I 1384 3248 I 1384 3269 I 1385 3290 I 1386 3311 I 1387 3332 I 1387 3353 I 1388 3374 I 1389 3395 I 1390 3415 I 1390 3436 I 1391 3457 I 1392 3478 I 1393 3498 I 1393 3519 I 1394 3540 I 1395 3560 I 1396 3581 I 1397 3602 I 1397 3622 I 1398 3643 I 1399 3663 I 1400 3683 I 1400 3704 I 1401 3724 I 1402 3744 I 1403 3765 I 1403 3785 I 1404 3805 I 1405 3825 I 1406 3845 I 1406 3865 I 1407 3884 I 1408 3904 I 1409 3924 I 1409 3944 I 1410 3963 I 1411 3983 I 1412 4002 I 1412 4021 I 1413 4041 I 1414 4060 I 1415 4079 I 1415 4098 I 1416 4117 I 1417 4135 I 1418 4154 I 1418 4173 I 1419 4191 I 1420 4210 I 1421 4228 I 1422 4246 I 1422 4264 I 1423 4282 I 1424 4300 I 1425 4318 I 1425 4336 I 1426 4353 I 1427 4371 I 1428 4388 I 1428 4405 I 1429 4422 I 1430 4439 I 1431 4456 I 1431 4473 I 1432 4489 I 1433 4506 I 1434 4522 I 1434 4538 I 1435 4554 I 1436 4570 I 1437 4586 I 1437 4602 I 1438 4617 I 1439 4633 I 1440 4648 I 1440 4663 I 1441 4678 I 1442 4693 I : [ 1 0 0 1 150 150 ] concat K 
; : 1439 4690 105 610 rc N 1442 4693 M 1443 4707 I 1443 4722 I 1444 4736 I 1445 4750 I 1446 4764 I 1447 4778 I 1447 4792 I 1448 4806 I 1449 4819 I 1450 4832 I 1450 4845 I 1451 4858 I 1452 4871 I 1453 4884 I 1453 4896 I 1454 4908 I 1455 4920 I 1456 4932 I 1456 4944 I 1457 4956 I 1458 4967 I 1459 4978 I 1459 4989 I 1460 5000 I 1461 5011 I 1462 5021 I 1462 5032 I 1463 5042 I 1464 5052 I 1465 5061 I 1465 5071 I 1466 5080 I 1467 5090 I 1468 5099 I 1468 5108 I 1469 5116 I 1470 5125 I 1471 5133 I 1472 5141 I 1472 5149 I 1473 5156 I 1474 5164 I 1475 5171 I 1475 5178 I 1476 5185 I 1477 5192 I 1478 5198 I 1478 5205 I 1479 5211 I 1480 5217 I 1481 5222 I 1481 5228 I 1482 5233 I 1483 5238 I 1484 5243 I 1484 5248 I 1485 5252 I 1486 5257 I 1487 5261 I 1487 5264 I 1488 5268 I 1489 5272 I 1490 5275 I 1490 5278 I 1491 5281 I 1492 5283 I 1493 5286 I 1494 5288 I 1494 5290 I 1495 5292 I 1496 5293 I 1497 5295 I 1497 5296 I 1498 5297 I 1499 5298 I 1500 5298 I 1501 5298 I 1502 5298 I 1503 5298 I 1504 5297 I 1505 5296 I 1506 5295 I 1506 5293 I 1507 5292 I 1508 5290 I 1509 5288 I 1509 5286 I 1510 5284 I 1511 5281 I 1512 5278 I 1512 5275 I 1513 5272 I 1514 5269 I 1515 5265 I 1515 5261 I 1516 5257 I 1517 5253 I 1518 5248 I 1519 5244 I 1519 5239 I 1520 5234 I 1521 5228 I 1522 5223 I 1522 5217 I 1523 5211 I 1524 5205 I 1525 5199 I 1525 5193 I 1526 5186 I 1527 5179 I 1528 5172 I 1528 5165 I 1529 5157 I 1530 5150 I 1531 5142 I 1531 5134 I 1532 5126 I 1533 5117 I 1534 5109 I 1534 5100 I 1535 5091 I 1536 5082 I 1537 5072 I 1537 5063 I 1538 5053 I 1539 5043 I 1540 5033 I : [ 1 0 0 1 150 150 ] concat K 
; ; N 1540 5033 M 1540 5022 I 1541 5012 I 1542 5001 I 1543 4991 I 1544 4980 I 1544 4968 I 1545 4957 I 1546 4945 I 1547 4934 I 1547 4922 I 1548 4910 I 1549 4897 I 1550 4885 I 1550 4873 I 1551 4860 I 1552 4847 I 1553 4834 I 1553 4821 I 1554 4807 I 1555 4794 I 1556 4780 I 1556 4766 I 1557 4752 I 1558 4738 I 1559 4724 I 1559 4709 I 1560 4694 I 1561 4680 I 1562 4665 I 1562 4650 I 1563 4634 I 1564 4619 I 1565 4604 I 1565 4588 I 1566 4572 I 1567 4556 I 1568 4540 I 1569 4524 I 1569 4508 I 1570 4491 I 1571 4475 I 1572 4458 I 1572 4441 I 1573 4424 I 1574 4407 I 1575 4390 I 1575 4373 I 1576 4355 I 1577 4338 I 1578 4320 I 1578 4302 I 1579 4284 I 1580 4266 I 1581 4248 I 1581 4230 I 1582 4212 I 1583 4193 I 1584 4175 I 1584 4156 I 1585 4138 I 1586 4119 I 1587 4100 I 1587 4081 I 1588 4062 I 1589 4043 I 1590 4023 I 1591 4004 I 1591 3985 I 1592 3965 I 1593 3946 I 1594 3926 I 1594 3907 I 1595 3887 I 1596 3867 I 1597 3847 I 1597 3827 I 1598 3807 I 1599 3787 I 1600 3767 I 1600 3747 I 1601 3726 I 1602 3706 I 1603 3686 I 1603 3665 I 1604 3645 I 1605 3625 I 1606 3604 I 1606 3583 I 1607 3563 I 1608 3542 I 1609 3522 I 1609 3501 I 1610 3480 I 1611 3459 I 1612 3439 I 1612 3418 I 1613 3397 I 1614 3376 I 1615 3355 I 1616 3334 I 1616 3313 I 1617 3293 I 1618 3272 I 1619 3251 I 1619 3230 I 1620 3209 I 1621 3188 I 1622 3167 I 1622 3146 I 1623 3125 I 1624 3104 I 1625 3083 I 1625 3063 I 1626 3042 I 1627 3021 I 1628 3000 I 1628 2979 I 1629 2958 I 1630 2938 I 1631 2917 I 1631 2896 I 1632 2875 I 1633 2855 I 1634 2834 I 1634 2814 I 1635 2793 I 1636 2773 I : [ 1 0 0 1 150 150 ] concat K 
; N 1636 2773 M 1637 2752 I 1637 2732 I 1638 2711 I 1639 2691 I 1640 2671 I 1641 2651 I 1641 2630 I 1642 2610 I 1643 2590 I 1644 2570 I 1644 2550 I 1645 2531 I 1646 2511 I 1647 2491 I 1647 2472 I 1648 2452 I 1649 2433 I 1650 2413 I 1650 2394 I 1651 2375 I 1652 2355 I 1653 2336 I 1653 2317 I 1654 2298 I 1655 2280 I 1656 2261 I 1656 2242 I 1657 2224 I 1658 2205 I 1659 2187 I 1659 2169 I 1660 2151 I 1661 2133 I 1662 2115 I 1662 2097 I 1663 2079 I 1664 2062 I 1665 2044 I 1666 2027 I 1666 2010 I 1667 1993 I 1668 1976 I 1669 1959 I 1669 1942 I 1670 1925 I 1671 1909 I 1672 1892 I 1672 1876 I 1673 1860 I 1674 1844 I 1675 1828 I 1675 1813 I 1676 1797 I 1677 1782 I 1678 1767 I 1678 1751 I 1679 1736 I 1680 1722 I 1681 1707 I 1681 1692 I 1682 1678 I 1683 1664 I 1684 1650 I 1684 1636 I 1685 1622 I 1686 1609 I 1687 1595 I 1687 1582 I 1688 1569 I 1689 1556 I 1690 1543 I 1691 1530 I 1691 1518 I 1692 1506 I 1693 1493 I 1694 1482 I 1694 1470 I 1695 1458 I 1696 1447 I 1697 1436 I 1697 1424 I 1698 1414 I 1699 1403 I 1700 1392 I 1700 1382 I 1701 1372 I 1702 1362 I 1703 1352 I 1703 1342 I 1704 1333 I 1705 1324 I 1706 1315 I 1706 1306 I 1707 1297 I 1708 1289 I 1709 1280 I 1709 1272 I 1710 1264 I 1711 1257 I 1712 1249 I 1713 1242 I 1713 1235 I 1714 1228 I 1715 1221 I 1716 1215 I 1716 1208 I 1717 1202 I 1718 1196 I 1719 1191 I 1719 1185 I 1720 1180 I 1721 1175 I 1722 1170 I 1722 1165 I 1723 1160 I 1724 1156 I 1725 1152 I 1725 1148 I 1726 1144 I 1727 1141 I 1728 1138 I 1728 1135 I 1729 1132 I 1730 1129 I 1731 1127 I 1731 1124 I 1732 1122 I : [ 1 0 0 1 150 150 ] concat K 
; : 1729 1114 105 1334 rc N 1732 1122 M 1733 1121 I 1734 1119 I 1734 1118 I 1735 1116 I 1736 1115 I 1737 1115 I 1738 1114 I 1739 1114 I 1740 1114 I 1741 1114 I 1742 1115 I 1743 1116 I 1744 1117 I 1744 1118 I 1745 1120 I 1746 1122 I 1747 1124 I 1747 1126 I 1748 1128 I 1749 1131 I 1750 1133 I 1750 1136 I 1751 1140 I 1752 1143 I 1753 1147 I 1753 1150 I 1754 1154 I 1755 1159 I 1756 1163 I 1756 1168 I 1757 1172 I 1758 1177 I 1759 1183 I 1759 1188 I 1760 1194 I 1761 1200 I 1762 1206 I 1763 1212 I 1763 1218 I 1764 1225 I 1765 1232 I 1766 1239 I 1766 1246 I 1767 1253 I 1768 1261 I 1769 1269 I 1769 1277 I 1770 1285 I 1771 1294 I 1772 1302 I 1772 1311 I 1773 1320 I 1774 1329 I 1775 1338 I 1775 1348 I 1776 1358 I 1777 1367 I 1778 1378 I 1778 1388 I 1779 1398 I 1780 1409 I 1781 1420 I 1781 1431 I 1782 1442 I 1783 1453 I 1784 1465 I 1784 1476 I 1785 1488 I 1786 1500 I 1787 1513 I 1788 1525 I 1788 1537 I 1789 1550 I 1790 1563 I 1791 1576 I 1791 1589 I 1792 1603 I 1793 1616 I 1794 1630 I 1794 1644 I 1795 1658 I 1796 1672 I 1797 1686 I 1797 1701 I 1798 1715 I 1799 1730 I 1800 1745 I 1800 1760 I 1801 1775 I 1802 1790 I 1803 1806 I 1803 1822 I 1804 1837 I 1805 1853 I 1806 1869 I 1806 1885 I 1807 1902 I 1808 1918 I 1809 1935 I 1810 1951 I 1810 1968 I 1811 1985 I 1812 2002 I 1813 2019 I 1813 2037 I 1814 2054 I 1815 2072 I 1816 2089 I 1816 2107 I 1817 2125 I 1818 2143 I 1819 2161 I 1819 2179 I 1820 2197 I 1821 2216 I 1822 2234 I 1822 2253 I 1823 2271 I 1824 2290 I 1825 2309 I 1825 2328 I 1826 2347 I 1827 2366 I 1828 2385 I 1828 2405 I 1829 2424 I 1830 2444 I : [ 1 0 0 1 150 150 ] concat K 
; ; N 1830 2444 M 1831 2463 I 1831 2483 I 1832 2502 I 1833 2522 I 1834 2542 I 1835 2562 I 1835 2582 I 1836 2602 I 1837 2622 I 1838 2642 I 1838 2662 I 1839 2682 I 1840 2703 I 1841 2723 I 1841 2743 I 1842 2764 I 1843 2784 I 1844 2805 I 1844 2825 I 1845 2846 I 1846 2867 I 1847 2887 I 1847 2908 I 1848 2929 I 1849 2949 I 1850 2970 I 1850 2991 I 1851 3012 I 1852 3033 I 1853 3053 I 1853 3074 I 1854 3095 I 1855 3116 I 1856 3137 I 1856 3158 I 1857 3179 I 1858 3200 I 1859 3221 I 1860 3242 I 1860 3263 I 1861 3283 I 1862 3304 I 1863 3325 I 1863 3346 I 1864 3367 I 1865 3388 I 1866 3409 I 1866 3430 I 1867 3450 I 1868 3471 I 1869 3492 I 1869 3513 I 1870 3533 I 1871 3554 I 1872 3575 I 1872 3595 I 1873 3616 I 1874 3636 I 1875 3657 I 1875 3677 I 1876 3697 I 1877 3718 I 1878 3738 I 1878 3758 I 1879 3778 I 1880 3798 I 1881 3818 I 1881 3838 I 1882 3858 I 1883 3878 I 1884 3898 I 1885 3918 I 1885 3937 I 1886 3957 I 1887 3976 I 1888 3996 I 1888 4015 I 1889 4034 I 1890 4054 I 1891 4073 I 1891 4092 I 1892 4111 I 1893 4129 I 1894 4148 I 1894 4167 I 1895 4185 I 1896 4204 I 1897 4222 I 1897 4240 I 1898 4258 I 1899 4277 I 1900 4294 I 1900 4312 I 1901 4330 I 1902 4348 I 1903 4365 I 1903 4382 I 1904 4400 I 1905 4417 I 1906 4434 I 1907 4451 I 1907 4467 I 1908 4484 I 1909 4501 I 1910 4517 I 1910 4533 I 1911 4549 I 1912 4565 I 1913 4581 I 1913 4597 I 1914 4612 I 1915 4628 I 1916 4643 I 1916 4658 I 1917 4673 I 1918 4688 I 1919 4703 I 1919 4717 I 1920 4732 I 1921 4746 I 1922 4760 I 1922 4774 I 1923 4788 I 1924 4801 I 1925 4815 I 1925 4828 I 1926 4841 I : [ 1 0 0 1 150 150 ] concat K 
; : 1923 4838 104 462 rc N 1926 4841 M 1927 4854 I 1928 4867 I 1928 4880 I 1929 4892 I 1930 4904 I 1931 4917 I 1932 4929 I 1932 4940 I 1933 4952 I 1934 4963 I 1935 4975 I 1935 4986 I 1936 4997 I 1937 5007 I 1938 5018 I 1938 5028 I 1939 5039 I 1940 5049 I 1941 5058 I 1941 5068 I 1942 5077 I 1943 5087 I 1944 5096 I 1944 5105 I 1945 5113 I 1946 5122 I 1947 5130 I 1947 5138 I 1948 5146 I 1949 5154 I 1950 5162 I 1950 5169 I 1951 5176 I 1952 5183 I 1953 5190 I 1953 5196 I 1954 5203 I 1955 5209 I 1956 5215 I 1957 5221 I 1957 5226 I 1958 5231 I 1959 5237 I 1960 5242 I 1960 5246 I 1961 5251 I 1962 5255 I 1963 5259 I 1963 5263 I 1964 5267 I 1965 5270 I 1966 5274 I 1966 5277 I 1967 5280 I 1968 5282 I 1969 5285 I 1969 5287 I 1970 5289 I 1971 5291 I 1972 5293 I 1972 5294 I 1973 5295 I 1974 5296 I 1976 5298 I 1975 5298 I 1976 5298 I 1977 5298 I 1978 5298 I 1979 5298 I 1980 5297 I 1981 5296 I 1982 5295 I 1982 5294 I 1983 5292 I 1984 5291 I 1985 5289 I 1985 5287 I 1986 5284 I 1987 5282 I 1988 5279 I 1988 5276 I 1989 5273 I 1990 5270 I 1991 5266 I 1991 5262 I 1992 5258 I 1993 5254 I 1994 5250 I 1994 5245 I 1995 5240 I 1996 5235 I 1997 5230 I 1997 5225 I 1998 5219 I 1999 5213 I 2000 5207 I 2000 5201 I 2001 5195 I 2002 5188 I 2003 5181 I 2004 5174 I 2004 5167 I 2005 5160 I 2006 5152 I 2007 5144 I 2007 5136 I 2008 5128 I 2009 5120 I 2010 5111 I 2010 5103 I 2011 5094 I 2012 5084 I 2013 5075 I 2013 5066 I 2014 5056 I 2015 5046 I 2016 5036 I 2016 5026 I 2017 5015 I 2018 5005 I 2019 4994 I 2019 4983 I 2020 4972 I 2021 4961 I 2022 4949 I 2022 4937 I 2023 4926 I : [ 1 0 0 1 150 150 ] concat K 
; ; N 2023 4926 M 2024 4914 I 2025 4901 I 2025 4889 I 2026 4877 I 2027 4864 I 2028 4851 I 2029 4838 I 2029 4825 I 2030 4811 I 2031 4798 I 2032 4784 I 2032 4771 I 2033 4757 I 2034 4742 I 2035 4728 I 2035 4714 I 2036 4699 I 2037 4684 I 2038 4669 I 2038 4654 I 2039 4639 I 2040 4624 I 2041 4609 I 2041 4593 I 2042 4577 I 2043 4561 I 2044 4545 I 2044 4529 I 2045 4513 I 2046 4496 I 2047 4480 I 2047 4463 I 2048 4446 I 2049 4430 I 2050 4413 I 2050 4395 I 2051 4378 I 2052 4361 I 2053 4343 I 2054 4326 I 2054 4308 I 2055 4290 I 2056 4272 I 2057 4254 I 2057 4236 I 2058 4218 I 2059 4199 I 2060 4181 I 2060 4162 I 2061 4143 I 2062 4125 I 2063 4106 I 2063 4087 I 2064 4068 I 2065 4049 I 2066 4030 I 2066 4010 I 2067 3991 I 2068 3972 I 2069 3952 I 2069 3932 I 2070 3913 I 2071 3893 I 2072 3873 I 2072 3853 I 2073 3833 I 2074 3813 I 2075 3793 I 2075 3773 I 2076 3753 I 2077 3733 I 2078 3713 I 2079 3692 I 2079 3672 I 2080 3652 I 2081 3631 I 2082 3611 I 2082 3590 I 2083 3569 I 2084 3549 I 2085 3528 I 2085 3507 I 2086 3487 I 2087 3466 I 2088 3445 I 2088 3424 I 2089 3404 I 2090 3383 I 2091 3362 I 2091 3341 I 2092 3320 I 2093 3299 I 2094 3278 I 2094 3257 I 2095 3236 I 2096 3216 I 2097 3195 I 2097 3174 I 2098 3153 I 2099 3132 I 2100 3111 I 2100 3090 I 2101 3069 I 2102 3048 I 2103 3027 I 2104 3007 I 2104 2986 I 2105 2965 I 2106 2944 I 2107 2923 I 2107 2903 I 2108 2882 I 2109 2861 I 2110 2841 I 2110 2820 I 2111 2800 I 2112 2779 I 2113 2759 I 2113 2738 I 2114 2718 I 2115 2698 I 2116 2677 I 2116 2657 I 2117 2637 I 2118 2617 I 2119 2597 I 2119 2577 I : [ 1 0 0 1 150 150 ] concat K 
; : 2116 1114 104 1467 rc N 2119 2577 M 2120 2557 I 2121 2537 I 2122 2517 I 2122 2497 I 2123 2478 I 2124 2458 I 2125 2439 I 2126 2419 I 2126 2400 I 2127 2381 I 2128 2361 I 2129 2342 I 2129 2323 I 2130 2304 I 2131 2286 I 2132 2267 I 2132 2248 I 2133 2230 I 2134 2211 I 2135 2193 I 2135 2175 I 2136 2156 I 2137 2138 I 2138 2120 I 2138 2103 I 2139 2085 I 2140 2067 I 2141 2050 I 2141 2032 I 2142 2015 I 2143 1998 I 2144 1981 I 2144 1964 I 2145 1947 I 2146 1931 I 2147 1914 I 2147 1898 I 2148 1881 I 2149 1865 I 2150 1849 I 2151 1833 I 2151 1818 I 2152 1802 I 2153 1787 I 2154 1771 I 2154 1756 I 2155 1741 I 2156 1726 I 2157 1712 I 2157 1697 I 2158 1683 I 2159 1668 I 2160 1654 I 2160 1640 I 2161 1626 I 2162 1613 I 2163 1599 I 2163 1586 I 2164 1573 I 2165 1560 I 2166 1547 I 2166 1534 I 2167 1522 I 2168 1509 I 2169 1497 I 2169 1485 I 2170 1474 I 2171 1462 I 2172 1450 I 2172 1439 I 2173 1428 I 2174 1417 I 2175 1406 I 2176 1396 I 2176 1385 I 2177 1375 I 2178 1365 I 2179 1355 I 2179 1346 I 2180 1336 I 2181 1327 I 2182 1318 I 2182 1309 I 2183 1300 I 2184 1291 I 2185 1283 I 2185 1275 I 2186 1267 I 2187 1259 I 2188 1252 I 2188 1244 I 2189 1237 I 2190 1230 I 2191 1223 I 2191 1217 I 2192 1210 I 2193 1204 I 2194 1198 I 2194 1192 I 2195 1187 I 2196 1181 I 2197 1176 I 2197 1171 I 2198 1166 I 2199 1162 I 2200 1157 I 2201 1153 I 2201 1149 I 2202 1146 I 2203 1142 I 2204 1139 I 2204 1136 I 2205 1133 I 2206 1130 I 2207 1127 I 2207 1125 I 2208 1123 I 2209 1121 I 2210 1119 I 2210 1118 I 2211 1117 I 2212 1116 I 2214 1114 I 2213 1114 I 2214 1114 I 2215 1114 I 2216 1114 I : [ 1 0 0 1 150 150 ] concat K 
; ; : 2213 1114 104 1505 rc N 2216 1114 M 2217 1114 I 2218 1115 I 2219 1116 I 2219 1117 I 2220 1118 I 2221 1119 I 2222 1121 I 2223 1123 I 2223 1125 I 2224 1127 I 2225 1130 I 2226 1132 I 2226 1135 I 2227 1138 I 2228 1142 I 2229 1145 I 2229 1149 I 2230 1153 I 2231 1157 I 2232 1162 I 2232 1166 I 2233 1171 I 2234 1176 I 2235 1181 I 2235 1186 I 2236 1192 I 2237 1198 I 2238 1204 I 2238 1210 I 2239 1216 I 2240 1223 I 2241 1230 I 2241 1237 I 2242 1244 I 2243 1251 I 2244 1259 I 2244 1266 I 2245 1274 I 2246 1282 I 2247 1291 I 2248 1299 I 2248 1308 I 2249 1317 I 2250 1326 I 2251 1335 I 2251 1345 I 2252 1354 I 2253 1364 I 2254 1374 I 2254 1385 I 2255 1395 I 2256 1406 I 2257 1416 I 2257 1427 I 2258 1438 I 2259 1450 I 2260 1461 I 2260 1473 I 2261 1485 I 2262 1496 I 2263 1509 I 2263 1521 I 2264 1533 I 2265 1546 I 2266 1559 I 2266 1572 I 2267 1585 I 2268 1598 I 2269 1612 I 2269 1625 I 2270 1639 I 2271 1653 I 2272 1667 I 2273 1682 I 2273 1696 I 2274 1711 I 2275 1725 I 2276 1740 I 2276 1755 I 2277 1770 I 2278 1786 I 2279 1801 I 2279 1817 I 2280 1832 I 2281 1848 I 2282 1864 I 2282 1880 I 2283 1897 I 2284 1913 I 2285 1929 I 2285 1946 I 2286 1963 I 2287 1980 I 2288 1997 I 2288 2014 I 2289 2031 I 2290 2049 I 2291 2066 I 2291 2084 I 2292 2101 I 2293 2119 I 2294 2137 I 2294 2155 I 2295 2173 I 2296 2192 I 2297 2210 I 2298 2228 I 2298 2247 I 2299 2266 I 2300 2284 I 2301 2303 I 2301 2322 I 2302 2341 I 2303 2360 I 2304 2379 I 2304 2399 I 2305 2418 I 2306 2437 I 2307 2457 I 2307 2476 I 2308 2496 I 2309 2516 I 2310 2536 I 2310 2555 I 2311 2575 I 2312 2595 I 2313 2615 I : [ 1 0 0 1 150 150 ] concat K 
; ; N 2313 2615 M 2313 2635 I 2314 2656 I 2315 2676 I 2316 2696 I 2316 2716 I 2317 2737 I 2318 2757 I 2319 2778 I 2320 2798 I 2320 2819 I 2321 2839 I 2322 2860 I 2323 2881 I 2323 2901 I 2324 2922 I 2325 2943 I 2326 2964 I 2326 2984 I 2327 3005 I 2328 3026 I 2329 3047 I 2329 3068 I 2330 3089 I 2331 3109 I 2332 3130 I 2332 3151 I 2333 3172 I 2334 3193 I 2335 3214 I 2335 3235 I 2336 3256 I 2337 3277 I 2338 3298 I 2338 3319 I 2339 3340 I 2340 3360 I 2341 3381 I 2341 3402 I 2342 3423 I 2343 3444 I 2344 3464 I 2345 3485 I 2345 3506 I 2346 3527 I 2347 3547 I 2348 3568 I 2348 3589 I 2349 3609 I 2350 3630 I 2351 3650 I 2351 3671 I 2352 3691 I 2353 3711 I 2354 3731 I 2354 3752 I 2355 3772 I 2356 3792 I 2357 3812 I 2357 3832 I 2358 3852 I 2359 3872 I 2360 3892 I 2360 3911 I 2361 3931 I 2362 3951 I 2363 3970 I 2363 3990 I 2364 4009 I 2365 4028 I 2366 4047 I 2366 4067 I 2367 4086 I 2368 4105 I 2369 4123 I 2370 4142 I 2370 4161 I 2371 4179 I 2372 4198 I 2373 4216 I 2373 4235 I 2374 4253 I 2375 4271 I 2376 4289 I 2376 4307 I 2377 4324 I 2378 4342 I 2379 4359 I 2379 4377 I 2380 4394 I 2381 4411 I 2382 4428 I 2382 4445 I 2383 4462 I 2384 4479 I 2385 4495 I 2385 4512 I 2386 4528 I 2387 4544 I 2388 4560 I 2388 4576 I 2389 4592 I 2390 4607 I 2391 4623 I 2391 4638 I 2392 4653 I 2393 4668 I 2394 4683 I 2395 4698 I 2395 4713 I 2396 4727 I 2397 4741 I 2398 4756 I 2398 4770 I 2399 4783 I 2400 4797 I 2401 4811 I 2401 4824 I 2402 4837 I 2403 4850 I 2404 4863 I 2404 4876 I 2405 4888 I 2406 4901 I 2407 4913 I 2407 4925 I 2408 4937 I 2409 4948 I : [ 1 0 0 1 150 150 ] concat K 
; : 2406 4799 105 501 rc N 2409 4948 M 2410 4960 I 2410 4971 I 2411 4982 I 2412 4993 I 2413 5004 I 2413 5015 I 2414 5025 I 2415 5035 I 2416 5045 I 2417 5055 I 2417 5065 I 2418 5074 I 2419 5084 I 2420 5093 I 2420 5102 I 2421 5111 I 2422 5119 I 2423 5128 I 2423 5136 I 2424 5144 I 2425 5152 I 2426 5159 I 2426 5167 I 2427 5174 I 2428 5181 I 2429 5188 I 2429 5194 I 2430 5201 I 2431 5207 I 2432 5213 I 2432 5219 I 2433 5224 I 2434 5230 I 2435 5235 I 2435 5240 I 2436 5245 I 2437 5249 I 2438 5254 I 2438 5258 I 2439 5262 I 2440 5266 I 2441 5269 I 2442 5273 I 2442 5276 I 2443 5279 I 2444 5282 I 2445 5284 I 2445 5287 I 2446 5289 I 2447 5291 I 2448 5292 I 2448 5294 I 2449 5295 I 2450 5296 I 2452 5298 I 2451 5298 I 2452 5298 I 2453 5298 I 2454 5298 I 2455 5298 I 2456 5297 I 2457 5296 I 2458 5294 I 2459 5293 I 2460 5291 I 2460 5289 I 2461 5287 I 2462 5285 I 2463 5283 I 2463 5280 I 2464 5277 I 2465 5274 I 2466 5271 I 2467 5267 I 2467 5264 I 2468 5260 I 2469 5255 I 2470 5251 I 2470 5247 I 2471 5242 I 2472 5237 I 2473 5232 I 2473 5227 I 2474 5221 I 2475 5215 I 2476 5209 I 2476 5203 I 2477 5197 I 2478 5190 I 2479 5184 I 2479 5177 I 2480 5169 I 2481 5162 I 2482 5155 I 2482 5147 I 2483 5139 I 2484 5131 I 2485 5123 I 2485 5114 I 2486 5105 I 2487 5096 I 2488 5087 I 2488 5078 I 2489 5069 I 2490 5059 I 2491 5049 I 2492 5039 I 2492 5029 I 2493 5019 I 2494 5008 I 2495 4997 I 2495 4987 I 2496 4975 I 2497 4964 I 2498 4953 I 2498 4941 I 2499 4929 I 2500 4917 I 2501 4905 I 2501 4893 I 2502 4881 I 2503 4868 I 2504 4855 I 2504 4842 I 2505 4829 I 2506 4816 I 2507 4802 I : [ 1 0 0 1 150 150 ] concat K 
; ; N 2507 4802 M 2507 4789 I 2508 4775 I 2509 4761 I 2510 4747 I 2510 4733 I 2511 4718 I 2512 4704 I 2513 4689 I 2514 4674 I 2514 4659 I 2515 4644 I 2516 4629 I 2517 4613 I 2517 4598 I 2518 4582 I 2519 4566 I 2520 4550 I 2520 4534 I 2521 4518 I 2522 4502 I 2523 4485 I 2523 4469 I 2524 4452 I 2525 4435 I 2526 4418 I 2526 4401 I 2527 4384 I 2528 4366 I 2529 4349 I 2529 4331 I 2530 4313 I 2531 4296 I 2532 4278 I 2532 4260 I 2533 4242 I 2534 4223 I 2535 4205 I 2535 4187 I 2536 4168 I 2537 4149 I 2538 4131 I 2539 4112 I 2539 4093 I 2540 4074 I 2541 4055 I 2542 4036 I 2542 4016 I 2543 3997 I 2544 3978 I 2545 3958 I 2545 3939 I 2546 3919 I 2547 3899 I 2548 3880 I 2548 3860 I 2549 3840 I 2550 3820 I 2551 3800 I 2551 3780 I 2552 3760 I 2553 3739 I 2554 3719 I 2554 3699 I 2555 3678 I 2556 3658 I 2557 3638 I 2557 3617 I 2558 3597 I 2559 3576 I 2560 3555 I 2560 3535 I 2561 3514 I 2562 3493 I 2563 3473 I 2564 3452 I 2564 3431 I 2565 3410 I 2566 3389 I 2567 3369 I 2567 3348 I 2568 3327 I 2569 3306 I 2570 3285 I 2570 3264 I 2571 3243 I 2572 3222 I 2573 3201 I 2573 3180 I 2574 3159 I 2575 3139 I 2576 3118 I 2576 3097 I 2577 3076 I 2578 3055 I 2579 3034 I 2579 3013 I 2580 2992 I 2581 2972 I 2582 2951 I 2582 2930 I 2583 2909 I 2584 2889 I 2585 2868 I 2585 2847 I 2586 2827 I 2587 2806 I 2588 2786 I 2589 2765 I 2589 2745 I 2590 2724 I 2591 2704 I 2592 2684 I 2592 2663 I 2593 2643 I 2594 2623 I 2595 2603 I 2595 2583 I 2596 2563 I 2597 2543 I 2598 2523 I 2598 2504 I 2599 2484 I 2600 2464 I 2601 2445 I 2601 2425 I 2602 2406 I 2603 2387 I : [ 1 0 0 1 150 150 ] concat K 
; : 2600 1114 105 1277 rc N 2603 2387 M 2604 2368 I 2604 2348 I 2605 2329 I 2606 2310 I 2607 2292 I 2607 2273 I 2608 2254 I 2609 2236 I 2610 2217 I 2610 2199 I 2611 2180 I 2612 2162 I 2613 2144 I 2614 2126 I 2614 2108 I 2615 2090 I 2616 2073 I 2617 2055 I 2617 2038 I 2618 2021 I 2619 2003 I 2620 1986 I 2620 1969 I 2621 1953 I 2622 1936 I 2623 1919 I 2623 1903 I 2624 1887 I 2625 1870 I 2626 1854 I 2626 1838 I 2627 1823 I 2628 1807 I 2629 1792 I 2629 1776 I 2630 1761 I 2631 1746 I 2632 1731 I 2632 1716 I 2633 1702 I 2634 1687 I 2635 1673 I 2636 1659 I 2636 1645 I 2637 1631 I 2638 1617 I 2639 1604 I 2639 1590 I 2640 1577 I 2641 1564 I 2642 1551 I 2642 1538 I 2643 1526 I 2644 1513 I 2645 1501 I 2645 1489 I 2646 1477 I 2647 1466 I 2648 1454 I 2648 1443 I 2649 1432 I 2650 1421 I 2651 1410 I 2651 1399 I 2652 1389 I 2653 1378 I 2654 1368 I 2654 1358 I 2655 1349 I 2656 1339 I 2657 1330 I 2657 1320 I 2658 1312 I 2659 1303 I 2660 1294 I 2661 1286 I 2661 1278 I 2662 1269 I 2663 1262 I 2664 1254 I 2664 1247 I 2665 1239 I 2666 1232 I 2667 1225 I 2667 1219 I 2668 1212 I 2669 1206 I 2670 1200 I 2670 1194 I 2671 1189 I 2672 1183 I 2673 1178 I 2673 1173 I 2674 1168 I 2675 1163 I 2676 1159 I 2676 1155 I 2677 1151 I 2678 1147 I 2679 1143 I 2679 1140 I 2680 1137 I 2681 1134 I 2682 1131 I 2682 1128 I 2683 1126 I 2684 1124 I 2685 1122 I 2686 1120 I 2686 1118 I 2687 1117 I 2688 1116 I 2690 1114 I 2689 1114 I 2690 1114 I 2691 1114 I 2692 1114 I 2693 1114 I 2694 1115 I 2695 1116 I 2696 1117 I 2697 1119 I 2698 1120 I 2698 1122 I 2699 1124 I 2700 1126 I 2701 1129 I : [ 1 0 0 1 150 150 ] concat K 
; ; N 2701 1129 M 2701 1132 I 2702 1134 I 2703 1137 I 2704 1141 I 2704 1144 I 2705 1148 I 2706 1152 I 2707 1156 I 2707 1160 I 2708 1165 I 2709 1169 I 2710 1174 I 2711 1179 I 2711 1185 I 2712 1190 I 2713 1196 I 2714 1202 I 2714 1208 I 2715 1214 I 2716 1221 I 2717 1227 I 2717 1234 I 2718 1241 I 2719 1249 I 2720 1256 I 2720 1264 I 2721 1272 I 2722 1280 I 2723 1288 I 2723 1297 I 2724 1305 I 2725 1314 I 2726 1323 I 2726 1332 I 2727 1342 I 2728 1351 I 2729 1361 I 2729 1371 I 2730 1381 I 2731 1392 I 2732 1402 I 2733 1413 I 2733 1424 I 2734 1435 I 2735 1446 I 2736 1457 I 2736 1469 I 2737 1481 I 2738 1493 I 2739 1505 I 2739 1517 I 2740 1529 I 2741 1542 I 2742 1555 I 2742 1568 I 2743 1581 I 2744 1594 I 2745 1608 I 2745 1621 I 2746 1635 I 2747 1649 I 2748 1663 I 2748 1677 I 2749 1691 I 2750 1706 I 2751 1721 I 2751 1735 I 2752 1750 I 2753 1765 I 2754 1781 I 2754 1796 I 2755 1812 I 2756 1827 I 2757 1843 I 2758 1859 I 2758 1875 I 2759 1891 I 2760 1908 I 2761 1924 I 2761 1941 I 2762 1957 I 2763 1974 I 2764 1991 I 2764 2008 I 2765 2026 I 2766 2043 I 2767 2060 I 2767 2078 I 2768 2096 I 2769 2113 I 2770 2131 I 2770 2149 I 2771 2167 I 2772 2186 I 2773 2204 I 2773 2222 I 2774 2241 I 2775 2260 I 2776 2278 I 2776 2297 I 2777 2316 I 2778 2335 I 2779 2354 I 2779 2373 I 2780 2392 I 2781 2412 I 2782 2431 I 2783 2451 I 2783 2470 I 2784 2490 I 2785 2509 I 2786 2529 I 2786 2549 I 2787 2569 I 2788 2589 I 2789 2609 I 2789 2629 I 2790 2649 I 2791 2669 I 2792 2690 I 2792 2710 I 2793 2730 I 2794 2751 I 2795 2771 I 2795 2792 I 2796 2812 I 2797 2833 I : [ 1 0 0 1 150 150 ] concat K 
; N 2797 2833 M 2798 2853 I 2798 2874 I 2799 2895 I 2800 2915 I 2801 2936 I 2801 2957 I 2802 2978 I 2803 2998 I 2804 3019 I 2804 3040 I 2805 3061 I 2806 3082 I 2807 3103 I 2808 3124 I 2808 3145 I 2809 3166 I 2810 3186 I 2811 3207 I 2811 3228 I 2812 3249 I 2813 3270 I 2814 3291 I 2814 3312 I 2815 3333 I 2816 3354 I 2817 3375 I 2817 3395 I 2818 3416 I 2819 3437 I 2820 3458 I 2820 3479 I 2821 3499 I 2822 3520 I 2823 3541 I 2823 3561 I 2824 3582 I 2825 3603 I 2826 3623 I 2826 3644 I 2827 3664 I 2828 3684 I 2829 3705 I 2830 3725 I 2830 3745 I 2831 3765 I 2832 3786 I 2833 3806 I 2833 3826 I 2834 3846 I 2835 3866 I 2836 3885 I 2836 3905 I 2837 3925 I 2838 3944 I 2839 3964 I 2839 3983 I 2840 4003 I 2841 4022 I 2842 4041 I 2842 4061 I 2843 4080 I 2844 4099 I 2845 4117 I 2845 4136 I 2846 4155 I 2847 4174 I 2848 4192 I 2848 4210 I 2849 4229 I 2850 4247 I 2851 4265 I 2851 4283 I 2852 4301 I 2853 4319 I 2854 4336 I 2855 4354 I 2855 4371 I 2856 4389 I 2857 4406 I 2858 4423 I 2858 4440 I 2859 4457 I 2860 4473 I 2861 4490 I 2861 4506 I 2862 4523 I 2863 4539 I 2864 4555 I 2864 4571 I 2865 4587 I 2866 4602 I 2867 4618 I 2867 4633 I 2868 4649 I 2869 4664 I 2870 4679 I 2870 4693 I 2871 4708 I 2872 4723 I 2873 4737 I 2873 4751 I 2874 4765 I 2875 4779 I 2876 4793 I 2876 4806 I 2877 4820 I 2878 4833 I 2879 4846 I 2880 4859 I 2880 4872 I 2881 4884 I 2882 4897 I 2883 4909 I 2883 4921 I 2884 4933 I 2885 4945 I 2886 4956 I 2886 4968 I 2887 4979 I 2888 4990 I 2889 5001 I 2889 5011 I 2890 5022 I 2891 5032 I 2892 5042 I 2892 5052 I 2893 5062 I : [ 1 0 0 1 150 150 ] concat K 
; : 2890 4661 104 639 rc N 2893 5062 M 2894 5071 I 2895 5081 I 2895 5090 I 2896 5099 I 2897 5108 I 2898 5117 I 2898 5125 I 2899 5133 I 2900 5141 I 2901 5149 I 2901 5157 I 2902 5164 I 2903 5172 I 2904 5179 I 2905 5185 I 2905 5192 I 2906 5199 I 2907 5205 I 2908 5211 I 2908 5217 I 2909 5223 I 2910 5228 I 2911 5233 I 2911 5238 I 2912 5243 I 2913 5248 I 2914 5252 I 2914 5257 I 2915 5261 I 2916 5265 I 2917 5268 I 2917 5272 I 2918 5275 I 2919 5278 I 2920 5281 I 2920 5283 I 2921 5286 I 2922 5288 I 2923 5290 I 2923 5292 I 2924 5293 I 2925 5295 I 2926 5296 I 2928 5298 I 2927 5298 I 2928 5298 I 2929 5298 I 2930 5298 I 2931 5298 I 2932 5298 I 2933 5297 I 2933 5296 I 2934 5295 I 2935 5293 I 2936 5292 I 2936 5290 I 2937 5288 I 2938 5286 I 2939 5283 I 2939 5281 I 2940 5278 I 2941 5275 I 2942 5272 I 2942 5268 I 2943 5265 I 2944 5261 I 2945 5257 I 2945 5253 I 2946 5248 I 2947 5243 I 2948 5239 I 2948 5234 I 2949 5228 I 2950 5223 I 2951 5217 I 2952 5211 I 2952 5205 I 2953 5199 I 2954 5192 I 2955 5186 I 2955 5179 I 2956 5172 I 2957 5164 I 2958 5157 I 2958 5149 I 2959 5141 I 2960 5133 I 2961 5125 I 2961 5117 I 2962 5108 I 2963 5099 I 2964 5090 I 2964 5081 I 2965 5072 I 2966 5062 I 2967 5052 I 2967 5042 I 2968 5032 I 2969 5022 I 2970 5012 I 2970 5001 I 2971 4990 I 2972 4979 I 2973 4968 I 2973 4956 I 2974 4945 I 2975 4933 I 2976 4921 I 2977 4909 I 2977 4897 I 2978 4885 I 2979 4872 I 2980 4859 I 2980 4846 I 2981 4833 I 2982 4820 I 2983 4807 I 2983 4793 I 2984 4779 I 2985 4765 I 2986 4751 I 2986 4737 I 2987 4723 I 2988 4708 I 2989 4694 I 2989 4679 I 2990 4664 I : [ 1 0 0 1 150 150 ] concat K 
; ; N 2990 4664 M 2991 4649 I 2992 4634 I 2992 4618 I 2993 4603 I 2994 4587 I 2995 4571 I 2995 4556 I 2996 4539 I 2997 4523 I 2998 4507 I 2998 4490 I 2999 4474 I 3000 4457 I 3001 4440 I 3002 4423 I 3002 4406 I 3003 4389 I 3004 4372 I 3005 4354 I 3005 4337 I 3006 4319 I 3007 4301 I 3008 4283 I 3008 4265 I 3009 4247 I 3010 4229 I 3011 4211 I 3011 4192 I 3012 4174 I 3013 4155 I 3014 4137 I 3014 4118 I 3015 4099 I 3016 4080 I 3017 4061 I 3017 4042 I 3018 4023 I 3019 4003 I 3020 3984 I 3020 3964 I 3021 3945 I 3022 3925 I 3023 3906 I 3024 3886 I 3024 3866 I 3025 3846 I 3026 3826 I 3027 3806 I 3027 3786 I 3028 3766 I 3029 3746 I 3030 3726 I 3030 3705 I 3031 3685 I 3032 3665 I 3033 3644 I 3033 3624 I 3034 3603 I 3035 3583 I 3036 3562 I 3036 3541 I 3037 3521 I 3038 3500 I 3039 3479 I 3039 3458 I 3040 3438 I 3041 3417 I 3042 3396 I 3042 3375 I 3043 3354 I 3044 3333 I 3045 3313 I 3045 3292 I 3046 3271 I 3047 3250 I 3048 3229 I 3049 3208 I 3049 3187 I 3050 3166 I 3051 3145 I 3052 3124 I 3052 3103 I 3053 3082 I 3054 3062 I 3055 3041 I 3055 3020 I 3056 2999 I 3057 2978 I 3058 2957 I 3058 2937 I 3059 2916 I 3060 2895 I 3061 2875 I 3061 2854 I 3062 2833 I 3063 2813 I 3064 2792 I 3064 2772 I 3065 2751 I 3066 2731 I 3067 2710 I 3067 2690 I 3068 2670 I 3069 2650 I 3070 2630 I 3070 2610 I 3071 2589 I 3072 2570 I 3073 2550 I 3074 2530 I 3074 2510 I 3075 2490 I 3076 2471 I 3077 2451 I 3077 2432 I 3078 2412 I 3079 2393 I 3080 2374 I 3080 2355 I 3081 2335 I 3082 2316 I 3083 2298 I 3083 2279 I 3084 2260 I 3085 2241 I 3086 2223 I 3086 2205 I : [ 1 0 0 1 150 150 ] concat K 
; : 3083 1114 104 1095 rc N 3086 2205 M 3087 2186 I 3088 2168 I 3089 2150 I 3089 2132 I 3090 2114 I 3091 2096 I 3092 2078 I 3092 2061 I 3093 2043 I 3094 2026 I 3095 2009 I 3095 1992 I 3096 1975 I 3097 1958 I 3098 1941 I 3099 1925 I 3099 1908 I 3100 1892 I 3101 1876 I 3102 1859 I 3102 1844 I 3103 1828 I 3104 1812 I 3105 1796 I 3105 1781 I 3106 1766 I 3107 1751 I 3108 1736 I 3108 1721 I 3109 1706 I 3110 1692 I 3111 1677 I 3111 1663 I 3112 1649 I 3113 1635 I 3114 1621 I 3114 1608 I 3115 1594 I 3116 1581 I 3117 1568 I 3117 1555 I 3118 1542 I 3119 1530 I 3120 1517 I 3120 1505 I 3121 1493 I 3122 1481 I 3123 1469 I 3124 1458 I 3124 1446 I 3125 1435 I 3126 1424 I 3127 1413 I 3127 1402 I 3128 1392 I 3129 1382 I 3130 1371 I 3130 1361 I 3131 1352 I 3132 1342 I 3133 1333 I 3133 1323 I 3134 1314 I 3135 1306 I 3136 1297 I 3136 1288 I 3137 1280 I 3138 1272 I 3139 1264 I 3139 1256 I 3140 1249 I 3141 1242 I 3142 1235 I 3142 1228 I 3143 1221 I 3144 1214 I 3145 1208 I 3146 1202 I 3146 1196 I 3147 1190 I 3148 1185 I 3149 1179 I 3149 1174 I 3150 1169 I 3151 1165 I 3152 1160 I 3152 1156 I 3153 1152 I 3154 1148 I 3155 1144 I 3155 1141 I 3156 1138 I 3157 1134 I 3158 1132 I 3158 1129 I 3159 1127 I 3160 1124 I 3161 1122 I 3161 1120 I 3162 1119 I 3163 1117 I 3165 1115 I 3164 1115 I 3165 1115 I 3166 1114 I 3167 1114 I 3168 1114 I 3169 1114 I 3170 1114 I 3171 1115 I 3171 1116 I 3172 1117 I 3173 1118 I 3174 1120 I 3174 1122 I 3175 1124 I 3176 1126 I 3177 1128 I 3177 1131 I 3178 1133 I 3179 1136 I 3180 1140 I 3180 1143 I 3181 1147 I 3182 1150 I 3183 1155 I 3183 1159 I : [ 1 0 0 1 150 150 ] concat K 
; ; N 3183 1159 M 3184 1163 I 3185 1168 I 3186 1173 I 3186 1178 I 3187 1183 I 3188 1188 I 3189 1194 I 3189 1200 I 3190 1206 I 3191 1212 I 3192 1219 I 3192 1225 I 3193 1232 I 3194 1239 I 3195 1246 I 3196 1254 I 3196 1261 I 3197 1269 I 3198 1277 I 3199 1286 I 3199 1294 I 3200 1302 I 3201 1311 I 3202 1320 I 3202 1329 I 3203 1339 I 3204 1348 I 3205 1358 I 3205 1368 I 3206 1378 I 3207 1388 I 3208 1399 I 3208 1409 I 3209 1420 I 3210 1431 I 3211 1442 I 3211 1454 I 3212 1465 I 3213 1477 I 3214 1489 I 3214 1501 I 3215 1513 I 3216 1525 I 3217 1538 I 3217 1551 I 3218 1564 I 3219 1577 I 3220 1590 I 3221 1603 I 3221 1617 I 3222 1630 I 3223 1644 I 3224 1658 I 3224 1672 I 3225 1687 I 3226 1701 I 3227 1716 I 3227 1731 I 3228 1746 I 3229 1761 I 3230 1776 I 3230 1791 I 3231 1807 I 3232 1822 I 3233 1838 I 3233 1854 I 3234 1870 I 3235 1886 I 3236 1902 I 3236 1919 I 3237 1935 I 3238 1952 I 3239 1969 I 3239 1986 I 3240 2003 I 3241 2020 I 3242 2037 I 3243 2055 I 3243 2072 I 3244 2090 I 3245 2108 I 3246 2126 I 3246 2144 I 3247 2162 I 3248 2180 I 3249 2198 I 3249 2217 I 3250 2235 I 3251 2254 I 3252 2272 I 3252 2291 I 3253 2310 I 3254 2329 I 3255 2348 I 3255 2367 I 3256 2386 I 3257 2406 I 3258 2425 I 3258 2444 I 3259 2464 I 3260 2484 I 3261 2503 I 3261 2523 I 3262 2543 I 3263 2563 I 3264 2583 I 3264 2603 I 3265 2623 I 3266 2643 I 3267 2663 I 3268 2683 I 3268 2703 I 3269 2724 I 3270 2744 I 3271 2765 I 3271 2785 I 3272 2806 I 3273 2826 I 3274 2847 I 3274 2867 I 3275 2888 I 3276 2909 I 3277 2930 I 3277 2950 I 3278 2971 I 3279 2992 I 3280 3013 I : [ 1 0 0 1 150 150 ] concat K 
; N 3280 3013 M 3280 3034 I 3281 3054 I 3282 3075 I 3283 3096 I 3283 3117 I 3284 3138 I 3285 3159 I 3286 3180 I 3286 3201 I 3287 3222 I 3288 3243 I 3289 3263 I 3289 3284 I 3290 3305 I 3291 3326 I 3292 3347 I 3293 3368 I 3293 3389 I 3294 3410 I 3295 3430 I 3296 3451 I 3296 3472 I 3297 3493 I 3298 3513 I 3299 3534 I 3299 3555 I 3300 3575 I 3301 3596 I 3302 3617 I 3302 3637 I 3303 3657 I 3304 3678 I 3305 3698 I 3305 3719 I 3306 3739 I 3307 3759 I 3308 3779 I 3308 3799 I 3309 3819 I 3310 3839 I 3311 3859 I 3311 3879 I 3312 3899 I 3313 3919 I 3314 3938 I 3314 3958 I 3315 3977 I 3316 3997 I 3317 4016 I 3318 4035 I 3318 4054 I 3319 4074 I 3320 4093 I 3321 4111 I 3321 4130 I 3322 4149 I 3323 4168 I 3324 4186 I 3324 4205 I 3325 4223 I 3326 4241 I 3327 4259 I 3327 4277 I 3328 4295 I 3329 4313 I 3330 4331 I 3330 4348 I 3331 4366 I 3332 4383 I 3333 4400 I 3333 4418 I 3334 4435 I 3335 4451 I 3336 4468 I 3336 4485 I 3337 4501 I 3338 4518 I 3339 4534 I 3340 4550 I 3340 4566 I 3341 4582 I 3342 4597 I 3343 4613 I 3343 4628 I 3344 4644 I 3345 4659 I 3346 4674 I 3346 4689 I 3347 4703 I 3348 4718 I 3349 4732 I 3349 4747 I 3350 4761 I 3351 4775 I 3352 4788 I 3352 4802 I 3353 4815 I 3354 4829 I 3355 4842 I 3355 4855 I 3356 4868 I 3357 4880 I 3358 4893 I 3358 4905 I 3359 4917 I 3360 4929 I 3361 4941 I 3361 4952 I 3362 4964 I 3363 4975 I 3364 4986 I 3365 4997 I 3365 5008 I 3366 5018 I 3367 5029 I 3368 5039 I 3368 5049 I 3369 5059 I 3370 5068 I 3371 5078 I 3371 5087 I 3372 5096 I 3373 5105 I 3374 5114 I 3374 5122 I 3375 5131 I 3376 5139 I : [ 1 0 0 1 150 150 ] concat K 
; : 3373 4509 105 791 rc N 3376 5139 M 3377 5147 I 3377 5154 I 3378 5162 I 3379 5169 I 3380 5176 I 3380 5183 I 3381 5190 I 3382 5197 I 3383 5203 I 3383 5209 I 3384 5215 I 3385 5221 I 3386 5226 I 3386 5232 I 3387 5237 I 3388 5242 I 3389 5247 I 3390 5251 I 3390 5255 I 3391 5260 I 3392 5263 I 3393 5267 I 3393 5271 I 3394 5274 I 3395 5277 I 3396 5280 I 3396 5283 I 3397 5285 I 3398 5287 I 3399 5289 I 3399 5291 I 3400 5293 I 3401 5294 I 3403 5297 I 3402 5297 I 3403 5297 I 3404 5298 I 3405 5298 I 3406 5298 I 3407 5298 I 3408 5297 I 3409 5296 I 3410 5295 I 3411 5294 I 3411 5292 I 3412 5291 I 3413 5289 I 3414 5287 I 3415 5284 I 3415 5282 I 3416 5279 I 3417 5276 I 3418 5273 I 3418 5269 I 3419 5266 I 3420 5262 I 3421 5258 I 3421 5254 I 3422 5250 I 3423 5245 I 3424 5240 I 3424 5235 I 3425 5230 I 3426 5225 I 3427 5219 I 3427 5213 I 3428 5207 I 3429 5201 I 3430 5194 I 3430 5188 I 3431 5181 I 3432 5174 I 3433 5167 I 3433 5159 I 3434 5152 I 3435 5144 I 3436 5136 I 3437 5128 I 3437 5119 I 3438 5111 I 3439 5102 I 3440 5093 I 3440 5084 I 3441 5075 I 3442 5065 I 3443 5056 I 3443 5046 I 3444 5036 I 3445 5025 I 3446 5015 I 3446 5004 I 3447 4994 I 3448 4983 I 3449 4971 I 3449 4960 I 3450 4949 I 3451 4937 I 3452 4925 I 3452 4913 I 3453 4901 I 3454 4889 I 3455 4876 I 3455 4863 I 3456 4850 I 3457 4837 I 3458 4824 I 3458 4811 I 3459 4797 I 3460 4784 I 3461 4770 I 3462 4756 I 3462 4742 I 3463 4727 I 3464 4713 I 3465 4698 I 3465 4684 I 3466 4669 I 3467 4654 I 3468 4639 I 3468 4623 I 3469 4608 I 3470 4592 I 3471 4576 I 3471 4561 I 3472 4545 I 3473 4528 I 3474 4512 I : [ 1 0 0 1 150 150 ] concat K 
; ; N 3474 4512 M 3474 4496 I 3475 4479 I 3476 4463 I 3477 4446 I 3477 4429 I 3478 4412 I 3479 4395 I 3480 4377 I 3480 4360 I 3481 4342 I 3482 4325 I 3483 4307 I 3483 4289 I 3484 4271 I 3485 4253 I 3486 4235 I 3487 4217 I 3487 4198 I 3488 4180 I 3489 4161 I 3490 4143 I 3490 4124 I 3491 4105 I 3492 4086 I 3493 4067 I 3493 4048 I 3494 4029 I 3495 4009 I 3496 3990 I 3496 3971 I 3497 3951 I 3498 3932 I 3499 3912 I 3499 3892 I 3500 3872 I 3501 3853 I 3502 3833 I 3502 3813 I 3503 3793 I 3504 3772 I 3505 3752 I 3505 3732 I 3506 3712 I 3507 3691 I 3508 3671 I 3508 3651 I 3509 3630 I 3510 3610 I 3511 3589 I 3512 3568 I 3512 3548 I 3513 3527 I 3514 3507 I 3515 3486 I 3515 3465 I 3516 3444 I 3517 3423 I 3518 3403 I 3518 3382 I 3519 3361 I 3520 3340 I 3521 3319 I 3521 3298 I 3522 3277 I 3523 3256 I 3524 3236 I 3524 3215 I 3525 3194 I 3526 3173 I 3527 3152 I 3527 3131 I 3528 3110 I 3529 3089 I 3530 3068 I 3530 3047 I 3531 3027 I 3532 3006 I 3533 2985 I 3533 2964 I 3534 2943 I 3535 2923 I 3536 2902 I 3537 2881 I 3537 2860 I 3538 2840 I 3539 2819 I 3540 2799 I 3540 2778 I 3541 2758 I 3542 2737 I 3543 2717 I 3543 2697 I 3544 2676 I 3545 2656 I 3546 2636 I 3546 2616 I 3547 2596 I 3548 2576 I 3549 2556 I 3549 2536 I 3550 2516 I 3551 2497 I 3552 2477 I 3552 2457 I 3553 2438 I 3554 2418 I 3555 2399 I 3555 2380 I 3556 2361 I 3557 2342 I 3558 2323 I 3559 2304 I 3559 2285 I 3560 2266 I 3561 2247 I 3562 2229 I 3562 2210 I 3563 2192 I 3564 2174 I 3565 2156 I 3565 2138 I 3566 2120 I 3567 2102 I 3568 2084 I 3568 2066 I 3569 2049 I 3570 2032 I : [ 1 0 0 1 150 150 ] concat K 
; : 3567 1114 105 922 rc N 3570 2032 M 3571 2014 I 3571 1997 I 3572 1980 I 3573 1963 I 3574 1947 I 3574 1930 I 3575 1913 I 3576 1897 I 3577 1881 I 3577 1865 I 3578 1849 I 3579 1833 I 3580 1817 I 3580 1801 I 3581 1786 I 3582 1771 I 3583 1756 I 3584 1741 I 3584 1726 I 3585 1711 I 3586 1696 I 3587 1682 I 3587 1668 I 3588 1654 I 3589 1640 I 3590 1626 I 3590 1612 I 3591 1599 I 3592 1585 I 3593 1572 I 3593 1559 I 3594 1546 I 3595 1534 I 3596 1521 I 3596 1509 I 3597 1497 I 3598 1485 I 3599 1473 I 3599 1461 I 3600 1450 I 3601 1439 I 3602 1427 I 3602 1417 I 3603 1406 I 3604 1395 I 3605 1385 I 3605 1375 I 3606 1365 I 3607 1355 I 3608 1345 I 3609 1336 I 3609 1326 I 3610 1317 I 3611 1308 I 3612 1300 I 3612 1291 I 3613 1283 I 3614 1275 I 3615 1267 I 3615 1259 I 3616 1251 I 3617 1244 I 3618 1237 I 3618 1230 I 3619 1223 I 3620 1216 I 3621 1210 I 3621 1204 I 3622 1198 I 3623 1192 I 3624 1187 I 3624 1181 I 3625 1176 I 3626 1171 I 3627 1166 I 3627 1162 I 3628 1157 I 3629 1153 I 3630 1149 I 3630 1145 I 3631 1142 I 3632 1139 I 3633 1135 I 3634 1133 I 3634 1130 I 3635 1127 I 3636 1125 I 3637 1123 I 3637 1121 I 3638 1119 I 3639 1118 I 3640 1117 I 3640 1116 I 3641 1115 I 3642 1114 I 3643 1114 I 3644 1114 I 3645 1114 I 3646 1115 I 3647 1116 I 3648 1117 I 3649 1118 I 3649 1119 I 3650 1121 I 3651 1123 I 3652 1125 I 3652 1127 I 3653 1130 I 3654 1133 I 3655 1135 I 3656 1139 I 3656 1142 I 3657 1146 I 3658 1149 I 3659 1153 I 3659 1157 I 3660 1162 I 3661 1166 I 3662 1171 I 3662 1176 I 3663 1181 I 3664 1187 I 3665 1192 I 3665 1198 I 3666 1204 I 3667 1210 I 3668 1217 I : [ 1 0 0 1 150 150 ] concat K 
; ; N 3668 1217 M 3668 1223 I 3669 1230 I 3670 1237 I 3671 1244 I 3671 1251 I 3672 1259 I 3673 1267 I 3674 1275 I 3674 1283 I 3675 1291 I 3676 1300 I 3677 1308 I 3677 1317 I 3678 1326 I 3679 1336 I 3680 1345 I 3681 1355 I 3681 1365 I 3682 1375 I 3683 1385 I 3684 1395 I 3684 1406 I 3685 1417 I 3686 1428 I 3687 1439 I 3687 1450 I 3688 1462 I 3689 1473 I 3690 1485 I 3690 1497 I 3691 1509 I 3692 1522 I 3693 1534 I 3693 1547 I 3694 1560 I 3695 1573 I 3696 1586 I 3696 1599 I 3697 1612 I 3698 1626 I 3699 1640 I 3699 1654 I 3700 1668 I 3701 1682 I 3702 1697 I 3702 1711 I 3703 1726 I 3704 1741 I 3705 1756 I 3706 1771 I 3706 1786 I 3707 1802 I 3708 1817 I 3709 1833 I 3709 1849 I 3710 1865 I 3711 1881 I 3712 1897 I 3712 1914 I 3713 1930 I 3714 1947 I 3715 1964 I 3715 1980 I 3716 1998 I 3717 2015 I 3718 2032 I 3718 2049 I 3719 2067 I 3720 2084 I 3721 2102 I 3721 2120 I 3722 2138 I 3723 2156 I 3724 2174 I 3724 2192 I 3725 2211 I 3726 2229 I 3727 2248 I 3727 2266 I 3728 2285 I 3729 2304 I 3730 2323 I 3731 2342 I 3731 2361 I 3732 2380 I 3733 2399 I 3734 2419 I 3734 2438 I 3735 2458 I 3736 2477 I 3737 2497 I 3737 2517 I 3738 2536 I 3739 2556 I 3740 2576 I 3740 2596 I 3741 2616 I 3742 2636 I 3743 2657 I 3743 2677 I 3744 2697 I 3745 2717 I 3746 2738 I 3746 2758 I 3747 2779 I 3748 2799 I 3749 2820 I 3749 2840 I 3750 2861 I 3751 2882 I 3752 2902 I 3753 2923 I 3753 2944 I 3754 2964 I 3755 2985 I 3756 3006 I 3756 3027 I 3757 3048 I 3758 3069 I 3759 3089 I 3759 3110 I 3760 3131 I 3761 3152 I 3762 3173 I 3762 3194 I 3763 3215 I 3764 3236 I : [ 1 0 0 1 150 150 ] concat K 
; N 3764 3236 M 3765 3257 I 3765 3278 I 3766 3299 I 3767 3320 I 3768 3340 I 3768 3361 I 3769 3382 I 3770 3403 I 3771 3424 I 3771 3445 I 3772 3465 I 3773 3486 I 3774 3507 I 3774 3528 I 3775 3548 I 3776 3569 I 3777 3589 I 3778 3610 I 3778 3631 I 3779 3651 I 3780 3671 I 3781 3692 I 3781 3712 I 3782 3732 I 3783 3753 I 3784 3773 I 3784 3793 I 3785 3813 I 3786 3833 I 3787 3853 I 3787 3873 I 3788 3893 I 3789 3912 I 3790 3932 I 3790 3952 I 3791 3971 I 3792 3990 I 3793 4010 I 3793 4029 I 3794 4048 I 3795 4067 I 3796 4086 I 3796 4105 I 3797 4124 I 3798 4143 I 3799 4162 I 3799 4180 I 3800 4199 I 3801 4217 I 3802 4235 I 3803 4254 I 3803 4272 I 3804 4290 I 3805 4307 I 3806 4325 I 3806 4343 I 3807 4360 I 3808 4378 I 3809 4395 I 3809 4412 I 3810 4429 I 3811 4446 I 3812 4463 I 3812 4479 I 3813 4496 I 3814 4512 I 3815 4529 I 3815 4545 I 3816 4561 I 3817 4577 I 3818 4592 I 3818 4608 I 3819 4624 I 3820 4639 I 3821 4654 I 3821 4669 I 3822 4684 I 3823 4699 I 3824 4713 I 3824 4728 I 3825 4742 I 3826 4756 I 3827 4770 I 3828 4784 I 3828 4798 I 3829 4811 I 3830 4824 I 3831 4838 I 3831 4851 I 3832 4864 I 3833 4876 I 3834 4889 I 3834 4901 I 3835 4913 I 3836 4925 I 3837 4937 I 3837 4949 I 3838 4960 I 3839 4972 I 3840 4983 I 3840 4994 I 3841 5004 I 3842 5015 I 3843 5026 I 3843 5036 I 3844 5046 I 3845 5056 I 3846 5065 I 3846 5075 I 3847 5084 I 3848 5093 I 3849 5102 I 3850 5111 I 3850 5120 I 3851 5128 I 3852 5136 I 3853 5144 I 3853 5152 I 3854 5160 I 3855 5167 I 3856 5174 I 3856 5181 I 3857 5188 I 3858 5195 I 3859 5201 I 3859 5207 I 3860 5213 I : [ 1 0 0 1 150 150 ] concat K 
; : 3857 4327 105 973 rc N 3860 5213 M 3861 5219 I 3862 5225 I 3862 5230 I 3863 5235 I 3864 5240 I 3865 5245 I 3865 5250 I 3866 5254 I 3867 5258 I 3868 5262 I 3868 5266 I 3869 5270 I 3870 5273 I 3871 5276 I 3871 5279 I 3872 5282 I 3873 5284 I 3874 5287 I 3875 5289 I 3875 5291 I 3876 5292 I 3877 5294 I 3878 5295 I 3878 5296 I 3879 5297 I 3880 5298 I 3881 5298 I 3882 5298 I 3883 5298 I 3884 5297 I 3885 5297 I 3886 5295 I 3887 5294 I 3887 5293 I 3888 5291 I 3889 5289 I 3890 5287 I 3890 5285 I 3891 5283 I 3892 5280 I 3893 5277 I 3893 5274 I 3894 5271 I 3895 5267 I 3896 5263 I 3896 5259 I 3897 5255 I 3898 5251 I 3899 5246 I 3900 5242 I 3900 5237 I 3901 5232 I 3902 5226 I 3903 5221 I 3903 5215 I 3904 5209 I 3905 5203 I 3906 5197 I 3906 5190 I 3907 5183 I 3908 5176 I 3909 5169 I 3909 5162 I 3910 5154 I 3911 5146 I 3912 5139 I 3912 5130 I 3913 5122 I 3914 5114 I 3915 5105 I 3915 5096 I 3916 5087 I 3917 5078 I 3918 5068 I 3918 5059 I 3919 5049 I 3920 5039 I 3921 5029 I 3921 5018 I 3922 5008 I 3923 4997 I 3924 4986 I 3925 4975 I 3925 4964 I 3926 4952 I 3927 4941 I 3928 4929 I 3928 4917 I 3929 4905 I 3930 4892 I 3931 4880 I 3931 4867 I 3932 4855 I 3933 4842 I 3934 4828 I 3934 4815 I 3935 4802 I 3936 4788 I 3937 4774 I 3937 4760 I 3938 4746 I 3939 4732 I 3940 4718 I 3940 4703 I 3941 4688 I 3942 4674 I 3943 4659 I 3943 4643 I 3944 4628 I 3945 4613 I 3946 4597 I 3947 4581 I 3947 4566 I 3948 4550 I 3949 4534 I 3950 4517 I 3950 4501 I 3951 4484 I 3952 4468 I 3953 4451 I 3953 4434 I 3954 4417 I 3955 4400 I 3956 4383 I 3956 4365 I 3957 4348 I 3958 4330 I : [ 1 0 0 1 150 150 ] concat K 
; ; N 3958 4330 M 3959 4313 I 3959 4295 I 3960 4277 I 3961 4259 I 3962 4241 I 3962 4223 I 3963 4204 I 3964 4186 I 3965 4167 I 3965 4149 I 3966 4130 I 3967 4111 I 3968 4092 I 3968 4073 I 3969 4054 I 3970 4035 I 3971 4016 I 3972 3996 I 3972 3977 I 3973 3957 I 3974 3938 I 3975 3918 I 3975 3898 I 3976 3879 I 3977 3859 I 3978 3839 I 3978 3819 I 3979 3799 I 3980 3779 I 3981 3759 I 3981 3738 I 3982 3718 I 3983 3698 I 3984 3678 I 3984 3657 I 3985 3637 I 3986 3616 I 3987 3596 I 3987 3575 I 3988 3554 I 3989 3534 I 3990 3513 I 3990 3492 I 3991 3472 I 3992 3451 I 3993 3430 I 3993 3409 I 3994 3388 I 3995 3368 I 3996 3347 I 3997 3326 I 3997 3305 I 3998 3284 I 3999 3263 I 4000 3242 I 4000 3221 I 4001 3200 I 4002 3179 I 4003 3158 I 4003 3138 I 4004 3117 I 4005 3096 I 4006 3075 I 4006 3054 I 4007 3033 I 4008 3012 I 4009 2991 I 4009 2971 I 4010 2950 I 4011 2929 I 4012 2908 I 4012 2888 I 4013 2867 I 4014 2846 I 4015 2826 I 4015 2805 I 4016 2785 I 4017 2764 I 4018 2744 I 4018 2723 I 4019 2703 I 4020 2683 I 4021 2663 I 4022 2642 I 4022 2622 I 4023 2602 I 4024 2582 I 4025 2562 I 4025 2542 I 4026 2523 I 4027 2503 I 4028 2483 I 4028 2464 I 4029 2444 I 4030 2425 I 4031 2405 I 4031 2386 I 4032 2367 I 4033 2348 I 4034 2329 I 4034 2310 I 4035 2291 I 4036 2272 I 4037 2253 I 4037 2235 I 4038 2216 I 4039 2198 I 4040 2180 I 4040 2161 I 4041 2143 I 4042 2125 I 4043 2107 I 4043 2090 I 4044 2072 I 4045 2055 I 4046 2037 I 4047 2020 I 4047 2003 I 4048 1986 I 4049 1969 I 4050 1952 I 4050 1935 I 4051 1919 I 4052 1902 I 4053 1886 I 4053 1870 I 4054 1854 I : [ 1 0 0 1 150 150 ] concat K 
; : 4051 1114 105 744 rc N 4054 1854 M 4055 1838 I 4056 1822 I 4056 1806 I 4057 1791 I 4058 1776 I 4059 1760 I 4059 1745 I 4060 1730 I 4061 1716 I 4062 1701 I 4062 1687 I 4063 1672 I 4064 1658 I 4065 1644 I 4065 1630 I 4066 1617 I 4067 1603 I 4068 1590 I 4069 1576 I 4069 1563 I 4070 1551 I 4071 1538 I 4072 1525 I 4072 1513 I 4073 1501 I 4074 1489 I 4075 1477 I 4075 1465 I 4076 1454 I 4077 1442 I 4078 1431 I 4078 1420 I 4079 1409 I 4080 1399 I 4081 1388 I 4081 1378 I 4082 1368 I 4083 1358 I 4084 1348 I 4084 1339 I 4085 1329 I 4086 1320 I 4087 1311 I 4087 1302 I 4088 1294 I 4089 1285 I 4090 1277 I 4090 1269 I 4091 1261 I 4092 1254 I 4093 1246 I 4094 1239 I 4094 1232 I 4095 1225 I 4096 1218 I 4097 1212 I 4097 1206 I 4098 1200 I 4099 1194 I 4100 1188 I 4100 1183 I 4101 1178 I 4102 1173 I 4103 1168 I 4103 1163 I 4104 1159 I 4105 1154 I 4106 1150 I 4106 1147 I 4107 1143 I 4108 1140 I 4109 1136 I 4109 1133 I 4110 1131 I 4111 1128 I 4112 1126 I 4112 1124 I 4113 1122 I 4114 1120 I 4115 1118 I 4115 1117 I 4116 1116 I 4117 1115 I 4118 1114 I 4119 1114 I 4120 1114 I 4121 1114 I 4122 1115 I 4123 1115 I 4124 1116 I 4125 1118 I 4125 1119 I 4126 1121 I 4127 1122 I 4128 1124 I 4128 1127 I 4129 1129 I 4130 1132 I 4131 1135 I 4131 1138 I 4132 1141 I 4133 1144 I 4134 1148 I 4134 1152 I 4135 1156 I 4136 1160 I 4137 1165 I 4137 1170 I 4138 1174 I 4139 1180 I 4140 1185 I 4140 1190 I 4141 1196 I 4142 1202 I 4143 1208 I 4144 1214 I 4144 1221 I 4145 1228 I 4146 1235 I 4147 1242 I 4147 1249 I 4148 1257 I 4149 1264 I 4150 1272 I 4150 1280 I 4151 1289 I 4152 1297 I : [ 1 0 0 1 150 150 ] concat K 
; ; N 4152 1297 M 4153 1306 I 4153 1315 I 4154 1324 I 4155 1333 I 4156 1342 I 4156 1352 I 4157 1362 I 4158 1372 I 4159 1382 I 4159 1392 I 4160 1403 I 4161 1413 I 4162 1424 I 4162 1435 I 4163 1446 I 4164 1458 I 4165 1469 I 4166 1481 I 4166 1493 I 4167 1505 I 4168 1518 I 4169 1530 I 4169 1543 I 4170 1555 I 4171 1568 I 4172 1581 I 4172 1595 I 4173 1608 I 4174 1622 I 4175 1635 I 4175 1649 I 4176 1663 I 4177 1678 I 4178 1692 I 4178 1707 I 4179 1721 I 4180 1736 I 4181 1751 I 4181 1766 I 4182 1781 I 4183 1797 I 4184 1812 I 4184 1828 I 4185 1844 I 4186 1860 I 4187 1876 I 4187 1892 I 4188 1908 I 4189 1925 I 4190 1942 I 4191 1958 I 4191 1975 I 4192 1992 I 4193 2009 I 4194 2026 I 4194 2044 I 4195 2061 I 4196 2079 I 4197 2096 I 4197 2114 I 4198 2132 I 4199 2150 I 4200 2168 I 4200 2187 I 4201 2205 I 4202 2223 I 4203 2242 I 4203 2260 I 4204 2279 I 4205 2298 I 4206 2317 I 4206 2336 I 4207 2355 I 4208 2374 I 4209 2393 I 4209 2413 I 4210 2432 I 4211 2451 I 4212 2471 I 4212 2491 I 4213 2510 I 4214 2530 I 4215 2550 I 4216 2570 I 4216 2590 I 4217 2610 I 4218 2630 I 4219 2650 I 4219 2670 I 4220 2691 I 4221 2711 I 4222 2731 I 4222 2752 I 4223 2772 I 4224 2793 I 4225 2813 I 4225 2834 I 4226 2854 I 4227 2875 I 4228 2896 I 4228 2916 I 4229 2937 I 4230 2958 I 4231 2979 I 4231 2999 I 4232 3020 I 4233 3041 I 4234 3062 I 4234 3083 I 4235 3104 I 4236 3125 I 4237 3146 I 4237 3166 I 4238 3187 I 4239 3208 I 4240 3229 I 4241 3250 I 4241 3271 I 4242 3292 I 4243 3313 I 4244 3334 I 4244 3355 I 4245 3376 I 4246 3396 I 4247 3417 I 4247 3438 I 4248 3459 I : [ 1 0 0 1 150 150 ] concat K 
; N 4248 3459 M 4249 3480 I 4250 3500 I 4250 3521 I 4251 3542 I 4252 3562 I 4253 3583 I 4253 3603 I 4254 3624 I 4255 3644 I 4256 3665 I 4256 3685 I 4257 3706 I 4258 3726 I 4259 3746 I 4259 3766 I 4260 3787 I 4261 3807 I 4262 3827 I 4263 3847 I 4263 3866 I 4264 3886 I 4265 3906 I 4266 3926 I 4266 3945 I 4267 3965 I 4268 3984 I 4269 4004 I 4269 4023 I 4270 4042 I 4271 4061 I 4272 4080 I 4272 4099 I 4273 4118 I 4274 4137 I 4275 4156 I 4275 4174 I 4276 4193 I 4277 4211 I 4278 4230 I 4278 4248 I 4279 4266 I 4280 4284 I 4281 4302 I 4281 4319 I 4282 4337 I 4283 4355 I 4284 4372 I 4284 4389 I 4285 4407 I 4286 4424 I 4287 4441 I 4288 4457 I 4288 4474 I 4289 4491 I 4290 4507 I 4291 4524 I 4291 4540 I 4292 4556 I 4293 4572 I 4294 4587 I 4294 4603 I 4295 4619 I 4296 4634 I 4297 4649 I 4297 4664 I 4298 4679 I 4299 4694 I 4300 4709 I 4300 4723 I 4301 4737 I 4302 4752 I 4303 4766 I 4303 4780 I 4304 4793 I 4305 4807 I 4306 4820 I 4306 4833 I 4307 4847 I 4308 4859 I 4309 4872 I 4309 4885 I 4310 4897 I 4311 4909 I 4312 4921 I 4313 4933 I 4313 4945 I 4314 4957 I 4315 4968 I 4316 4979 I 4316 4990 I 4317 5001 I 4318 5012 I 4319 5022 I 4319 5033 I 4320 5043 I 4321 5053 I 4322 5062 I 4322 5072 I 4323 5081 I 4324 5090 I 4325 5099 I 4325 5108 I 4326 5117 I 4327 5125 I 4328 5134 I 4328 5142 I 4329 5149 I 4330 5157 I 4331 5165 I 4331 5172 I 4332 5179 I 4333 5186 I 4334 5192 I 4334 5199 I 4335 5205 I 4336 5211 I 4337 5217 I 4338 5223 I 4338 5228 I 4339 5234 I 4340 5239 I 4341 5244 I 4341 5248 I 4342 5253 I 4343 5257 I 4344 5261 I 4344 5265 I : [ 1 0 0 1 150 150 ] concat K 
; : 4341 4133 105 1167 rc N 4344 5265 M 4345 5268 I 4346 5272 I 4347 5275 I 4347 5278 I 4348 5281 I 4349 5284 I 4350 5286 I 4350 5288 I 4351 5290 I 4352 5292 I 4353 5293 I 4353 5295 I 4354 5296 I 4355 5297 I 4356 5298 I 4357 5298 I 4358 5298 I 4359 5298 I 4360 5298 I 4361 5297 I 4362 5296 I 4363 5295 I 4363 5293 I 4364 5292 I 4365 5290 I 4366 5288 I 4366 5286 I 4367 5283 I 4368 5281 I 4369 5278 I 4369 5275 I 4370 5272 I 4371 5268 I 4372 5265 I 4372 5261 I 4373 5257 I 4374 5252 I 4375 5248 I 4375 5243 I 4376 5238 I 4377 5233 I 4378 5228 I 4378 5223 I 4379 5217 I 4380 5211 I 4381 5205 I 4381 5199 I 4382 5192 I 4383 5185 I 4384 5178 I 4385 5171 I 4385 5164 I 4386 5157 I 4387 5149 I 4388 5141 I 4388 5133 I 4389 5125 I 4390 5116 I 4391 5108 I 4391 5099 I 4392 5090 I 4393 5081 I 4394 5071 I 4394 5062 I 4395 5052 I 4396 5042 I 4397 5032 I 4397 5022 I 4398 5011 I 4399 5000 I 4400 4990 I 4400 4979 I 4401 4967 I 4402 4956 I 4403 4944 I 4403 4933 I 4404 4921 I 4405 4909 I 4406 4896 I 4406 4884 I 4407 4871 I 4408 4859 I 4409 4846 I 4410 4833 I 4410 4819 I 4411 4806 I 4412 4792 I 4413 4779 I 4413 4765 I 4414 4751 I 4415 4737 I 4416 4722 I 4416 4708 I 4417 4693 I 4418 4678 I 4419 4663 I 4419 4648 I 4420 4633 I 4421 4618 I 4422 4602 I 4422 4587 I 4423 4571 I 4424 4555 I 4425 4539 I 4425 4523 I 4426 4506 I 4427 4490 I 4428 4473 I 4428 4456 I 4429 4440 I 4430 4423 I 4431 4406 I 4431 4388 I 4432 4371 I 4433 4354 I 4434 4336 I 4435 4318 I 4435 4301 I 4436 4283 I 4437 4265 I 4438 4247 I 4438 4228 I 4439 4210 I 4440 4192 I 4441 4173 I 4441 4155 I 4442 4136 I : [ 1 0 0 1 150 150 ] concat K 
; ; : 4439 3762 19 378 rc N 4442 4136 M 4443 4117 I 4444 4098 I 4444 4079 I 4445 4060 I 4446 4041 I 4447 4022 I 4447 4002 I 4448 3983 I 4449 3964 I 4450 3944 I 4450 3924 I 4451 3905 I 4452 3885 I 4453 3865 I 4453 3845 I 4454 3825 I 4455 3805 I 4456 3785 I 4457 3765 I : [ 1 0 0 1 150 150 ] concat K 
; ; 0 0 0 1 scol T32RsrcBegin

11
/g341 [38 0 1 -44 37 4 ] 
/g341 [36 48 true [1 0 0 1 -1 44 ]  0 0]
[<ffffffffe0
ffffffffe0
ffffffffe0
fc00f003e0
f000f001e0
f000f000e0
e000f00060
e000f00060
c000f00060
c000f00030
c000f00030
8000f00030
0000f00000
0000f00000
0000f00000
0000f00000
0000f00000
0000f00000
0000f00000
0000f00000
0000f00000
0000f00000
0000f00000
0000f00000
0000f00000
0000f00000
0000f00000
0000f00000
0000f00000
0000f00000
0000f00000
0000f00000
0000f00000
0000f00000
0000f00000
0000f00000
0000f00000
0000f00000
0000f00000
0000f00000
0000f00000
0000f00000
0001f00000
0001f00000
0001f80000
0007fc0000
003fff8000
007fffe000
>
 ]
/TT24b00 AddT3T32Char

12
/g362 [17 0 1 -45 16 4 ] 
/g362 [15 49 true [1 0 0 1 -1 45 ]  0 0]
[<0300
0780
0f80
0f80
0780
0780
0000
0000
0000
0000
0000
0000
0000
0000
0000
0000
0000
0180
0f80
3f80
ff80
0f80
0780
0780
0380
0380
0380
0380
0380
0380
0380
0380
0380
0380
0380
0380
0380
0380
0380
0380
0380
0380
0380
0780
07c0
07c0
0fe0
3ff8
fffe
>
 ]
/TT24b00 AddT3T32Char

13
/g366 [48 0 1 -29 48 4 ] 
/g366 [47 33 true [1 0 0 1 -1 29 ]  0 0]
[<0100f8007c00
0703fc03fe00
3f07fe07ff00
ff1fff0fff80
1f3c1f1c1f80
0f700f300780
0fc007e007c0
078007c003c0
0700078003c0
0700038003c0
0700038003c0
0700038001c0
0700038001c0
0700038001c0
0700038001c0
0700038001c0
0700038001c0
0700038001c0
0700038001c0
0700038001c0
0700038001c0
0700038001c0
0700038001c0
0700038001c0
0700038001c0
0700038001c0
0700038001c0
0700038003c0
0700038003c0
0f8007c003e0
0f8007c007e0
3fe01ff00ff8
fff87ffc3ffe
>
 ]
/TT24b00 AddT3T32Char

14
/g358 [28 0 1 -29 26 4 ] 
/g358 [25 33 true [1 0 0 1 -1 29 ]  0 0]
[<003f8000
00ffe000
0381f000
0700f800
0c007c00
0c003c00
18001e00
38001e00
30001e00
30001f00
7fffff00
7fffff00
60000000
60000000
60000000
f0000000
f0000000
f0000000
f0000000
f0000000
70000000
78000000
78000080
78000180
7c000100
3c000300
3e000600
1f000c00
1f801c00
0fe0f800
07fff000
03ffe000
00ff8000
>
 ]
/TT24b00 AddT3T32Char

15
/g289 [17 0 0 0 1 1 ] 
/g289 [1 1 true [1 0 0 1 0 0 ]  0 0]
[<00
>
 ]
/TT24b00 AddT3T32Char

16
/g368 [31 0 2 -29 29 4 ] 
/g368 [27 33 true [1 0 0 1 -2 29 ]  0 0]
[<007f8000
01fff000
0780f800
0f007c00
0c001e00
1c001f00
38000f80
38000780
700007c0
700003c0
f00003c0
f00003e0
f00001e0
f00001e0
f00001e0
f00001e0
f00001e0
f00001e0
f00001e0
f00001e0
f00001e0
f80001c0
f80001c0
780001c0
7c000380
3c000380
3e000300
1e000700
1f000e00
0f801c00
07e03800
01fff000
00ffc000
>
 ]
/TT24b00 AddT3T32Char

17
/g359 [21 0 1 -45 24 4 ] 
/g359 [23 49 true [1 0 0 1 -1 45 ]  0 0]
[<0007f0
001ff8
0030fc
00607e
00c03e
01c01c
01c000
01c000
01c000
03c000
03c000
03c000
03c000
03c000
03c000
03c000
03c000
ffffc0
ffffc0
03c000
03c000
03c000
03c000
03c000
03c000
03c000
03c000
03c000
03c000
03c000
03c000
03c000
03c000
03c000
03c000
03c000
03c000
03c000
03c000
03c000
03c000
03c000
03c000
03c000
03c000
07c000
07e000
1ff800
ffff00
>
 ]
/TT24b00 AddT3T32Char

18
/g372 [24 0 3 -29 21 4 ] 
/g372 [18 33 true [1 0 0 1 -3 29 ]  0 0]
[<07f100
1e1f00
380700
700700
600300
600300
e00100
e00100
e00100
f00100
f00000
780000
7e0000
3f0000
1fc000
0fe000
03f800
01fc00
00ff00
003f80
001f80
0007c0
8003c0
8003c0
c001c0
c001c0
c001c0
c001c0
e001c0
f00380
f80300
fe0e00
87fc00
>
 ]
/TT24b00 AddT3T32Char

19
/g373 [17 0 1 -38 17 4 ] 
/g373 [16 42 true [1 0 0 1 -1 38 ]  0 0]
[<0100
0300
0300
0300
0700
0700
0f00
1f00
3f00
7f00
fffe
0f00
0f00
0f00
0f00
0f00
0f00
0f00
0f00
0f00
0f00
0f00
0f00
0f00
0f00
0f00
0f00
0f00
0f00
0f00
0f00
0f00
0f00
0f00
0f00
0f00
0f00
0f01
0783
07fe
07fc
03f0
>
 ]
/TT24b00 AddT3T32Char

20
/g315 [17 0 5 -29 12 5 ] 
/g315 [7 34 true [1 0 0 1 -5 29 ]  0 0]
[<38
7c
fe
fe
fe
fc
78
00
00
00
00
00
00
00
00
00
00
00
00
00
00
00
00
00
00
00
38
7c
fe
fe
fe
fe
7c
10
>
 ]
/TT24b00 AddT3T32Char
T32RsrcEnd
144 6852 M <0B0C0D0E0F101111120E13140F010F0F0F0F0F0F0F0F0F0F0F0F0F0F0F>S 
LH
%%PageTrailer

%%Trailer
%%DocumentNeededResources: 
%%DocumentSuppliedResources: 
%%+ procset Pscript_WinNT_VMErrorHandler 5.0 0
%%+ procset Pscript_FatalError 5.0 0
%%+ procset Pscript_Win_Basic 5.0 0
%%+ procset Pscript_Win_Utils_L1 5.0 0
%%+ procset Pscript_Win_GdiObject 5.0 0
%%+ procset Pscript_Win_GdiObject_L1 5.0 0
%%+ procset Pscript_T3Hdr 5.0 0
%%+ procset Pscript_Text 5.0 0
Pscript_WinNT_Incr dup /terminate get exec
%%EOF
