%!PS-Adobe-3.0 EPSF-3.0
%%Creator: MATLAB, The Mathworks, Inc. Version 7.10.0.499 (R2010a). Operating System: Microsoft Windows 7.
%%Title: D:\workspace\homework\control\hw1\report\task.eps
%%CreationDate: 10/20/2011  21:13:59
%%DocumentNeededFonts: Helvetica
%%DocumentProcessColors: Cyan Magenta Yellow Black
%%LanguageLevel: 2
%%Pages: 1
%%BoundingBox:    87   262   507   578
%%EndComments

%%BeginProlog
% MathWorks dictionary
/MathWorks 160 dict begin
% definition operators
/bdef {bind def} bind def
/ldef {load def} bind def
/xdef {exch def} bdef
/xstore {exch store} bdef
% operator abbreviations
/c  /clip ldef
/cc /concat ldef
/cp /closepath ldef
/gr /grestore ldef
/gs /gsave ldef
/mt /moveto ldef
/np /newpath ldef
/cm /currentmatrix ldef
/sm /setmatrix ldef
/rm /rmoveto ldef
/rl /rlineto ldef
/s {show newpath} bdef
/sc {setcmykcolor} bdef
/sr /setrgbcolor ldef
/sg /setgray ldef
/w /setlinewidth ldef
/j /setlinejoin ldef
/cap /setlinecap ldef
/rc {rectclip} bdef
/rf {rectfill} bdef
% page state control
/pgsv () def
/bpage {/pgsv save def} bdef
/epage {pgsv restore} bdef
/bplot /gsave ldef
/eplot {stroke grestore} bdef
% orientation switch
/portraitMode 0 def /landscapeMode 1 def /rotateMode 2 def
% coordinate system mappings
/dpi2point 0 def
% font control
/FontSize 0 def
/FMS {/FontSize xstore findfont [FontSize 0 0 FontSize neg 0 0]
  makefont setfont} bdef
/ISOLatin1Encoding where {pop /WindowsLatin1Encoding 256 array bdef
ISOLatin1Encoding WindowsLatin1Encoding copy pop
/.notdef/.notdef/quotesinglbase/florin/quotedblbase/ellipsis/dagger
/daggerdbl/circumflex/perthousand/Scaron/guilsinglleft/OE/.notdef/.notdef
/.notdef/.notdef/quoteleft/quoteright/quotedblleft/quotedblright/bullet
/endash/emdash/tilde/trademark/scaron/guilsinglright/oe/.notdef/.notdef
/Ydieresis WindowsLatin1Encoding 128 32 getinterval astore pop}
{/WindowsLatin1Encoding StandardEncoding bdef} ifelse
/reencode {exch dup where {pop load} {pop StandardEncoding} ifelse
  exch dup 3 1 roll findfont dup length dict begin
  { 1 index /FID ne {def}{pop pop} ifelse } forall
  /Encoding exch def currentdict end definefont pop} bdef
/isroman {findfont /CharStrings get /Agrave known} bdef
/FMSR {3 1 roll 1 index dup isroman {reencode} {pop pop} ifelse
  exch FMS} bdef
/csm {1 dpi2point div -1 dpi2point div scale neg translate
 dup landscapeMode eq {pop -90 rotate}
  {rotateMode eq {90 rotate} if} ifelse} bdef
% line types: solid, dotted, dashed, dotdash
/SO { [] 0 setdash } bdef
/DO { [.5 dpi2point mul 4 dpi2point mul] 0 setdash } bdef
/DA { [6 dpi2point mul] 0 setdash } bdef
/DD { [.5 dpi2point mul 4 dpi2point mul 6 dpi2point mul 4
  dpi2point mul] 0 setdash } bdef
% macros for lines and objects
/L {lineto stroke} bdef
/MP {3 1 roll moveto 1 sub {rlineto} repeat} bdef
/AP {{rlineto} repeat} bdef
/PDlw -1 def
/W {/PDlw currentlinewidth def setlinewidth} def
/PP {closepath eofill} bdef
/DP {closepath stroke} bdef
/MR {4 -2 roll moveto dup  0 exch rlineto exch 0 rlineto
  neg 0 exch rlineto closepath} bdef
/FR {MR stroke} bdef
/PR {MR fill} bdef
/L1i {{currentfile picstr readhexstring pop} image} bdef
/tMatrix matrix def
/MakeOval {newpath tMatrix currentmatrix pop translate scale
0 0 1 0 360 arc tMatrix setmatrix} bdef
/FO {MakeOval stroke} bdef
/PO {MakeOval fill} bdef
/PD {currentlinewidth 2 div 0 360 arc fill
   PDlw -1 eq not {PDlw w /PDlw -1 def} if} def
/FA {newpath tMatrix currentmatrix pop translate scale
  0 0 1 5 -2 roll arc tMatrix setmatrix stroke} bdef
/PA {newpath tMatrix currentmatrix pop	translate 0 0 moveto scale
  0 0 1 5 -2 roll arc closepath tMatrix setmatrix fill} bdef
/FAn {newpath tMatrix currentmatrix pop translate scale
  0 0 1 5 -2 roll arcn tMatrix setmatrix stroke} bdef
/PAn {newpath tMatrix currentmatrix pop translate 0 0 moveto scale
  0 0 1 5 -2 roll arcn closepath tMatrix setmatrix fill} bdef
/vradius 0 def /hradius 0 def /lry 0 def
/lrx 0 def /uly 0 def /ulx 0 def /rad 0 def
/MRR {/vradius xdef /hradius xdef /lry xdef /lrx xdef /uly xdef
  /ulx xdef newpath tMatrix currentmatrix pop ulx hradius add uly
  vradius add translate hradius vradius scale 0 0 1 180 270 arc 
  tMatrix setmatrix lrx hradius sub uly vradius add translate
  hradius vradius scale 0 0 1 270 360 arc tMatrix setmatrix
  lrx hradius sub lry vradius sub translate hradius vradius scale
  0 0 1 0 90 arc tMatrix setmatrix ulx hradius add lry vradius sub
  translate hradius vradius scale 0 0 1 90 180 arc tMatrix setmatrix
  closepath} bdef
/FRR {MRR stroke } bdef
/PRR {MRR fill } bdef
/MlrRR {/lry xdef /lrx xdef /uly xdef /ulx xdef /rad lry uly sub 2 div def
  newpath tMatrix currentmatrix pop ulx rad add uly rad add translate
  rad rad scale 0 0 1 90 270 arc tMatrix setmatrix lrx rad sub lry rad
  sub translate rad rad scale 0 0 1 270 90 arc tMatrix setmatrix
  closepath} bdef
/FlrRR {MlrRR stroke } bdef
/PlrRR {MlrRR fill } bdef
/MtbRR {/lry xdef /lrx xdef /uly xdef /ulx xdef /rad lrx ulx sub 2 div def
  newpath tMatrix currentmatrix pop ulx rad add uly rad add translate
  rad rad scale 0 0 1 180 360 arc tMatrix setmatrix lrx rad sub lry rad
  sub translate rad rad scale 0 0 1 0 180 arc tMatrix setmatrix
  closepath} bdef
/FtbRR {MtbRR stroke } bdef
/PtbRR {MtbRR fill } bdef
/stri 6 array def /dtri 6 array def
/smat 6 array def /dmat 6 array def
/tmat1 6 array def /tmat2 6 array def /dif 3 array def
/asub {/ind2 exch def /ind1 exch def dup dup
  ind1 get exch ind2 get sub exch } bdef
/tri_to_matrix {
  2 0 asub 3 1 asub 4 0 asub 5 1 asub
  dup 0 get exch 1 get 7 -1 roll astore } bdef
/compute_transform {
  dmat dtri tri_to_matrix tmat1 invertmatrix 
  smat stri tri_to_matrix tmat2 concatmatrix } bdef
/ds {stri astore pop} bdef
/dt {dtri astore pop} bdef
/db {2 copy /cols xdef /rows xdef mul dup 3 mul string
  currentfile 
  3 index 0 eq {/ASCIIHexDecode filter}
  {/ASCII85Decode filter 3 index 2 eq {/RunLengthDecode filter} if }
  ifelse exch readstring pop
  dup 0 3 index getinterval /rbmap xdef
  dup 2 index dup getinterval /gbmap xdef
  1 index dup 2 mul exch getinterval /bbmap xdef pop pop}bdef
/it {gs np dtri aload pop moveto lineto lineto cp c
  cols rows 8 compute_transform 
  rbmap gbmap bbmap true 3 colorimage gr}bdef
/il {newpath moveto lineto stroke}bdef
currentdict end def
%%EndProlog

%%BeginSetup
MathWorks begin

0 cap

end
%%EndSetup

%%Page: 1 1
%%BeginPageSetup
%%PageBoundingBox:    87   262   507   578
MathWorks begin
bpage
%%EndPageSetup

%%BeginObject: obj1
bplot

/dpi2point 12 def
portraitMode 1044 6936 csm

    0     0  5045  3782 rc
85 dict begin %Colortable dictionary
/c0 { 0.000000 0.000000 0.000000 sr} bdef
/c1 { 1.000000 1.000000 1.000000 sr} bdef
/c2 { 0.900000 0.000000 0.000000 sr} bdef
/c3 { 0.000000 0.820000 0.000000 sr} bdef
/c4 { 0.000000 0.000000 0.800000 sr} bdef
/c5 { 0.910000 0.820000 0.320000 sr} bdef
/c6 { 1.000000 0.260000 0.820000 sr} bdef
/c7 { 0.000000 0.820000 0.820000 sr} bdef
c0
1 j
1 sg
   0    0 5046 3783 rf
6 w
0 3082 3910 0 0 -3082 656 3366 4 MP
PP
-3910 0 0 3082 3910 0 0 -3082 656 3366 5 MP stroke
4 w
DO
SO
6 w
0 sg
 656  284 mt 4566  284 L
 656 3366 mt 4566 3366 L
4566 3366 mt 4566  284 L
 656 3366 mt  656  284 L
 656 3366 mt 4566 3366 L
 656 3366 mt  656  284 L
 656 3366 mt  656 3326 L
 656  284 mt  656  323 L
%%IncludeResource: font Helvetica
/Helvetica /WindowsLatin1Encoding 120 FMSR

 623 3511 mt 
(0) s
1307 3366 mt 1307 3326 L
1307  284 mt 1307  323 L
1274 3511 mt 
(2) s
1959 3366 mt 1959 3326 L
1959  284 mt 1959  323 L
1926 3511 mt 
(4) s
2611 3366 mt 2611 3326 L
2611  284 mt 2611  323 L
2578 3511 mt 
(6) s
3262 3366 mt 3262 3326 L
3262  284 mt 3262  323 L
3229 3511 mt 
(8) s
3914 3366 mt 3914 3326 L
3914  284 mt 3914  323 L
3848 3511 mt 
(10) s
4566 3366 mt 4566 3326 L
4566  284 mt 4566  323 L
4500 3511 mt 
(12) s
 656 3366 mt  695 3366 L
4566 3366 mt 4526 3366 L
 385 3410 mt 
(-1.5) s
 656 2852 mt  695 2852 L
4566 2852 mt 4526 2852 L
 485 2896 mt 
(-1) s
 656 2338 mt  695 2338 L
4566 2338 mt 4526 2338 L
 385 2382 mt 
(-0.5) s
 656 1825 mt  695 1825 L
4566 1825 mt 4526 1825 L
 555 1869 mt 
(0) s
 656 1311 mt  695 1311 L
4566 1311 mt 4526 1311 L
 455 1355 mt 
(0.5) s
 656  797 mt  695  797 L
4566  797 mt 4526  797 L
 555  841 mt 
(1) s
 656  284 mt  695  284 L
4566  284 mt 4526  284 L
 455  328 mt 
(1.5) s
 656  284 mt 4566  284 L
 656 3366 mt 4566 3366 L
4566 3366 mt 4566  284 L
 656 3366 mt  656  284 L
gs 656 284 3911 3083 rc
/c8 { 0.000000 0.000000 1.000000 sr} bdef
c8
25 51 25 54 25 58 25 63 44 120 45 130 44 136 44 140 
54 167 54 160 54 147 53 130 66 133 67 104 66 75 66 51 
55 24 56 10 56 -5 55 -21 46 -28 45 -39 45 -51 45 -64 
37 -63 37 -72 37 -81 37 -90 45 -119 44 -128 44 -135 44 -140 
54 -166 53 -160 53 -148 54 -131 66 -136 66 -107 66 -79 66 -53 
56 -27 55 -11 56 3 56 18 46 27 46 38 45 50 46 64 
37 61 37 71 37 80 37 89 45 117 44 127 44 135 44 139 
53 166 53 160 53 148 53 132 66 139 66 110 66 81 66 56 
56 28 56 14 56 -2 56 -17 46 -25 46 -37 47 -50 46 -62 
37 -61 37 -70 37 -79 37 -88 36 -93 35 -99 36 -105 35 -109 
11 -32 10 -32 10 -33 10 -33 656 1825 85 MP stroke
DD
/c9 { 0.000000 0.500000 0.000000 sr} bdef
c9
25 -46 25 -44 25 -42 25 -37 44 -57 45 -42 44 -25 44 -6 
54 18 54 45 54 67 53 86 66 124 67 136 66 143 66 145 
55 123 56 123 56 122 55 123 46 100 45 99 45 98 45 96 
37 75 37 70 37 66 37 58 45 59 44 44 44 27 44 8 
54 -15 53 -41 53 -64 54 -83 66 -122 66 -135 66 -142 66 -145 
56 -123 55 -124 56 -123 56 -123 46 -101 46 -100 45 -100 46 -96 
37 -76 37 -71 37 -67 37 -59 45 -60 44 -46 44 -28 44 -11 
53 12 53 39 53 61 53 81 66 120 66 134 66 141 66 145 
56 123 56 124 56 123 56 124 46 102 46 101 47 100 46 99 
37 76 37 72 37 67 37 60 36 51 35 41 36 31 35 20 
11 3 10 3 10 1 10 1 656 797 85 MP stroke
SO
gr

c9
24 W
/c10 { 1.000000 0.000000 0.000000 sr} bdef
c10
656 797 PD
24 W
666 797 PD
24 W
676 798 PD
24 W
686 800 PD
24 W
697 801 PD
24 W
732 811 PD
24 W
768 827 PD
24 W
803 847 PD
24 W
839 871 PD
24 W
876 899 PD
24 W
913 928 PD
24 W
950 958 PD
24 W
987 987 PD
24 W
1033 1021 PD
24 W
1080 1050 PD
24 W
1126 1074 PD
24 W
1172 1091 PD
24 W
1228 1103 PD
24 W
1284 1105 PD
24 W
1340 1095 PD
24 W
1396 1075 PD
24 W
1462 1040 PD
24 W
1528 994 PD
24 W
1594 943 PD
24 W
1660 890 PD
24 W
1713 853 PD
24 W
1766 823 PD
24 W
1819 803 PD
24 W
1872 797 PD
24 W
1916 802 PD
24 W
1960 817 PD
24 W
2004 839 PD
24 W
2049 868 PD
24 W
2086 896 PD
24 W
2123 925 PD
24 W
2160 955 PD
24 W
2197 984 PD
24 W
2243 1017 PD
24 W
2288 1047 PD
24 W
2334 1071 PD
24 W
2380 1090 PD
24 W
2436 1103 PD
24 W
2492 1105 PD
24 W
2547 1097 PD
24 W
2603 1078 PD
24 W
2669 1044 PD
24 W
2735 999 PD
24 W
2801 948 PD
24 W
2867 895 PD
24 W
2921 857 PD
24 W
2974 825 PD
24 W
3027 805 PD
24 W
3081 797 PD
24 W
3125 801 PD
24 W
3169 815 PD
24 W
3213 836 PD
24 W
3258 865 PD
24 W
3295 892 PD
24 W
3332 921 PD
24 W
3369 951 PD
24 W
3406 980 PD
24 W
3451 1013 PD
24 W
3496 1043 PD
24 W
3541 1068 PD
24 W
3587 1087 PD
24 W
3642 1101 PD
24 W
3698 1105 PD
24 W
3754 1098 PD
24 W
3809 1081 PD
24 W
3875 1048 PD
24 W
3941 1005 PD
24 W
4008 954 PD
24 W
4074 901 PD
24 W
4127 861 PD
24 W
4181 829 PD
24 W
4235 806 PD
24 W
4289 797 PD
24 W
4333 800 PD
24 W
4377 813 PD
24 W
4422 833 PD
24 W
4466 861 PD
24 W
4491 879 PD
24 W
4516 897 PD
24 W
4541 917 PD
24 W
4566 937 PD
gs 656 284 3911 3083 rc
gr


end %%Color Dict

eplot
%%EndObject

epage
end

showpage

%%Trailer
%%EOF
