%!PS-Adobe-3.0 EPSF-3.0
%%Creator: MATLAB, The Mathworks, Inc. Version 7.10.0.499 (R2010a). Operating System: Microsoft Windows 7.
%%Title: C:\workspace\homework\control\hw2\1a.eps
%%CreationDate: 11/07/2011  00:36:07
%%DocumentNeededFonts: Helvetica
%%DocumentProcessColors: Cyan Magenta Yellow Black
%%LanguageLevel: 2
%%Pages: 1
%%BoundingBox:    87   262   507   578
%%EndComments

%%BeginProlog
% MathWorks dictionary
/MathWorks 160 dict begin
% definition operators
/bdef {bind def} bind def
/ldef {load def} bind def
/xdef {exch def} bdef
/xstore {exch store} bdef
% operator abbreviations
/c  /clip ldef
/cc /concat ldef
/cp /closepath ldef
/gr /grestore ldef
/gs /gsave ldef
/mt /moveto ldef
/np /newpath ldef
/cm /currentmatrix ldef
/sm /setmatrix ldef
/rm /rmoveto ldef
/rl /rlineto ldef
/s {show newpath} bdef
/sc {setcmykcolor} bdef
/sr /setrgbcolor ldef
/sg /setgray ldef
/w /setlinewidth ldef
/j /setlinejoin ldef
/cap /setlinecap ldef
/rc {rectclip} bdef
/rf {rectfill} bdef
% page state control
/pgsv () def
/bpage {/pgsv save def} bdef
/epage {pgsv restore} bdef
/bplot /gsave ldef
/eplot {stroke grestore} bdef
% orientation switch
/portraitMode 0 def /landscapeMode 1 def /rotateMode 2 def
% coordinate system mappings
/dpi2point 0 def
% font control
/FontSize 0 def
/FMS {/FontSize xstore findfont [FontSize 0 0 FontSize neg 0 0]
  makefont setfont} bdef
/ISOLatin1Encoding where {pop /WindowsLatin1Encoding 256 array bdef
ISOLatin1Encoding WindowsLatin1Encoding copy pop
/.notdef/.notdef/quotesinglbase/florin/quotedblbase/ellipsis/dagger
/daggerdbl/circumflex/perthousand/Scaron/guilsinglleft/OE/.notdef/.notdef
/.notdef/.notdef/quoteleft/quoteright/quotedblleft/quotedblright/bullet
/endash/emdash/tilde/trademark/scaron/guilsinglright/oe/.notdef/.notdef
/Ydieresis WindowsLatin1Encoding 128 32 getinterval astore pop}
{/WindowsLatin1Encoding StandardEncoding bdef} ifelse
/reencode {exch dup where {pop load} {pop StandardEncoding} ifelse
  exch dup 3 1 roll findfont dup length dict begin
  { 1 index /FID ne {def}{pop pop} ifelse } forall
  /Encoding exch def currentdict end definefont pop} bdef
/isroman {findfont /CharStrings get /Agrave known} bdef
/FMSR {3 1 roll 1 index dup isroman {reencode} {pop pop} ifelse
  exch FMS} bdef
/csm {1 dpi2point div -1 dpi2point div scale neg translate
 dup landscapeMode eq {pop -90 rotate}
  {rotateMode eq {90 rotate} if} ifelse} bdef
% line types: solid, dotted, dashed, dotdash
/SO { [] 0 setdash } bdef
/DO { [.5 dpi2point mul 4 dpi2point mul] 0 setdash } bdef
/DA { [6 dpi2point mul] 0 setdash } bdef
/DD { [.5 dpi2point mul 4 dpi2point mul 6 dpi2point mul 4
  dpi2point mul] 0 setdash } bdef
% macros for lines and objects
/L {lineto stroke} bdef
/MP {3 1 roll moveto 1 sub {rlineto} repeat} bdef
/AP {{rlineto} repeat} bdef
/PDlw -1 def
/W {/PDlw currentlinewidth def setlinewidth} def
/PP {closepath eofill} bdef
/DP {closepath stroke} bdef
/MR {4 -2 roll moveto dup  0 exch rlineto exch 0 rlineto
  neg 0 exch rlineto closepath} bdef
/FR {MR stroke} bdef
/PR {MR fill} bdef
/L1i {{currentfile picstr readhexstring pop} image} bdef
/tMatrix matrix def
/MakeOval {newpath tMatrix currentmatrix pop translate scale
0 0 1 0 360 arc tMatrix setmatrix} bdef
/FO {MakeOval stroke} bdef
/PO {MakeOval fill} bdef
/PD {currentlinewidth 2 div 0 360 arc fill
   PDlw -1 eq not {PDlw w /PDlw -1 def} if} def
/FA {newpath tMatrix currentmatrix pop translate scale
  0 0 1 5 -2 roll arc tMatrix setmatrix stroke} bdef
/PA {newpath tMatrix currentmatrix pop	translate 0 0 moveto scale
  0 0 1 5 -2 roll arc closepath tMatrix setmatrix fill} bdef
/FAn {newpath tMatrix currentmatrix pop translate scale
  0 0 1 5 -2 roll arcn tMatrix setmatrix stroke} bdef
/PAn {newpath tMatrix currentmatrix pop translate 0 0 moveto scale
  0 0 1 5 -2 roll arcn closepath tMatrix setmatrix fill} bdef
/vradius 0 def /hradius 0 def /lry 0 def
/lrx 0 def /uly 0 def /ulx 0 def /rad 0 def
/MRR {/vradius xdef /hradius xdef /lry xdef /lrx xdef /uly xdef
  /ulx xdef newpath tMatrix currentmatrix pop ulx hradius add uly
  vradius add translate hradius vradius scale 0 0 1 180 270 arc 
  tMatrix setmatrix lrx hradius sub uly vradius add translate
  hradius vradius scale 0 0 1 270 360 arc tMatrix setmatrix
  lrx hradius sub lry vradius sub translate hradius vradius scale
  0 0 1 0 90 arc tMatrix setmatrix ulx hradius add lry vradius sub
  translate hradius vradius scale 0 0 1 90 180 arc tMatrix setmatrix
  closepath} bdef
/FRR {MRR stroke } bdef
/PRR {MRR fill } bdef
/MlrRR {/lry xdef /lrx xdef /uly xdef /ulx xdef /rad lry uly sub 2 div def
  newpath tMatrix currentmatrix pop ulx rad add uly rad add translate
  rad rad scale 0 0 1 90 270 arc tMatrix setmatrix lrx rad sub lry rad
  sub translate rad rad scale 0 0 1 270 90 arc tMatrix setmatrix
  closepath} bdef
/FlrRR {MlrRR stroke } bdef
/PlrRR {MlrRR fill } bdef
/MtbRR {/lry xdef /lrx xdef /uly xdef /ulx xdef /rad lrx ulx sub 2 div def
  newpath tMatrix currentmatrix pop ulx rad add uly rad add translate
  rad rad scale 0 0 1 180 360 arc tMatrix setmatrix lrx rad sub lry rad
  sub translate rad rad scale 0 0 1 0 180 arc tMatrix setmatrix
  closepath} bdef
/FtbRR {MtbRR stroke } bdef
/PtbRR {MtbRR fill } bdef
/stri 6 array def /dtri 6 array def
/smat 6 array def /dmat 6 array def
/tmat1 6 array def /tmat2 6 array def /dif 3 array def
/asub {/ind2 exch def /ind1 exch def dup dup
  ind1 get exch ind2 get sub exch } bdef
/tri_to_matrix {
  2 0 asub 3 1 asub 4 0 asub 5 1 asub
  dup 0 get exch 1 get 7 -1 roll astore } bdef
/compute_transform {
  dmat dtri tri_to_matrix tmat1 invertmatrix 
  smat stri tri_to_matrix tmat2 concatmatrix } bdef
/ds {stri astore pop} bdef
/dt {dtri astore pop} bdef
/db {2 copy /cols xdef /rows xdef mul dup 3 mul string
  currentfile 
  3 index 0 eq {/ASCIIHexDecode filter}
  {/ASCII85Decode filter 3 index 2 eq {/RunLengthDecode filter} if }
  ifelse exch readstring pop
  dup 0 3 index getinterval /rbmap xdef
  dup 2 index dup getinterval /gbmap xdef
  1 index dup 2 mul exch getinterval /bbmap xdef pop pop}bdef
/it {gs np dtri aload pop moveto lineto lineto cp c
  cols rows 8 compute_transform 
  rbmap gbmap bbmap true 3 colorimage gr}bdef
/il {newpath moveto lineto stroke}bdef
currentdict end def
%%EndProlog

%%BeginSetup
MathWorks begin

0 cap

end
%%EndSetup

%%Page: 1 1
%%BeginPageSetup
%%PageBoundingBox:    87   262   507   578
MathWorks begin
bpage
%%EndPageSetup

%%BeginObject: obj1
bplot

/dpi2point 12 def
portraitMode 1044 6936 csm

    0     0  5045  3782 rc
86 dict begin %Colortable dictionary
/c0 { 0.000000 0.000000 0.000000 sr} bdef
/c1 { 1.000000 1.000000 1.000000 sr} bdef
/c2 { 0.900000 0.000000 0.000000 sr} bdef
/c3 { 0.000000 0.820000 0.000000 sr} bdef
/c4 { 0.000000 0.000000 0.800000 sr} bdef
/c5 { 0.910000 0.820000 0.320000 sr} bdef
/c6 { 1.000000 0.260000 0.820000 sr} bdef
/c7 { 0.000000 0.820000 0.820000 sr} bdef
c0
1 j
1 sg
   0    0 5046 3783 rf
6 w
0 1481 3802 0 0 -1481 764 1945 4 MP
PP
-3802 0 0 1481 3802 0 0 -1481 764 1945 5 MP stroke
4 w
DO
SO
6 w
0.4 sg
 764  464 mt 4566  464 L
 764 1945 mt 4566 1945 L
4566 1945 mt 4566  464 L
 764 1945 mt  764  464 L
 764 1945 mt 4566 1945 L
 764 1945 mt  764  464 L
 764 1945 mt  764 1925 L
 764  464 mt  764  483 L
 764 1945 mt  764 1906 L
 764  464 mt  764  502 L
1050 1945 mt 1050 1925 L
1050  464 mt 1050  483 L
1217 1945 mt 1217 1925 L
1217  464 mt 1217  483 L
1336 1945 mt 1336 1925 L
1336  464 mt 1336  483 L
1428 1945 mt 1428 1925 L
1428  464 mt 1428  483 L
1503 1945 mt 1503 1925 L
1503  464 mt 1503  483 L
1567 1945 mt 1567 1925 L
1567  464 mt 1567  483 L
1622 1945 mt 1622 1925 L
1622  464 mt 1622  483 L
1671 1945 mt 1671 1925 L
1671  464 mt 1671  483 L
1714 1945 mt 1714 1925 L
1714  464 mt 1714  483 L
1714 1945 mt 1714 1906 L
1714  464 mt 1714  502 L
2000 1945 mt 2000 1925 L
2000  464 mt 2000  483 L
2168 1945 mt 2168 1925 L
2168  464 mt 2168  483 L
2286 1945 mt 2286 1925 L
2286  464 mt 2286  483 L
2378 1945 mt 2378 1925 L
2378  464 mt 2378  483 L
2454 1945 mt 2454 1925 L
2454  464 mt 2454  483 L
2517 1945 mt 2517 1925 L
2517  464 mt 2517  483 L
2572 1945 mt 2572 1925 L
2572  464 mt 2572  483 L
2621 1945 mt 2621 1925 L
2621  464 mt 2621  483 L
2665 1945 mt 2665 1925 L
2665  464 mt 2665  483 L
2665 1945 mt 2665 1906 L
2665  464 mt 2665  502 L
2951 1945 mt 2951 1925 L
2951  464 mt 2951  483 L
3118 1945 mt 3118 1925 L
3118  464 mt 3118  483 L
3237 1945 mt 3237 1925 L
3237  464 mt 3237  483 L
3329 1945 mt 3329 1925 L
3329  464 mt 3329  483 L
3404 1945 mt 3404 1925 L
3404  464 mt 3404  483 L
3468 1945 mt 3468 1925 L
3468  464 mt 3468  483 L
3523 1945 mt 3523 1925 L
3523  464 mt 3523  483 L
3572 1945 mt 3572 1925 L
3572  464 mt 3572  483 L
3615 1945 mt 3615 1925 L
3615  464 mt 3615  483 L
3615 1945 mt 3615 1906 L
3615  464 mt 3615  502 L
3901 1945 mt 3901 1925 L
3901  464 mt 3901  483 L
4069 1945 mt 4069 1925 L
4069  464 mt 4069  483 L
4187 1945 mt 4187 1925 L
4187  464 mt 4187  483 L
4279 1945 mt 4279 1925 L
4279  464 mt 4279  483 L
4355 1945 mt 4355 1925 L
4355  464 mt 4355  483 L
4418 1945 mt 4418 1925 L
4418  464 mt 4418  483 L
4473 1945 mt 4473 1925 L
4473  464 mt 4473  483 L
4522 1945 mt 4522 1925 L
4522  464 mt 4522  483 L
4566 1945 mt 4566 1925 L
4566  464 mt 4566  483 L
4566 1945 mt 4566 1906 L
4566  464 mt 4566  502 L
 764 1945 mt  802 1945 L
4566 1945 mt 4527 1945 L
%%IncludeResource: font Helvetica
/Helvetica /WindowsLatin1Encoding 96 FMSR

 513 1980 mt 
(-100) s
 764 1574 mt  802 1574 L
4566 1574 mt 4527 1574 L
 567 1609 mt 
(-50) s
 764 1204 mt  802 1204 L
4566 1204 mt 4527 1204 L
 676 1239 mt 
(0) s
 764  834 mt  802  834 L
4566  834 mt 4527  834 L
 623  869 mt 
(50) s
 764  464 mt  802  464 L
4566  464 mt 4527  464 L
 569  499 mt 
(100) s
 764  464 mt 4566  464 L
 764 1945 mt 4566 1945 L
4566 1945 mt 4566  464 L
 764 1945 mt  764  464 L
gs 764 464 3803 1482 rc
/c8 { 0.000000 0.000000 1.000000 sr} bdef
c8
287 44 81 13 81 13 81 12 80 13 81 12 81 13 81 13 
80 12 81 13 81 13 80 13 81 13 81 13 81 13 80 14 
81 15 81 15 81 16 80 17 81 18 81 20 81 20 80 22 
81 23 81 23 81 24 80 24 81 25 81 24 81 25 80 25 
81 25 81 25 81 25 80 26 81 25 81 25 81 25 80 25 
81 25 286 90 764 854 43 MP stroke
DO
0 sg
0 -741 1888 1945 2 MP stroke
3802 0 764 1204 2 MP stroke
gr

0 sg
DO
 437 1533 mt  -90 rotate
(Magnitude \(dB\)) s
90 rotate
SO
1 sg
0 1313 3803 0 0 -1313 763 3366 4 MP
PP
-3803 0 0 1313 3803 0 0 -1313 763 3366 5 MP stroke
4 w
DO
SO
6 w
0.4 sg
 763 2053 mt 4566 2053 L
 763 3366 mt 4566 3366 L
4566 3366 mt 4566 2053 L
 763 3366 mt  763 2053 L
 763 3366 mt 4566 3366 L
 763 3366 mt  763 2053 L
 763 3366 mt  763 3346 L
 763 2053 mt  763 2072 L
 763 3366 mt  763 3327 L
 763 2053 mt  763 2091 L
 690 3534 mt 
(10) s
%%IncludeResource: font Helvetica
/Helvetica /WindowsLatin1Encoding 72 FMSR

 796 3467 mt 
(0) s
1050 3366 mt 1050 3346 L
1050 2053 mt 1050 2072 L
1217 3366 mt 1217 3346 L
1217 2053 mt 1217 2072 L
1336 3366 mt 1336 3346 L
1336 2053 mt 1336 2072 L
1428 3366 mt 1428 3346 L
1428 2053 mt 1428 2072 L
1503 3366 mt 1503 3346 L
1503 2053 mt 1503 2072 L
1567 3366 mt 1567 3346 L
1567 2053 mt 1567 2072 L
1622 3366 mt 1622 3346 L
1622 2053 mt 1622 2072 L
1671 3366 mt 1671 3346 L
1671 2053 mt 1671 2072 L
1714 3366 mt 1714 3346 L
1714 2053 mt 1714 2072 L
1714 3366 mt 1714 3327 L
1714 2053 mt 1714 2091 L
%%IncludeResource: font Helvetica
/Helvetica /WindowsLatin1Encoding 96 FMSR

1641 3534 mt 
(10) s
%%IncludeResource: font Helvetica
/Helvetica /WindowsLatin1Encoding 72 FMSR

1747 3467 mt 
(1) s
2000 3366 mt 2000 3346 L
2000 2053 mt 2000 2072 L
2168 3366 mt 2168 3346 L
2168 2053 mt 2168 2072 L
2286 3366 mt 2286 3346 L
2286 2053 mt 2286 2072 L
2378 3366 mt 2378 3346 L
2378 2053 mt 2378 2072 L
2454 3366 mt 2454 3346 L
2454 2053 mt 2454 2072 L
2517 3366 mt 2517 3346 L
2517 2053 mt 2517 2072 L
2572 3366 mt 2572 3346 L
2572 2053 mt 2572 2072 L
2621 3366 mt 2621 3346 L
2621 2053 mt 2621 2072 L
2665 3366 mt 2665 3346 L
2665 2053 mt 2665 2072 L
2665 3366 mt 2665 3327 L
2665 2053 mt 2665 2091 L
%%IncludeResource: font Helvetica
/Helvetica /WindowsLatin1Encoding 96 FMSR

2592 3534 mt 
(10) s
%%IncludeResource: font Helvetica
/Helvetica /WindowsLatin1Encoding 72 FMSR

2698 3467 mt 
(2) s
2951 3366 mt 2951 3346 L
2951 2053 mt 2951 2072 L
3118 3366 mt 3118 3346 L
3118 2053 mt 3118 2072 L
3237 3366 mt 3237 3346 L
3237 2053 mt 3237 2072 L
3329 3366 mt 3329 3346 L
3329 2053 mt 3329 2072 L
3404 3366 mt 3404 3346 L
3404 2053 mt 3404 2072 L
3468 3366 mt 3468 3346 L
3468 2053 mt 3468 2072 L
3523 3366 mt 3523 3346 L
3523 2053 mt 3523 2072 L
3572 3366 mt 3572 3346 L
3572 2053 mt 3572 2072 L
3615 3366 mt 3615 3346 L
3615 2053 mt 3615 2072 L
3615 3366 mt 3615 3327 L
3615 2053 mt 3615 2091 L
%%IncludeResource: font Helvetica
/Helvetica /WindowsLatin1Encoding 96 FMSR

3542 3534 mt 
(10) s
%%IncludeResource: font Helvetica
/Helvetica /WindowsLatin1Encoding 72 FMSR

3648 3467 mt 
(3) s
3901 3366 mt 3901 3346 L
3901 2053 mt 3901 2072 L
4069 3366 mt 4069 3346 L
4069 2053 mt 4069 2072 L
4187 3366 mt 4187 3346 L
4187 2053 mt 4187 2072 L
4279 3366 mt 4279 3346 L
4279 2053 mt 4279 2072 L
4355 3366 mt 4355 3346 L
4355 2053 mt 4355 2072 L
4418 3366 mt 4418 3346 L
4418 2053 mt 4418 2072 L
4473 3366 mt 4473 3346 L
4473 2053 mt 4473 2072 L
4522 3366 mt 4522 3346 L
4522 2053 mt 4522 2072 L
4566 3366 mt 4566 3346 L
4566 2053 mt 4566 2072 L
4566 3366 mt 4566 3327 L
4566 2053 mt 4566 2091 L
%%IncludeResource: font Helvetica
/Helvetica /WindowsLatin1Encoding 96 FMSR

4493 3534 mt 
(10) s
%%IncludeResource: font Helvetica
/Helvetica /WindowsLatin1Encoding 72 FMSR

4599 3467 mt 
(4) s
 763 3353 mt  802 3353 L
4566 3353 mt 4527 3353 L
%%IncludeResource: font Helvetica
/Helvetica /WindowsLatin1Encoding 96 FMSR

 513 3388 mt 
(-180) s
 763 2709 mt  802 2709 L
4566 2709 mt 4527 2709 L
 513 2744 mt 
(-135) s
 763 2065 mt  802 2065 L
4566 2065 mt 4527 2065 L
 567 2100 mt 
(-90) s
 763 2053 mt 4566 2053 L
 763 3366 mt 4566 3366 L
4566 3366 mt 4566 2053 L
 763 3366 mt  763 2053 L
gs 764 2053 3803 1314 rc
c8
287 -5 81 -3 81 -5 81 -5 80 -6 81 -8 81 -9 81 -12 
80 -14 81 -16 81 -21 80 -24 81 -29 81 -35 81 -42 80 -49 
81 -57 81 -64 81 -72 80 -76 81 -80 81 -80 81 -76 80 -72 
81 -64 81 -57 81 -49 80 -42 81 -35 81 -29 81 -24 80 -21 
81 -16 81 -14 81 -12 80 -9 81 -8 81 -6 81 -5 80 -5 
81 -3 286 -5 764 3341 43 MP stroke
0 sg
0 -124 1888 3353 2 MP stroke
DO
0 -1300 1888 3353 2 MP stroke
3802 0 764 3353 2 MP stroke
gr

0 sg
DO
 437 2971 mt  -90 rotate
(Phase \(deg\)) s
90 rotate
SO
2310  167 mt 
(Bode Diagram) s
1306  277 mt 
(Gm = -Inf dB \(at 0 rad/sec\) ,  Pm = 8.65 deg \(at 15.2 rad/s\
ec\)) s
2176 3662 mt 
(Frequency  \(rad/sec\)) s

end %%Color Dict

eplot
%%EndObject

epage
end

showpage

%%Trailer
%%EOF
