%!PS-Adobe-3.0 EPSF-3.0
%%Creator: MATLAB, The Mathworks, Inc. Version 7.10.0.499 (R2010a). Operating System: Microsoft Windows 7.
%%Title: C:\workspace\homework\control\hw2\1c.eps
%%CreationDate: 11/07/2011  01:14:40
%%DocumentNeededFonts: Helvetica
%%DocumentProcessColors: Cyan Magenta Yellow Black
%%LanguageLevel: 2
%%Pages: 1
%%BoundingBox:    87   262   507   578
%%EndComments

%%BeginProlog
% MathWorks dictionary
/MathWorks 160 dict begin
% definition operators
/bdef {bind def} bind def
/ldef {load def} bind def
/xdef {exch def} bdef
/xstore {exch store} bdef
% operator abbreviations
/c  /clip ldef
/cc /concat ldef
/cp /closepath ldef
/gr /grestore ldef
/gs /gsave ldef
/mt /moveto ldef
/np /newpath ldef
/cm /currentmatrix ldef
/sm /setmatrix ldef
/rm /rmoveto ldef
/rl /rlineto ldef
/s {show newpath} bdef
/sc {setcmykcolor} bdef
/sr /setrgbcolor ldef
/sg /setgray ldef
/w /setlinewidth ldef
/j /setlinejoin ldef
/cap /setlinecap ldef
/rc {rectclip} bdef
/rf {rectfill} bdef
% page state control
/pgsv () def
/bpage {/pgsv save def} bdef
/epage {pgsv restore} bdef
/bplot /gsave ldef
/eplot {stroke grestore} bdef
% orientation switch
/portraitMode 0 def /landscapeMode 1 def /rotateMode 2 def
% coordinate system mappings
/dpi2point 0 def
% font control
/FontSize 0 def
/FMS {/FontSize xstore findfont [FontSize 0 0 FontSize neg 0 0]
  makefont setfont} bdef
/ISOLatin1Encoding where {pop /WindowsLatin1Encoding 256 array bdef
ISOLatin1Encoding WindowsLatin1Encoding copy pop
/.notdef/.notdef/quotesinglbase/florin/quotedblbase/ellipsis/dagger
/daggerdbl/circumflex/perthousand/Scaron/guilsinglleft/OE/.notdef/.notdef
/.notdef/.notdef/quoteleft/quoteright/quotedblleft/quotedblright/bullet
/endash/emdash/tilde/trademark/scaron/guilsinglright/oe/.notdef/.notdef
/Ydieresis WindowsLatin1Encoding 128 32 getinterval astore pop}
{/WindowsLatin1Encoding StandardEncoding bdef} ifelse
/reencode {exch dup where {pop load} {pop StandardEncoding} ifelse
  exch dup 3 1 roll findfont dup length dict begin
  { 1 index /FID ne {def}{pop pop} ifelse } forall
  /Encoding exch def currentdict end definefont pop} bdef
/isroman {findfont /CharStrings get /Agrave known} bdef
/FMSR {3 1 roll 1 index dup isroman {reencode} {pop pop} ifelse
  exch FMS} bdef
/csm {1 dpi2point div -1 dpi2point div scale neg translate
 dup landscapeMode eq {pop -90 rotate}
  {rotateMode eq {90 rotate} if} ifelse} bdef
% line types: solid, dotted, dashed, dotdash
/SO { [] 0 setdash } bdef
/DO { [.5 dpi2point mul 4 dpi2point mul] 0 setdash } bdef
/DA { [6 dpi2point mul] 0 setdash } bdef
/DD { [.5 dpi2point mul 4 dpi2point mul 6 dpi2point mul 4
  dpi2point mul] 0 setdash } bdef
% macros for lines and objects
/L {lineto stroke} bdef
/MP {3 1 roll moveto 1 sub {rlineto} repeat} bdef
/AP {{rlineto} repeat} bdef
/PDlw -1 def
/W {/PDlw currentlinewidth def setlinewidth} def
/PP {closepath eofill} bdef
/DP {closepath stroke} bdef
/MR {4 -2 roll moveto dup  0 exch rlineto exch 0 rlineto
  neg 0 exch rlineto closepath} bdef
/FR {MR stroke} bdef
/PR {MR fill} bdef
/L1i {{currentfile picstr readhexstring pop} image} bdef
/tMatrix matrix def
/MakeOval {newpath tMatrix currentmatrix pop translate scale
0 0 1 0 360 arc tMatrix setmatrix} bdef
/FO {MakeOval stroke} bdef
/PO {MakeOval fill} bdef
/PD {currentlinewidth 2 div 0 360 arc fill
   PDlw -1 eq not {PDlw w /PDlw -1 def} if} def
/FA {newpath tMatrix currentmatrix pop translate scale
  0 0 1 5 -2 roll arc tMatrix setmatrix stroke} bdef
/PA {newpath tMatrix currentmatrix pop	translate 0 0 moveto scale
  0 0 1 5 -2 roll arc closepath tMatrix setmatrix fill} bdef
/FAn {newpath tMatrix currentmatrix pop translate scale
  0 0 1 5 -2 roll arcn tMatrix setmatrix stroke} bdef
/PAn {newpath tMatrix currentmatrix pop translate 0 0 moveto scale
  0 0 1 5 -2 roll arcn closepath tMatrix setmatrix fill} bdef
/vradius 0 def /hradius 0 def /lry 0 def
/lrx 0 def /uly 0 def /ulx 0 def /rad 0 def
/MRR {/vradius xdef /hradius xdef /lry xdef /lrx xdef /uly xdef
  /ulx xdef newpath tMatrix currentmatrix pop ulx hradius add uly
  vradius add translate hradius vradius scale 0 0 1 180 270 arc 
  tMatrix setmatrix lrx hradius sub uly vradius add translate
  hradius vradius scale 0 0 1 270 360 arc tMatrix setmatrix
  lrx hradius sub lry vradius sub translate hradius vradius scale
  0 0 1 0 90 arc tMatrix setmatrix ulx hradius add lry vradius sub
  translate hradius vradius scale 0 0 1 90 180 arc tMatrix setmatrix
  closepath} bdef
/FRR {MRR stroke } bdef
/PRR {MRR fill } bdef
/MlrRR {/lry xdef /lrx xdef /uly xdef /ulx xdef /rad lry uly sub 2 div def
  newpath tMatrix currentmatrix pop ulx rad add uly rad add translate
  rad rad scale 0 0 1 90 270 arc tMatrix setmatrix lrx rad sub lry rad
  sub translate rad rad scale 0 0 1 270 90 arc tMatrix setmatrix
  closepath} bdef
/FlrRR {MlrRR stroke } bdef
/PlrRR {MlrRR fill } bdef
/MtbRR {/lry xdef /lrx xdef /uly xdef /ulx xdef /rad lrx ulx sub 2 div def
  newpath tMatrix currentmatrix pop ulx rad add uly rad add translate
  rad rad scale 0 0 1 180 360 arc tMatrix setmatrix lrx rad sub lry rad
  sub translate rad rad scale 0 0 1 0 180 arc tMatrix setmatrix
  closepath} bdef
/FtbRR {MtbRR stroke } bdef
/PtbRR {MtbRR fill } bdef
/stri 6 array def /dtri 6 array def
/smat 6 array def /dmat 6 array def
/tmat1 6 array def /tmat2 6 array def /dif 3 array def
/asub {/ind2 exch def /ind1 exch def dup dup
  ind1 get exch ind2 get sub exch } bdef
/tri_to_matrix {
  2 0 asub 3 1 asub 4 0 asub 5 1 asub
  dup 0 get exch 1 get 7 -1 roll astore } bdef
/compute_transform {
  dmat dtri tri_to_matrix tmat1 invertmatrix 
  smat stri tri_to_matrix tmat2 concatmatrix } bdef
/ds {stri astore pop} bdef
/dt {dtri astore pop} bdef
/db {2 copy /cols xdef /rows xdef mul dup 3 mul string
  currentfile 
  3 index 0 eq {/ASCIIHexDecode filter}
  {/ASCII85Decode filter 3 index 2 eq {/RunLengthDecode filter} if }
  ifelse exch readstring pop
  dup 0 3 index getinterval /rbmap xdef
  dup 2 index dup getinterval /gbmap xdef
  1 index dup 2 mul exch getinterval /bbmap xdef pop pop}bdef
/it {gs np dtri aload pop moveto lineto lineto cp c
  cols rows 8 compute_transform 
  rbmap gbmap bbmap true 3 colorimage gr}bdef
/il {newpath moveto lineto stroke}bdef
currentdict end def
%%EndProlog

%%BeginSetup
MathWorks begin

0 cap

end
%%EndSetup

%%Page: 1 1
%%BeginPageSetup
%%PageBoundingBox:    87   262   507   578
MathWorks begin
bpage
%%EndPageSetup

%%BeginObject: obj1
bplot

/dpi2point 12 def
portraitMode 1044 6936 csm

    0     0  5045  3782 rc
86 dict begin %Colortable dictionary
/c0 { 0.000000 0.000000 0.000000 sr} bdef
/c1 { 1.000000 1.000000 1.000000 sr} bdef
/c2 { 0.900000 0.000000 0.000000 sr} bdef
/c3 { 0.000000 0.820000 0.000000 sr} bdef
/c4 { 0.000000 0.000000 0.800000 sr} bdef
/c5 { 0.910000 0.820000 0.320000 sr} bdef
/c6 { 1.000000 0.260000 0.820000 sr} bdef
/c7 { 0.000000 0.820000 0.820000 sr} bdef
c0
1 j
1 sg
   0    0 5046 3783 rf
6 w
0 2902 3802 0 0 -2902 764 3366 4 MP
PP
-3802 0 0 2902 3802 0 0 -2902 764 3366 5 MP stroke
4 w
DO
SO
6 w
0.4 sg
 764  464 mt 4566  464 L
 764 3366 mt 4566 3366 L
4566 3366 mt 4566  464 L
 764 3366 mt  764  464 L
 764 3366 mt 4566 3366 L
 764 3366 mt  764  464 L
 764 3366 mt  764 3327 L
 764  464 mt  764  502 L
%%IncludeResource: font Helvetica
/Helvetica /WindowsLatin1Encoding 96 FMSR

 738 3489 mt 
(0) s
1144 3366 mt 1144 3327 L
1144  464 mt 1144  502 L
1118 3489 mt 
(1) s
1524 3366 mt 1524 3327 L
1524  464 mt 1524  502 L
1498 3489 mt 
(2) s
1904 3366 mt 1904 3327 L
1904  464 mt 1904  502 L
1878 3489 mt 
(3) s
2284 3366 mt 2284 3327 L
2284  464 mt 2284  502 L
2258 3489 mt 
(4) s
2665 3366 mt 2665 3327 L
2665  464 mt 2665  502 L
2639 3489 mt 
(5) s
3045 3366 mt 3045 3327 L
3045  464 mt 3045  502 L
3019 3489 mt 
(6) s
3425 3366 mt 3425 3327 L
3425  464 mt 3425  502 L
3399 3489 mt 
(7) s
3805 3366 mt 3805 3327 L
3805  464 mt 3805  502 L
3779 3489 mt 
(8) s
4185 3366 mt 4185 3327 L
4185  464 mt 4185  502 L
4159 3489 mt 
(9) s
4566 3366 mt 4566 3327 L
4566  464 mt 4566  502 L
4513 3489 mt 
(10) s
 764 3366 mt  802 3366 L
4566 3366 mt 4527 3366 L
 676 3401 mt 
(0) s
 764 2882 mt  802 2882 L
4566 2882 mt 4527 2882 L
 623 2917 mt 
(10) s
 764 2398 mt  802 2398 L
4566 2398 mt 4527 2398 L
 623 2433 mt 
(20) s
 764 1915 mt  802 1915 L
4566 1915 mt 4527 1915 L
 623 1950 mt 
(30) s
 764 1431 mt  802 1431 L
4566 1431 mt 4527 1431 L
 623 1466 mt 
(40) s
 764  947 mt  802  947 L
4566  947 mt 4527  947 L
 623  982 mt 
(50) s
 764  464 mt  802  464 L
4566  464 mt 4527  464 L
 623  499 mt 
(60) s
 764  464 mt 4566  464 L
 764 3366 mt 4566 3366 L
4566 3366 mt 4566  464 L
 764 3366 mt  764  464 L
gs 764 464 3803 2903 rc
/c8 { 0.000000 0.000000 1.000000 sr} bdef
c8
4 0 4 0 4 0 4 0 4 0 3 0 4 0 4 0 
4 0 4 0 3 0 4 0 4 0 4 0 4 0 3 0 
4 0 4 0 4 0 4 0 3 0 4 0 4 0 4 0 
4 0 3 0 4 0 4 0 4 0 4 0 3 0 4 0 
4 0 4 0 4 0 3 0 4 0 4 0 4 0 4 0 
3 0 4 0 4 0 4 0 4 0 3 0 4 0 4 0 
4 0 4 0 3 0 4 0 4 0 4 0 4 0 3 0 
4 0 4 0 4 0 4 0 3 0 4 0 4 0 4 0 
4 0 3 0 4 0 4 0 4 0 4 0 3 0 4 0 
4 0 4 0 4 0 3 0 4 0 4 0 4 0 4 0 
3 0 4 0 4 0 4 0 4 0 3 0 4 0 4 0 
4 0 4 0 3 0 4 0 4 0 4 0 4 0 3 0 
4 0 4 0 4 0 4 0 4 0 3 0 4 0 4 0 
4 0 4 0 3 0 4 0 4 0 4 0 4 0 3 0 
4 0 4 0 4 0 4 0 3 0 4 0 4 0 4 0 
4 0 3 0 4 0 4 0 4 0 4 0 3 0 4 0 
4 0 4 0 4 0 3 0 4 0 4 0 4 0 4 0 
3 0 4 0 4 0 4 0 4 0 3 0 4 0 4 0 
4 0 4 0 3 0 4 0 4 0 4 0 4 0 3 0 
4 0 4 0 4 0 4 0 3 0 4 0 4 0 4 0 
4 0 3 0 4 0 4 0 4 0 4 0 3 0 4 0 
4 0 4 0 4 0 3 0 4 0 4 0 4 0 4 0 
3 0 4 0 4 0 4 0 4 0 3 0 4 0 4 0 
4 0 4 0 3 0 4 0 4 0 4 0 4 0 3 0 
4 0 4 0 4 0 4 0 3 0 4 0 4 0 4 0 
4 0 4 0 3 0 4 0 4 0 4 0 4 0 3 0 
4 0 4 0 4 0 4 0 3 0 4 0 4 0 4 0 
4 0 3 0 4 0 4 0 4 0 4 0 3 0 4 0 
4 0 4 0 4 0 3 0 4 0 4 0 4 0 4 0 
3 0 4 0 4 0 4 0 4 0 3 0 4 0 4 0 
4 0 4 0 3 0 4 0 4 0 4 0 4 0 3 0 
4 0 4 0 4 0 4 0 3 0 4 0 4 0 4 0 
4 0 3 0 4 0 4 0 4 0 4 0 3 0 4 0 
4 0 4 0 4 0 3 0 4 0 4 0 4 0 4 0 
3 0 4 0 4 0 4 0 4 0 3 0 4 0 4 0 
4 0 4 0 3 0 4 0 4 0 4 0 4 0 3 0 
4 0 4 0 4 0 4 0 3 0 4 0 4 0 4 0 
4 0 3 0 4 0 3429 1846 300 MP stroke
4 0 4 0 4 0 4 0 3 0 4 0 4 0 4 0 
4 0 3 0 4 1 4 0 4 0 4 0 3 0 4 0 
4 0 4 0 4 0 3 -1 4 0 4 0 4 0 4 0 
3 0 4 0 4 0 4 0 4 0 3 0 4 -1 4 0 
4 0 4 0 3 0 4 0 4 0 4 0 4 0 3 0 
4 0 4 1 4 0 4 0 3 0 4 0 4 0 4 0 
4 0 3 1 4 0 4 0 4 0 4 0 3 0 4 0 
4 0 4 0 4 0 3 0 4 0 4 0 4 0 4 -1 
3 0 4 0 4 0 4 0 4 0 3 0 4 -1 4 0 
4 0 4 0 3 0 4 0 4 0 4 0 4 0 3 0 
4 0 4 0 4 0 4 0 3 1 4 0 4 0 4 0 
4 0 3 1 4 0 4 0 4 0 4 0 3 0 4 0 
4 1 4 0 4 0 3 0 4 -1 4 0 4 0 4 0 
4 0 3 0 4 -1 4 0 4 0 4 0 3 -1 4 0 
4 0 4 0 4 -1 3 0 4 0 4 0 4 0 4 0 
3 0 4 0 4 0 4 1 4 0 3 0 4 0 4 1 
4 0 4 0 3 1 4 0 4 0 4 1 4 0 3 0 
4 0 4 0 4 0 4 0 3 0 4 0 4 0 4 0 
4 0 3 0 4 -1 4 0 4 -1 4 0 3 0 4 -1 
4 0 4 -1 4 0 3 0 4 -1 4 0 4 0 4 0 
3 0 4 0 4 0 4 0 4 1 3 0 4 0 4 1 
4 0 4 1 3 0 4 1 4 0 4 1 4 0 3 1 
4 0 4 0 4 1 4 0 3 0 4 0 4 0 4 0 
4 -1 3 0 4 0 4 -1 4 0 4 -1 3 -1 4 0 
4 -1 4 -1 4 0 3 -1 4 0 4 -1 4 0 4 -1 
3 0 4 0 4 0 4 0 4 0 4 1 3 0 4 1 
4 0 4 1 4 1 3 1 4 1 4 0 4 1 4 1 
3 1 4 1 4 0 4 1 4 0 3 0 4 0 4 0 
4 0 4 0 3 -1 4 0 4 -1 4 -1 4 -1 3 -1 
4 -1 4 -1 4 -1 4 -1 3 -1 4 -1 4 -1 4 -1 
4 0 3 -1 4 0 4 0 4 0 4 0 3 1 4 0 
4 1 4 1 4 1 3 1 4 2 4 1 4 1 4 2 
3 1 4 1 4 2 4 1 4 1 3 0 4 1 4 0 
4 0 4 0 3 0 4 -1 4 -1 4 -1 4 -1 3 -1 
4 -2 4 -1 4 -2 4 -2 3 -2 4 -1 4 -2 4 -2 
4 -1 3 -1 4 -1 4 -1 4 0 4 0 3 0 4 1 
4 1 4 1 4 1 3 2 4 1 4 2 4 3 4 2 
3 2 4 2 4 2 2292 1839 300 MP stroke
4 2 4 2 4 2 3 1 4 1 4 1 4 1 4 0 
3 -1 4 -1 4 -1 4 -1 4 -2 3 -2 4 -2 4 -3 
4 -3 4 -2 3 -3 4 -3 4 -3 4 -2 4 -3 3 -2 
4 -1 4 -2 4 -1 4 0 3 0 4 1 4 1 4 1 
4 2 3 2 4 3 4 3 4 4 4 3 3 4 4 3 
4 4 4 3 4 3 3 3 4 3 4 2 4 1 4 1 
3 1 4 0 4 -1 4 -2 4 -2 3 -2 4 -3 4 -4 
4 -4 4 -4 3 -4 4 -5 4 -5 4 -4 4 -4 3 -4 
4 -4 4 -3 4 -2 4 -2 3 -1 4 -1 4 1 4 1 
4 2 3 2 4 4 4 4 4 4 4 5 3 6 4 6 
4 5 4 6 4 6 3 5 4 5 4 4 4 4 4 3 
3 2 4 2 4 0 4 -1 4 -1 3 -3 4 -4 4 -4 
4 -5 4 -6 3 -7 4 -7 4 -7 4 -7 4 -8 4 -7 
3 -6 4 -7 4 -5 4 -5 4 -3 3 -3 4 -1 4 0 
4 1 4 2 3 4 4 4 4 6 4 7 4 8 3 8 
4 9 4 9 4 10 4 9 3 9 4 8 4 8 4 7 
4 5 3 5 4 3 4 1 4 0 4 -2 3 -3 4 -5 
4 -6 4 -8 4 -9 3 -10 4 -10 4 -12 4 -12 4 -11 
3 -12 4 -11 4 -11 4 -9 4 -9 3 -7 4 -5 4 -3 
4 -2 4 1 3 2 4 5 4 6 4 9 4 10 3 11 
4 13 4 14 4 15 4 15 3 15 4 14 4 14 4 14 
4 11 3 11 4 8 4 6 4 4 4 2 3 -2 4 -3 
4 -6 4 -9 4 -11 3 -13 4 -15 4 -17 4 -18 4 -18 
3 -19 4 -20 4 -18 4 -18 4 -16 3 -15 4 -12 4 -11 
4 -7 4 -4 3 -2 4 2 4 6 4 8 4 12 3 14 
4 18 4 19 4 21 4 23 4 24 3 24 4 24 4 24 
4 22 4 21 3 18 4 15 4 12 4 9 4 5 3 1 
4 -4 4 -7 4 -12 4 -15 3 -19 4 -23 4 -25 4 -28 
4 -29 3 -30 4 -31 4 -31 4 -29 4 -28 3 -25 4 -23 
4 -18 4 -15 4 -10 3 -5 4 0 4 5 4 10 4 16 
3 20 4 26 4 29 4 32 4 36 3 37 4 39 4 39 
4 39 4 37 3 34 4 32 4 28 4 23 4 17 3 12 
4 5 4 -1 4 -8 4 -14 3 -21 4 -28 4 -32 4 -38 
4 -42 3 -46 4 -48 4 -49 4 -50 4 -49 3 -46 4 -44 
4 -39 4 -34 4 -28 3 -21 4 -13 4 -5 4 3 4 11 
3 20 4 29 4 35 4 43 4 50 3 54 4 58 4 62 
4 63 4 62 3 62 4 58 4 55 4 48 4 42 3 34 
4 25 4 15 4 5 1155 1379 300 MP stroke
4 -6 3 -17 4 -28 4 -37 4 -48 4 -56 4 -64 3 -70 
4 -75 4 -78 4 -80 4 -79 3 -78 4 -73 4 -68 4 -60 
4 -52 3 -40 4 -30 4 -16 4 -4 4 10 3 24 4 38 
4 50 4 62 4 73 3 83 4 90 4 96 4 100 4 102 
3 100 4 98 4 92 4 84 4 75 3 62 4 50 4 34 
4 18 4 1 3 -16 4 -34 4 -50 4 -67 4 -82 3 -95 
4 -107 4 -116 4 -123 4 -128 3 -128 4 -128 4 -122 4 -116 
4 -104 3 -92 4 -77 4 -59 4 -39 4 -19 3 2 4 25 
4 47 4 68 4 88 3 107 4 124 4 138 4 150 4 157 
3 163 4 163 4 161 4 154 4 144 3 130 4 114 4 93 
4 70 4 46 3 18 4 -8 4 -37 4 -64 4 -92 3 -116 
4 -141 4 -160 4 -179 4 -192 3 -201 4 -207 4 -207 4 -203 
4 -194 3 -180 4 -161 4 -139 4 -113 4 -84 3 -52 764 3366 104 MP stroke
gr

c8
0 sg
2288  277 mt 
(Step Response) s
2389 3617 mt 
(Time \(sec\)) s
 450 2050 mt  -90 rotate
(Amplitude) s
90 rotate

end %%Color Dict

eplot
%%EndObject

epage
end

showpage

%%Trailer
%%EOF
