%!PS-Adobe-3.0 EPSF-3.0
%%Creator: MATLAB, The Mathworks, Inc. Version 7.10.0.499 (R2010a). Operating System: Microsoft Windows 7.
%%Title: C:\workspace\homework\control\hw2\3b.eps
%%CreationDate: 11/07/2011  04:06:09
%%DocumentNeededFonts: Helvetica
%%DocumentProcessColors: Cyan Magenta Yellow Black
%%LanguageLevel: 2
%%Pages: 1
%%BoundingBox:    87   262   507   578
%%EndComments

%%BeginProlog
% MathWorks dictionary
/MathWorks 160 dict begin
% definition operators
/bdef {bind def} bind def
/ldef {load def} bind def
/xdef {exch def} bdef
/xstore {exch store} bdef
% operator abbreviations
/c  /clip ldef
/cc /concat ldef
/cp /closepath ldef
/gr /grestore ldef
/gs /gsave ldef
/mt /moveto ldef
/np /newpath ldef
/cm /currentmatrix ldef
/sm /setmatrix ldef
/rm /rmoveto ldef
/rl /rlineto ldef
/s {show newpath} bdef
/sc {setcmykcolor} bdef
/sr /setrgbcolor ldef
/sg /setgray ldef
/w /setlinewidth ldef
/j /setlinejoin ldef
/cap /setlinecap ldef
/rc {rectclip} bdef
/rf {rectfill} bdef
% page state control
/pgsv () def
/bpage {/pgsv save def} bdef
/epage {pgsv restore} bdef
/bplot /gsave ldef
/eplot {stroke grestore} bdef
% orientation switch
/portraitMode 0 def /landscapeMode 1 def /rotateMode 2 def
% coordinate system mappings
/dpi2point 0 def
% font control
/FontSize 0 def
/FMS {/FontSize xstore findfont [FontSize 0 0 FontSize neg 0 0]
  makefont setfont} bdef
/ISOLatin1Encoding where {pop /WindowsLatin1Encoding 256 array bdef
ISOLatin1Encoding WindowsLatin1Encoding copy pop
/.notdef/.notdef/quotesinglbase/florin/quotedblbase/ellipsis/dagger
/daggerdbl/circumflex/perthousand/Scaron/guilsinglleft/OE/.notdef/.notdef
/.notdef/.notdef/quoteleft/quoteright/quotedblleft/quotedblright/bullet
/endash/emdash/tilde/trademark/scaron/guilsinglright/oe/.notdef/.notdef
/Ydieresis WindowsLatin1Encoding 128 32 getinterval astore pop}
{/WindowsLatin1Encoding StandardEncoding bdef} ifelse
/reencode {exch dup where {pop load} {pop StandardEncoding} ifelse
  exch dup 3 1 roll findfont dup length dict begin
  { 1 index /FID ne {def}{pop pop} ifelse } forall
  /Encoding exch def currentdict end definefont pop} bdef
/isroman {findfont /CharStrings get /Agrave known} bdef
/FMSR {3 1 roll 1 index dup isroman {reencode} {pop pop} ifelse
  exch FMS} bdef
/csm {1 dpi2point div -1 dpi2point div scale neg translate
 dup landscapeMode eq {pop -90 rotate}
  {rotateMode eq {90 rotate} if} ifelse} bdef
% line types: solid, dotted, dashed, dotdash
/SO { [] 0 setdash } bdef
/DO { [.5 dpi2point mul 4 dpi2point mul] 0 setdash } bdef
/DA { [6 dpi2point mul] 0 setdash } bdef
/DD { [.5 dpi2point mul 4 dpi2point mul 6 dpi2point mul 4
  dpi2point mul] 0 setdash } bdef
% macros for lines and objects
/L {lineto stroke} bdef
/MP {3 1 roll moveto 1 sub {rlineto} repeat} bdef
/AP {{rlineto} repeat} bdef
/PDlw -1 def
/W {/PDlw currentlinewidth def setlinewidth} def
/PP {closepath eofill} bdef
/DP {closepath stroke} bdef
/MR {4 -2 roll moveto dup  0 exch rlineto exch 0 rlineto
  neg 0 exch rlineto closepath} bdef
/FR {MR stroke} bdef
/PR {MR fill} bdef
/L1i {{currentfile picstr readhexstring pop} image} bdef
/tMatrix matrix def
/MakeOval {newpath tMatrix currentmatrix pop translate scale
0 0 1 0 360 arc tMatrix setmatrix} bdef
/FO {MakeOval stroke} bdef
/PO {MakeOval fill} bdef
/PD {currentlinewidth 2 div 0 360 arc fill
   PDlw -1 eq not {PDlw w /PDlw -1 def} if} def
/FA {newpath tMatrix currentmatrix pop translate scale
  0 0 1 5 -2 roll arc tMatrix setmatrix stroke} bdef
/PA {newpath tMatrix currentmatrix pop	translate 0 0 moveto scale
  0 0 1 5 -2 roll arc closepath tMatrix setmatrix fill} bdef
/FAn {newpath tMatrix currentmatrix pop translate scale
  0 0 1 5 -2 roll arcn tMatrix setmatrix stroke} bdef
/PAn {newpath tMatrix currentmatrix pop translate 0 0 moveto scale
  0 0 1 5 -2 roll arcn closepath tMatrix setmatrix fill} bdef
/vradius 0 def /hradius 0 def /lry 0 def
/lrx 0 def /uly 0 def /ulx 0 def /rad 0 def
/MRR {/vradius xdef /hradius xdef /lry xdef /lrx xdef /uly xdef
  /ulx xdef newpath tMatrix currentmatrix pop ulx hradius add uly
  vradius add translate hradius vradius scale 0 0 1 180 270 arc 
  tMatrix setmatrix lrx hradius sub uly vradius add translate
  hradius vradius scale 0 0 1 270 360 arc tMatrix setmatrix
  lrx hradius sub lry vradius sub translate hradius vradius scale
  0 0 1 0 90 arc tMatrix setmatrix ulx hradius add lry vradius sub
  translate hradius vradius scale 0 0 1 90 180 arc tMatrix setmatrix
  closepath} bdef
/FRR {MRR stroke } bdef
/PRR {MRR fill } bdef
/MlrRR {/lry xdef /lrx xdef /uly xdef /ulx xdef /rad lry uly sub 2 div def
  newpath tMatrix currentmatrix pop ulx rad add uly rad add translate
  rad rad scale 0 0 1 90 270 arc tMatrix setmatrix lrx rad sub lry rad
  sub translate rad rad scale 0 0 1 270 90 arc tMatrix setmatrix
  closepath} bdef
/FlrRR {MlrRR stroke } bdef
/PlrRR {MlrRR fill } bdef
/MtbRR {/lry xdef /lrx xdef /uly xdef /ulx xdef /rad lrx ulx sub 2 div def
  newpath tMatrix currentmatrix pop ulx rad add uly rad add translate
  rad rad scale 0 0 1 180 360 arc tMatrix setmatrix lrx rad sub lry rad
  sub translate rad rad scale 0 0 1 0 180 arc tMatrix setmatrix
  closepath} bdef
/FtbRR {MtbRR stroke } bdef
/PtbRR {MtbRR fill } bdef
/stri 6 array def /dtri 6 array def
/smat 6 array def /dmat 6 array def
/tmat1 6 array def /tmat2 6 array def /dif 3 array def
/asub {/ind2 exch def /ind1 exch def dup dup
  ind1 get exch ind2 get sub exch } bdef
/tri_to_matrix {
  2 0 asub 3 1 asub 4 0 asub 5 1 asub
  dup 0 get exch 1 get 7 -1 roll astore } bdef
/compute_transform {
  dmat dtri tri_to_matrix tmat1 invertmatrix 
  smat stri tri_to_matrix tmat2 concatmatrix } bdef
/ds {stri astore pop} bdef
/dt {dtri astore pop} bdef
/db {2 copy /cols xdef /rows xdef mul dup 3 mul string
  currentfile 
  3 index 0 eq {/ASCIIHexDecode filter}
  {/ASCII85Decode filter 3 index 2 eq {/RunLengthDecode filter} if }
  ifelse exch readstring pop
  dup 0 3 index getinterval /rbmap xdef
  dup 2 index dup getinterval /gbmap xdef
  1 index dup 2 mul exch getinterval /bbmap xdef pop pop}bdef
/it {gs np dtri aload pop moveto lineto lineto cp c
  cols rows 8 compute_transform 
  rbmap gbmap bbmap true 3 colorimage gr}bdef
/il {newpath moveto lineto stroke}bdef
currentdict end def
%%EndProlog

%%BeginSetup
MathWorks begin

0 cap

end
%%EndSetup

%%Page: 1 1
%%BeginPageSetup
%%PageBoundingBox:    87   262   507   578
MathWorks begin
bpage
%%EndPageSetup

%%BeginObject: obj1
bplot

/dpi2point 12 def
portraitMode 1044 6936 csm

    0     0  5045  3782 rc
86 dict begin %Colortable dictionary
/c0 { 0.000000 0.000000 0.000000 sr} bdef
/c1 { 1.000000 1.000000 1.000000 sr} bdef
/c2 { 0.900000 0.000000 0.000000 sr} bdef
/c3 { 0.000000 0.820000 0.000000 sr} bdef
/c4 { 0.000000 0.000000 0.800000 sr} bdef
/c5 { 0.910000 0.820000 0.320000 sr} bdef
/c6 { 1.000000 0.260000 0.820000 sr} bdef
/c7 { 0.000000 0.820000 0.820000 sr} bdef
c0
1 j
1 sg
   0    0 5046 3783 rf
6 w
0 1481 3803 0 0 -1481 763 1945 4 MP
PP
-3803 0 0 1481 3803 0 0 -1481 763 1945 5 MP stroke
4 w
DO
SO
6 w
0.4 sg
 763  464 mt 4566  464 L
 763 1945 mt 4566 1945 L
4566 1945 mt 4566  464 L
 763 1945 mt  763  464 L
 763 1945 mt 4566 1945 L
 763 1945 mt  763  464 L
 763 1945 mt  763 1925 L
 763  464 mt  763  483 L
 763 1945 mt  763 1906 L
 763  464 mt  763  502 L
 992 1945 mt  992 1925 L
 992  464 mt  992  483 L
1126 1945 mt 1126 1925 L
1126  464 mt 1126  483 L
1221 1945 mt 1221 1925 L
1221  464 mt 1221  483 L
1295 1945 mt 1295 1925 L
1295  464 mt 1295  483 L
1355 1945 mt 1355 1925 L
1355  464 mt 1355  483 L
1406 1945 mt 1406 1925 L
1406  464 mt 1406  483 L
1450 1945 mt 1450 1925 L
1450  464 mt 1450  483 L
1489 1945 mt 1489 1925 L
1489  464 mt 1489  483 L
1524 1945 mt 1524 1925 L
1524  464 mt 1524  483 L
1524 1945 mt 1524 1906 L
1524  464 mt 1524  502 L
1753 1945 mt 1753 1925 L
1753  464 mt 1753  483 L
1887 1945 mt 1887 1925 L
1887  464 mt 1887  483 L
1982 1945 mt 1982 1925 L
1982  464 mt 1982  483 L
2055 1945 mt 2055 1925 L
2055  464 mt 2055  483 L
2116 1945 mt 2116 1925 L
2116  464 mt 2116  483 L
2167 1945 mt 2167 1925 L
2167  464 mt 2167  483 L
2211 1945 mt 2211 1925 L
2211  464 mt 2211  483 L
2250 1945 mt 2250 1925 L
2250  464 mt 2250  483 L
2284 1945 mt 2284 1925 L
2284  464 mt 2284  483 L
2284 1945 mt 2284 1906 L
2284  464 mt 2284  502 L
2513 1945 mt 2513 1925 L
2513  464 mt 2513  483 L
2647 1945 mt 2647 1925 L
2647  464 mt 2647  483 L
2742 1945 mt 2742 1925 L
2742  464 mt 2742  483 L
2816 1945 mt 2816 1925 L
2816  464 mt 2816  483 L
2876 1945 mt 2876 1925 L
2876  464 mt 2876  483 L
2927 1945 mt 2927 1925 L
2927  464 mt 2927  483 L
2971 1945 mt 2971 1925 L
2971  464 mt 2971  483 L
3010 1945 mt 3010 1925 L
3010  464 mt 3010  483 L
3045 1945 mt 3045 1925 L
3045  464 mt 3045  483 L
3045 1945 mt 3045 1906 L
3045  464 mt 3045  502 L
3274 1945 mt 3274 1925 L
3274  464 mt 3274  483 L
3408 1945 mt 3408 1925 L
3408  464 mt 3408  483 L
3503 1945 mt 3503 1925 L
3503  464 mt 3503  483 L
3576 1945 mt 3576 1925 L
3576  464 mt 3576  483 L
3636 1945 mt 3636 1925 L
3636  464 mt 3636  483 L
3687 1945 mt 3687 1925 L
3687  464 mt 3687  483 L
3731 1945 mt 3731 1925 L
3731  464 mt 3731  483 L
3770 1945 mt 3770 1925 L
3770  464 mt 3770  483 L
3805 1945 mt 3805 1925 L
3805  464 mt 3805  483 L
3805 1945 mt 3805 1906 L
3805  464 mt 3805  502 L
4034 1945 mt 4034 1925 L
4034  464 mt 4034  483 L
4168 1945 mt 4168 1925 L
4168  464 mt 4168  483 L
4263 1945 mt 4263 1925 L
4263  464 mt 4263  483 L
4337 1945 mt 4337 1925 L
4337  464 mt 4337  483 L
4397 1945 mt 4397 1925 L
4397  464 mt 4397  483 L
4448 1945 mt 4448 1925 L
4448  464 mt 4448  483 L
4492 1945 mt 4492 1925 L
4492  464 mt 4492  483 L
4531 1945 mt 4531 1925 L
4531  464 mt 4531  483 L
4566 1945 mt 4566 1925 L
4566  464 mt 4566  483 L
4566 1945 mt 4566 1906 L
4566  464 mt 4566  502 L
 763 1945 mt  802 1945 L
4566 1945 mt 4527 1945 L
%%IncludeResource: font Helvetica
/Helvetica /WindowsLatin1Encoding 96 FMSR

 513 1980 mt 
(-100) s
 763 1574 mt  802 1574 L
4566 1574 mt 4527 1574 L
 567 1609 mt 
(-50) s
 763 1204 mt  802 1204 L
4566 1204 mt 4527 1204 L
 676 1239 mt 
(0) s
 763  834 mt  802  834 L
4566  834 mt 4527  834 L
 623  869 mt 
(50) s
 763  464 mt  802  464 L
4566  464 mt 4527  464 L
 569  499 mt 
(100) s
 763  464 mt 4566  464 L
 763 1945 mt 4566 1945 L
4566 1945 mt 4566  464 L
 763 1945 mt  763  464 L
gs 763 464 3804 1482 rc
/c8 { 0.000000 0.000000 1.000000 sr} bdef
c8
61 36 97 56 96 56 96 56 97 55 96 55 96 54 97 53 
96 50 96 47 96 42 97 36 96 30 96 25 97 20 96 17 
96 14 91 13 6 1 96 14 96 17 96 20 97 24 96 28 
96 31 97 33 96 34 3 1 93 32 97 32 96 31 96 28 
96 26 97 23 96 22 96 20 97 20 96 19 96 19 97 19 
96 19 83 17 763 611 43 MP stroke
0 sg
0 88 3533 1204 2 MP stroke
DO
0 -741 3533 1945 2 MP stroke
0 -741 3250 1945 2 MP stroke
3803 0 763 1204 2 MP stroke
gr

0 sg
DO
 437 1533 mt  -90 rotate
(Magnitude \(dB\)) s
90 rotate
SO
1 sg
0 1313 3803 0 0 -1313 763 3366 4 MP
PP
-3803 0 0 1313 3803 0 0 -1313 763 3366 5 MP stroke
4 w
DO
SO
6 w
0.4 sg
 763 2053 mt 4566 2053 L
 763 3366 mt 4566 3366 L
4566 3366 mt 4566 2053 L
 763 3366 mt  763 2053 L
 763 3366 mt 4566 3366 L
 763 3366 mt  763 2053 L
 763 3366 mt  763 3346 L
 763 2053 mt  763 2072 L
 763 3366 mt  763 3327 L
 763 2053 mt  763 2091 L
 669 3534 mt 
(10) s
%%IncludeResource: font Helvetica
/Helvetica /WindowsLatin1Encoding 72 FMSR

 775 3467 mt 
(-3) s
 992 3366 mt  992 3346 L
 992 2053 mt  992 2072 L
1126 3366 mt 1126 3346 L
1126 2053 mt 1126 2072 L
1221 3366 mt 1221 3346 L
1221 2053 mt 1221 2072 L
1295 3366 mt 1295 3346 L
1295 2053 mt 1295 2072 L
1355 3366 mt 1355 3346 L
1355 2053 mt 1355 2072 L
1406 3366 mt 1406 3346 L
1406 2053 mt 1406 2072 L
1450 3366 mt 1450 3346 L
1450 2053 mt 1450 2072 L
1489 3366 mt 1489 3346 L
1489 2053 mt 1489 2072 L
1524 3366 mt 1524 3346 L
1524 2053 mt 1524 2072 L
1524 3366 mt 1524 3327 L
1524 2053 mt 1524 2091 L
%%IncludeResource: font Helvetica
/Helvetica /WindowsLatin1Encoding 96 FMSR

1430 3534 mt 
(10) s
%%IncludeResource: font Helvetica
/Helvetica /WindowsLatin1Encoding 72 FMSR

1536 3467 mt 
(-2) s
1753 3366 mt 1753 3346 L
1753 2053 mt 1753 2072 L
1887 3366 mt 1887 3346 L
1887 2053 mt 1887 2072 L
1982 3366 mt 1982 3346 L
1982 2053 mt 1982 2072 L
2055 3366 mt 2055 3346 L
2055 2053 mt 2055 2072 L
2116 3366 mt 2116 3346 L
2116 2053 mt 2116 2072 L
2167 3366 mt 2167 3346 L
2167 2053 mt 2167 2072 L
2211 3366 mt 2211 3346 L
2211 2053 mt 2211 2072 L
2250 3366 mt 2250 3346 L
2250 2053 mt 2250 2072 L
2284 3366 mt 2284 3346 L
2284 2053 mt 2284 2072 L
2284 3366 mt 2284 3327 L
2284 2053 mt 2284 2091 L
%%IncludeResource: font Helvetica
/Helvetica /WindowsLatin1Encoding 96 FMSR

2190 3534 mt 
(10) s
%%IncludeResource: font Helvetica
/Helvetica /WindowsLatin1Encoding 72 FMSR

2296 3467 mt 
(-1) s
2513 3366 mt 2513 3346 L
2513 2053 mt 2513 2072 L
2647 3366 mt 2647 3346 L
2647 2053 mt 2647 2072 L
2742 3366 mt 2742 3346 L
2742 2053 mt 2742 2072 L
2816 3366 mt 2816 3346 L
2816 2053 mt 2816 2072 L
2876 3366 mt 2876 3346 L
2876 2053 mt 2876 2072 L
2927 3366 mt 2927 3346 L
2927 2053 mt 2927 2072 L
2971 3366 mt 2971 3346 L
2971 2053 mt 2971 2072 L
3010 3366 mt 3010 3346 L
3010 2053 mt 3010 2072 L
3045 3366 mt 3045 3346 L
3045 2053 mt 3045 2072 L
3045 3366 mt 3045 3327 L
3045 2053 mt 3045 2091 L
%%IncludeResource: font Helvetica
/Helvetica /WindowsLatin1Encoding 96 FMSR

2972 3534 mt 
(10) s
%%IncludeResource: font Helvetica
/Helvetica /WindowsLatin1Encoding 72 FMSR

3078 3467 mt 
(0) s
3274 3366 mt 3274 3346 L
3274 2053 mt 3274 2072 L
3408 3366 mt 3408 3346 L
3408 2053 mt 3408 2072 L
3503 3366 mt 3503 3346 L
3503 2053 mt 3503 2072 L
3576 3366 mt 3576 3346 L
3576 2053 mt 3576 2072 L
3636 3366 mt 3636 3346 L
3636 2053 mt 3636 2072 L
3687 3366 mt 3687 3346 L
3687 2053 mt 3687 2072 L
3731 3366 mt 3731 3346 L
3731 2053 mt 3731 2072 L
3770 3366 mt 3770 3346 L
3770 2053 mt 3770 2072 L
3805 3366 mt 3805 3346 L
3805 2053 mt 3805 2072 L
3805 3366 mt 3805 3327 L
3805 2053 mt 3805 2091 L
%%IncludeResource: font Helvetica
/Helvetica /WindowsLatin1Encoding 96 FMSR

3732 3534 mt 
(10) s
%%IncludeResource: font Helvetica
/Helvetica /WindowsLatin1Encoding 72 FMSR

3838 3467 mt 
(1) s
4034 3366 mt 4034 3346 L
4034 2053 mt 4034 2072 L
4168 3366 mt 4168 3346 L
4168 2053 mt 4168 2072 L
4263 3366 mt 4263 3346 L
4263 2053 mt 4263 2072 L
4337 3366 mt 4337 3346 L
4337 2053 mt 4337 2072 L
4397 3366 mt 4397 3346 L
4397 2053 mt 4397 2072 L
4448 3366 mt 4448 3346 L
4448 2053 mt 4448 2072 L
4492 3366 mt 4492 3346 L
4492 2053 mt 4492 2072 L
4531 3366 mt 4531 3346 L
4531 2053 mt 4531 2072 L
4566 3366 mt 4566 3346 L
4566 2053 mt 4566 2072 L
4566 3366 mt 4566 3327 L
4566 2053 mt 4566 2091 L
%%IncludeResource: font Helvetica
/Helvetica /WindowsLatin1Encoding 96 FMSR

4493 3534 mt 
(10) s
%%IncludeResource: font Helvetica
/Helvetica /WindowsLatin1Encoding 72 FMSR

4599 3467 mt 
(2) s
 763 3353 mt  802 3353 L
4566 3353 mt 4527 3353 L
%%IncludeResource: font Helvetica
/Helvetica /WindowsLatin1Encoding 96 FMSR

 513 3388 mt 
(-270) s
 763 3031 mt  802 3031 L
4566 3031 mt 4527 3031 L
 513 3066 mt 
(-225) s
 763 2709 mt  802 2709 L
4566 2709 mt 4527 2709 L
 513 2744 mt 
(-180) s
 763 2387 mt  802 2387 L
4566 2387 mt 4527 2387 L
 513 2422 mt 
(-135) s
 763 2065 mt  802 2065 L
4566 2065 mt 4527 2065 L
 567 2100 mt 
(-90) s
 763 2053 mt 4566 2053 L
 763 3366 mt 4566 3366 L
4566 3366 mt 4566 2053 L
 763 3366 mt  763 2053 L
gs 763 2053 3804 1314 rc
c8
61 7 97 14 96 18 96 25 97 33 96 44 96 57 97 73 
96 92 96 109 96 124 97 130 96 127 96 114 97 96 96 73 
96 44 91 14 6 0 96 -16 96 -41 96 -55 97 -61 96 -56 
96 -44 97 -27 96 -10 3 0 93 8 97 25 96 37 96 45 
96 47 97 43 96 37 96 30 97 23 96 19 96 13 97 11 
96 8 83 5 763 2083 43 MP stroke
0 sg
0 -362 3250 2709 2 MP stroke
DO
0 -656 3250 2709 2 MP stroke
0 -656 3533 2709 2 MP stroke
3803 0 763 2709 2 MP stroke
gr

0 sg
DO
 437 2971 mt  -90 rotate
(Phase \(deg\)) s
90 rotate
SO
2310  167 mt 
(Bode Diagram) s
1227  277 mt 
(Gm = 11.9 dB \(at 4.39 rad/sec\) ,  Pm = 50.7 deg \(at 1.86 ra\
d/sec\)) s
2176 3662 mt 
(Frequency  \(rad/sec\)) s

end %%Color Dict

eplot
%%EndObject

epage
end

showpage

%%Trailer
%%EOF
