%!PS-Adobe-3.0 EPSF-3.0
%%Creator: MATLAB, The Mathworks, Inc. Version 7.10.0.499 (R2010a). Operating System: Microsoft Windows 7.
%%Title: C:\workspace\homework\control\hw2\3c.eps
%%CreationDate: 11/07/2011  04:12:19
%%DocumentNeededFonts: Helvetica
%%DocumentProcessColors: Cyan Magenta Yellow Black
%%LanguageLevel: 2
%%Pages: 1
%%BoundingBox:    87   262   507   578
%%EndComments

%%BeginProlog
% MathWorks dictionary
/MathWorks 160 dict begin
% definition operators
/bdef {bind def} bind def
/ldef {load def} bind def
/xdef {exch def} bdef
/xstore {exch store} bdef
% operator abbreviations
/c  /clip ldef
/cc /concat ldef
/cp /closepath ldef
/gr /grestore ldef
/gs /gsave ldef
/mt /moveto ldef
/np /newpath ldef
/cm /currentmatrix ldef
/sm /setmatrix ldef
/rm /rmoveto ldef
/rl /rlineto ldef
/s {show newpath} bdef
/sc {setcmykcolor} bdef
/sr /setrgbcolor ldef
/sg /setgray ldef
/w /setlinewidth ldef
/j /setlinejoin ldef
/cap /setlinecap ldef
/rc {rectclip} bdef
/rf {rectfill} bdef
% page state control
/pgsv () def
/bpage {/pgsv save def} bdef
/epage {pgsv restore} bdef
/bplot /gsave ldef
/eplot {stroke grestore} bdef
% orientation switch
/portraitMode 0 def /landscapeMode 1 def /rotateMode 2 def
% coordinate system mappings
/dpi2point 0 def
% font control
/FontSize 0 def
/FMS {/FontSize xstore findfont [FontSize 0 0 FontSize neg 0 0]
  makefont setfont} bdef
/ISOLatin1Encoding where {pop /WindowsLatin1Encoding 256 array bdef
ISOLatin1Encoding WindowsLatin1Encoding copy pop
/.notdef/.notdef/quotesinglbase/florin/quotedblbase/ellipsis/dagger
/daggerdbl/circumflex/perthousand/Scaron/guilsinglleft/OE/.notdef/.notdef
/.notdef/.notdef/quoteleft/quoteright/quotedblleft/quotedblright/bullet
/endash/emdash/tilde/trademark/scaron/guilsinglright/oe/.notdef/.notdef
/Ydieresis WindowsLatin1Encoding 128 32 getinterval astore pop}
{/WindowsLatin1Encoding StandardEncoding bdef} ifelse
/reencode {exch dup where {pop load} {pop StandardEncoding} ifelse
  exch dup 3 1 roll findfont dup length dict begin
  { 1 index /FID ne {def}{pop pop} ifelse } forall
  /Encoding exch def currentdict end definefont pop} bdef
/isroman {findfont /CharStrings get /Agrave known} bdef
/FMSR {3 1 roll 1 index dup isroman {reencode} {pop pop} ifelse
  exch FMS} bdef
/csm {1 dpi2point div -1 dpi2point div scale neg translate
 dup landscapeMode eq {pop -90 rotate}
  {rotateMode eq {90 rotate} if} ifelse} bdef
% line types: solid, dotted, dashed, dotdash
/SO { [] 0 setdash } bdef
/DO { [.5 dpi2point mul 4 dpi2point mul] 0 setdash } bdef
/DA { [6 dpi2point mul] 0 setdash } bdef
/DD { [.5 dpi2point mul 4 dpi2point mul 6 dpi2point mul 4
  dpi2point mul] 0 setdash } bdef
% macros for lines and objects
/L {lineto stroke} bdef
/MP {3 1 roll moveto 1 sub {rlineto} repeat} bdef
/AP {{rlineto} repeat} bdef
/PDlw -1 def
/W {/PDlw currentlinewidth def setlinewidth} def
/PP {closepath eofill} bdef
/DP {closepath stroke} bdef
/MR {4 -2 roll moveto dup  0 exch rlineto exch 0 rlineto
  neg 0 exch rlineto closepath} bdef
/FR {MR stroke} bdef
/PR {MR fill} bdef
/L1i {{currentfile picstr readhexstring pop} image} bdef
/tMatrix matrix def
/MakeOval {newpath tMatrix currentmatrix pop translate scale
0 0 1 0 360 arc tMatrix setmatrix} bdef
/FO {MakeOval stroke} bdef
/PO {MakeOval fill} bdef
/PD {currentlinewidth 2 div 0 360 arc fill
   PDlw -1 eq not {PDlw w /PDlw -1 def} if} def
/FA {newpath tMatrix currentmatrix pop translate scale
  0 0 1 5 -2 roll arc tMatrix setmatrix stroke} bdef
/PA {newpath tMatrix currentmatrix pop	translate 0 0 moveto scale
  0 0 1 5 -2 roll arc closepath tMatrix setmatrix fill} bdef
/FAn {newpath tMatrix currentmatrix pop translate scale
  0 0 1 5 -2 roll arcn tMatrix setmatrix stroke} bdef
/PAn {newpath tMatrix currentmatrix pop translate 0 0 moveto scale
  0 0 1 5 -2 roll arcn closepath tMatrix setmatrix fill} bdef
/vradius 0 def /hradius 0 def /lry 0 def
/lrx 0 def /uly 0 def /ulx 0 def /rad 0 def
/MRR {/vradius xdef /hradius xdef /lry xdef /lrx xdef /uly xdef
  /ulx xdef newpath tMatrix currentmatrix pop ulx hradius add uly
  vradius add translate hradius vradius scale 0 0 1 180 270 arc 
  tMatrix setmatrix lrx hradius sub uly vradius add translate
  hradius vradius scale 0 0 1 270 360 arc tMatrix setmatrix
  lrx hradius sub lry vradius sub translate hradius vradius scale
  0 0 1 0 90 arc tMatrix setmatrix ulx hradius add lry vradius sub
  translate hradius vradius scale 0 0 1 90 180 arc tMatrix setmatrix
  closepath} bdef
/FRR {MRR stroke } bdef
/PRR {MRR fill } bdef
/MlrRR {/lry xdef /lrx xdef /uly xdef /ulx xdef /rad lry uly sub 2 div def
  newpath tMatrix currentmatrix pop ulx rad add uly rad add translate
  rad rad scale 0 0 1 90 270 arc tMatrix setmatrix lrx rad sub lry rad
  sub translate rad rad scale 0 0 1 270 90 arc tMatrix setmatrix
  closepath} bdef
/FlrRR {MlrRR stroke } bdef
/PlrRR {MlrRR fill } bdef
/MtbRR {/lry xdef /lrx xdef /uly xdef /ulx xdef /rad lrx ulx sub 2 div def
  newpath tMatrix currentmatrix pop ulx rad add uly rad add translate
  rad rad scale 0 0 1 180 360 arc tMatrix setmatrix lrx rad sub lry rad
  sub translate rad rad scale 0 0 1 0 180 arc tMatrix setmatrix
  closepath} bdef
/FtbRR {MtbRR stroke } bdef
/PtbRR {MtbRR fill } bdef
/stri 6 array def /dtri 6 array def
/smat 6 array def /dmat 6 array def
/tmat1 6 array def /tmat2 6 array def /dif 3 array def
/asub {/ind2 exch def /ind1 exch def dup dup
  ind1 get exch ind2 get sub exch } bdef
/tri_to_matrix {
  2 0 asub 3 1 asub 4 0 asub 5 1 asub
  dup 0 get exch 1 get 7 -1 roll astore } bdef
/compute_transform {
  dmat dtri tri_to_matrix tmat1 invertmatrix 
  smat stri tri_to_matrix tmat2 concatmatrix } bdef
/ds {stri astore pop} bdef
/dt {dtri astore pop} bdef
/db {2 copy /cols xdef /rows xdef mul dup 3 mul string
  currentfile 
  3 index 0 eq {/ASCIIHexDecode filter}
  {/ASCII85Decode filter 3 index 2 eq {/RunLengthDecode filter} if }
  ifelse exch readstring pop
  dup 0 3 index getinterval /rbmap xdef
  dup 2 index dup getinterval /gbmap xdef
  1 index dup 2 mul exch getinterval /bbmap xdef pop pop}bdef
/it {gs np dtri aload pop moveto lineto lineto cp c
  cols rows 8 compute_transform 
  rbmap gbmap bbmap true 3 colorimage gr}bdef
/il {newpath moveto lineto stroke}bdef
currentdict end def
%%EndProlog

%%BeginSetup
MathWorks begin

0 cap

end
%%EndSetup

%%Page: 1 1
%%BeginPageSetup
%%PageBoundingBox:    87   262   507   578
MathWorks begin
bpage
%%EndPageSetup

%%BeginObject: obj1
bplot

/dpi2point 12 def
portraitMode 1044 6936 csm

    0     0  5045  3782 rc
86 dict begin %Colortable dictionary
/c0 { 0.000000 0.000000 0.000000 sr} bdef
/c1 { 1.000000 1.000000 1.000000 sr} bdef
/c2 { 0.900000 0.000000 0.000000 sr} bdef
/c3 { 0.000000 0.820000 0.000000 sr} bdef
/c4 { 0.000000 0.000000 0.800000 sr} bdef
/c5 { 0.910000 0.820000 0.320000 sr} bdef
/c6 { 1.000000 0.260000 0.820000 sr} bdef
/c7 { 0.000000 0.820000 0.820000 sr} bdef
c0
1 j
1 sg
   0    0 5046 3783 rf
6 w
0 2902 3802 0 0 -2902 764 3366 4 MP
PP
-3802 0 0 2902 3802 0 0 -2902 764 3366 5 MP stroke
4 w
DO
SO
6 w
0.4 sg
 764  464 mt 4566  464 L
 764 3366 mt 4566 3366 L
4566 3366 mt 4566  464 L
 764 3366 mt  764  464 L
 764 3366 mt 4566 3366 L
 764 3366 mt  764  464 L
 764 3366 mt  764 3327 L
 764  464 mt  764  502 L
%%IncludeResource: font Helvetica
/Helvetica /WindowsLatin1Encoding 96 FMSR

 655 3489 mt 
(-14) s
1186 3366 mt 1186 3327 L
1186  464 mt 1186  502 L
1077 3489 mt 
(-12) s
1608 3366 mt 1608 3327 L
1608  464 mt 1608  502 L
1499 3489 mt 
(-10) s
2031 3366 mt 2031 3327 L
2031  464 mt 2031  502 L
1949 3489 mt 
(-8) s
2453 3366 mt 2453 3327 L
2453  464 mt 2453  502 L
2371 3489 mt 
(-6) s
2876 3366 mt 2876 3327 L
2876  464 mt 2876  502 L
2794 3489 mt 
(-4) s
3298 3366 mt 3298 3327 L
3298  464 mt 3298  502 L
3216 3489 mt 
(-2) s
3721 3366 mt 3721 3327 L
3721  464 mt 3721  502 L
3695 3489 mt 
(0) s
4143 3366 mt 4143 3327 L
4143  464 mt 4143  502 L
4117 3489 mt 
(2) s
4566 3366 mt 4566 3327 L
4566  464 mt 4566  502 L
4540 3489 mt 
(4) s
 764 3366 mt  802 3366 L
4566 3366 mt 4527 3366 L
 567 3401 mt 
(-10) s
 764 3075 mt  802 3075 L
4566 3075 mt 4527 3075 L
 620 3110 mt 
(-8) s
 764 2785 mt  802 2785 L
4566 2785 mt 4527 2785 L
 620 2820 mt 
(-6) s
 764 2495 mt  802 2495 L
4566 2495 mt 4527 2495 L
 620 2530 mt 
(-4) s
 764 2205 mt  802 2205 L
4566 2205 mt 4527 2205 L
 620 2240 mt 
(-2) s
 764 1915 mt  802 1915 L
4566 1915 mt 4527 1915 L
 676 1950 mt 
(0) s
 764 1624 mt  802 1624 L
4566 1624 mt 4527 1624 L
 676 1659 mt 
(2) s
 764 1334 mt  802 1334 L
4566 1334 mt 4527 1334 L
 676 1369 mt 
(4) s
 764 1044 mt  802 1044 L
4566 1044 mt 4527 1044 L
 676 1079 mt 
(6) s
 764  754 mt  802  754 L
4566  754 mt 4527  754 L
 676  789 mt 
(8) s
 764  464 mt  802  464 L
4566  464 mt 4527  464 L
 623  499 mt 
(10) s
 764  464 mt 4566  464 L
 764 3366 mt 4566 3366 L
4566 3366 mt 4566  464 L
 764 3366 mt  764  464 L
gs 764 464 3803 2903 rc
1 sg
3721 1915 PD
DO
0.4 sg
635 0 211 0 212 0 2745 0 764 1915 5 MP stroke
0 -2903 3721 3367 2 MP stroke
SO
gs 3563 1842 189 147 rc
/c8 { 0.000000 0.000000 1.000000 sr} bdef
c8
  36   36 3636 1915 FO
  36   36 3678 1915 FO
gr

c8
gs 2803 1842 992 147 rc
3696 1890 mt 3746 1940 L
3746 1890 mt 3696 1940 L
2851 1890 mt 2901 1940 L
2901 1890 mt 2851 1940 L
3484 1890 mt 3534 1940 L
3534 1890 mt 3484 1940 L
3691 1890 mt 3741 1940 L
3741 1890 mt 3691 1940 L
gr

1 0 4 0 10 0 -2 -9 -7 -7 -8 -3 -7 -2 -5 0 
-3 1 -3 0 -4 1 -5 3 -6 4 -2 2 -2 4 -1 3 
0 3 -2 0 -1 0 3721 1915 20 MP stroke
/c9 { 0.750000 0.000000 0.750000 sr} bdef
c9
-1 0 -2 0 -10 0 -13 0 0 0 -3 10 -7 7 -8 3 
-7 2 -5 0 -3 -1 -3 0 -4 -1 -5 -3 -6 -4 -2 -2 
-2 -4 -1 -3 0 -3 1 -1 1 0 3716 1915 22 MP stroke
/c10 { 0.000000 0.750000 0.750000 sr} bdef
c10
425 -522 288 -369 64 -86 51 -70 72 -101 50 -72 34 -52 21 -35 
12 -22 13 -28 20 -88 0 -6 -7 0 -113 0 -38 0 -11 0 
-10 0 -4 0 -1 0 3509 1915 20 MP stroke
/c11 { 1.000000 0.000000 0.000000 sr} bdef
c11
426 524 288 369 64 86 51 70 72 101 50 72 34 52 21 35 
12 22 13 28 20 88 0 5 8 0 161 0 101 0 42 0 
54 0 42 0 21 0 4 0 6 0 10 0 2876 1915 23 MP stroke
/c12 { 0.000000 0.500000 0.000000 sr} bdef
c12
-718 0 -570 0 -123 0 -1 0 -97 0 -130 0 -84 0 -55 0 
-32 0 -19 0 -20 0 -31 0 -38 0 -52 0 -27 0 -40 0 
-36 0 -19 0 -3 0 -7 0 -10 0 2876 1915 22 MP stroke
gr

c12
0 sg
2373  277 mt 
(Root Locus) s
2413 3617 mt 
(Real Axis) s
 394 2153 mt  -90 rotate
(Imaginary Axis) s
90 rotate

end %%Color Dict

eplot
%%EndObject

epage
end

showpage

%%Trailer
%%EOF
