%!PS-Adobe-3.0 EPSF-3.0
%%Creator: MATLAB, The Mathworks, Inc. Version 7.10.0.499 (R2010a). Operating System: Microsoft Windows 7.
%%Title: C:\workspace\homework\control\hw2\4.eps
%%CreationDate: 11/07/2011  01:44:41
%%DocumentNeededFonts: Helvetica
%%DocumentProcessColors: Cyan Magenta Yellow Black
%%LanguageLevel: 2
%%Pages: 1
%%BoundingBox:    87   262   507   578
%%EndComments

%%BeginProlog
% MathWorks dictionary
/MathWorks 160 dict begin
% definition operators
/bdef {bind def} bind def
/ldef {load def} bind def
/xdef {exch def} bdef
/xstore {exch store} bdef
% operator abbreviations
/c  /clip ldef
/cc /concat ldef
/cp /closepath ldef
/gr /grestore ldef
/gs /gsave ldef
/mt /moveto ldef
/np /newpath ldef
/cm /currentmatrix ldef
/sm /setmatrix ldef
/rm /rmoveto ldef
/rl /rlineto ldef
/s {show newpath} bdef
/sc {setcmykcolor} bdef
/sr /setrgbcolor ldef
/sg /setgray ldef
/w /setlinewidth ldef
/j /setlinejoin ldef
/cap /setlinecap ldef
/rc {rectclip} bdef
/rf {rectfill} bdef
% page state control
/pgsv () def
/bpage {/pgsv save def} bdef
/epage {pgsv restore} bdef
/bplot /gsave ldef
/eplot {stroke grestore} bdef
% orientation switch
/portraitMode 0 def /landscapeMode 1 def /rotateMode 2 def
% coordinate system mappings
/dpi2point 0 def
% font control
/FontSize 0 def
/FMS {/FontSize xstore findfont [FontSize 0 0 FontSize neg 0 0]
  makefont setfont} bdef
/ISOLatin1Encoding where {pop /WindowsLatin1Encoding 256 array bdef
ISOLatin1Encoding WindowsLatin1Encoding copy pop
/.notdef/.notdef/quotesinglbase/florin/quotedblbase/ellipsis/dagger
/daggerdbl/circumflex/perthousand/Scaron/guilsinglleft/OE/.notdef/.notdef
/.notdef/.notdef/quoteleft/quoteright/quotedblleft/quotedblright/bullet
/endash/emdash/tilde/trademark/scaron/guilsinglright/oe/.notdef/.notdef
/Ydieresis WindowsLatin1Encoding 128 32 getinterval astore pop}
{/WindowsLatin1Encoding StandardEncoding bdef} ifelse
/reencode {exch dup where {pop load} {pop StandardEncoding} ifelse
  exch dup 3 1 roll findfont dup length dict begin
  { 1 index /FID ne {def}{pop pop} ifelse } forall
  /Encoding exch def currentdict end definefont pop} bdef
/isroman {findfont /CharStrings get /Agrave known} bdef
/FMSR {3 1 roll 1 index dup isroman {reencode} {pop pop} ifelse
  exch FMS} bdef
/csm {1 dpi2point div -1 dpi2point div scale neg translate
 dup landscapeMode eq {pop -90 rotate}
  {rotateMode eq {90 rotate} if} ifelse} bdef
% line types: solid, dotted, dashed, dotdash
/SO { [] 0 setdash } bdef
/DO { [.5 dpi2point mul 4 dpi2point mul] 0 setdash } bdef
/DA { [6 dpi2point mul] 0 setdash } bdef
/DD { [.5 dpi2point mul 4 dpi2point mul 6 dpi2point mul 4
  dpi2point mul] 0 setdash } bdef
% macros for lines and objects
/L {lineto stroke} bdef
/MP {3 1 roll moveto 1 sub {rlineto} repeat} bdef
/AP {{rlineto} repeat} bdef
/PDlw -1 def
/W {/PDlw currentlinewidth def setlinewidth} def
/PP {closepath eofill} bdef
/DP {closepath stroke} bdef
/MR {4 -2 roll moveto dup  0 exch rlineto exch 0 rlineto
  neg 0 exch rlineto closepath} bdef
/FR {MR stroke} bdef
/PR {MR fill} bdef
/L1i {{currentfile picstr readhexstring pop} image} bdef
/tMatrix matrix def
/MakeOval {newpath tMatrix currentmatrix pop translate scale
0 0 1 0 360 arc tMatrix setmatrix} bdef
/FO {MakeOval stroke} bdef
/PO {MakeOval fill} bdef
/PD {currentlinewidth 2 div 0 360 arc fill
   PDlw -1 eq not {PDlw w /PDlw -1 def} if} def
/FA {newpath tMatrix currentmatrix pop translate scale
  0 0 1 5 -2 roll arc tMatrix setmatrix stroke} bdef
/PA {newpath tMatrix currentmatrix pop	translate 0 0 moveto scale
  0 0 1 5 -2 roll arc closepath tMatrix setmatrix fill} bdef
/FAn {newpath tMatrix currentmatrix pop translate scale
  0 0 1 5 -2 roll arcn tMatrix setmatrix stroke} bdef
/PAn {newpath tMatrix currentmatrix pop translate 0 0 moveto scale
  0 0 1 5 -2 roll arcn closepath tMatrix setmatrix fill} bdef
/vradius 0 def /hradius 0 def /lry 0 def
/lrx 0 def /uly 0 def /ulx 0 def /rad 0 def
/MRR {/vradius xdef /hradius xdef /lry xdef /lrx xdef /uly xdef
  /ulx xdef newpath tMatrix currentmatrix pop ulx hradius add uly
  vradius add translate hradius vradius scale 0 0 1 180 270 arc 
  tMatrix setmatrix lrx hradius sub uly vradius add translate
  hradius vradius scale 0 0 1 270 360 arc tMatrix setmatrix
  lrx hradius sub lry vradius sub translate hradius vradius scale
  0 0 1 0 90 arc tMatrix setmatrix ulx hradius add lry vradius sub
  translate hradius vradius scale 0 0 1 90 180 arc tMatrix setmatrix
  closepath} bdef
/FRR {MRR stroke } bdef
/PRR {MRR fill } bdef
/MlrRR {/lry xdef /lrx xdef /uly xdef /ulx xdef /rad lry uly sub 2 div def
  newpath tMatrix currentmatrix pop ulx rad add uly rad add translate
  rad rad scale 0 0 1 90 270 arc tMatrix setmatrix lrx rad sub lry rad
  sub translate rad rad scale 0 0 1 270 90 arc tMatrix setmatrix
  closepath} bdef
/FlrRR {MlrRR stroke } bdef
/PlrRR {MlrRR fill } bdef
/MtbRR {/lry xdef /lrx xdef /uly xdef /ulx xdef /rad lrx ulx sub 2 div def
  newpath tMatrix currentmatrix pop ulx rad add uly rad add translate
  rad rad scale 0 0 1 180 360 arc tMatrix setmatrix lrx rad sub lry rad
  sub translate rad rad scale 0 0 1 0 180 arc tMatrix setmatrix
  closepath} bdef
/FtbRR {MtbRR stroke } bdef
/PtbRR {MtbRR fill } bdef
/stri 6 array def /dtri 6 array def
/smat 6 array def /dmat 6 array def
/tmat1 6 array def /tmat2 6 array def /dif 3 array def
/asub {/ind2 exch def /ind1 exch def dup dup
  ind1 get exch ind2 get sub exch } bdef
/tri_to_matrix {
  2 0 asub 3 1 asub 4 0 asub 5 1 asub
  dup 0 get exch 1 get 7 -1 roll astore } bdef
/compute_transform {
  dmat dtri tri_to_matrix tmat1 invertmatrix 
  smat stri tri_to_matrix tmat2 concatmatrix } bdef
/ds {stri astore pop} bdef
/dt {dtri astore pop} bdef
/db {2 copy /cols xdef /rows xdef mul dup 3 mul string
  currentfile 
  3 index 0 eq {/ASCIIHexDecode filter}
  {/ASCII85Decode filter 3 index 2 eq {/RunLengthDecode filter} if }
  ifelse exch readstring pop
  dup 0 3 index getinterval /rbmap xdef
  dup 2 index dup getinterval /gbmap xdef
  1 index dup 2 mul exch getinterval /bbmap xdef pop pop}bdef
/it {gs np dtri aload pop moveto lineto lineto cp c
  cols rows 8 compute_transform 
  rbmap gbmap bbmap true 3 colorimage gr}bdef
/il {newpath moveto lineto stroke}bdef
currentdict end def
%%EndProlog

%%BeginSetup
MathWorks begin

0 cap

end
%%EndSetup

%%Page: 1 1
%%BeginPageSetup
%%PageBoundingBox:    87   262   507   578
MathWorks begin
bpage
%%EndPageSetup

%%BeginObject: obj1
bplot

/dpi2point 12 def
portraitMode 1044 6936 csm

    0     0  5045  3782 rc
86 dict begin %Colortable dictionary
/c0 { 0.000000 0.000000 0.000000 sr} bdef
/c1 { 1.000000 1.000000 1.000000 sr} bdef
/c2 { 0.900000 0.000000 0.000000 sr} bdef
/c3 { 0.000000 0.820000 0.000000 sr} bdef
/c4 { 0.000000 0.000000 0.800000 sr} bdef
/c5 { 0.910000 0.820000 0.320000 sr} bdef
/c6 { 1.000000 0.260000 0.820000 sr} bdef
/c7 { 0.000000 0.820000 0.820000 sr} bdef
c0
1 j
1 sg
   0    0 5046 3783 rf
6 w
0 1379 1829 0 0 -1379 764 1843 4 MP
PP
-1829 0 0 1379 1829 0 0 -1379 764 1843 5 MP stroke
4 w
DO
SO
6 w
0.4 sg
 764  464 mt 2593  464 L
 764 1843 mt 2593 1843 L
2593 1843 mt 2593  464 L
 764 1843 mt  764  464 L
 764 1843 mt 2593 1843 L
 764 1843 mt  764  464 L
 764 1843 mt  764 1824 L
 764  464 mt  764  482 L
1068 1843 mt 1068 1824 L
1068  464 mt 1068  482 L
1373 1843 mt 1373 1824 L
1373  464 mt 1373  482 L
1678 1843 mt 1678 1824 L
1678  464 mt 1678  482 L
1983 1843 mt 1983 1824 L
1983  464 mt 1983  482 L
2288 1843 mt 2288 1824 L
2288  464 mt 2288  482 L
2593 1843 mt 2593 1824 L
2593  464 mt 2593  482 L
 764 1843 mt  782 1843 L
2593 1843 mt 2574 1843 L
%%IncludeResource: font Helvetica
/Helvetica /WindowsLatin1Encoding 96 FMSR

 540 1878 mt 
(-0.4) s
 764 1498 mt  782 1498 L
2593 1498 mt 2574 1498 L
 540 1533 mt 
(-0.2) s
 764 1153 mt  782 1153 L
2593 1153 mt 2574 1153 L
 676 1188 mt 
(0) s
 764  808 mt  782  808 L
2593  808 mt 2574  808 L
 596  843 mt 
(0.2) s
 764  464 mt  782  464 L
2593  464 mt 2574  464 L
 596  499 mt 
(0.4) s
 764  464 mt 2593  464 L
 764 1843 mt 2593 1843 L
2593 1843 mt 2593  464 L
 764 1843 mt  764  464 L
1445  389 mt 
(From: In\(1\)) s
gs 764 464 1830 1380 rc
DO
0 sg
1678 0 152 0 764 1418 3 MP stroke
SO
/c8 { 0.000000 0.000000 1.000000 sr} bdef
c8
8 0 16 0 15 0 16 0 16 0 16 0 16 1 16 0 
16 1 16 1 16 1 16 1 16 0 16 1 16 0 16 0 
16 -1 16 0 16 -1 16 -2 16 -1 16 -2 16 -1 16 -1 
16 -2 16 -1 16 0 16 0 16 1 16 1 16 2 16 3 
16 2 16 3 16 3 16 3 16 2 16 2 16 0 16 0 
16 -1 16 -3 16 -4 16 -4 16 -5 16 -6 16 -5 16 -5 
16 -4 16 -3 16 -1 16 0 16 3 16 5 16 6 16 9 
16 10 16 10 16 10 16 9 16 8 16 5 16 3 16 -2 
16 -5 16 -9 16 -12 16 -16 16 -18 16 -20 16 -19 16 -17 
16 -15 16 -9 16 -5 16 3 16 10 16 17 16 24 16 29 
16 34 16 37 16 35 16 33 16 27 16 18 16 8 16 -5 
16 -19 16 -32 16 -45 16 -56 16 -64 16 -68 16 -67 16 -61 
16 -50 16 -34 16 -14 16 10 16 36 16 61 16 85 16 105 
16 120 16 127 16 126 16 114 16 93 16 63 16 25 16 -20 
16 -68 16 -115 15 -161 764 1153 116 MP stroke
gr

c8
0.4 sg
 464 1365 mt  -90 rotate
(To: Out\(1\)) s
90 rotate
1 sg
0 1379 1829 0 0 -1379 764 3366 4 MP
PP
-1829 0 0 1379 1829 0 0 -1379 764 3366 5 MP stroke
4 w
DO
SO
6 w
0.4 sg
 764 1987 mt 2593 1987 L
 764 3366 mt 2593 3366 L
2593 3366 mt 2593 1987 L
 764 3366 mt  764 1987 L
 764 3366 mt 2593 3366 L
 764 3366 mt  764 1987 L
 764 3366 mt  764 3347 L
 764 1987 mt  764 2005 L
 738 3489 mt 
(0) s
1068 3366 mt 1068 3347 L
1068 1987 mt 1068 2005 L
1042 3489 mt 
(2) s
1373 3366 mt 1373 3347 L
1373 1987 mt 1373 2005 L
1347 3489 mt 
(4) s
1678 3366 mt 1678 3347 L
1678 1987 mt 1678 2005 L
1652 3489 mt 
(6) s
1983 3366 mt 1983 3347 L
1983 1987 mt 1983 2005 L
1957 3489 mt 
(8) s
2288 3366 mt 2288 3347 L
2288 1987 mt 2288 2005 L
2235 3489 mt 
(10) s
2593 3366 mt 2593 3347 L
2593 1987 mt 2593 2005 L
2540 3489 mt 
(12) s
 764 3366 mt  782 3366 L
2593 3366 mt 2574 3366 L
 676 3401 mt 
(0) s
 764 3021 mt  782 3021 L
2593 3021 mt 2574 3021 L
 596 3056 mt 
(0.5) s
 764 2676 mt  782 2676 L
2593 2676 mt 2574 2676 L
 676 2711 mt 
(1) s
 764 2331 mt  782 2331 L
2593 2331 mt 2574 2331 L
 596 2366 mt 
(1.5) s
 764 1987 mt  782 1987 L
2593 1987 mt 2574 1987 L
 676 2022 mt 
(2) s
 764 1987 mt 2593 1987 L
 764 3366 mt 2593 3366 L
2593 3366 mt 2593 1987 L
 764 3366 mt  764 1987 L
gs 764 1987 1830 1380 rc
c8
8 1 16 0 15 1 16 0 16 1 16 0 16 1 16 0 
16 0 16 0 16 -1 16 0 16 -1 16 -1 16 -1 16 -1 
16 -1 16 -1 16 -1 16 0 16 0 16 0 16 1 16 1 
16 2 16 2 16 2 16 2 16 2 16 1 16 2 16 0 
16 0 16 0 16 -2 16 -2 16 -3 16 -4 16 -4 16 -4 
16 -4 16 -3 16 -2 16 -1 16 0 16 1 16 3 16 5 
16 6 16 6 16 8 16 7 16 7 16 6 16 4 16 2 
16 0 16 -3 16 -6 16 -8 16 -11 16 -12 16 -14 16 -14 
16 -13 16 -11 16 -8 16 -4 16 1 16 5 16 11 16 16 
16 20 16 24 16 26 16 26 16 24 16 20 16 15 16 8 
16 -2 16 -10 16 -21 16 -30 16 -38 16 -45 16 -48 16 -48 
16 -46 16 -38 16 -27 16 -14 16 2 16 21 16 39 16 57 
16 72 16 84 16 90 16 90 16 85 16 71 16 52 16 25 
16 -6 16 -39 16 -74 16 -107 16 -136 16 -157 16 -169 16 -170 
16 -158 16 -133 15 -96 764 3366 116 MP stroke
DO
0 sg
1678 0 152 0 764 2570 3 MP stroke
gr

0 sg
DO
0.4 sg
 520 2888 mt  -90 rotate
(To: Out\(2\)) s
90 rotate
SO
1 sg
0 1379 1829 0 0 -1379 2737 1843 4 MP
PP
-1829 0 0 1379 1829 0 0 -1379 2737 1843 5 MP stroke
4 w
DO
SO
6 w
0.4 sg
2737  464 mt 4566  464 L
2737 1843 mt 4566 1843 L
4566 1843 mt 4566  464 L
2737 1843 mt 2737  464 L
2737 1843 mt 4566 1843 L
2737 1843 mt 2737  464 L
2737 1843 mt 2737 1824 L
2737  464 mt 2737  482 L
3041 1843 mt 3041 1824 L
3041  464 mt 3041  482 L
3346 1843 mt 3346 1824 L
3346  464 mt 3346  482 L
3651 1843 mt 3651 1824 L
3651  464 mt 3651  482 L
3956 1843 mt 3956 1824 L
3956  464 mt 3956  482 L
4261 1843 mt 4261 1824 L
4261  464 mt 4261  482 L
4566 1843 mt 4566 1824 L
4566  464 mt 4566  482 L
2737 1843 mt 2755 1843 L
4566 1843 mt 4547 1843 L
2737 1498 mt 2755 1498 L
4566 1498 mt 4547 1498 L
2737 1153 mt 2755 1153 L
4566 1153 mt 4547 1153 L
2737  808 mt 2755  808 L
4566  808 mt 4547  808 L
2737  464 mt 2755  464 L
4566  464 mt 4547  464 L
2737  464 mt 4566  464 L
2737 1843 mt 4566 1843 L
4566 1843 mt 4566  464 L
2737 1843 mt 2737  464 L
gs 2737 464 1830 1380 rc
c8
8 0 16 0 15 0 16 0 16 1 16 0 16 1 16 1 
16 0 16 1 16 0 16 1 16 0 16 0 16 0 16 0 
16 -1 16 -1 16 -1 16 -1 16 -1 16 -2 16 -1 16 -1 
16 0 16 0 16 0 16 1 16 1 16 2 16 2 16 2 
16 2 16 3 16 2 16 1 16 2 16 0 16 -1 16 -1 
16 -2 16 -4 16 -3 16 -5 16 -4 16 -5 16 -4 16 -3 
16 -2 16 0 16 1 16 3 16 4 16 6 16 7 16 8 
16 9 16 8 16 7 16 6 16 4 16 1 16 -2 16 -6 
16 -8 16 -11 16 -14 16 -15 16 -16 16 -15 16 -14 16 -10 
16 -7 16 -2 16 4 16 10 16 16 16 21 16 25 16 29 
16 29 16 29 16 25 16 20 16 13 16 3 16 -7 16 -19 
16 -30 16 -40 16 -48 16 -53 16 -56 16 -53 16 -48 16 -37 
16 -23 16 -6 16 15 16 35 16 57 16 75 16 90 16 100 
16 104 16 101 16 89 16 69 16 42 16 10 16 -28 16 -68 
16 -106 16 -141 15 -170 2737 1153 116 MP stroke
DO
0 sg
1678 0 152 0 2737 1153 3 MP stroke
gr

0 sg
DO
0.4 sg
3418  389 mt 
(From: In\(2\)) s
SO
1 sg
0 1379 1829 0 0 -1379 2737 3366 4 MP
PP
-1829 0 0 1379 1829 0 0 -1379 2737 3366 5 MP stroke
4 w
DO
SO
6 w
0.4 sg
2737 1987 mt 4566 1987 L
2737 3366 mt 4566 3366 L
4566 3366 mt 4566 1987 L
2737 3366 mt 2737 1987 L
2737 3366 mt 4566 3366 L
2737 3366 mt 2737 1987 L
2737 3366 mt 2737 3347 L
2737 1987 mt 2737 2005 L
2711 3489 mt 
(0) s
3041 3366 mt 3041 3347 L
3041 1987 mt 3041 2005 L
3015 3489 mt 
(2) s
3346 3366 mt 3346 3347 L
3346 1987 mt 3346 2005 L
3320 3489 mt 
(4) s
3651 3366 mt 3651 3347 L
3651 1987 mt 3651 2005 L
3625 3489 mt 
(6) s
3956 3366 mt 3956 3347 L
3956 1987 mt 3956 2005 L
3930 3489 mt 
(8) s
4261 3366 mt 4261 3347 L
4261 1987 mt 4261 2005 L
4208 3489 mt 
(10) s
4566 3366 mt 4566 3347 L
4566 1987 mt 4566 2005 L
4513 3489 mt 
(12) s
2737 3366 mt 2755 3366 L
4566 3366 mt 4547 3366 L
2737 3021 mt 2755 3021 L
4566 3021 mt 4547 3021 L
2737 2676 mt 2755 2676 L
4566 2676 mt 4547 2676 L
2737 2331 mt 2755 2331 L
4566 2331 mt 4547 2331 L
2737 1987 mt 2755 1987 L
4566 1987 mt 4547 1987 L
2737 1987 mt 4566 1987 L
2737 3366 mt 4566 3366 L
4566 3366 mt 4566 1987 L
2737 3366 mt 2737 1987 L
gs 2737 1987 1830 1380 rc
DO
0 sg
1678 0 152 0 2737 2676 3 MP stroke
SO
c8
8 0 16 1 15 0 16 1 16 0 16 0 16 0 16 0 
16 0 16 0 16 -1 16 -1 16 0 16 -1 16 -1 16 -1 
16 -1 16 0 16 -1 16 1 16 0 16 1 16 1 16 1 
16 2 16 2 16 1 16 2 16 1 16 1 16 0 16 0 
16 -1 16 -1 16 -2 16 -3 16 -3 16 -3 16 -3 16 -3 
16 -3 16 -1 16 -1 16 1 16 1 16 3 16 4 16 5 
16 6 16 6 16 6 16 5 16 4 16 4 16 1 16 -1 
16 -3 16 -6 16 -7 16 -9 16 -11 16 -11 16 -11 16 -11 
16 -8 16 -6 16 -2 16 2 16 6 16 10 16 14 16 18 
16 20 16 21 16 21 16 19 16 15 16 11 16 4 16 -4 
16 -11 16 -19 16 -27 16 -33 16 -37 16 -40 16 -39 16 -36 
16 -29 16 -19 16 -7 16 6 16 22 16 36 16 51 16 62 
16 70 16 75 16 73 16 66 16 54 16 36 16 13 16 -13 
16 -41 16 -69 16 -95 16 -117 16 -132 16 -140 16 -136 16 -124 
16 -101 16 -66 15 -24 2737 3366 116 MP stroke
gr

c8
0 sg
2288  165 mt 
(Step Response) s
2389 3617 mt 
(Time \(sec\)) s
 254 2050 mt  -90 rotate
(Amplitude) s
90 rotate

end %%Color Dict

eplot
%%EndObject

epage
end

showpage

%%Trailer
%%EOF
