%!PS-Adobe-2.0 EPSF-2.0
%%Title: erase.eps
%%Creator: gnuplot 4.2 patchlevel 6 
%%CreationDate: Wed Dec 15 12:32:47 2010
%%DocumentFonts: (atend)
%%BoundingBox: 50 50 410 302
%%EndComments
%%BeginProlog
/gnudict 256 dict def
gnudict begin
%
% The following 6 true/false flags may be edited by hand if required
% The unit line width may also be changed
%
/Color false def
/Blacktext false def
/Solid false def
/Dashlength 1 def
/Landscape false def
/Level1 false def
/Rounded false def
/TransparentPatterns false def
/gnulinewidth 5.000 def
/userlinewidth gnulinewidth def
%
/vshift -46 def
/dl1 {
  10.0 Dashlength mul mul
  Rounded { currentlinewidth 0.75 mul sub dup 0 le { pop 0.01 } if } if
} def
/dl2 {
  10.0 Dashlength mul mul
  Rounded { currentlinewidth 0.75 mul add } if
} def
/hpt_ 31.5 def
/vpt_ 31.5 def
/hpt hpt_ def
/vpt vpt_ def
Level1 {} {
/SDict 10 dict def
systemdict /pdfmark known not {
  userdict /pdfmark systemdict /cleartomark get put
} if
SDict begin [
  /Title (erase.eps)
  /Subject (gnuplot plot)
  /Creator (gnuplot 4.2 patchlevel 6 )
  /Author (mrorz,,,)
%  /Producer (gnuplot)
%  /Keywords ()
  /CreationDate (Wed Dec 15 12:32:47 2010)
  /DOCINFO pdfmark
end
} ifelse
%
% Gnuplot Prolog Version 4.2 (August 2006)
%
/M {moveto} bind def
/L {lineto} bind def
/R {rmoveto} bind def
/V {rlineto} bind def
/N {newpath moveto} bind def
/Z {closepath} bind def
/C {setrgbcolor} bind def
/f {rlineto fill} bind def
/vpt2 vpt 2 mul def
/hpt2 hpt 2 mul def
/Lshow {currentpoint stroke M 0 vshift R 
	Blacktext {gsave 0 setgray show grestore} {show} ifelse} def
/Rshow {currentpoint stroke M dup stringwidth pop neg vshift R
	Blacktext {gsave 0 setgray show grestore} {show} ifelse} def
/Cshow {currentpoint stroke M dup stringwidth pop -2 div vshift R 
	Blacktext {gsave 0 setgray show grestore} {show} ifelse} def
/UP {dup vpt_ mul /vpt exch def hpt_ mul /hpt exch def
  /hpt2 hpt 2 mul def /vpt2 vpt 2 mul def} def
/DL {Color {setrgbcolor Solid {pop []} if 0 setdash}
 {pop pop pop 0 setgray Solid {pop []} if 0 setdash} ifelse} def
/BL {stroke userlinewidth 2 mul setlinewidth
	Rounded {1 setlinejoin 1 setlinecap} if} def
/AL {stroke userlinewidth 2 div setlinewidth
	Rounded {1 setlinejoin 1 setlinecap} if} def
/UL {dup gnulinewidth mul /userlinewidth exch def
	dup 1 lt {pop 1} if 10 mul /udl exch def} def
/PL {stroke userlinewidth setlinewidth
	Rounded {1 setlinejoin 1 setlinecap} if} def
% Default Line colors
/LCw {1 1 1} def
/LCb {0 0 0} def
/LCa {0 0 0} def
/LC0 {1 0 0} def
/LC1 {0 1 0} def
/LC2 {0 0 1} def
/LC3 {1 0 1} def
/LC4 {0 1 1} def
/LC5 {1 1 0} def
/LC6 {0 0 0} def
/LC7 {1 0.3 0} def
/LC8 {0.5 0.5 0.5} def
% Default Line Types
/LTw {PL [] 1 setgray} def
/LTb {BL [] LCb DL} def
/LTa {AL [1 udl mul 2 udl mul] 0 setdash LCa setrgbcolor} def
/LT0 {PL [] LC0 DL} def
/LT1 {PL [4 dl1 2 dl2] LC1 DL} def
/LT2 {PL [2 dl1 3 dl2] LC2 DL} def
/LT3 {PL [1 dl1 1.5 dl2] LC3 DL} def
/LT4 {PL [6 dl1 2 dl2 1 dl1 2 dl2] LC4 DL} def
/LT5 {PL [3 dl1 3 dl2 1 dl1 3 dl2] LC5 DL} def
/LT6 {PL [2 dl1 2 dl2 2 dl1 6 dl2] LC6 DL} def
/LT7 {PL [1 dl1 2 dl2 6 dl1 2 dl2 1 dl1 2 dl2] LC7 DL} def
/LT8 {PL [2 dl1 2 dl2 2 dl1 2 dl2 2 dl1 2 dl2 2 dl1 4 dl2] LC8 DL} def
/Pnt {stroke [] 0 setdash gsave 1 setlinecap M 0 0 V stroke grestore} def
/Dia {stroke [] 0 setdash 2 copy vpt add M
  hpt neg vpt neg V hpt vpt neg V
  hpt vpt V hpt neg vpt V closepath stroke
  Pnt} def
/Pls {stroke [] 0 setdash vpt sub M 0 vpt2 V
  currentpoint stroke M
  hpt neg vpt neg R hpt2 0 V stroke
 } def
/Box {stroke [] 0 setdash 2 copy exch hpt sub exch vpt add M
  0 vpt2 neg V hpt2 0 V 0 vpt2 V
  hpt2 neg 0 V closepath stroke
  Pnt} def
/Crs {stroke [] 0 setdash exch hpt sub exch vpt add M
  hpt2 vpt2 neg V currentpoint stroke M
  hpt2 neg 0 R hpt2 vpt2 V stroke} def
/TriU {stroke [] 0 setdash 2 copy vpt 1.12 mul add M
  hpt neg vpt -1.62 mul V
  hpt 2 mul 0 V
  hpt neg vpt 1.62 mul V closepath stroke
  Pnt} def
/Star {2 copy Pls Crs} def
/BoxF {stroke [] 0 setdash exch hpt sub exch vpt add M
  0 vpt2 neg V hpt2 0 V 0 vpt2 V
  hpt2 neg 0 V closepath fill} def
/TriUF {stroke [] 0 setdash vpt 1.12 mul add M
  hpt neg vpt -1.62 mul V
  hpt 2 mul 0 V
  hpt neg vpt 1.62 mul V closepath fill} def
/TriD {stroke [] 0 setdash 2 copy vpt 1.12 mul sub M
  hpt neg vpt 1.62 mul V
  hpt 2 mul 0 V
  hpt neg vpt -1.62 mul V closepath stroke
  Pnt} def
/TriDF {stroke [] 0 setdash vpt 1.12 mul sub M
  hpt neg vpt 1.62 mul V
  hpt 2 mul 0 V
  hpt neg vpt -1.62 mul V closepath fill} def
/DiaF {stroke [] 0 setdash vpt add M
  hpt neg vpt neg V hpt vpt neg V
  hpt vpt V hpt neg vpt V closepath fill} def
/Pent {stroke [] 0 setdash 2 copy gsave
  translate 0 hpt M 4 {72 rotate 0 hpt L} repeat
  closepath stroke grestore Pnt} def
/PentF {stroke [] 0 setdash gsave
  translate 0 hpt M 4 {72 rotate 0 hpt L} repeat
  closepath fill grestore} def
/Circle {stroke [] 0 setdash 2 copy
  hpt 0 360 arc stroke Pnt} def
/CircleF {stroke [] 0 setdash hpt 0 360 arc fill} def
/C0 {BL [] 0 setdash 2 copy moveto vpt 90 450 arc} bind def
/C1 {BL [] 0 setdash 2 copy moveto
	2 copy vpt 0 90 arc closepath fill
	vpt 0 360 arc closepath} bind def
/C2 {BL [] 0 setdash 2 copy moveto
	2 copy vpt 90 180 arc closepath fill
	vpt 0 360 arc closepath} bind def
/C3 {BL [] 0 setdash 2 copy moveto
	2 copy vpt 0 180 arc closepath fill
	vpt 0 360 arc closepath} bind def
/C4 {BL [] 0 setdash 2 copy moveto
	2 copy vpt 180 270 arc closepath fill
	vpt 0 360 arc closepath} bind def
/C5 {BL [] 0 setdash 2 copy moveto
	2 copy vpt 0 90 arc
	2 copy moveto
	2 copy vpt 180 270 arc closepath fill
	vpt 0 360 arc} bind def
/C6 {BL [] 0 setdash 2 copy moveto
	2 copy vpt 90 270 arc closepath fill
	vpt 0 360 arc closepath} bind def
/C7 {BL [] 0 setdash 2 copy moveto
	2 copy vpt 0 270 arc closepath fill
	vpt 0 360 arc closepath} bind def
/C8 {BL [] 0 setdash 2 copy moveto
	2 copy vpt 270 360 arc closepath fill
	vpt 0 360 arc closepath} bind def
/C9 {BL [] 0 setdash 2 copy moveto
	2 copy vpt 270 450 arc closepath fill
	vpt 0 360 arc closepath} bind def
/C10 {BL [] 0 setdash 2 copy 2 copy moveto vpt 270 360 arc closepath fill
	2 copy moveto
	2 copy vpt 90 180 arc closepath fill
	vpt 0 360 arc closepath} bind def
/C11 {BL [] 0 setdash 2 copy moveto
	2 copy vpt 0 180 arc closepath fill
	2 copy moveto
	2 copy vpt 270 360 arc closepath fill
	vpt 0 360 arc closepath} bind def
/C12 {BL [] 0 setdash 2 copy moveto
	2 copy vpt 180 360 arc closepath fill
	vpt 0 360 arc closepath} bind def
/C13 {BL [] 0 setdash 2 copy moveto
	2 copy vpt 0 90 arc closepath fill
	2 copy moveto
	2 copy vpt 180 360 arc closepath fill
	vpt 0 360 arc closepath} bind def
/C14 {BL [] 0 setdash 2 copy moveto
	2 copy vpt 90 360 arc closepath fill
	vpt 0 360 arc} bind def
/C15 {BL [] 0 setdash 2 copy vpt 0 360 arc closepath fill
	vpt 0 360 arc closepath} bind def
/Rec {newpath 4 2 roll moveto 1 index 0 rlineto 0 exch rlineto
	neg 0 rlineto closepath} bind def
/Square {dup Rec} bind def
/Bsquare {vpt sub exch vpt sub exch vpt2 Square} bind def
/S0 {BL [] 0 setdash 2 copy moveto 0 vpt rlineto BL Bsquare} bind def
/S1 {BL [] 0 setdash 2 copy vpt Square fill Bsquare} bind def
/S2 {BL [] 0 setdash 2 copy exch vpt sub exch vpt Square fill Bsquare} bind def
/S3 {BL [] 0 setdash 2 copy exch vpt sub exch vpt2 vpt Rec fill Bsquare} bind def
/S4 {BL [] 0 setdash 2 copy exch vpt sub exch vpt sub vpt Square fill Bsquare} bind def
/S5 {BL [] 0 setdash 2 copy 2 copy vpt Square fill
	exch vpt sub exch vpt sub vpt Square fill Bsquare} bind def
/S6 {BL [] 0 setdash 2 copy exch vpt sub exch vpt sub vpt vpt2 Rec fill Bsquare} bind def
/S7 {BL [] 0 setdash 2 copy exch vpt sub exch vpt sub vpt vpt2 Rec fill
	2 copy vpt Square fill Bsquare} bind def
/S8 {BL [] 0 setdash 2 copy vpt sub vpt Square fill Bsquare} bind def
/S9 {BL [] 0 setdash 2 copy vpt sub vpt vpt2 Rec fill Bsquare} bind def
/S10 {BL [] 0 setdash 2 copy vpt sub vpt Square fill 2 copy exch vpt sub exch vpt Square fill
	Bsquare} bind def
/S11 {BL [] 0 setdash 2 copy vpt sub vpt Square fill 2 copy exch vpt sub exch vpt2 vpt Rec fill
	Bsquare} bind def
/S12 {BL [] 0 setdash 2 copy exch vpt sub exch vpt sub vpt2 vpt Rec fill Bsquare} bind def
/S13 {BL [] 0 setdash 2 copy exch vpt sub exch vpt sub vpt2 vpt Rec fill
	2 copy vpt Square fill Bsquare} bind def
/S14 {BL [] 0 setdash 2 copy exch vpt sub exch vpt sub vpt2 vpt Rec fill
	2 copy exch vpt sub exch vpt Square fill Bsquare} bind def
/S15 {BL [] 0 setdash 2 copy Bsquare fill Bsquare} bind def
/D0 {gsave translate 45 rotate 0 0 S0 stroke grestore} bind def
/D1 {gsave translate 45 rotate 0 0 S1 stroke grestore} bind def
/D2 {gsave translate 45 rotate 0 0 S2 stroke grestore} bind def
/D3 {gsave translate 45 rotate 0 0 S3 stroke grestore} bind def
/D4 {gsave translate 45 rotate 0 0 S4 stroke grestore} bind def
/D5 {gsave translate 45 rotate 0 0 S5 stroke grestore} bind def
/D6 {gsave translate 45 rotate 0 0 S6 stroke grestore} bind def
/D7 {gsave translate 45 rotate 0 0 S7 stroke grestore} bind def
/D8 {gsave translate 45 rotate 0 0 S8 stroke grestore} bind def
/D9 {gsave translate 45 rotate 0 0 S9 stroke grestore} bind def
/D10 {gsave translate 45 rotate 0 0 S10 stroke grestore} bind def
/D11 {gsave translate 45 rotate 0 0 S11 stroke grestore} bind def
/D12 {gsave translate 45 rotate 0 0 S12 stroke grestore} bind def
/D13 {gsave translate 45 rotate 0 0 S13 stroke grestore} bind def
/D14 {gsave translate 45 rotate 0 0 S14 stroke grestore} bind def
/D15 {gsave translate 45 rotate 0 0 S15 stroke grestore} bind def
/DiaE {stroke [] 0 setdash vpt add M
  hpt neg vpt neg V hpt vpt neg V
  hpt vpt V hpt neg vpt V closepath stroke} def
/BoxE {stroke [] 0 setdash exch hpt sub exch vpt add M
  0 vpt2 neg V hpt2 0 V 0 vpt2 V
  hpt2 neg 0 V closepath stroke} def
/TriUE {stroke [] 0 setdash vpt 1.12 mul add M
  hpt neg vpt -1.62 mul V
  hpt 2 mul 0 V
  hpt neg vpt 1.62 mul V closepath stroke} def
/TriDE {stroke [] 0 setdash vpt 1.12 mul sub M
  hpt neg vpt 1.62 mul V
  hpt 2 mul 0 V
  hpt neg vpt -1.62 mul V closepath stroke} def
/PentE {stroke [] 0 setdash gsave
  translate 0 hpt M 4 {72 rotate 0 hpt L} repeat
  closepath stroke grestore} def
/CircE {stroke [] 0 setdash 
  hpt 0 360 arc stroke} def
/Opaque {gsave closepath 1 setgray fill grestore 0 setgray closepath} def
/DiaW {stroke [] 0 setdash vpt add M
  hpt neg vpt neg V hpt vpt neg V
  hpt vpt V hpt neg vpt V Opaque stroke} def
/BoxW {stroke [] 0 setdash exch hpt sub exch vpt add M
  0 vpt2 neg V hpt2 0 V 0 vpt2 V
  hpt2 neg 0 V Opaque stroke} def
/TriUW {stroke [] 0 setdash vpt 1.12 mul add M
  hpt neg vpt -1.62 mul V
  hpt 2 mul 0 V
  hpt neg vpt 1.62 mul V Opaque stroke} def
/TriDW {stroke [] 0 setdash vpt 1.12 mul sub M
  hpt neg vpt 1.62 mul V
  hpt 2 mul 0 V
  hpt neg vpt -1.62 mul V Opaque stroke} def
/PentW {stroke [] 0 setdash gsave
  translate 0 hpt M 4 {72 rotate 0 hpt L} repeat
  Opaque stroke grestore} def
/CircW {stroke [] 0 setdash 
  hpt 0 360 arc Opaque stroke} def
/BoxFill {gsave Rec 1 setgray fill grestore} def
/Density {
  /Fillden exch def
  currentrgbcolor
  /ColB exch def /ColG exch def /ColR exch def
  /ColR ColR Fillden mul Fillden sub 1 add def
  /ColG ColG Fillden mul Fillden sub 1 add def
  /ColB ColB Fillden mul Fillden sub 1 add def
  ColR ColG ColB setrgbcolor} def
/BoxColFill {gsave Rec PolyFill} def
/PolyFill {gsave Density fill grestore grestore} def
/h {rlineto rlineto rlineto gsave closepath fill grestore} bind def
%
% PostScript Level 1 Pattern Fill routine for rectangles
% Usage: x y w h s a XX PatternFill
%	x,y = lower left corner of box to be filled
%	w,h = width and height of box
%	  a = angle in degrees between lines and x-axis
%	 XX = 0/1 for no/yes cross-hatch
%
/PatternFill {gsave /PFa [ 9 2 roll ] def
  PFa 0 get PFa 2 get 2 div add PFa 1 get PFa 3 get 2 div add translate
  PFa 2 get -2 div PFa 3 get -2 div PFa 2 get PFa 3 get Rec
  gsave 1 setgray fill grestore clip
  currentlinewidth 0.5 mul setlinewidth
  /PFs PFa 2 get dup mul PFa 3 get dup mul add sqrt def
  0 0 M PFa 5 get rotate PFs -2 div dup translate
  0 1 PFs PFa 4 get div 1 add floor cvi
	{PFa 4 get mul 0 M 0 PFs V} for
  0 PFa 6 get ne {
	0 1 PFs PFa 4 get div 1 add floor cvi
	{PFa 4 get mul 0 2 1 roll M PFs 0 V} for
 } if
  stroke grestore} def
%
/languagelevel where
 {pop languagelevel} {1} ifelse
 2 lt
	{/InterpretLevel1 true def}
	{/InterpretLevel1 Level1 def}
 ifelse
%
% PostScript level 2 pattern fill definitions
%
/Level2PatternFill {
/Tile8x8 {/PaintType 2 /PatternType 1 /TilingType 1 /BBox [0 0 8 8] /XStep 8 /YStep 8}
	bind def
/KeepColor {currentrgbcolor [/Pattern /DeviceRGB] setcolorspace} bind def
<< Tile8x8
 /PaintProc {0.5 setlinewidth pop 0 0 M 8 8 L 0 8 M 8 0 L stroke} 
>> matrix makepattern
/Pat1 exch def
<< Tile8x8
 /PaintProc {0.5 setlinewidth pop 0 0 M 8 8 L 0 8 M 8 0 L stroke
	0 4 M 4 8 L 8 4 L 4 0 L 0 4 L stroke}
>> matrix makepattern
/Pat2 exch def
<< Tile8x8
 /PaintProc {0.5 setlinewidth pop 0 0 M 0 8 L
	8 8 L 8 0 L 0 0 L fill}
>> matrix makepattern
/Pat3 exch def
<< Tile8x8
 /PaintProc {0.5 setlinewidth pop -4 8 M 8 -4 L
	0 12 M 12 0 L stroke}
>> matrix makepattern
/Pat4 exch def
<< Tile8x8
 /PaintProc {0.5 setlinewidth pop -4 0 M 8 12 L
	0 -4 M 12 8 L stroke}
>> matrix makepattern
/Pat5 exch def
<< Tile8x8
 /PaintProc {0.5 setlinewidth pop -2 8 M 4 -4 L
	0 12 M 8 -4 L 4 12 M 10 0 L stroke}
>> matrix makepattern
/Pat6 exch def
<< Tile8x8
 /PaintProc {0.5 setlinewidth pop -2 0 M 4 12 L
	0 -4 M 8 12 L 4 -4 M 10 8 L stroke}
>> matrix makepattern
/Pat7 exch def
<< Tile8x8
 /PaintProc {0.5 setlinewidth pop 8 -2 M -4 4 L
	12 0 M -4 8 L 12 4 M 0 10 L stroke}
>> matrix makepattern
/Pat8 exch def
<< Tile8x8
 /PaintProc {0.5 setlinewidth pop 0 -2 M 12 4 L
	-4 0 M 12 8 L -4 4 M 8 10 L stroke}
>> matrix makepattern
/Pat9 exch def
/Pattern1 {PatternBgnd KeepColor Pat1 setpattern} bind def
/Pattern2 {PatternBgnd KeepColor Pat2 setpattern} bind def
/Pattern3 {PatternBgnd KeepColor Pat3 setpattern} bind def
/Pattern4 {PatternBgnd KeepColor Landscape {Pat5} {Pat4} ifelse setpattern} bind def
/Pattern5 {PatternBgnd KeepColor Landscape {Pat4} {Pat5} ifelse setpattern} bind def
/Pattern6 {PatternBgnd KeepColor Landscape {Pat9} {Pat6} ifelse setpattern} bind def
/Pattern7 {PatternBgnd KeepColor Landscape {Pat8} {Pat7} ifelse setpattern} bind def
} def
%
%
%End of PostScript Level 2 code
%
/PatternBgnd {
  TransparentPatterns {} {gsave 1 setgray fill grestore} ifelse
} def
%
% Substitute for Level 2 pattern fill codes with
% grayscale if Level 2 support is not selected.
%
/Level1PatternFill {
/Pattern1 {0.250 Density} bind def
/Pattern2 {0.500 Density} bind def
/Pattern3 {0.750 Density} bind def
/Pattern4 {0.125 Density} bind def
/Pattern5 {0.375 Density} bind def
/Pattern6 {0.625 Density} bind def
/Pattern7 {0.875 Density} bind def
} def
%
% Now test for support of Level 2 code
%
Level1 {Level1PatternFill} {Level2PatternFill} ifelse
%
/Symbol-Oblique /Symbol findfont [1 0 .167 1 0 0] makefont
dup length dict begin {1 index /FID eq {pop pop} {def} ifelse} forall
currentdict end definefont pop
end
%%EndProlog
gnudict begin
gsave
50 50 translate
0.050 0.050 scale
0 setgray
newpath
(Helvetica) findfont 140 scalefont setfont
1.000 UL
LTb
686 448 M
63 0 V
6241 0 R
-63 0 V
602 448 M
( 0) Rshow
1.000 UL
LTb
686 912 M
63 0 V
6241 0 R
-63 0 V
602 912 M
( 1) Rshow
1.000 UL
LTb
686 1375 M
63 0 V
6241 0 R
-63 0 V
-6325 0 R
( 2) Rshow
1.000 UL
LTb
686 1839 M
63 0 V
6241 0 R
-63 0 V
-6325 0 R
( 3) Rshow
1.000 UL
LTb
686 2302 M
63 0 V
6241 0 R
-63 0 V
-6325 0 R
( 4) Rshow
1.000 UL
LTb
686 2766 M
63 0 V
6241 0 R
-63 0 V
-6325 0 R
( 5) Rshow
1.000 UL
LTb
686 3229 M
63 0 V
6241 0 R
-63 0 V
-6325 0 R
( 6) Rshow
1.000 UL
LTb
686 3693 M
63 0 V
6241 0 R
-63 0 V
-6325 0 R
( 7) Rshow
1.000 UL
LTb
686 4156 M
63 0 V
6241 0 R
-63 0 V
-6325 0 R
( 8) Rshow
1.000 UL
LTb
686 4620 M
63 0 V
6241 0 R
-63 0 V
-6325 0 R
( 9) Rshow
1.000 UL
LTb
686 448 M
0 63 V
0 4109 R
0 -63 V
686 308 M
( 0) Cshow
1.000 UL
LTb
1587 448 M
0 63 V
0 4109 R
0 -63 V
0 -4249 R
( 2000) Cshow
1.000 UL
LTb
2487 448 M
0 63 V
0 4109 R
0 -63 V
0 -4249 R
( 4000) Cshow
1.000 UL
LTb
3388 448 M
0 63 V
0 4109 R
0 -63 V
0 -4249 R
( 6000) Cshow
1.000 UL
LTb
4288 448 M
0 63 V
0 4109 R
0 -63 V
0 -4249 R
( 8000) Cshow
1.000 UL
LTb
5189 448 M
0 63 V
0 4109 R
0 -63 V
0 -4249 R
( 10000) Cshow
1.000 UL
LTb
6089 448 M
0 63 V
0 4109 R
0 -63 V
0 -4249 R
( 12000) Cshow
1.000 UL
LTb
6990 448 M
0 63 V
0 4109 R
0 -63 V
0 -4249 R
( 14000) Cshow
1.000 UL
LTb
1.000 UL
LTb
686 4620 N
686 448 L
6304 0 V
0 4172 V
-6304 0 V
Z stroke
LCb setrgbcolor
280 2534 M
currentpoint gsave translate 90 rotate 0 0 M
(time) Cshow
grestore
LTb
LCb setrgbcolor
3838 98 M
(n) Cshow
LTb
3838 4830 M
(erase) Cshow
1.000 UP
1.000 UL
LTb
1.000 UP
1.000 UL
LT0
LTb
6339 4487 M
(bin/adtTest.array) Rshow
LT0
6423 4487 M
399 0 V
691 448 M
2 0 V
2 0 V
2 0 V
3 0 V
4 0 V
5 0 V
5 0 V
8 0 V
9 0 V
11 5 V
15 0 V
19 -5 V
23 9 V
29 -4 V
37 0 V
47 0 V
58 4 V
74 0 V
92 0 V
116 10 V
147 4 V
185 14 V
233 14 V
293 0 V
369 23 V
463 14 V
585 46 V
736 51 V
926 84 V
6355 837 L
691 448 Pls
691 448 Pls
693 448 Pls
695 448 Pls
697 448 Pls
700 448 Pls
704 448 Pls
709 448 Pls
714 448 Pls
722 448 Pls
731 448 Pls
742 453 Pls
757 453 Pls
776 448 Pls
799 457 Pls
828 453 Pls
865 453 Pls
912 453 Pls
970 457 Pls
1044 457 Pls
1136 457 Pls
1252 467 Pls
1399 471 Pls
1584 485 Pls
1817 499 Pls
2110 499 Pls
2479 522 Pls
2942 536 Pls
3527 582 Pls
4263 633 Pls
5189 717 Pls
6355 837 Pls
6622 4487 Pls
1.000 UP
1.000 UL
LT1
LTb
6339 4347 M
(ref/adtTest.array) Rshow
LT1
6423 4347 M
399 0 V
691 448 M
2 0 V
2 0 V
2 0 V
3 0 V
4 0 V
5 0 V
5 0 V
8 0 V
9 0 V
11 0 V
15 5 V
19 -5 V
23 5 V
29 0 V
37 4 V
47 -4 V
58 4 V
74 -4 V
92 9 V
116 9 V
147 0 V
185 5 V
233 14 V
293 4 V
369 24 V
463 32 V
585 46 V
736 37 V
926 112 V
6355 861 L
691 448 Crs
691 448 Crs
693 448 Crs
695 448 Crs
697 448 Crs
700 448 Crs
704 448 Crs
709 448 Crs
714 448 Crs
722 448 Crs
731 448 Crs
742 448 Crs
757 453 Crs
776 448 Crs
799 453 Crs
828 453 Crs
865 457 Crs
912 453 Crs
970 457 Crs
1044 453 Crs
1136 462 Crs
1252 471 Crs
1399 471 Crs
1584 476 Crs
1817 490 Crs
2110 494 Crs
2479 518 Crs
2942 550 Crs
3527 596 Crs
4263 633 Crs
5189 745 Crs
6355 861 Crs
6622 4347 Crs
1.000 UP
1.000 UL
LT2
LTb
6339 4207 M
(bin/adtTest.dlist) Rshow
LT2
6423 4207 M
399 0 V
691 448 M
2 0 V
2 0 V
2 0 V
3 0 V
4 0 V
5 0 V
5 0 V
8 0 V
9 0 V
11 0 V
15 5 V
19 -5 V
23 5 V
29 -5 V
37 9 V
47 0 V
58 0 V
74 0 V
92 5 V
116 0 V
147 9 V
185 23 V
233 33 V
293 37 V
369 65 V
463 139 V
585 297 V
736 616 V
926 1057 V
6355 4532 L
691 448 Star
691 448 Star
693 448 Star
695 448 Star
697 448 Star
700 448 Star
704 448 Star
709 448 Star
714 448 Star
722 448 Star
731 448 Star
742 448 Star
757 453 Star
776 448 Star
799 453 Star
828 448 Star
865 457 Star
912 457 Star
970 457 Star
1044 457 Star
1136 462 Star
1252 462 Star
1399 471 Star
1584 494 Star
1817 527 Star
2110 564 Star
2479 629 Star
2942 768 Star
3527 1065 Star
4263 1681 Star
5189 2738 Star
6355 4532 Star
6622 4207 Star
1.000 UP
1.000 UL
LT3
LTb
6339 4067 M
(ref/adtTest.dlist) Rshow
LT3
6423 4067 M
399 0 V
691 448 M
2 0 V
2 0 V
2 0 V
3 0 V
4 0 V
5 0 V
5 0 V
8 0 V
9 0 V
11 9 V
15 -9 V
19 0 V
23 5 V
29 -5 V
37 9 V
47 -4 V
58 4 V
74 5 V
92 0 V
116 -5 V
147 23 V
185 19 V
233 9 V
293 33 V
369 46 V
463 74 V
585 153 V
736 213 V
926 339 V
1166 426 V
691 448 Box
691 448 Box
693 448 Box
695 448 Box
697 448 Box
700 448 Box
704 448 Box
709 448 Box
714 448 Box
722 448 Box
731 448 Box
742 457 Box
757 448 Box
776 448 Box
799 453 Box
828 448 Box
865 457 Box
912 453 Box
970 457 Box
1044 462 Box
1136 462 Box
1252 457 Box
1399 480 Box
1584 499 Box
1817 508 Box
2110 541 Box
2479 587 Box
2942 661 Box
3527 814 Box
4263 1027 Box
5189 1366 Box
6355 1792 Box
6622 4067 Box
1.000 UP
1.000 UL
LT4
LTb
6339 3927 M
(bin/adtTest.bst) Rshow
LT4
6423 3927 M
399 0 V
691 448 M
2 0 V
2 0 V
2 0 V
3 0 V
4 0 V
5 0 V
5 0 V
8 0 V
9 0 V
11 0 V
15 5 V
19 -5 V
23 9 V
29 -4 V
37 4 V
47 -4 V
58 0 V
74 9 V
92 0 V
116 5 V
147 0 V
185 -5 V
233 28 V
293 9 V
369 -9 V
463 23 V
585 14 V
736 23 V
926 14 V
1166 74 V
691 448 BoxF
691 448 BoxF
693 448 BoxF
695 448 BoxF
697 448 BoxF
700 448 BoxF
704 448 BoxF
709 448 BoxF
714 448 BoxF
722 448 BoxF
731 448 BoxF
742 448 BoxF
757 453 BoxF
776 448 BoxF
799 457 BoxF
828 453 BoxF
865 457 BoxF
912 453 BoxF
970 453 BoxF
1044 462 BoxF
1136 462 BoxF
1252 467 BoxF
1399 467 BoxF
1584 462 BoxF
1817 490 BoxF
2110 499 BoxF
2479 490 BoxF
2942 513 BoxF
3527 527 BoxF
4263 550 BoxF
5189 564 BoxF
6355 638 BoxF
6622 3927 BoxF
1.000 UP
1.000 UL
LT5
LTb
6339 3787 M
(ref/adtTest.bst) Rshow
LT5
6423 3787 M
399 0 V
691 448 M
2 0 V
2 0 V
2 0 V
3 0 V
4 0 V
5 0 V
5 0 V
8 0 V
9 0 V
11 0 V
15 0 V
19 5 V
23 -5 V
29 5 V
37 -5 V
47 5 V
58 4 V
74 5 V
92 5 V
116 -19 V
147 23 V
185 0 V
233 5 V
293 18 V
369 5 V
463 14 V
585 18 V
736 19 V
926 32 V
1166 33 V
691 448 Circle
691 448 Circle
693 448 Circle
695 448 Circle
697 448 Circle
700 448 Circle
704 448 Circle
709 448 Circle
714 448 Circle
722 448 Circle
731 448 Circle
742 448 Circle
757 448 Circle
776 453 Circle
799 448 Circle
828 453 Circle
865 448 Circle
912 453 Circle
970 457 Circle
1044 462 Circle
1136 467 Circle
1252 448 Circle
1399 471 Circle
1584 471 Circle
1817 476 Circle
2110 494 Circle
2479 499 Circle
2942 513 Circle
3527 531 Circle
4263 550 Circle
5189 582 Circle
6355 615 Circle
6622 3787 Circle
1.000 UL
LTb
686 4620 N
686 448 L
6304 0 V
0 4172 V
-6304 0 V
Z stroke
1.000 UP
1.000 UL
LTb
stroke
grestore
end
showpage
%%Trailer
%%DocumentFonts: Helvetica
