%!PS-Adobe-2.0 EPSF-2.0
%%Title: insert.eps
%%Creator: gnuplot 4.2 patchlevel 6 
%%CreationDate: Wed Dec 15 12:32:47 2010
%%DocumentFonts: (atend)
%%BoundingBox: 50 50 410 302
%%EndComments
%%BeginProlog
/gnudict 256 dict def
gnudict begin
%
% The following 6 true/false flags may be edited by hand if required
% The unit line width may also be changed
%
/Color false def
/Blacktext false def
/Solid false def
/Dashlength 1 def
/Landscape false def
/Level1 false def
/Rounded false def
/TransparentPatterns false def
/gnulinewidth 5.000 def
/userlinewidth gnulinewidth def
%
/vshift -46 def
/dl1 {
  10.0 Dashlength mul mul
  Rounded { currentlinewidth 0.75 mul sub dup 0 le { pop 0.01 } if } if
} def
/dl2 {
  10.0 Dashlength mul mul
  Rounded { currentlinewidth 0.75 mul add } if
} def
/hpt_ 31.5 def
/vpt_ 31.5 def
/hpt hpt_ def
/vpt vpt_ def
Level1 {} {
/SDict 10 dict def
systemdict /pdfmark known not {
  userdict /pdfmark systemdict /cleartomark get put
} if
SDict begin [
  /Title (insert.eps)
  /Subject (gnuplot plot)
  /Creator (gnuplot 4.2 patchlevel 6 )
  /Author (mrorz,,,)
%  /Producer (gnuplot)
%  /Keywords ()
  /CreationDate (Wed Dec 15 12:32:47 2010)
  /DOCINFO pdfmark
end
} ifelse
%
% Gnuplot Prolog Version 4.2 (August 2006)
%
/M {moveto} bind def
/L {lineto} bind def
/R {rmoveto} bind def
/V {rlineto} bind def
/N {newpath moveto} bind def
/Z {closepath} bind def
/C {setrgbcolor} bind def
/f {rlineto fill} bind def
/vpt2 vpt 2 mul def
/hpt2 hpt 2 mul def
/Lshow {currentpoint stroke M 0 vshift R 
	Blacktext {gsave 0 setgray show grestore} {show} ifelse} def
/Rshow {currentpoint stroke M dup stringwidth pop neg vshift R
	Blacktext {gsave 0 setgray show grestore} {show} ifelse} def
/Cshow {currentpoint stroke M dup stringwidth pop -2 div vshift R 
	Blacktext {gsave 0 setgray show grestore} {show} ifelse} def
/UP {dup vpt_ mul /vpt exch def hpt_ mul /hpt exch def
  /hpt2 hpt 2 mul def /vpt2 vpt 2 mul def} def
/DL {Color {setrgbcolor Solid {pop []} if 0 setdash}
 {pop pop pop 0 setgray Solid {pop []} if 0 setdash} ifelse} def
/BL {stroke userlinewidth 2 mul setlinewidth
	Rounded {1 setlinejoin 1 setlinecap} if} def
/AL {stroke userlinewidth 2 div setlinewidth
	Rounded {1 setlinejoin 1 setlinecap} if} def
/UL {dup gnulinewidth mul /userlinewidth exch def
	dup 1 lt {pop 1} if 10 mul /udl exch def} def
/PL {stroke userlinewidth setlinewidth
	Rounded {1 setlinejoin 1 setlinecap} if} def
% Default Line colors
/LCw {1 1 1} def
/LCb {0 0 0} def
/LCa {0 0 0} def
/LC0 {1 0 0} def
/LC1 {0 1 0} def
/LC2 {0 0 1} def
/LC3 {1 0 1} def
/LC4 {0 1 1} def
/LC5 {1 1 0} def
/LC6 {0 0 0} def
/LC7 {1 0.3 0} def
/LC8 {0.5 0.5 0.5} def
% Default Line Types
/LTw {PL [] 1 setgray} def
/LTb {BL [] LCb DL} def
/LTa {AL [1 udl mul 2 udl mul] 0 setdash LCa setrgbcolor} def
/LT0 {PL [] LC0 DL} def
/LT1 {PL [4 dl1 2 dl2] LC1 DL} def
/LT2 {PL [2 dl1 3 dl2] LC2 DL} def
/LT3 {PL [1 dl1 1.5 dl2] LC3 DL} def
/LT4 {PL [6 dl1 2 dl2 1 dl1 2 dl2] LC4 DL} def
/LT5 {PL [3 dl1 3 dl2 1 dl1 3 dl2] LC5 DL} def
/LT6 {PL [2 dl1 2 dl2 2 dl1 6 dl2] LC6 DL} def
/LT7 {PL [1 dl1 2 dl2 6 dl1 2 dl2 1 dl1 2 dl2] LC7 DL} def
/LT8 {PL [2 dl1 2 dl2 2 dl1 2 dl2 2 dl1 2 dl2 2 dl1 4 dl2] LC8 DL} def
/Pnt {stroke [] 0 setdash gsave 1 setlinecap M 0 0 V stroke grestore} def
/Dia {stroke [] 0 setdash 2 copy vpt add M
  hpt neg vpt neg V hpt vpt neg V
  hpt vpt V hpt neg vpt V closepath stroke
  Pnt} def
/Pls {stroke [] 0 setdash vpt sub M 0 vpt2 V
  currentpoint stroke M
  hpt neg vpt neg R hpt2 0 V stroke
 } def
/Box {stroke [] 0 setdash 2 copy exch hpt sub exch vpt add M
  0 vpt2 neg V hpt2 0 V 0 vpt2 V
  hpt2 neg 0 V closepath stroke
  Pnt} def
/Crs {stroke [] 0 setdash exch hpt sub exch vpt add M
  hpt2 vpt2 neg V currentpoint stroke M
  hpt2 neg 0 R hpt2 vpt2 V stroke} def
/TriU {stroke [] 0 setdash 2 copy vpt 1.12 mul add M
  hpt neg vpt -1.62 mul V
  hpt 2 mul 0 V
  hpt neg vpt 1.62 mul V closepath stroke
  Pnt} def
/Star {2 copy Pls Crs} def
/BoxF {stroke [] 0 setdash exch hpt sub exch vpt add M
  0 vpt2 neg V hpt2 0 V 0 vpt2 V
  hpt2 neg 0 V closepath fill} def
/TriUF {stroke [] 0 setdash vpt 1.12 mul add M
  hpt neg vpt -1.62 mul V
  hpt 2 mul 0 V
  hpt neg vpt 1.62 mul V closepath fill} def
/TriD {stroke [] 0 setdash 2 copy vpt 1.12 mul sub M
  hpt neg vpt 1.62 mul V
  hpt 2 mul 0 V
  hpt neg vpt -1.62 mul V closepath stroke
  Pnt} def
/TriDF {stroke [] 0 setdash vpt 1.12 mul sub M
  hpt neg vpt 1.62 mul V
  hpt 2 mul 0 V
  hpt neg vpt -1.62 mul V closepath fill} def
/DiaF {stroke [] 0 setdash vpt add M
  hpt neg vpt neg V hpt vpt neg V
  hpt vpt V hpt neg vpt V closepath fill} def
/Pent {stroke [] 0 setdash 2 copy gsave
  translate 0 hpt M 4 {72 rotate 0 hpt L} repeat
  closepath stroke grestore Pnt} def
/PentF {stroke [] 0 setdash gsave
  translate 0 hpt M 4 {72 rotate 0 hpt L} repeat
  closepath fill grestore} def
/Circle {stroke [] 0 setdash 2 copy
  hpt 0 360 arc stroke Pnt} def
/CircleF {stroke [] 0 setdash hpt 0 360 arc fill} def
/C0 {BL [] 0 setdash 2 copy moveto vpt 90 450 arc} bind def
/C1 {BL [] 0 setdash 2 copy moveto
	2 copy vpt 0 90 arc closepath fill
	vpt 0 360 arc closepath} bind def
/C2 {BL [] 0 setdash 2 copy moveto
	2 copy vpt 90 180 arc closepath fill
	vpt 0 360 arc closepath} bind def
/C3 {BL [] 0 setdash 2 copy moveto
	2 copy vpt 0 180 arc closepath fill
	vpt 0 360 arc closepath} bind def
/C4 {BL [] 0 setdash 2 copy moveto
	2 copy vpt 180 270 arc closepath fill
	vpt 0 360 arc closepath} bind def
/C5 {BL [] 0 setdash 2 copy moveto
	2 copy vpt 0 90 arc
	2 copy moveto
	2 copy vpt 180 270 arc closepath fill
	vpt 0 360 arc} bind def
/C6 {BL [] 0 setdash 2 copy moveto
	2 copy vpt 90 270 arc closepath fill
	vpt 0 360 arc closepath} bind def
/C7 {BL [] 0 setdash 2 copy moveto
	2 copy vpt 0 270 arc closepath fill
	vpt 0 360 arc closepath} bind def
/C8 {BL [] 0 setdash 2 copy moveto
	2 copy vpt 270 360 arc closepath fill
	vpt 0 360 arc closepath} bind def
/C9 {BL [] 0 setdash 2 copy moveto
	2 copy vpt 270 450 arc closepath fill
	vpt 0 360 arc closepath} bind def
/C10 {BL [] 0 setdash 2 copy 2 copy moveto vpt 270 360 arc closepath fill
	2 copy moveto
	2 copy vpt 90 180 arc closepath fill
	vpt 0 360 arc closepath} bind def
/C11 {BL [] 0 setdash 2 copy moveto
	2 copy vpt 0 180 arc closepath fill
	2 copy moveto
	2 copy vpt 270 360 arc closepath fill
	vpt 0 360 arc closepath} bind def
/C12 {BL [] 0 setdash 2 copy moveto
	2 copy vpt 180 360 arc closepath fill
	vpt 0 360 arc closepath} bind def
/C13 {BL [] 0 setdash 2 copy moveto
	2 copy vpt 0 90 arc closepath fill
	2 copy moveto
	2 copy vpt 180 360 arc closepath fill
	vpt 0 360 arc closepath} bind def
/C14 {BL [] 0 setdash 2 copy moveto
	2 copy vpt 90 360 arc closepath fill
	vpt 0 360 arc} bind def
/C15 {BL [] 0 setdash 2 copy vpt 0 360 arc closepath fill
	vpt 0 360 arc closepath} bind def
/Rec {newpath 4 2 roll moveto 1 index 0 rlineto 0 exch rlineto
	neg 0 rlineto closepath} bind def
/Square {dup Rec} bind def
/Bsquare {vpt sub exch vpt sub exch vpt2 Square} bind def
/S0 {BL [] 0 setdash 2 copy moveto 0 vpt rlineto BL Bsquare} bind def
/S1 {BL [] 0 setdash 2 copy vpt Square fill Bsquare} bind def
/S2 {BL [] 0 setdash 2 copy exch vpt sub exch vpt Square fill Bsquare} bind def
/S3 {BL [] 0 setdash 2 copy exch vpt sub exch vpt2 vpt Rec fill Bsquare} bind def
/S4 {BL [] 0 setdash 2 copy exch vpt sub exch vpt sub vpt Square fill Bsquare} bind def
/S5 {BL [] 0 setdash 2 copy 2 copy vpt Square fill
	exch vpt sub exch vpt sub vpt Square fill Bsquare} bind def
/S6 {BL [] 0 setdash 2 copy exch vpt sub exch vpt sub vpt vpt2 Rec fill Bsquare} bind def
/S7 {BL [] 0 setdash 2 copy exch vpt sub exch vpt sub vpt vpt2 Rec fill
	2 copy vpt Square fill Bsquare} bind def
/S8 {BL [] 0 setdash 2 copy vpt sub vpt Square fill Bsquare} bind def
/S9 {BL [] 0 setdash 2 copy vpt sub vpt vpt2 Rec fill Bsquare} bind def
/S10 {BL [] 0 setdash 2 copy vpt sub vpt Square fill 2 copy exch vpt sub exch vpt Square fill
	Bsquare} bind def
/S11 {BL [] 0 setdash 2 copy vpt sub vpt Square fill 2 copy exch vpt sub exch vpt2 vpt Rec fill
	Bsquare} bind def
/S12 {BL [] 0 setdash 2 copy exch vpt sub exch vpt sub vpt2 vpt Rec fill Bsquare} bind def
/S13 {BL [] 0 setdash 2 copy exch vpt sub exch vpt sub vpt2 vpt Rec fill
	2 copy vpt Square fill Bsquare} bind def
/S14 {BL [] 0 setdash 2 copy exch vpt sub exch vpt sub vpt2 vpt Rec fill
	2 copy exch vpt sub exch vpt Square fill Bsquare} bind def
/S15 {BL [] 0 setdash 2 copy Bsquare fill Bsquare} bind def
/D0 {gsave translate 45 rotate 0 0 S0 stroke grestore} bind def
/D1 {gsave translate 45 rotate 0 0 S1 stroke grestore} bind def
/D2 {gsave translate 45 rotate 0 0 S2 stroke grestore} bind def
/D3 {gsave translate 45 rotate 0 0 S3 stroke grestore} bind def
/D4 {gsave translate 45 rotate 0 0 S4 stroke grestore} bind def
/D5 {gsave translate 45 rotate 0 0 S5 stroke grestore} bind def
/D6 {gsave translate 45 rotate 0 0 S6 stroke grestore} bind def
/D7 {gsave translate 45 rotate 0 0 S7 stroke grestore} bind def
/D8 {gsave translate 45 rotate 0 0 S8 stroke grestore} bind def
/D9 {gsave translate 45 rotate 0 0 S9 stroke grestore} bind def
/D10 {gsave translate 45 rotate 0 0 S10 stroke grestore} bind def
/D11 {gsave translate 45 rotate 0 0 S11 stroke grestore} bind def
/D12 {gsave translate 45 rotate 0 0 S12 stroke grestore} bind def
/D13 {gsave translate 45 rotate 0 0 S13 stroke grestore} bind def
/D14 {gsave translate 45 rotate 0 0 S14 stroke grestore} bind def
/D15 {gsave translate 45 rotate 0 0 S15 stroke grestore} bind def
/DiaE {stroke [] 0 setdash vpt add M
  hpt neg vpt neg V hpt vpt neg V
  hpt vpt V hpt neg vpt V closepath stroke} def
/BoxE {stroke [] 0 setdash exch hpt sub exch vpt add M
  0 vpt2 neg V hpt2 0 V 0 vpt2 V
  hpt2 neg 0 V closepath stroke} def
/TriUE {stroke [] 0 setdash vpt 1.12 mul add M
  hpt neg vpt -1.62 mul V
  hpt 2 mul 0 V
  hpt neg vpt 1.62 mul V closepath stroke} def
/TriDE {stroke [] 0 setdash vpt 1.12 mul sub M
  hpt neg vpt 1.62 mul V
  hpt 2 mul 0 V
  hpt neg vpt -1.62 mul V closepath stroke} def
/PentE {stroke [] 0 setdash gsave
  translate 0 hpt M 4 {72 rotate 0 hpt L} repeat
  closepath stroke grestore} def
/CircE {stroke [] 0 setdash 
  hpt 0 360 arc stroke} def
/Opaque {gsave closepath 1 setgray fill grestore 0 setgray closepath} def
/DiaW {stroke [] 0 setdash vpt add M
  hpt neg vpt neg V hpt vpt neg V
  hpt vpt V hpt neg vpt V Opaque stroke} def
/BoxW {stroke [] 0 setdash exch hpt sub exch vpt add M
  0 vpt2 neg V hpt2 0 V 0 vpt2 V
  hpt2 neg 0 V Opaque stroke} def
/TriUW {stroke [] 0 setdash vpt 1.12 mul add M
  hpt neg vpt -1.62 mul V
  hpt 2 mul 0 V
  hpt neg vpt 1.62 mul V Opaque stroke} def
/TriDW {stroke [] 0 setdash vpt 1.12 mul sub M
  hpt neg vpt 1.62 mul V
  hpt 2 mul 0 V
  hpt neg vpt -1.62 mul V Opaque stroke} def
/PentW {stroke [] 0 setdash gsave
  translate 0 hpt M 4 {72 rotate 0 hpt L} repeat
  Opaque stroke grestore} def
/CircW {stroke [] 0 setdash 
  hpt 0 360 arc Opaque stroke} def
/BoxFill {gsave Rec 1 setgray fill grestore} def
/Density {
  /Fillden exch def
  currentrgbcolor
  /ColB exch def /ColG exch def /ColR exch def
  /ColR ColR Fillden mul Fillden sub 1 add def
  /ColG ColG Fillden mul Fillden sub 1 add def
  /ColB ColB Fillden mul Fillden sub 1 add def
  ColR ColG ColB setrgbcolor} def
/BoxColFill {gsave Rec PolyFill} def
/PolyFill {gsave Density fill grestore grestore} def
/h {rlineto rlineto rlineto gsave closepath fill grestore} bind def
%
% PostScript Level 1 Pattern Fill routine for rectangles
% Usage: x y w h s a XX PatternFill
%	x,y = lower left corner of box to be filled
%	w,h = width and height of box
%	  a = angle in degrees between lines and x-axis
%	 XX = 0/1 for no/yes cross-hatch
%
/PatternFill {gsave /PFa [ 9 2 roll ] def
  PFa 0 get PFa 2 get 2 div add PFa 1 get PFa 3 get 2 div add translate
  PFa 2 get -2 div PFa 3 get -2 div PFa 2 get PFa 3 get Rec
  gsave 1 setgray fill grestore clip
  currentlinewidth 0.5 mul setlinewidth
  /PFs PFa 2 get dup mul PFa 3 get dup mul add sqrt def
  0 0 M PFa 5 get rotate PFs -2 div dup translate
  0 1 PFs PFa 4 get div 1 add floor cvi
	{PFa 4 get mul 0 M 0 PFs V} for
  0 PFa 6 get ne {
	0 1 PFs PFa 4 get div 1 add floor cvi
	{PFa 4 get mul 0 2 1 roll M PFs 0 V} for
 } if
  stroke grestore} def
%
/languagelevel where
 {pop languagelevel} {1} ifelse
 2 lt
	{/InterpretLevel1 true def}
	{/InterpretLevel1 Level1 def}
 ifelse
%
% PostScript level 2 pattern fill definitions
%
/Level2PatternFill {
/Tile8x8 {/PaintType 2 /PatternType 1 /TilingType 1 /BBox [0 0 8 8] /XStep 8 /YStep 8}
	bind def
/KeepColor {currentrgbcolor [/Pattern /DeviceRGB] setcolorspace} bind def
<< Tile8x8
 /PaintProc {0.5 setlinewidth pop 0 0 M 8 8 L 0 8 M 8 0 L stroke} 
>> matrix makepattern
/Pat1 exch def
<< Tile8x8
 /PaintProc {0.5 setlinewidth pop 0 0 M 8 8 L 0 8 M 8 0 L stroke
	0 4 M 4 8 L 8 4 L 4 0 L 0 4 L stroke}
>> matrix makepattern
/Pat2 exch def
<< Tile8x8
 /PaintProc {0.5 setlinewidth pop 0 0 M 0 8 L
	8 8 L 8 0 L 0 0 L fill}
>> matrix makepattern
/Pat3 exch def
<< Tile8x8
 /PaintProc {0.5 setlinewidth pop -4 8 M 8 -4 L
	0 12 M 12 0 L stroke}
>> matrix makepattern
/Pat4 exch def
<< Tile8x8
 /PaintProc {0.5 setlinewidth pop -4 0 M 8 12 L
	0 -4 M 12 8 L stroke}
>> matrix makepattern
/Pat5 exch def
<< Tile8x8
 /PaintProc {0.5 setlinewidth pop -2 8 M 4 -4 L
	0 12 M 8 -4 L 4 12 M 10 0 L stroke}
>> matrix makepattern
/Pat6 exch def
<< Tile8x8
 /PaintProc {0.5 setlinewidth pop -2 0 M 4 12 L
	0 -4 M 8 12 L 4 -4 M 10 8 L stroke}
>> matrix makepattern
/Pat7 exch def
<< Tile8x8
 /PaintProc {0.5 setlinewidth pop 8 -2 M -4 4 L
	12 0 M -4 8 L 12 4 M 0 10 L stroke}
>> matrix makepattern
/Pat8 exch def
<< Tile8x8
 /PaintProc {0.5 setlinewidth pop 0 -2 M 12 4 L
	-4 0 M 12 8 L -4 4 M 8 10 L stroke}
>> matrix makepattern
/Pat9 exch def
/Pattern1 {PatternBgnd KeepColor Pat1 setpattern} bind def
/Pattern2 {PatternBgnd KeepColor Pat2 setpattern} bind def
/Pattern3 {PatternBgnd KeepColor Pat3 setpattern} bind def
/Pattern4 {PatternBgnd KeepColor Landscape {Pat5} {Pat4} ifelse setpattern} bind def
/Pattern5 {PatternBgnd KeepColor Landscape {Pat4} {Pat5} ifelse setpattern} bind def
/Pattern6 {PatternBgnd KeepColor Landscape {Pat9} {Pat6} ifelse setpattern} bind def
/Pattern7 {PatternBgnd KeepColor Landscape {Pat8} {Pat7} ifelse setpattern} bind def
} def
%
%
%End of PostScript Level 2 code
%
/PatternBgnd {
  TransparentPatterns {} {gsave 1 setgray fill grestore} ifelse
} def
%
% Substitute for Level 2 pattern fill codes with
% grayscale if Level 2 support is not selected.
%
/Level1PatternFill {
/Pattern1 {0.250 Density} bind def
/Pattern2 {0.500 Density} bind def
/Pattern3 {0.750 Density} bind def
/Pattern4 {0.125 Density} bind def
/Pattern5 {0.375 Density} bind def
/Pattern6 {0.625 Density} bind def
/Pattern7 {0.875 Density} bind def
} def
%
% Now test for support of Level 2 code
%
Level1 {Level1PatternFill} {Level2PatternFill} ifelse
%
/Symbol-Oblique /Symbol findfont [1 0 .167 1 0 0] makefont
dup length dict begin {1 index /FID eq {pop pop} {def} ifelse} forall
currentdict end definefont pop
end
%%EndProlog
gnudict begin
gsave
50 50 translate
0.050 0.050 scale
0 setgray
newpath
(Helvetica) findfont 140 scalefont setfont
1.000 UL
LTb
770 448 M
63 0 V
6157 0 R
-63 0 V
686 448 M
( 0) Rshow
1.000 UL
LTb
770 1143 M
63 0 V
6157 0 R
-63 0 V
-6241 0 R
( 2) Rshow
1.000 UL
LTb
770 1839 M
63 0 V
6157 0 R
-63 0 V
-6241 0 R
( 4) Rshow
1.000 UL
LTb
770 2534 M
63 0 V
6157 0 R
-63 0 V
-6241 0 R
( 6) Rshow
1.000 UL
LTb
770 3229 M
63 0 V
6157 0 R
-63 0 V
-6241 0 R
( 8) Rshow
1.000 UL
LTb
770 3925 M
63 0 V
6157 0 R
-63 0 V
-6241 0 R
( 10) Rshow
1.000 UL
LTb
770 4620 M
63 0 V
6157 0 R
-63 0 V
-6241 0 R
( 12) Rshow
1.000 UL
LTb
770 448 M
0 63 V
0 4109 R
0 -63 V
770 308 M
( 0) Cshow
1.000 UL
LTb
1659 448 M
0 63 V
0 4109 R
0 -63 V
0 -4249 R
( 2000) Cshow
1.000 UL
LTb
2547 448 M
0 63 V
0 4109 R
0 -63 V
0 -4249 R
( 4000) Cshow
1.000 UL
LTb
3436 448 M
0 63 V
0 4109 R
0 -63 V
0 -4249 R
( 6000) Cshow
1.000 UL
LTb
4324 448 M
0 63 V
0 4109 R
0 -63 V
0 -4249 R
( 8000) Cshow
1.000 UL
LTb
5213 448 M
0 63 V
0 4109 R
0 -63 V
0 -4249 R
( 10000) Cshow
1.000 UL
LTb
6101 448 M
0 63 V
0 4109 R
0 -63 V
0 -4249 R
( 12000) Cshow
1.000 UL
LTb
6990 448 M
0 63 V
0 4109 R
0 -63 V
0 -4249 R
( 14000) Cshow
1.000 UL
LTb
1.000 UL
LTb
770 4620 N
770 448 L
6220 0 V
0 4172 V
-6220 0 V
Z stroke
LCb setrgbcolor
280 2534 M
currentpoint gsave translate 90 rotate 0 0 M
(time) Cshow
grestore
LTb
LCb setrgbcolor
3880 98 M
(n) Cshow
LTb
3880 4830 M
(insert) Cshow
1.000 UP
1.000 UL
LTb
1.000 UP
1.000 UL
LT0
LTb
6339 4487 M
(bin/adtTest.array) Rshow
LT0
6423 4487 M
399 0 V
774 448 M
1 0 V
2 0 V
1 0 V
3 0 V
3 0 V
3 0 V
5 0 V
6 0 V
7 0 V
9 0 V
12 0 V
14 0 V
18 0 V
24 0 V
28 0 V
37 3 V
46 4 V
57 0 V
73 0 V
91 7 V
115 -7 V
145 24 V
182 -10 V
230 10 V
289 11 V
364 10 V
457 14 V
577 31 V
726 63 V
914 45 V
1150 87 V
774 448 Pls
775 448 Pls
777 448 Pls
778 448 Pls
781 448 Pls
784 448 Pls
787 448 Pls
792 448 Pls
798 448 Pls
805 448 Pls
814 448 Pls
826 448 Pls
840 448 Pls
858 448 Pls
882 448 Pls
910 448 Pls
947 451 Pls
993 455 Pls
1050 455 Pls
1123 455 Pls
1214 462 Pls
1329 455 Pls
1474 479 Pls
1656 469 Pls
1886 479 Pls
2175 490 Pls
2539 500 Pls
2996 514 Pls
3573 545 Pls
4299 608 Pls
5213 653 Pls
6363 740 Pls
6622 4487 Pls
1.000 UP
1.000 UL
LT1
LTb
6339 4347 M
(ref/adtTest.array) Rshow
LT1
6423 4347 M
399 0 V
774 448 M
1 0 V
2 0 V
1 0 V
3 0 V
3 0 V
3 0 V
5 0 V
6 0 V
7 0 V
9 0 V
12 0 V
14 0 V
18 0 V
24 3 V
28 0 V
37 0 V
46 0 V
57 0 V
73 7 V
91 4 V
115 -7 V
145 10 V
182 4 V
230 3 V
289 -7 V
364 32 V
457 27 V
577 42 V
726 28 V
914 63 V
1150 87 V
774 448 Crs
775 448 Crs
777 448 Crs
778 448 Crs
781 448 Crs
784 448 Crs
787 448 Crs
792 448 Crs
798 448 Crs
805 448 Crs
814 448 Crs
826 448 Crs
840 448 Crs
858 448 Crs
882 451 Crs
910 451 Crs
947 451 Crs
993 451 Crs
1050 451 Crs
1123 458 Crs
1214 462 Crs
1329 455 Crs
1474 465 Crs
1656 469 Crs
1886 472 Crs
2175 465 Crs
2539 497 Crs
2996 524 Crs
3573 566 Crs
4299 594 Crs
5213 657 Crs
6363 744 Crs
6622 4347 Crs
1.000 UP
1.000 UL
LT2
LTb
6339 4207 M
(bin/adtTest.dlist) Rshow
LT2
6423 4207 M
399 0 V
774 448 M
1 0 V
2 0 V
1 0 V
3 0 V
3 0 V
3 0 V
5 0 V
6 0 V
7 3 V
9 -3 V
12 0 V
14 0 V
18 0 V
24 0 V
28 3 V
37 0 V
46 -3 V
57 7 V
73 0 V
91 3 V
115 7 V
145 4 V
182 14 V
230 14 V
289 27 V
364 49 V
457 122 V
577 275 V
726 531 V
914 880 V
6363 3942 L
774 448 Star
775 448 Star
777 448 Star
778 448 Star
781 448 Star
784 448 Star
787 448 Star
792 448 Star
798 448 Star
805 451 Star
814 448 Star
826 448 Star
840 448 Star
858 448 Star
882 448 Star
910 451 Star
947 451 Star
993 448 Star
1050 455 Star
1123 455 Star
1214 458 Star
1329 465 Star
1474 469 Star
1656 483 Star
1886 497 Star
2175 524 Star
2539 573 Star
2996 695 Star
3573 970 Star
4299 1501 Star
5213 2381 Star
6363 3942 Star
6622 4207 Star
1.000 UP
1.000 UL
LT3
LTb
6339 4067 M
(ref/adtTest.dlist) Rshow
LT3
6423 4067 M
399 0 V
774 448 M
1 0 V
2 0 V
1 0 V
3 0 V
3 0 V
3 0 V
5 0 V
6 0 V
7 3 V
9 -3 V
12 0 V
14 3 V
18 -3 V
24 3 V
28 -3 V
37 0 V
46 0 V
57 3 V
73 7 V
91 4 V
115 3 V
145 11 V
182 0 V
230 24 V
289 28 V
364 17 V
457 77 V
577 83 V
726 125 V
914 223 V
1150 341 V
774 448 Box
775 448 Box
777 448 Box
778 448 Box
781 448 Box
784 448 Box
787 448 Box
792 448 Box
798 448 Box
805 451 Box
814 448 Box
826 448 Box
840 451 Box
858 448 Box
882 451 Box
910 448 Box
947 448 Box
993 448 Box
1050 451 Box
1123 458 Box
1214 462 Box
1329 465 Box
1474 476 Box
1656 476 Box
1886 500 Box
2175 528 Box
2539 545 Box
2996 622 Box
3573 705 Box
4299 830 Box
5213 1053 Box
6363 1394 Box
6622 4067 Box
1.000 UP
1.000 UL
LT4
LTb
6339 3927 M
(bin/adtTest.bst) Rshow
LT4
6423 3927 M
399 0 V
774 448 M
1 0 V
2 0 V
1 0 V
3 0 V
3 0 V
3 0 V
5 0 V
6 0 V
7 0 V
9 3 V
12 -3 V
14 0 V
18 0 V
24 0 V
28 0 V
37 0 V
46 0 V
57 7 V
73 0 V
91 3 V
115 7 V
145 0 V
182 -3 V
230 7 V
289 7 V
364 17 V
457 18 V
577 13 V
726 -17 V
914 17 V
1150 28 V
774 448 BoxF
775 448 BoxF
777 448 BoxF
778 448 BoxF
781 448 BoxF
784 448 BoxF
787 448 BoxF
792 448 BoxF
798 448 BoxF
805 448 BoxF
814 451 BoxF
826 448 BoxF
840 448 BoxF
858 448 BoxF
882 448 BoxF
910 448 BoxF
947 448 BoxF
993 448 BoxF
1050 455 BoxF
1123 455 BoxF
1214 458 BoxF
1329 465 BoxF
1474 465 BoxF
1656 462 BoxF
1886 469 BoxF
2175 476 BoxF
2539 493 BoxF
2996 511 BoxF
3573 524 BoxF
4299 507 BoxF
5213 524 BoxF
6363 552 BoxF
6622 3927 BoxF
1.000 UP
1.000 UL
LT5
LTb
6339 3787 M
(ref/adtTest.bst) Rshow
LT5
6423 3787 M
399 0 V
774 448 M
1 0 V
2 0 V
1 0 V
3 0 V
3 0 V
3 0 V
5 0 V
6 0 V
7 0 V
9 0 V
12 0 V
14 0 V
18 0 V
24 0 V
28 3 V
37 4 V
46 -7 V
57 0 V
73 7 V
91 -4 V
115 4 V
145 7 V
182 7 V
230 7 V
289 3 V
364 4 V
457 3 V
577 25 V
726 17 V
914 17 V
1150 25 V
774 448 Circle
775 448 Circle
777 448 Circle
778 448 Circle
781 448 Circle
784 448 Circle
787 448 Circle
792 448 Circle
798 448 Circle
805 448 Circle
814 448 Circle
826 448 Circle
840 448 Circle
858 448 Circle
882 448 Circle
910 451 Circle
947 455 Circle
993 448 Circle
1050 448 Circle
1123 455 Circle
1214 451 Circle
1329 455 Circle
1474 462 Circle
1656 469 Circle
1886 476 Circle
2175 479 Circle
2539 483 Circle
2996 486 Circle
3573 511 Circle
4299 528 Circle
5213 545 Circle
6363 570 Circle
6622 3787 Circle
1.000 UL
LTb
770 4620 N
770 448 L
6220 0 V
0 4172 V
-6220 0 V
Z stroke
1.000 UP
1.000 UL
LTb
stroke
grestore
end
showpage
%%Trailer
%%DocumentFonts: Helvetica
